input TEX;

verbatimtex
%&latex
 \documentclass{article}
 \usepackage[latin1]{inputenc}
 \usepackage[frenchb]{babel}
 \usepackage{amsmath}
 \begin{document}
etex


beginfig(1)
  u:=1cm;
  pair O,A,B,C,D,E,F,G,H;
  path p[];
   O:=(0,0);A:=(u,0.8u); B:=(2.7u,1.5u); C:=(5*u,3u);
  D:=(xpart C,0); E:=(xpart B,0); F:=(xpart C,ypart B);
  G:=(xpart B,ypart C); H:=(xpart A,0);

  p0=H--A{dir 3}..B{dir 20}--E--cycle;
  fill p0 withcolor 0.7white;
  p1= E--G--C--D--cycle;
  p2= E--B{dir 20}..C{dir 7}--D--cycle;
  fill p2 withcolor 0.9white;
  draw E--B--F--D dashed evenly;
  N:=16;
  pickup pencircle scaled 1.2bp;
%  for i=1 upto N:
%    draw (xpart B+0.5pt,i*(ypart C)/(N+1))--(xpart C+0.5pt,i*(ypart C)/(N+1)) dashed withdots scaled 0.4;
%    endfor;
  pickup pencircle scaled 0.8bp;
  draw H--A{dir 3}..B{dir 20}..C{dir 7}..(xpart C+0.4*u,ypart C+0.05*u);
  drawarrow O--(xpart C+0.5*u,0);
  drawarrow O--(0,ypart C+0.5*u);
  pickup pencircle scaled 0.5bp;
  draw C--(0,ypart C) dashed evenly scaled 0.5;
  draw B--(0,ypart B) dashed evenly scaled 0.5;
  label(btex $\mathcal{A}(x)$ etex, (2u,0.6u));
  label(btex \tiny $\mathcal{A}(x+h)-\mathcal{A}(x)$ etex, (3.9u,1.2u));
  label.bot (btex $x$ etex, (xpart B,0));
   label.bot (btex $0$ etex, (0,0));
  label.bot (btex $x+h$ etex, (xpart C,0));
  label.bot (btex $a$ etex, (xpart H,0));
  label.lft (btex $f(x)$ etex, (0,ypart B));
  label.lft (btex $f(x+h)$ etex, (0,ypart C));
  label.urt(btex $\mathcal{C}_f$ etex, (3.4u,2.3u));
endfig;

end
