input TEX;

verbatimtex
%&latex
 \documentclass{article}
 \usepackage[latin1]{inputenc}
 \usepackage[frenchb]{babel}
 \usepackage{amsmath}
 \begin{document}
etex
  

outputtemplate := "exo_deuxdes_baton.mps";
beginfig(1)
  u:=.8cm;
  v:=36cm;


% Cadre général

  draw (u,0) -- (13u,0);
  draw (u,0) -- (u, 7/36*v);
  
  % On trace les batons
 
  for i=2 upto 7: 
    fill (i*u-.1u, 0)--(i*u-.1u, (i-1)/36*v)--(i*u+.1u, (i-1)/36*v)--(i*u+.1u, 0)--cycle withcolor blue  withpen pencircle scaled 1.3bp; 
	label.bot( TEX("$" & decimal(i) & "$") scaled .7, (i*u,0)); 
  endfor;
  for i=8 upto 12: 
    fill (i*u-.1u, 0)--(i*u-.1u, (13-i)/36*v)--(i*u+.1u, (13-i)/36*v)--(i*u+.1u, 0)--cycle withcolor blue  withpen pencircle scaled 1.3bp; 
	label.bot( TEX("$" & decimal(i) & "$") scaled .7, (i*u,0)); endfor;
  
  for i=1 upto 6: draw (0.9u, i/36*v)--(1.1u,i/36*v); label.lft(TEX("$" & decimal(i) & "\over 36$") scaled .7, (1u,i/36*v)); endfor;

endfig;

verbatimtex
%&latex
 \end{document}
etex
end
