input TEX;

verbatimtex
%&latex
 \documentclass{article}
 \usepackage[latin1]{inputenc}
 \usepackage[frenchb]{babel}
 \usepackage{amsmath}
 \begin{document}
etex
  
outputtemplate := "exo_deuxdes_repartition.mps";
beginfig(1)
  u:=.8cm;
  v:=6cm;

vardef func (expr X) = 
  if X <=7: 
   y:=(X-1)/36;
  elseif X<=12:
   y:=(13-X)/36;
  else: y:= 0;
   fi;
   y
enddef;


% Cadre général

  drawarrow (0,0) -- (14u,0);
  drawarrow (0,0) -- (0, 1.1*v);
  
  % On trace les batons
 
  numeric x;
  
  x:=0;

  draw (0,0)--(u,0) withcolor red  withpen pencircle scaled 1.3bp;
  for i=1 upto 13:
  	  x := x+(func (i)); 
  	  label.bot( TEX("$"&decimal i&"$") scaled.7, (i*u,0)); 
      if (i<12): draw (-.1u, x*v)--(0.1u,x*v);label.lft(TEX("$" & decimal(ceiling(x*36)) & "\over 36$") scaled .7, (0,x*v)); 
	  else: draw (-.1u, x*v)--(0.1u,x*v);label.ulft(TEX("$1$") scaled .7, (0,x*v));  fi;
      draw (i*u,x*v)--((i+1)*u,x*v) withcolor red  withpen pencircle scaled 1.3bp;; 
	  if (i>1) and (i<13): draw (i*u,0)--(i*u,x*v) dashed evenly; fi;
	  if (i>1)and(i<13): dotlabel.bot("", (i*u,x*v)) withcolor red; fi;
  endfor; 

endfig;

verbatimtex
%&latex
 \end{document}
etex
end
