%!PS
%%BoundingBox: -20 -91 137 125 
%%HiResBoundingBox: -19.14186 -90.95898 136.31348 124.97485 
%%Creator: MetaPost 2.02
%%CreationDate: 2023.03.26:2214
%%Pages: 1
%*Font: cmmi10 6.97382 9.96265 75:8
%*Font: cmr7 4.88167 6.97385 30:fc
%*Font: cmr10 6.97382 9.96265 31:f8
%*Font: cmsy10 9.96265 9.96265 43:8
%*Font: cmmi7 6.97385 6.97385 66:8
%%BeginProlog
%%EndProlog
%%Page: 1 1
 0 0 0 setrgbcolor 0 2 dtransform truncate idtransform setlinewidth pop
 [] 0 setdash 1 setlinecap 1 setlinejoin 10 setmiterlimit
newpath -18.14186 110.66092 moveto
-18.14186 110.66092 lineto
-17.3813 110.4014 -16.62523 110.12872 -15.87401 109.84291 curveto
-15.11275 109.55328 -14.35667 109.25017 -13.60614 108.93425 curveto
-12.84453 108.61382 -12.08847 108.2806 -11.33827 107.93492 curveto
-10.57632 107.58405 -9.82025 107.22002 -9.07042 106.84459 curveto
-8.30846 106.46292 -7.55205 106.06914 -6.80255 105.66359 curveto
-6.04025 105.25113 -5.28418 104.82655 -4.53468 104.39125 curveto
-3.77205 103.94798 -3.01598 103.49365 -2.26683 103.0286 curveto
-1.50418 102.55489 -0.74777 102.0701 0.00104 101.57494 curveto
0.76402 101.07042 1.5201 100.55519 2.2689 100.02992 curveto
3.03189 99.49461 3.78796 98.94963 4.53676 98.39459 curveto
5.3001 97.82884 6.05617 97.2534 6.80463 96.66827 curveto
7.56796 96.07172 8.32368 95.46582 9.0725 94.85094 curveto
9.83583 94.22392 10.5919 93.58794 11.34035 92.94293 curveto
12.10403 92.28514 12.85976 91.61868 13.60822 90.94394 curveto
14.3719 90.25569 15.12762 89.55879 15.87608 88.85393 curveto
16.63976 88.13524 17.3955 87.40823 18.14394 86.67361 curveto
18.90762 85.92412 19.66335 85.16667 20.4118 84.40195 curveto
21.17549 83.62166 21.93121 82.83409 22.67967 82.03928 curveto
23.44334 81.22853 24.19908 80.41052 24.94753 79.58594 curveto
25.71121 78.74475 26.46693 77.89697 27.2154 77.04228 curveto
27.97908 76.1703 28.7348 75.29173 29.48326 74.40695 curveto
30.2466 73.5045 31.00267 72.59584 31.75111 71.68094 curveto
32.51445 70.74805 33.27019 69.80893 34.01898 68.86394 curveto
34.78232 67.90059 35.53804 66.93172 36.28685 65.95695 curveto
37.05019 64.96317 37.80591 63.96315 38.5547 62.95828 curveto
39.31804 61.9337 40.07378 60.90392 40.82257 59.86896 curveto
41.5859 58.81392 42.34163 57.7537 43.09044 56.68861 curveto
43.85342 55.60347 44.6095 54.51314 45.35829 53.41797 curveto
46.12129 52.30203 46.87701 51.18124 47.62616 50.05597 curveto
48.38914 48.90958 49.14488 47.75835 49.89403 46.60297 curveto
50.65701 45.42612 51.41273 44.24443 52.16188 43.05894 curveto
52.92453 41.852 53.6806 40.64056 54.42975 39.42497 curveto
55.1924 38.18723 55.94847 36.94534 56.69762 35.69963 curveto
57.46025 34.43144 58.21632 33.15945 58.96547 31.8833 curveto
59.72812 30.58466 60.48384 29.28221 61.23334 27.97597 curveto
61.99599 26.64722 62.75171 25.31467 63.5012 23.9783 curveto
64.26384 22.61877 65.01958 21.25577 65.76906 19.8893 curveto
66.53136 18.49966 67.28743 17.1062 68.03693 15.70964 curveto
68.79922 14.2892 69.55495 12.86565 70.3048 11.43863 curveto
71.06674 9.98808 71.82281 8.53407 72.57266 7.07695 curveto
73.33461 5.5963 74.09068 4.11253 74.84052 2.62566 curveto
75.60281 1.11421 76.35854 -0.40036 77.10838 -1.91803 curveto
77.87033 -3.45993 78.62605 -5.0046 79.37625 -6.55237 curveto
80.1382 -8.12437 80.89392 -9.6995 81.6441 -11.27737 curveto
82.40605 -12.87949 83.16179 -14.48471 83.91197 -16.09235 curveto
84.67392 -17.72525 85.42964 -19.36092 86.17984 -20.99936 curveto
86.94144 -22.66272 87.69751 -24.32849 88.4477 -25.99702 curveto
89.2093 -27.69084 89.96503 -29.38705 90.71556 -31.08571 curveto
91.47716 -32.80927 92.2329 -34.5356 92.98343 -36.264 curveto
93.74503 -38.01837 94.50075 -39.77515 95.25128 -41.53435 curveto
96.01254 -43.31915 96.76862 -45.10605 97.51915 -46.89536 curveto
98.28041 -48.71062 99.03613 -50.52795 99.78702 -52.3477 curveto
100.54826 -54.19272 101.30434 -56.03981 102.05487 -57.88933 curveto
102.81613 -59.76515 103.57185 -61.64304 104.32274 -63.523 curveto
105.084 -65.42926 105.83972 -67.33727 106.5906 -69.24768 curveto
107.35187 -71.18439 108.10759 -73.12283 108.85846 -75.06335 curveto
109.61937 -77.02983 110.37544 -78.99838 111.12633 -80.96866 curveto
111.88759 -82.96593 112.64331 -84.96494 113.3942 -86.966 curveto stroke
-9.22078 96.47266 moveto
(u) cmmi10 6.97382 fshow
-5.22856 95.42657 moveto
(0) cmr7 4.88167 fshow
 0 3 dtransform truncate idtransform setlinewidth pop
newpath 0 101.57529 moveto 0 0 rlineto stroke
 0 0.5 dtransform truncate idtransform setlinewidth pop
 [3 3 ] 0 setdash
newpath 22.67725 0 moveto
22.67725 82.04204 lineto
0 82.04204 lineto stroke
-10.12079 81.06375 moveto
(u) cmmi10 6.97382 fshow
-6.12857 80.01767 moveto
(1) cmr7 4.88167 fshow
 0 3 dtransform truncate idtransform setlinewidth pop [] 0 setdash
newpath 0 82.04204 moveto 0 0 rlineto stroke
 0 0.5 dtransform truncate idtransform setlinewidth pop
 [3 3 ] 0 setdash
newpath 45.35449 0 moveto
45.35449 53.42316 lineto
0 53.42316 lineto stroke
-10.12079 52.44487 moveto
(u) cmmi10 6.97382 fshow
-6.12857 51.39879 moveto
(2) cmr7 4.88167 fshow
 0 3 dtransform truncate idtransform setlinewidth pop [] 0 setdash
newpath 0 53.42316 moveto 0 0 rlineto stroke
 0 0.5 dtransform truncate idtransform setlinewidth pop
 [3 3 ] 0 setdash
newpath 68.03174 0 moveto
68.03174 15.71933 lineto
0 15.71933 lineto stroke
-10.12079 14.74104 moveto
(u) cmmi10 6.97382 fshow
-6.12857 13.69496 moveto
(3) cmr7 4.88167 fshow
 0 3 dtransform truncate idtransform setlinewidth pop [] 0 setdash
newpath 0 15.71933 moveto 0 0 rlineto stroke
 0 0.5 dtransform truncate idtransform setlinewidth pop
 [3 3 ] 0 setdash
newpath 90.70898 0 moveto
90.70898 -31.07014 lineto
0 -31.07014 lineto stroke
-10.12079 -32.04843 moveto
(u) cmmi10 6.97382 fshow
-6.12857 -33.09451 moveto
(4) cmr7 4.88167 fshow
 0 3 dtransform truncate idtransform setlinewidth pop [] 0 setdash
newpath 0 -31.07014 moveto 0 0 rlineto stroke
 0 0.5 dtransform truncate idtransform setlinewidth pop
 [3 3 ] 0 setdash
newpath 113.38623 0 moveto
113.38623 -86.9449 lineto
0 -86.9449 lineto stroke
-10.12079 -87.92319 moveto
(u) cmmi10 6.97382 fshow
-6.12857 -88.96927 moveto
(5) cmr7 4.88167 fshow
 0 3 dtransform truncate idtransform setlinewidth pop [] 0 setdash
newpath 0 -86.9449 moveto 0 0 rlineto stroke
 0.5 0 dtransform exch truncate exch idtransform pop setlinewidth
newpath 22.67725 -2.26787 moveto
22.67725 2.26787 lineto stroke
20.93379 -7.49426 moveto
(1) cmr10 6.97382 fshow
newpath 45.35449 -2.26787 moveto
45.35449 2.26787 lineto stroke
43.61104 -7.49426 moveto
(2) cmr10 6.97382 fshow
newpath 68.03174 -2.26787 moveto
68.03174 2.26787 lineto stroke
66.28828 -7.49426 moveto
(3) cmr10 6.97382 fshow
newpath 90.70898 -2.26787 moveto
90.70898 2.26787 lineto stroke
92.80898 -6.59425 moveto
(4) cmr10 6.97382 fshow
newpath 113.38623 -2.26787 moveto
113.38623 2.26787 lineto stroke
115.48622 -6.59425 moveto
(5) cmr10 6.97382 fshow
 0 0.5 dtransform truncate idtransform setlinewidth pop
newpath -2.26787 -68.03174 moveto
2.26787 -68.03174 lineto stroke
newpath -2.26787 -45.35449 moveto
2.26787 -45.35449 lineto stroke
newpath -2.26787 -22.67725 moveto
2.26787 -22.67725 lineto stroke
newpath -2.26787 0 moveto
2.26787 0 lineto stroke
newpath -2.26787 22.67725 moveto
2.26787 22.67725 lineto stroke
newpath -2.26787 45.35449 moveto
2.26787 45.35449 lineto stroke
newpath -2.26787 68.03174 moveto
2.26787 68.03174 lineto stroke
newpath -2.26787 90.70898 moveto
2.26787 90.70898 lineto stroke
newpath -2.26787 113.38623 moveto
2.26787 113.38623 lineto stroke
newpath -11.33862 0 moveto
136.06348 0 lineto stroke
newpath 132.36888 -1.5304 moveto
136.06348 0 lineto
132.36888 1.5304 lineto
 closepath
gsave fill grestore stroke
 0.5 0 dtransform exch truncate exch idtransform pop setlinewidth
newpath 0 -90.70898 moveto
0 124.72485 lineto stroke
 0 0.5 dtransform truncate idtransform setlinewidth pop
newpath 1.53099 121.02882 moveto
0 124.72485 lineto
-1.53099 121.02882 lineto
 closepath
gsave fill grestore stroke
89.53732 -66.77948 moveto
(C) cmsy10 9.96265 fshow
94.78293 -68.27388 moveto
(f) cmmi7 6.97385 fshow
showpage
%%EOF
