%!PS
%%BoundingBox: -114 -78 116 125 
%%HiResBoundingBox: -113.63623 -77.8525 115.74342 124.97485 
%%Creator: MetaPost 2.02
%%CreationDate: 2023.03.26:2214
%%Pages: 1
%*Font: cmmi10 9.96265 9.96265 75:8
%*Font: cmr7 6.97385 6.97385 30:f
%*Font: cmsy10 9.96265 9.96265 43:8
%*Font: cmmi7 6.97385 6.97385 66:8
%%BeginProlog
%%EndProlog
%%Page: 1 1
 0 0 0 setrgbcolor 0 2 dtransform truncate idtransform setlinewidth pop
 [] 0 setdash 1 setlinecap 1 setlinejoin 10 setmiterlimit
newpath -108.85085 24.35028 moveto
-108.85085 24.35028 lineto
-108.10551 26.23268 -107.34978 28.11057 -106.583 29.98396 curveto
-105.83765 31.80545 -105.08192 33.62312 -104.31512 35.43562 curveto
-103.57013 37.19655 -102.8144 38.95299 -102.04726 40.70457 curveto
-101.30226 42.40565 -100.54689 44.10187 -99.7794 45.79291 curveto
-99.03474 47.43378 -98.27902 49.06909 -97.51154 50.69923 curveto
-96.76723 52.27988 -96.01186 53.855 -95.24367 55.42424 curveto
-94.49971 56.94434 -93.74399 58.4582 -92.97581 59.96619 curveto
-92.23186 61.42642 -91.47647 62.88043 -90.70795 64.32751 curveto
-89.96434 65.72754 -89.20895 67.12099 -88.44008 68.50719 curveto
-87.69682 69.847 -86.94144 71.18024 -86.17223 72.50517 curveto
-85.4293 73.78479 -84.67392 75.05678 -83.90436 76.32048 curveto
-83.16179 77.54022 -82.4064 78.75201 -81.63649 79.9548 curveto
-80.89427 81.11469 -80.13889 82.26591 -79.36864 83.40746 curveto
-78.62675 84.50748 -77.87102 85.59816 -77.10077 86.67845 curveto
-76.35924 87.71861 -75.6035 88.74873 -74.8329 89.76744 curveto
-74.09137 90.74739 -73.336 91.7173 -72.56505 92.67442 curveto
-71.82385 93.5952 -71.06813 94.50421 -70.29718 95.40007 curveto
-69.55598 96.26134 -68.80061 97.1098 -68.02931 97.94408 curveto
-67.28813 98.74582 -66.53275 99.53372 -65.76146 100.30605 curveto
-65.02026 101.04828 -64.26488 101.77563 -63.49359 102.48637 curveto
-62.7524 103.16943 -61.99702 103.83623 -61.22572 104.48503 curveto
-60.48454 105.10857 -59.7288 105.71515 -58.95787 106.30202 curveto
-58.21599 106.86673 -57.4606 107.41277 -56.69 107.93733 curveto
-55.94777 108.44289 -55.1917 108.92836 -54.42213 109.39066 curveto
-53.67921 109.83702 -52.92314 110.26195 -52.15428 110.66231 curveto
-51.40997 111.04951 -50.65425 111.41388 -49.88641 111.75229 curveto
-49.14107 112.08067 -48.385 112.38448 -47.61855 112.66061 curveto
-46.87148 112.92982 -46.1154 113.17273 -45.3507 113.38727 curveto
-44.60188 113.5973 -43.84547 113.77966 -43.08282 113.93227 curveto
-42.33194 114.08244 -41.57553 114.20424 -40.81496 114.29524 curveto
-40.06166 114.38556 -39.30524 114.4461 -38.5471 114.47656 curveto
-37.79137 114.50667 -37.03496 114.50667 -36.27924 114.47621 curveto
-35.52109 114.44577 -34.76468 114.38487 -34.01137 114.2942 curveto
-33.25081 114.20285 -32.49438 114.0807 -31.74352 113.93019 curveto
-30.98087 113.77724 -30.22444 113.59488 -29.47565 113.38484 curveto
-28.71092 113.1703 -27.95485 112.92705 -27.20778 112.6575 curveto
-26.44133 112.38103 -25.68526 112.07721 -24.93993 111.74849 curveto
-24.17209 111.41006 -23.41637 111.04535 -22.67206 110.6578 curveto
-21.90318 110.25711 -21.14711 109.83183 -20.40419 109.38512 curveto
-19.63463 108.92249 -18.87856 108.43666 -18.13632 107.9311 curveto
-17.36572 107.40619 -16.61035 106.86015 -15.86847 106.29544 curveto
-15.09752 105.70857 -14.3418 105.10164 -13.6006 104.47775 curveto
-12.82932 103.82861 -12.07393 103.16147 -11.33273 102.47806 curveto
-10.56145 101.76698 -9.80606 101.03929 -9.06488 100.29706 curveto
-8.29358 99.52438 -7.53821 98.73613 -6.79701 97.93439 curveto
-6.02573 97.09976 -5.27034 96.25096 -4.52914 95.3897 curveto
-3.75821 94.49348 -3.00247 93.58412 -2.26129 92.66335 curveto
-1.49034 91.70589 -0.73495 90.73563 0.00658 89.75534 curveto
0.77718 88.73663 1.5329 87.70616 2.27444 86.666 curveto
3.0447 85.58571 3.80042 84.49434 4.5423 83.39432 curveto
5.31256 82.25243 6.06793 81.10085 6.81017 79.94096 curveto
7.58008 78.73817 8.33545 77.5257 9.07803 76.30594 curveto
9.8476 75.04225 10.60297 73.76956 11.34589 72.48996 curveto
12.11511 71.16467 12.87048 69.83142 13.61375 68.49126 curveto
14.38263 67.10507 15.138 65.71127 15.88162 64.31091 curveto
16.65015 62.86348 17.40552 61.40912 18.14948 59.94888 curveto
18.91766 58.4409 19.67339 56.92633 20.41734 55.40623 curveto
21.18552 53.83665 21.9409 52.2612 22.68521 50.68054 curveto
23.4527 49.05042 24.20842 47.4144 24.95306 45.77353 curveto
25.72055 44.08215 26.47594 42.38593 27.22093 40.68451 curveto
27.98807 38.93257 28.74379 37.17613 29.4888 35.41486 curveto
30.25558 33.60202 31.0113 31.784 31.75665 29.96216 curveto
32.5231 28.08842 33.27882 26.21053 34.02452 24.32849 curveto
34.79097 22.39384 35.54669 20.45506 36.29239 18.51247 curveto
37.05849 16.51692 37.81421 14.51758 38.56024 12.51477 curveto
39.326 10.45901 40.08173 8.39981 40.82811 6.33679 curveto
41.59387 4.2198 42.34924 2.09935 43.09598 -0.02457 curveto
43.86139 -2.20212 44.61711 -4.38313 45.36383 -6.56725 curveto
46.12924 -8.80571 46.88463 -11.04727 47.6317 -13.29195 curveto
48.39676 -15.5906 49.15248 -17.89238 49.89957 -20.19693 curveto
50.66463 -22.55682 51.42035 -24.91951 52.16742 -27.28494 curveto
52.93214 -29.70541 53.68787 -32.12898 54.43529 -34.55498 curveto
55.19966 -37.03635 55.95538 -39.52013 56.70316 -42.00633 curveto
57.46753 -44.5479 58.22325 -47.09189 58.97101 -49.6383 curveto
59.73505 -52.24078 60.4911 -54.84602 61.23888 -57.45334 curveto
62.0029 -60.11671 62.75862 -62.78215 63.50674 -65.45003 curveto
64.27077 -68.17395 65.02649 -70.89996 65.7746 -73.62839 curveto stroke
 0 0 1 setrgbcolor 0 1.5 dtransform truncate idtransform setlinewidth pop
newpath -77.1025 -77.1025 moveto
104.31548 104.31548 lineto stroke
 0 0 0 setrgbcolor
17.59094 -7.2895 moveto
(u) cmmi10 9.96265 fshow
23.29414 -8.7839 moveto
(0) cmr7 6.97385 fshow
 0 3 dtransform truncate idtransform setlinewidth pop
newpath 22.67725 0 moveto 0 0 rlineto stroke
52.79749 -6.3895 moveto
(u) cmmi10 9.96265 fshow
58.50069 -7.8839 moveto
(1) cmr7 6.97385 fshow
newpath 50.6975 0 moveto 0 0 rlineto stroke
-34.94292 -6.3895 moveto
(u) cmmi10 9.96265 fshow
-29.23972 -7.8839 moveto
(2) cmr7 6.97385 fshow
newpath -22.67032 0 moveto 0 0 rlineto stroke
105.57082 -7.2895 moveto
(u) cmmi10 9.96265 fshow
111.27402 -8.7839 moveto
(3) cmr7 6.97385 fshow
newpath 110.65712 0 moveto 0 0 rlineto stroke
 0 0.5 dtransform truncate idtransform setlinewidth pop
 [3 3 ] 0 setdash
newpath 22.67725 0 moveto
22.67725 50.6975 lineto
50.6975 50.6975 lineto
50.6975 0 lineto
50.6975 -22.67032 lineto
-22.67032 -22.67032 lineto
-22.67032 0 lineto
-22.67032 110.65712 lineto
110.65712 110.65712 lineto
110.65712 0 lineto stroke
 0.5 0 dtransform exch truncate exch idtransform pop setlinewidth [] 0 setdash
newpath -113.38623 -2.26787 moveto
-113.38623 2.26787 lineto stroke
newpath -90.70898 -2.26787 moveto
-90.70898 2.26787 lineto stroke
newpath -68.03174 -2.26787 moveto
-68.03174 2.26787 lineto stroke
newpath -45.35449 -2.26787 moveto
-45.35449 2.26787 lineto stroke
newpath -22.67725 -2.26787 moveto
-22.67725 2.26787 lineto stroke
newpath 0 -2.26787 moveto
0 2.26787 lineto stroke
newpath 22.67725 -2.26787 moveto
22.67725 2.26787 lineto stroke
newpath 45.35449 -2.26787 moveto
45.35449 2.26787 lineto stroke
newpath 68.03174 -2.26787 moveto
68.03174 2.26787 lineto stroke
newpath 90.70898 -2.26787 moveto
90.70898 2.26787 lineto stroke
newpath 113.38623 -2.26787 moveto
113.38623 2.26787 lineto stroke
 0 0.5 dtransform truncate idtransform setlinewidth pop
newpath -2.26787 -22.67725 moveto
2.26787 -22.67725 lineto stroke
newpath -2.26787 0 moveto
2.26787 0 lineto stroke
newpath -2.26787 22.67725 moveto
2.26787 22.67725 lineto stroke
newpath -2.26787 45.35449 moveto
2.26787 45.35449 lineto stroke
newpath -2.26787 68.03174 moveto
2.26787 68.03174 lineto stroke
newpath -2.26787 90.70898 moveto
2.26787 90.70898 lineto stroke
newpath -2.26787 113.38623 moveto
2.26787 113.38623 lineto stroke
newpath -113.38623 0 moveto
113.38623 0 lineto stroke
newpath 109.69066 -1.53079 moveto
113.38623 0 lineto
109.69066 1.53079 lineto
 closepath
gsave fill grestore stroke
 0.5 0 dtransform exch truncate exch idtransform pop setlinewidth
newpath 0 -45.35449 moveto
0 124.72485 lineto stroke
 0 0.5 dtransform truncate idtransform setlinewidth pop
newpath 1.53046 121.03009 moveto
0 124.72485 lineto
-1.53046 121.03009 lineto
 closepath
gsave fill grestore stroke
65.59634 -60.46295 moveto
(C) cmsy10 9.96265 fshow
70.84195 -61.95735 moveto
(f) cmmi7 6.97385 fshow
showpage
%%EOF
