input TEX;

verbatimtex
%&latex
 \documentclass{article}
 \usepackage[latin1]{inputenc}
 \usepackage[frenchb]{babel}
 \usepackage{amsmath}
 \begin{document}
etex


outputtemplate := "unicite.mps";
beginfig(1);

  u := 1.5cm;
  pair A, B, C, D, E, F, G, H;
 
  A:=(0, .5u);
  B:=(u, .5u);
  C:=(2u, .5u);
  D:=(3u, .5u);
  E:=(0.5u, 0);
  F:=(2.5u, 0);
  
  draw A--B withpen pencircle scaled 1.5bp;
  draw C--D withpen pencircle scaled 1.5bp;
  drawdblarrow E--F;  
  dotlabel.top(btex $\ell$ etex, 1/2[A,B]); % withcolor red;
  dotlabel.top(btex $\ell'$ etex, 1/2[C,D]); % withcolor red;
  label.bot(btex $d$ etex, 1/2[E,F]);
    
endfig;

end;
