%!PS-Adobe-3.0 EPSF-3.0
%%Creator: EpsGraphics 1.0.0 by Thomas Abeel, http://www.sourceforge.net/epsgraphics/
%%Title: GeoGebra, https://www.geogebra.org/
%%CreationDate: Tue Aug 16 21:21:24 CEST 2016
%%BoundingBox: 0 0 663 462
%%DocumentData: Clean7Bit
%%LanguageLevel: 2
%%DocumentProcessColors: Black
%%ColorUsage: Color
%%Origin: 0 0
%%Pages: 1
%%Page: 1 1
%%EndComments

gsave
0.0 462.0 translate
0.0 0.0 0.0 setrgbcolor
0.0 0.0 0.0 setrgbcolor
gsave
newpath
0.0 -0.0 moveto
663.3969131378575 -0.0 lineto
663.3969131378575 -462.9663564025899 lineto
0.0 -462.9663564025899 lineto
0.0 -0.0 lineto
closepath
clip
newpath
1.0 1.0 1.0 setrgbcolor
newpath
0.0 -0.0 moveto
663.3969131378575 -0.0 lineto
663.3969131378575 -462.9663564025899 lineto
0.0 -462.9663564025899 lineto
0.0 -0.0 lineto
closepath
fill
newpath
0.0 0.0 0.0 setrgbcolor
1.0 setlinewidth
10.0 setmiterlimit
0 setlinejoin
0 setlinecap
[ ] 0 setdash
newpath
315.1339956990409 -1.8819770585471134 moveto
315.1339956990409 -462.9663564025899 lineto
stroke
newpath
1.0 setlinewidth
10.0 setmiterlimit
0 setlinejoin
0 setlinecap
[ ] 0 setdash
newpath
315.1339956990409 -0.9409885292735567 moveto
311.3700415819467 -4.704942646367783 lineto
stroke
newpath
1.0 setlinewidth
10.0 setmiterlimit
0 setlinejoin
0 setlinecap
[ ] 0 setdash
newpath
315.1339956990409 -0.9409885292735567 moveto
318.89794981613517 -4.704942646367783 lineto
stroke
newpath
1.0 setlinewidth
10.0 setmiterlimit
0 setlinejoin
0 setlinecap
[ ] 0 setdash
newpath
0.0 -230.7686680548612 moveto
661.5149360793104 -230.7686680548612 lineto
stroke
newpath
1.0 setlinewidth
10.0 setmiterlimit
0 setlinejoin
0 setlinecap
[ ] 0 setdash
newpath
662.4559246085839 -230.7686680548612 moveto
658.6919704914897 -227.00471393776698 lineto
stroke
newpath
1.0 setlinewidth
10.0 setmiterlimit
0 setlinejoin
0 setlinecap
[ ] 0 setdash
newpath
662.4559246085839 -230.7686680548612 moveto
658.6919704914897 -234.53262217195544 lineto
stroke
newpath
1.0 setlinewidth
10.0 setmiterlimit
0 setlinejoin
0 setlinecap
[ ] 0 setdash
newpath
31.66942876990704 -230.7686680548612 moveto
31.66942876990704 -233.59163364268187 lineto
stroke
newpath
1.0 setlinewidth
10.0 setmiterlimit
0 setlinejoin
0 setlinecap
[ ] 0 setdash
newpath
102.53557050219051 -230.7686680548612 moveto
102.53557050219051 -233.59163364268187 lineto
stroke
newpath
1.0 setlinewidth
10.0 setmiterlimit
0 setlinejoin
0 setlinecap
[ ] 0 setdash
newpath
173.401712234474 -230.7686680548612 moveto
173.401712234474 -233.59163364268187 lineto
stroke
newpath
1.0 setlinewidth
10.0 setmiterlimit
0 setlinejoin
0 setlinecap
[ ] 0 setdash
newpath
244.26785396675743 -230.7686680548612 moveto
244.26785396675743 -233.59163364268187 lineto
stroke
newpath
1.0 setlinewidth
10.0 setmiterlimit
0 setlinejoin
0 setlinecap
[ ] 0 setdash
newpath
315.1339956990409 -230.7686680548612 moveto
315.1339956990409 -233.59163364268187 lineto
stroke
newpath
1.0 setlinewidth
10.0 setmiterlimit
0 setlinejoin
0 setlinecap
[ ] 0 setdash
newpath
386.0001374313244 -230.7686680548612 moveto
386.0001374313244 -233.59163364268187 lineto
stroke
newpath
1.0 setlinewidth
10.0 setmiterlimit
0 setlinejoin
0 setlinecap
[ ] 0 setdash
newpath
456.8662791636079 -230.7686680548612 moveto
456.8662791636079 -233.59163364268187 lineto
stroke
newpath
1.0 setlinewidth
10.0 setmiterlimit
0 setlinejoin
0 setlinecap
[ ] 0 setdash
newpath
527.7324208958913 -230.7686680548612 moveto
527.7324208958913 -233.59163364268187 lineto
stroke
newpath
1.0 setlinewidth
10.0 setmiterlimit
0 setlinejoin
0 setlinecap
[ ] 0 setdash
newpath
598.5985626281747 -230.7686680548612 moveto
598.5985626281747 -233.59163364268187 lineto
stroke
newpath
1.0 setlinewidth
10.0 setmiterlimit
0 setlinejoin
0 setlinecap
[ ] 0 setdash
newpath
312.31103011122025 -443.367093251712 moveto
315.1339956990409 -443.367093251712 lineto
stroke
newpath
1.0 setlinewidth
10.0 setmiterlimit
0 setlinejoin
0 setlinecap
[ ] 0 setdash
newpath
312.31103011122025 -372.5009515194284 moveto
315.1339956990409 -372.5009515194284 lineto
stroke
newpath
1.0 setlinewidth
10.0 setmiterlimit
0 setlinejoin
0 setlinecap
[ ] 0 setdash
newpath
312.31103011122025 -301.6348097871448 moveto
315.1339956990409 -301.6348097871448 lineto
stroke
newpath
1.0 setlinewidth
10.0 setmiterlimit
0 setlinejoin
0 setlinecap
[ ] 0 setdash
newpath
312.31103011122025 -159.90252632257761 moveto
315.1339956990409 -159.90252632257761 lineto
stroke
newpath
1.0 setlinewidth
10.0 setmiterlimit
0 setlinejoin
0 setlinecap
[ ] 0 setdash
newpath
312.31103011122025 -89.03638459029402 moveto
315.1339956990409 -89.03638459029402 lineto
stroke
newpath
1.0 setlinewidth
10.0 setmiterlimit
0 setlinejoin
0 setlinecap
[ ] 0 setdash
newpath
312.31103011122025 -18.170242858010432 moveto
315.1339956990409 -18.170242858010432 lineto
stroke
newpath
0.0 0.39215687 0.0 setrgbcolor
1.5 setlinewidth
10.0 setmiterlimit
1 setlinejoin
1 setlinecap
[ ] 0 setdash
newpath
0.0 -103.13098450889956 moveto
5.182788383889512 -103.59798251641234 lineto
10.365576767779023 -104.08842052291864 lineto
15.548365151668534 -104.60388512559382 lineto
20.731153535558047 -105.14610650506803 lineto
25.913941919447556 -105.71695124625347 lineto
31.09673030333707 -106.31845105503533 lineto
36.27951868722658 -106.95281711661728 lineto
41.46230707111609 -107.62246881221245 lineto
46.6450954550056 -108.3300552565616 lineto
51.82788383889511 -109.07846965627861 lineto
57.01067222278463 -109.87087084736878 lineto
62.19346060667414 -110.71074790778331 lineto
67.37624899056365 -111.60192733659224 lineto
72.55903737445315 -112.54861612902073 lineto
77.74182575834267 -113.55548074734926 lineto
82.92461414223219 -114.62765430008638 lineto
88.10740252612169 -115.77083705038702 lineto
93.2901909100112 -116.99134667026165 lineto
98.47297929390072 -118.296211569822 lineto
103.65576767779022 -119.69326422652652 lineto
108.83855606167974 -121.19124169359885 lineto
114.02134444556926 -122.79992200430976 lineto
119.20413282945876 -124.53027493460479 lineto
124.38692121334827 -126.39463430324989 lineto
129.5697095972378 -128.40688463032268 lineto
134.7524979811273 -130.5827052290856 lineto
139.93528636501682 -132.93984301454998 lineto
145.1180747489063 -135.49845710376752 lineto
150.30086313279583 -138.2814346994308 lineto
155.48365151668534 -141.3149367070015 lineto
160.66643990057486 -144.62879976838377 lineto
165.84922828446437 -148.25725417919818 lineto
171.0320166683539 -152.23959873101913 lineto
176.21480505224338 -156.62099042037624 lineto
181.3975934361329 -161.4535500413562 lineto
186.5803818200224 -166.79732419474973 lineto
191.76317020391193 -172.72167804756307 lineto
196.94595858780144 -179.30654450907454 lineto
202.12874697169096 -186.6439174987644 lineto
207.31153535558045 -194.83915855575327 lineto
212.49432373946996 -204.01184398118536 lineto
215.08571793141473 -209.0060211388704 lineto
217.67711212335948 -214.29576483822865 lineto
220.26850631530425 -219.89966913665467 lineto
222.859900507249 -225.8367875585983 lineto
225.45129469919374 -232.12623106189133 lineto
228.0426888911385 -238.78678036241956 lineto
230.63408308308325 -245.83612494181236 lineto
233.22547727502803 -253.28994411333218 lineto
235.81687146697277 -261.16058605409046 lineto
238.40826565891751 -269.4550863533716 lineto
240.9996598508623 -278.17272709390176 lineto
243.59105404280703 -287.3013323987151 lineto
244.88675113877943 -292.01170249967373 lineto
246.1824482347518 -296.81261632721925 lineto
247.47814533072417 -301.69683727523056 lineto
248.77384242669655 -306.6552908693653 lineto
250.06953952266892 -311.6764904332407 lineto
251.36523661864132 -316.7461924881422 lineto
252.6609337146137 -321.84705215273186 lineto
253.95663081058606 -326.95784779239256 lineto
255.25232790655843 -332.05296411879084 lineto
256.54802500253084 -337.1016742726029 lineto
257.8437220985032 -342.06716345602206 lineto
259.1394191944756 -346.90563871533914 lineto
261.7308133864203 -355.98421954450566 lineto
264.32220757836507 -363.7991798214987 lineto
266.91360177030987 -369.6096863530136 lineto
267.561450318296 -370.63823207301454 lineto
268.2092988662822 -371.4617119028928 lineto
268.8571474142684 -372.0601390257422 lineto
269.5049959622546 -372.4121482234911 lineto
270.1528445102408 -372.4947661433739 lineto
270.80069305822695 -372.2836697481502 lineto
271.44854160621315 -371.7528704325041 lineto
272.09639015419936 -370.87480017311697 lineto
273.39208725017176 -367.9587925065961 lineto
274.6877843461441 -363.28400238573306 lineto
275.9834814421165 -356.57618541188987 lineto
277.27917853808884 -347.54421177214624 lineto
277.92702708607504 -342.06351643627056 lineto
278.57487563406124 -335.8906339815713 lineto
279.22272418204744 -328.99032902824445 lineto
279.87057273003364 -321.32992198198116 lineto
280.5184212780198 -312.88038026822403 lineto
281.166269826006 -303.61786903347894 lineto
281.4901940999991 -298.67621470355397 lineto
281.8141183739922 -293.5257325969909 lineto
282.1380426479853 -288.1657909465887 lineto
282.4619669219784 -282.596590769184 lineto
282.7858911959715 -276.8190797155785 lineto
283.1098154699646 -270.83523923744804 lineto
283.4337397439577 -264.64808458734325 lineto
283.75766401795073 -258.2618371188347 lineto
284.08158829194383 -251.68201043658615 lineto
284.40551256593693 -244.9156975632639 lineto
284.72943683993003 -237.97149914780954 lineto
285.05336111392313 -230.85992549911327 lineto
285.37728538791623 -223.59341094435942 lineto
285.70120966190933 -216.18660099593595 lineto
286.02513393590243 -208.65651029323476 lineto
286.34905820989553 -201.02275233617942 lineto
286.67298248388863 -193.3077548604072 lineto
286.9969067578817 -185.53701828748774 lineto
287.3208310318748 -177.73934545845077 lineto
287.6447553058679 -169.9470713673137 lineto
287.968679579861 -162.1963359696457 lineto
288.2926038538541 -154.52732827444083 lineto
288.6165281278472 -146.98453043599127 lineto
288.9404524018403 -139.61693312906934 lineto
289.2643766758334 -132.4782796408008 lineto
289.5883009498265 -125.62716637908301 lineto
289.9122252238196 -119.12730850197649 lineto
290.2361494978126 -113.04751120101382 lineto
290.5600737718057 -107.4617343137543 lineto
290.8839980457988 -102.44902053205665 lineto
291.531846593785 -94.48296020642155 lineto
292.8275436897574 -89.39029915710006 lineto
292.98950582675394 -90.00793774619966 lineto
293.1514679637505 -90.9453510474491 lineto
293.47539223774356 -93.82701355158554 lineto
293.79931651173666 -98.12668471765225 lineto
294.12324078572976 -103.92783678708803 lineto
294.44716505972286 -111.30235481653054 lineto
294.77108933371596 -120.30634404093674 lineto
294.9330514707125 -125.43139033848479 lineto
295.09501360770906 -130.97514752770172 lineto
295.2569757447056 -136.93783816294243 lineto
295.41893788170216 -143.3176674510221 lineto
295.5809000186987 -150.11052890513395 lineto
295.74286215569526 -157.30987511973976 lineto
295.9048242926918 -164.90634445358765 lineto
296.06678642968836 -172.88763180460262 lineto
296.2287485666849 -181.23815836794054 lineto
296.39071070368146 -189.9388131857697 lineto
296.552672840678 -198.9667377720884 lineto
296.7146349776745 -208.29495279574274 lineto
296.7956160461728 -213.06206707803207 lineto
296.8765971146711 -217.89217142193522 lineto
296.95757818316935 -222.78064244020814 lineto
297.0385592516676 -227.72251214531528 lineto
297.1195403201659 -232.712568457848 lineto
297.2005213886642 -237.74522598141516 lineto
297.28150245716245 -242.81461215271614 lineto
297.3624835256607 -247.9144667331223 lineto
297.44346459415897 -253.03824231709552 lineto
297.5244456626573 -258.1790468988062 lineto
297.60542673115555 -263.32958643875116 lineto
297.6864077996538 -268.4823084472088 lineto
297.76738886815207 -273.62917225071135 lineto
297.8483699366504 -278.76187872557216 lineto
297.92935100514865 -283.87175543112227 lineto
298.0103320736469 -288.9497278930193 lineto
298.09131314214517 -293.9863770366295 lineto
298.1722942106435 -298.97188175364556 lineto
298.25327527914175 -303.89616248554165 lineto
298.33425634764 -308.74870892342756 lineto
298.41523741613827 -313.51863744143066 lineto
298.49621848463653 -318.1948059634597 lineto
298.6581806216331 -327.21937069693644 lineto
298.82014275862963 -335.72646065937107 lineto
298.9821048956262 -343.61550999903267 lineto
299.14406703262273 -350.7819325274565 lineto
299.3060291696193 -357.1178970700996 lineto
300.60172626559165 -364.9377966179371 lineto
300.62197153271626 -364.30387566506505 lineto
300.6422167998408 -363.64336305636687 lineto
300.6827073340899 -362.24218955451005 lineto
300.76368840258823 -359.1169233609868 lineto
300.92565053958475 -351.56138967009787 lineto
301.08761267658133 -342.25410911415105 lineto
301.1685937450796 -336.94562777394344 lineto
301.24957481357785 -331.20556328534565 lineto
301.3305558820761 -325.0401758869861 lineto
301.41153695057443 -318.4581093028429 lineto
301.4925180190727 -311.4703620255525 lineto
301.57349908757095 -304.0905170499375 lineto
301.6544801560692 -296.3348280230794 lineto
301.7354612245675 -288.22239154446464 lineto
301.8164422930658 -279.7752333160569 lineto
301.89742336156405 -271.0184230090617 lineto
301.9784044300623 -261.98021784738046 lineto
302.0593854985606 -252.69214875768375 lineto
302.09987603280973 -247.9651804093521 lineto
302.1403665670589 -243.18907780279326 lineto
302.180857101308 -238.36872277546996 lineto
302.22134763555715 -233.50924125671798 lineto
302.26183816980625 -228.61593147601883 lineto
302.3023287040554 -223.6943501130727 lineto
302.34281923830457 -218.7502548644164 lineto
302.3833097725537 -213.789590085078 lineto
302.42380030680283 -208.81855858030417 lineto
302.46429084105193 -203.84354981383285 lineto
302.5047813753011 -198.87116862458407 lineto
302.54527190955025 -193.90824958500556 lineto
302.58576244379935 -188.9617995676908 lineto
302.6262529780485 -184.0390551787609 lineto
302.66674351229767 -179.14741096613724 lineto
302.7072340465468 -174.2945055696144 lineto
302.74772458079593 -169.48813557078705 lineto
302.78821511504503 -164.73625549305032 lineto
302.86919618354335 -155.42877392026682 lineto
302.9501772520416 -146.43914304133907 lineto
303.0311583205399 -137.83672802327325 lineto
303.11213938903813 -129.69280369302425 lineto
303.1931204575364 -122.08013814547671 lineto
303.2741015260347 -115.07247584300775 lineto
303.355082594533 -108.74392020663149 lineto
303.43606366303123 -103.16836646135262 lineto
303.5170447315295 -98.41869756881957 lineto
303.8409690055226 -89.05440002297797 lineto
304.0029311425192 -91.00038658566787 lineto
304.1648932795157 -97.85793238615997 lineto
304.24587434801396 -103.19418994569556 lineto
304.3268554165123 -109.81401179927424 lineto
304.40783648501053 -117.70949367771017 lineto
304.4888175535088 -126.85756171981954 lineto
304.52930808775795 -131.88964490956758 lineto
304.56979862200706 -137.21868740050024 lineto
304.6102891562562 -142.83696440275017 lineto
304.6507796905054 -148.7355737421207 lineto
304.6912702247545 -154.90439278504957 lineto
304.73176075900363 -161.33207843860882 lineto
304.77225129325274 -168.00596664208646 lineto
304.8127418275019 -174.91215851705945 lineto
304.85323236175105 -182.0353911422842 lineto
304.89372289600016 -189.3591093454241 lineto
304.9342134302493 -196.8654082696675 lineto
304.9747039644984 -204.53501901538246 lineto
305.0151944987476 -212.34735171515288 lineto
305.05568503299673 -220.28048117543324 lineto
305.09617556724584 -228.31116123489394 lineto
305.136666101495 -236.414810406076 lineto
305.1771566357441 -244.56561238380914 lineto
305.21764716999326 -252.73651604521208 lineto
305.2581377042424 -260.89920673300134 lineto
305.2986282384915 -269.0243359890191 lineto
305.3391187727407 -277.0813779707782 lineto
305.37960930698983 -285.0388879016809 lineto
305.42009984123894 -292.8644733543279 lineto
305.4605903754881 -300.5249091172821 lineto
305.5010809097372 -307.98625206183266 lineto
305.54157144398636 -315.21401344214024 lineto
305.5820619782355 -322.17321632861956 lineto
305.6225525124846 -328.82853919139365 lineto
305.6630430467338 -335.14454563382174 lineto
305.7035335809829 -341.0857992592632 lineto
305.74402411523204 -346.617007254532 lineto
305.7845146494812 -351.7033362734975 lineto
305.86549571797946 -360.40509668392843 lineto
305.9464767864777 -366.92817918484633 lineto
306.1084389234743 -372.49950439738177 lineto
306.18941999197256 -371.16033023130075 lineto
306.2704010604708 -366.88602308252166 lineto
306.3513821289691 -359.6066003751827 lineto
306.39187266321824 -354.8360975233605 lineto
306.43236319746734 -349.3187309731329 lineto
306.4728537317165 -343.0660448342646 lineto
306.51334426596566 -336.0947522208925 lineto
306.55383480021476 -328.4270224184352 lineto
306.5943253344639 -320.09079676719375 lineto
306.6348158687131 -311.1197886623515 lineto
306.6550611358376 -306.40841347720936 lineto
306.6753064029622 -301.5537707208836 lineto
306.69555167008673 -296.5617185983294 lineto
306.71579693721134 -291.4386034982482 lineto
306.7360422043359 -286.19108769294195 lineto
306.75628747146044 -280.826292921768 lineto
306.77653273858505 -275.3516568076842 lineto
306.7967780057096 -269.7750190073217 lineto
306.81702327283415 -264.10462121098516 lineto
306.83726853995876 -258.3490784259616 lineto
306.8575138070833 -252.51737897652046 lineto
306.87775907420786 -246.61882707053186 lineto
306.89800434133247 -240.6631433078846 lineto
306.918249608457 -234.66037853041365 lineto
306.93849487558157 -228.62092818024533 lineto
306.9587401427061 -222.55551794145202 lineto
306.9789854098307 -216.47517502336117 lineto
306.9992306769553 -210.39125687724618 lineto
307.01947594407983 -204.3154081212901 lineto
307.03972121120444 -198.25954618223992 lineto
307.059966478329 -192.23581822037048 lineto
307.08021174545354 -186.2566729212115 lineto
307.10045701257815 -180.33471691209306 lineto
307.1207022797027 -174.48278655387287 lineto
307.14094754682725 -168.71390486589985 lineto
307.16119281395186 -163.04120973428672 lineto
307.1814380810764 -157.47798262860107 lineto
307.20168334820096 -152.03760552682874 lineto
307.2219286153255 -146.73353219868306 lineto
307.2421738824501 -141.5792451305682 lineto
307.26241914957467 -136.58824116723392 lineto
307.2826644166992 -131.77397407839345 lineto
307.3231549509484 -122.72916407779212 lineto
307.36364548519754 -114.55060023907646 lineto
307.40413601944664 -107.34125343684491 lineto
307.4446265536958 -101.19993780467995 lineto
307.4851170879449 -96.21994669232761 lineto
307.5660981564432 -90.0806196910114 lineto
307.6470792249415 -89.50229425183171 lineto
307.66732449206603 -90.27748696586599 lineto
307.6875697591906 -91.42998110320937 lineto
307.72806029343974 -94.8780300822602 lineto
307.7685508276889 -99.85838733242225 lineto
307.809041361938 -106.36528079881319 lineto
307.84953189618716 -114.37396387300096 lineto
307.8697771633117 -118.92825875860919 lineto
307.8900224304363 -123.8395236503291 lineto
307.91026769756087 -129.0988276572731 lineto
307.9305129646854 -134.69586866656041 lineto
307.95075823180997 -140.61895898497164 lineto
307.9710034989346 -146.85500380143046 lineto
307.99124876605913 -153.3894724703127 lineto
308.0114940331837 -160.2064559448283 lineto
308.0317393003083 -167.2885949852938 lineto
308.05198456743284 -174.61712323416893 lineto
308.0722298345574 -182.1718959327475 lineto
308.092475101682 -189.93138992115735 lineto
308.11272036880655 -197.87268928001492 lineto
308.1329656359311 -205.97160019718908 lineto
308.1532109030557 -214.20263660945562 lineto
308.17345617018026 -222.53909199422472 lineto
308.1937014373048 -230.95306808623178 lineto
308.21394670442936 -239.4155610276104 lineto
308.23419197155397 -247.89654751796525 lineto
308.2544372386785 -256.36498481437195 lineto
308.27468250580307 -264.7889973898684 lineto
308.2949277729277 -273.1359630835277 lineto
308.31517304005223 -281.3725705338399 lineto
308.3354183071768 -289.4649340454759 lineto
308.3556635743014 -297.3787658894332 lineto
308.37590884142594 -305.079433736418 lineto
308.3961541085505 -312.5322191070634 lineto
308.4163993756751 -319.70234608862063 lineto
308.43664464279965 -326.5552397851777 lineto
308.4568899099242 -333.0565837510413 lineto
308.47713517704875 -339.17254972426406 lineto
308.49738044417336 -344.8700560768639 lineto
308.5176257112979 -350.11676781482333 lineto
308.53787097842246 -354.8814986117632 lineto
308.5783615126716 -362.8464461656238 lineto
308.6188520469208 -368.54355048455017 lineto
308.69983311541904 -372.4042798501689 lineto
308.7200783825436 -371.69842358644996 lineto
308.74032364966814 -370.30055250405314 lineto
308.7808141839173 -365.40734323177236 lineto
308.82130471816646 -357.7171569769868 lineto
308.841549985291 -352.8373296826919 lineto
308.86179525241556 -347.2832057680396 lineto
308.88204051954017 -341.07158449723954 lineto
308.9022857866647 -334.22354392145417 lineto
308.92253105378927 -326.7645844622531 lineto
308.9427763209138 -318.72445661146753 lineto
308.96302158803843 -310.13739066471817 lineto
308.983266855163 -301.0420392880328 lineto
308.9933751303798 -296.31696624130427 lineto
309.00351212228753 -291.48127650101003 lineto
309.0136491141953 -286.541000572251 lineto
309.02375738941214 -281.5023986936557 lineto
309.03386566462893 -276.3720757041444 lineto
309.0440026565367 -271.1567800260917 lineto
309.05413964844445 -265.8636333988551 lineto
309.06424792366124 -260.4998724285556 lineto
309.0743561988781 -255.07302088822397 lineto
309.08449319078585 -249.59088971780042 lineto
309.0946301826936 -244.06140472398903 lineto
309.1047384579104 -238.49275016371254 lineto
309.1148467331272 -232.89334002742126 lineto
309.12498372503495 -227.27173188902037 lineto
309.1351207169427 -221.63669869759715 lineto
309.14522899215956 -215.9971569856937 lineto
309.15533726737635 -210.36219558599788 lineto
309.1654742592841 -204.74107563134325 lineto
309.17561125119187 -199.14313004629076 lineto
309.18571952640866 -193.57789277223813 lineto
309.19582780162546 -188.05492646727396 lineto
309.2059647935332 -182.58392301459617 lineto
309.216101785441 -177.1746604474756 lineto
309.2262100606578 -171.83695987421945 lineto
309.2363183358746 -166.58068547817138 lineto
309.24645532778237 -161.41571580102058 lineto
309.2565923196901 -156.35197245949263 lineto
309.2667005949069 -151.39933399527666 lineto
309.2768088701238 -146.56766459171638 lineto
309.28694586203153 -141.86677099877352 lineto
309.3071911291561 -132.89617928595013 lineto
309.32743639628063 -124.56427549669769 lineto
309.34768166340524 -116.94566559412208 lineto
309.3679269305298 -110.11210540975166 lineto
309.38817219765434 -104.13183298047264 lineto
309.4286627319035 -94.98179066585999 lineto
309.50964380040176 -89.35450380182237 lineto
309.51975207561856 -89.93152263156352 lineto
309.5298890675263 -90.80289472278497 lineto
309.5501343346509 -93.4335589896132 lineto
309.5906248689 -102.24466538003507 lineto
309.61087013602463 -108.39993732400505 lineto
309.6311154031492 -115.68627357469187 lineto
309.65136067027373 -124.06262362237274 lineto
309.6614976621815 -128.64348144711605 lineto
309.6716059373983 -133.47606978478694 lineto
309.68171421261513 -138.55190285320774 lineto
309.6918512045229 -143.86176259458125 lineto
309.70198819643065 -149.39566995879997 lineto
309.71209647164744 -155.1429279784825 lineto
309.72220474686424 -161.09210741062802 lineto
309.732341738772 -167.2310467366163 lineto
309.7424787306798 -173.54689523724414 lineto
309.7525870058966 -180.02612735107093 lineto
309.7626952811134 -186.654499599382 lineto
309.77283227302115 -193.41715109460725 lineto
309.7829692649289 -200.29858918197544 lineto
309.7930775401457 -207.28273251455076 lineto
309.80318581536255 -214.3528823365418 lineto
309.8133228072703 -221.4918229917199 lineto
309.82345979917807 -228.6818219234193 lineto
309.83356807439486 -235.90465839122783 lineto
309.84367634961166 -243.14172397940544 lineto
309.8538133415194 -250.3739077301204 lineto
309.86395033342717 -257.58188331035876 lineto
309.874058608644 -264.74586492005125 lineto
309.8841668838608 -271.8459518923648 lineto
309.89430387576857 -278.86195639355674 lineto
309.9044408676763 -285.7735182897386 lineto
309.9145491428931 -292.5602200136402 lineto
309.9246574181099 -299.20161528130023 lineto
309.9347944100177 -305.67722909206645 lineto
309.9449314019255 -311.9667013120505 lineto
309.9550396771423 -318.0498441075096 lineto
309.9651479523591 -323.906613228156 lineto
309.97528494426683 -329.51730902399333 lineto
309.9854219361746 -334.8625190119347 lineto
309.9955302113914 -339.92331889263954 lineto
310.015775478516 -349.11843205370894 lineto
310.03602074564054 -356.9620803049678 lineto
310.0562660127651 -363.32518212056516 lineto
310.0765112798897 -368.0924112696183 lineto
310.15749234838796 -369.50541604814936 lineto
310.16760062360476 -367.59009891140136 lineto
310.1777376155125 -365.2031962757602 lineto
310.19798288263706 -359.0260924674903 lineto
310.21822814976167 -351.01413569053346 lineto
310.2283651416694 -346.34032193716286 lineto
310.2384734168862 -341.23572910274885 lineto
310.248610408794 -335.7134232816766 lineto
310.2587186840108 -329.7883371532439 lineto
310.26885567591853 -323.4772125482785 lineto
310.2789639511354 -316.7985430157565 lineto
310.28910094304314 -309.77274612294826 lineto
310.29920921825993 -302.4218762885087 lineto
310.3093462101677 -294.7698257993139 lineto
310.3194544853845 -286.84203764355146 lineto
310.32959147729224 -278.6656778108667 lineto
310.3396997525091 -270.2694917089074 lineto
310.34983674441685 -261.6836318631783 lineto
310.35994501963364 -252.9397440671136 lineto
310.3700820115414 -244.07070893185906 lineto
310.3801902867582 -235.11071367799872 lineto
310.39032727866595 -226.09499368533668 lineto
310.4004355538828 -217.0597894178604 lineto
310.41057254579056 -208.04223155697713 lineto
310.42068082100735 -199.08012562633147 lineto
310.4308178129151 -190.21192327511469 lineto
310.4409260881319 -181.47642075280942 lineto
310.45106308003966 -172.91274455084437 lineto
310.46117135525645 -164.5601073107211 lineto
310.47130834716427 -156.45760680717734 lineto
310.48141662238106 -148.6440967230777 lineto
310.4915536142888 -141.15798563257692 lineto
310.5016618895056 -134.0370072675923 lineto
310.51179888141337 -127.3180912926943 lineto
310.52190715663016 -121.03709049654256 lineto
310.532015431847 -115.22858695422184 lineto
310.54215242375477 -109.9257340854418 lineto
310.5623976908793 -100.96100057757361 lineto
310.5826429580039 -94.3708933199625 lineto
310.6028882251285 -90.34690956625414 lineto
310.62313349225303 -89.03769408801384 lineto
310.6433787593776 -90.5431881489441 lineto
310.6636240265022 -94.9093958879578 lineto
310.68386929362674 -102.12385426117967 lineto
310.69397756884354 -106.77840629409094 lineto
310.7041145607513 -112.11212242647684 lineto
310.71425155265905 -118.10562607111423 lineto
310.72435982787584 -124.73545569149138 lineto
310.7344681030927 -131.97404326428972 lineto
310.74460509500045 -139.78976453359306 lineto
310.7547420869082 -148.14695336923296 lineto
310.764850362125 -157.00605252941645 lineto
310.7749586373418 -166.32364237741675 lineto
310.78509562924955 -176.05262754006466 lineto
310.7952326211573 -186.1423661328578 lineto
310.80534089637416 -196.53888513514283 lineto
310.81544917159096 -207.185110123643 lineto
310.8255861634987 -218.02109500598593 lineto
310.83572315540647 -228.98430918761312 lineto
310.84583143062326 -240.00995345538047 lineto
310.85593970584006 -251.03131893619525 lineto
310.86607669774787 -261.9801029806166 lineto
310.87621368965563 -272.78682555487455 lineto
310.8863219648724 -283.3813317829614 lineto
310.8964302400892 -293.69303603850545 lineto
310.906567231997 -303.65158242866227 lineto
310.91670422390473 -313.1872468277888 lineto
310.9268124991215 -322.23139634449814 lineto
310.9369207743384 -330.71703493878795 lineto
310.94705776624613 -338.57940647255066 lineto
310.9571947581539 -345.75631059317374 lineto
310.9673030333707 -352.18890680088657 lineto
310.9774113085875 -357.8220303323612 lineto
310.98754830049523 -362.60482392791295 lineto
311.00779356761984 -369.44054504327784 lineto
311.04828410186894 -371.26379646881827 lineto
311.0583923770858 -369.1346835678966 lineto
311.06852936899355 -365.9607712998925 lineto
311.0786663609013 -361.7505023719471 lineto
311.0887746361181 -356.52050374812455 lineto
311.0988829113349 -350.2958738163211 lineto
311.10901990324265 -343.11023982164716 lineto
311.1191568951504 -335.0057291497364 lineto
311.12926517036726 -326.0330554768187 lineto
311.13937344558406 -316.25123160281015 lineto
311.1495104374918 -305.7274833012409 lineto
311.15964742939957 -294.5370195857268 lineto
311.16975570461636 -282.7624583761507 lineto
311.17986397983316 -270.4936541985165 lineto
311.1900009717409 -257.82692283429344 lineto
311.20013796364873 -244.8645531366698 lineto
311.2102462388655 -231.71414654666077 lineto
311.2203545140823 -218.4876694423071 lineto
311.2304915059901 -205.30074957974645 lineto
311.24062849789783 -192.2716710090301 lineto
311.2507367731146 -179.5203833482846 lineto
311.2608450483315 -167.167381832765 lineto
311.27098204023923 -155.33267351397978 lineto
311.281119032147 -144.13454244198022 lineto
311.2912273073638 -133.68830048930343 lineto
311.4531894443603 -132.70209753011835 lineto
311.46329771957716 -144.09996754606817 lineto
311.4734347114849 -156.54506348948638 lineto
311.48357170339267 -169.91136216210887 lineto
311.49367997860946 -184.05842458681127 lineto
311.50378825382626 -198.83254467524714 lineto
311.513925245734 -214.06817070405026 lineto
311.5240622376418 -229.58942729945554 lineto
311.5341705128586 -245.21193894717462 lineto
311.5442787880754 -260.74482580241744 lineto
311.5544157799832 -275.9929579501322 lineto
311.56455277189093 -290.7592240235914 lineto
311.5746610471077 -304.8470869898863 lineto
311.5847693223245 -318.0632260854955 lineto
311.59490631423233 -330.2202936186166 lineto
311.6050145894491 -341.1396143381163 lineto
311.6151515813569 -350.65402838593474 lineto
311.6252598565737 -358.61079168287256 lineto
311.63539684848143 -364.8741317140858 lineto
311.65564211560604 -371.8784485220583 lineto
311.66575039082284 -372.4560560439641 lineto
311.6758873827306 -371.0178667274639 lineto
311.69613264985514 -362.064576820942 lineto
311.70624092507194 -354.6097525652387 lineto
311.7163779169797 -345.26129227445983 lineto
311.7265149088875 -334.127199423294 lineto
311.7366231841043 -321.34629049582657 lineto
311.7467314593211 -307.0875632183385 lineto
311.75686845122885 -291.5484161244671 lineto
311.7670054431366 -274.9528968370576 lineto
311.7771137183534 -257.5490026992132 lineto
311.78722199357026 -239.6055650133263 lineto
311.797358985478 -221.40863073801796 lineto
311.80749597738577 -203.25726985125812 lineto
311.81760425260256 -185.4589376047761 lineto
311.82771252781936 -168.32450653652515 lineto
311.8378495197271 -152.16282465774603 lineto
311.8479865116349 -137.2750869815395 lineto
311.8580947868517 -123.94907782632941 lineto
311.8682030620685 -112.4531977441439 lineto
311.8783400539763 -103.03068428656007 lineto
311.88847704588403 -95.89385430816726 lineto
311.8985853211008 -91.2187052286672 lineto
311.9188305882254 -89.74630715406468 lineto
311.9289675801332 -93.07712024228424 lineto
311.93907585535 -99.11895407780197 lineto
311.9491841305668 -107.80367113215007 lineto
311.95932112247453 -119.00735888384979 lineto
311.9694581143823 -132.55035853510245 lineto
311.9795663895991 -148.1985716212279 lineto
311.98967466481594 -165.66592964608688 lineto
311.9998116567237 -184.61828519370573 lineto
312.00994864863145 -204.67848760340283 lineto
312.02005692384824 -225.4327580751811 lineto
312.03016519906504 -246.43840010125007 lineto
312.0403021909728 -267.23244319000355 lineto
312.05043918288055 -287.34147833267275 lineto
312.0605474580974 -306.2921970289071 lineto
312.0706557333142 -323.6226051545929 lineto
312.08079272522195 -338.89362450500033 lineto
312.0909297171297 -351.7009240714571 lineto
312.1010379923465 -361.68643543442244 lineto
312.14152852659566 -368.46785328718795 lineto
312.15163680181246 -361.31886179017494 lineto
312.1617737937202 -350.72062239226364 lineto
312.171910785628 -336.8830541043485 lineto
312.18201906084477 -320.1108410174816 lineto
312.1921273360616 -300.7996704163571 lineto
312.2022643279694 -279.4296279403914 lineto
312.21240131987713 -256.55554877556153 lineto
312.2225095950939 -232.79461204391168 lineto
312.2326178703107 -208.811350690874 lineto
312.2427548622185 -185.30029224558507 lineto
312.25289185412623 -162.9663883959987 lineto
312.2630001293431 -142.50406616283306 lineto
312.2731084045599 -124.57517348091581 lineto
312.28324539646763 -109.78647967181938 lineto
312.2933823883754 -98.66759948768792 lineto
312.3034906635922 -91.6499653142842 lineto
312.3237359307168 -91.04107095758096 lineto
312.33387292262455 -97.66382909280999 lineto
312.34398119784134 -108.79425338670609 lineto
312.35408947305814 -124.15153049757511 lineto
312.3642264649659 -143.2973647505156 lineto
312.37436345687365 -165.64345883541316 lineto
312.3844717320905 -190.46503218920822 lineto
312.3945800073073 -216.9203555249195 lineto
312.40471699921505 -244.07602151968607 lineto
312.4148539911228 -270.9373845071815 lineto
312.4249622663396 -296.4836953489997 lineto
312.4350705415564 -319.7063377086636 lineto
312.44520753346416 -339.64962011113 lineto
312.45534452537197 -355.4517259440931 lineto
312.46545280058876 -366.38508912547064 lineto
312.4856980677133 -371.6257990750201 lineto
312.4958350596211 -365.4596650426957 lineto
312.50594333483787 -353.5219068784119 lineto
312.5160516100547 -336.19508833909566 lineto
312.5261886019625 -314.1149108124584 lineto
312.53632559387023 -288.15525192100756 lineto
312.546433869087 -259.40122926592903 lineto
312.5565421443038 -229.11007393565856 lineto
312.5666791362116 -198.66114910527125 lineto
312.57681612811933 -169.4962193192914 lineto
312.5869244033362 -143.0523539432719 lineto
312.597032678553 -120.69014979474757 lineto
312.60716967046073 -103.62059691054084 lineto
312.6173066623685 -92.83445702452624 lineto
312.6274149375853 -89.03788074650505 lineto
312.6375232128021 -92.59873606680706 lineto
312.6476602047099 -103.50725213133423 lineto
312.65779719661765 -121.35474017356158 lineto
312.66790547183444 -145.333162764173 lineto
312.67801374705124 -174.2575041133165 lineto
312.688150738959 -206.61182446372624 lineto
312.69828773086675 -240.61835962833743 lineto
312.70839600608355 -274.32759089147254 lineto
312.7185042813004 -305.7257028664016 lineto
312.72864127320815 -332.85450439677805 lineto
312.7387782651159 -353.93666204590147 lineto
312.7488865403327 -367.49961261819635 lineto
312.76913180745726 -368.36168768072054 lineto
312.779268799365 -355.156403494293 lineto
312.78937707458186 -333.523115112326 lineto
312.79948534979866 -304.71751728028903 lineto
312.8096223417064 -270.5497666126462 lineto
312.8197593336142 -233.28940062909794 lineto
312.82986760883097 -195.52894783088192 lineto
312.83997588404776 -160.01243162237841 lineto
312.8501128759556 -129.43823022769192 lineto
312.86024986786333 -106.24975355109385 lineto
312.8703581430801 -92.42874043551534 lineto
312.8804664182969 -89.30888733823744 lineto
312.8906034102047 -97.42679434647954 lineto
312.90074040211243 -116.4267980635685 lineto
312.9108486773293 -145.03334615223818 lineto
312.9209569525461 -181.10017466789296 lineto
312.93109394445383 -221.73993520158697 lineto
312.9412309363616 -263.53083300897663 lineto
312.9513392115784 -302.7893637826833 lineto
312.9614474867952 -335.89040424804364 lineto
312.97158447870294 -359.60941461089647 lineto
312.98172147061075 -371.4552219307365 lineto
312.99182974582754 -369.96031714959656 lineto
313.00193802104434 -354.89404780571135 lineto
313.0120750129521 -327.3691282402763 lineto
313.02221200485985 -289.8186949613731 lineto
313.03232028007665 -245.8320471716965 lineto
313.0424285552935 -199.8520877126331 lineto
313.05256554720125 -156.7523405648128 lineto
313.062702539109 -121.32822030946295 lineto
313.0728108143258 -97.75165191292872 lineto
313.09305608145036 -96.66489028118554 lineto
313.1031930733581 -120.18222332344855 lineto
313.11330134857496 -157.23781058378358 lineto
313.12340962379176 -203.67957750846932 lineto
313.1335466156995 -253.9643843171444 lineto
313.1436836076073 -301.77442977419594 lineto
313.15379188282407 -340.7940089624508 lineto
313.16390015804086 -365.5590535100973 lineto
313.1740371499486 -372.2684499019431 lineto
313.18417414185643 -359.4380046825751 lineto
313.1942824170732 -328.28260617961325 lineto
313.204419408981 -282.73827892236505 lineto
313.2145276841978 -229.0779256001324 lineto
313.22466467610553 -175.1322575948981 lineto
313.2347729513223 -129.1910369519355 lineto
313.24490994323014 -98.72412829383646 lineto
313.25501821844693 -89.11038321199833 lineto
313.2651552103547 -102.58954565925391 lineto
313.2752634855715 -137.64401031026193 lineto
313.28540047747924 -188.97172118441637 lineto
313.29550875269604 -248.12806148045925 lineto
313.3056457446038 -304.80231766868457 lineto
313.31575401982064 -348.56919662246855 lineto
313.3258910117284 -370.8403401439688 lineto
313.3359992869452 -366.6601375914552 lineto
313.34613627885295 -335.96753727995366 lineto
313.35624455406975 -283.99868320515145 lineto
313.3663815459775 -220.63585022602408 lineto
313.37648982119435 -158.70587961722435 lineto
313.3866268131021 -111.46309649416142 lineto
313.3967350883189 -89.711337403652 lineto
313.40687208022666 -99.17454959149441 lineto
313.41698035544346 -138.76210903101176 lineto
313.4271173473512 -200.2614297838773 lineto
313.437225622568 -269.72335768029035 lineto
313.4473626144758 -330.420937138332 lineto
313.4574708896926 -366.8365155073121 lineto
313.4676078816004 -368.7729681286043 lineto
313.47771615681717 -334.50341679151944 lineto
313.4878531487249 -271.9633457249963 lineto
313.4979614239417 -197.3798103547773 lineto
313.5080984158495 -131.37732478455217 lineto
313.5182066910663 -93.35598084899331 lineto
313.5283149662831 -95.59802931627544 lineto
313.5384519581909 -138.88818966265774 lineto
313.54858895009863 -211.2515658632765 lineto
313.5586972253154 -290.66451637681575 lineto
313.5688055005323 -351.4057452051118 lineto
313.57894249244004 -372.40468188384233 lineto
313.5890794843478 -344.95385138107594 lineto
313.5991877595646 -276.92306285353317 lineto
313.6092960347814 -191.40928006290537 lineto
313.61943302668914 -119.50916152080227 lineto
313.63967829381374 -113.77031031239734 lineto
313.64978656903054 -185.62247915977528 lineto
313.6599235609383 -276.90942242532867 lineto
313.67006055284605 -349.7583260783001 lineto
313.68016882806285 -371.7966346695223 lineto
313.69027710327964 -331.1999348139181 lineto
313.7004140951874 -244.1149039192416 lineto
313.7105510870952 -149.71906297401037 lineto
313.720659362312 -93.40408130634601 lineto
313.8826214993085 -90.93758318254527 lineto
313.8927297745253 -164.9235601098163 lineto
313.90286676643314 -293.14411649086554 lineto
313.9130037583409 -370.67547762118556 lineto
313.9231120335577 -328.52267771601237 lineto
313.9332203087745 -199.0568794650019 lineto
313.94335730068224 -97.22675387727423 lineto
313.95349429259 -120.48198250200147 lineto
313.9636025678068 -251.48581800396906 lineto
313.97371084302364 -363.0324154562602 lineto
313.9838478349314 -338.4831194077724 lineto
313.99398482683915 -198.33228556043358 lineto
314.00409310205595 -92.64355564221795 lineto
314.01420137727274 -143.53980541391869 lineto
314.0243383691805 -297.68029114448 lineto
314.03447536108825 -371.83801542119113 lineto
314.0445836363051 -269.4332616682444 lineto
314.0546919115219 -115.98640607022723 lineto
314.06482890342966 -115.12116499252507 lineto
314.0749658953374 -274.3686557595408 lineto
314.0850741705542 -372.42176831496164 lineto
314.095182445771 -261.79074512044724 lineto
314.1053194376788 -103.07505875326112 lineto
314.1154564295866 -144.95621312032813 lineto
314.12556470480337 -327.0108300872079 lineto
314.13567298002016 -347.6828846727768 lineto
314.1458099719279 -164.7795889797042 lineto
314.1559469638357 -100.11031886218656 lineto
314.1660552390525 -278.38129642032123 lineto
314.1761635142693 -365.33713092238287 lineto
314.1863005061771 -184.9669776136491 lineto
314.19643749808483 -98.77980995760176 lineto
314.2065457733016 -292.6844484187195 lineto
314.2166540485184 -350.2728430301737 lineto
314.2267910404262 -137.22388512156346 lineto
314.236928032334 -144.1087404951555 lineto
314.2470363075508 -359.86065694007783 lineto
314.2571445827676 -252.16984958256086 lineto
314.26728157467534 -90.97247396205782 lineto
314.2774185665831 -302.0703552745061 lineto
314.2875268417999 -314.9269326826448 lineto
314.29763511701674 -91.32529440632624 lineto
314.3077721089245 -276.0903649658578 lineto
314.31790910083225 -320.8066177226748 lineto
314.32801737604905 -89.46680042180907 lineto
314.33812565126584 -309.3794997569854 lineto
314.3482626431736 -267.11545139104544 lineto
314.35839963508135 -108.05767744283601 lineto
314.3685079102982 -369.64561093340063 lineto
314.378616185515 -138.45086317607613 lineto
314.38875317742276 -247.2304351545305 lineto
314.3988901693305 -286.79069220012065 lineto
314.4089984445473 -123.72905054021815 lineto
314.4191067197641 -364.321191829712 lineto
314.42924371167186 -89.19636816389583 lineto
314.4393807035797 -370.61388031908314 lineto
314.44948897879647 -94.85635615976054 lineto
314.48997951304557 -90.94203426964359 lineto
314.5000877882624 -352.5546712936038 lineto
314.5102247801702 -157.05202795163834 lineto
314.52036177207793 -222.32905811656642 lineto
314.5304700472947 -331.63568188249707 lineto
314.5405783225115 -89.55462324192781 lineto
314.5507153144193 -296.43705944288575 lineto
314.56082358963613 -318.5798680724999 lineto
314.5709605815439 -100.31399917197065 lineto
314.5810688567607 -189.17611223230165 lineto
314.59120584866844 -363.1153779764345 lineto
314.60131412388523 -312.63238292512085 lineto
314.611451115793 -161.2136651634483 lineto
314.6215593910098 -90.28371130863088 lineto
314.6316963829176 -111.93250670371458 lineto
314.6418046581344 -161.00921668218112 lineto
314.65194165004215 -191.80479504745387 lineto
314.66204992525894 -188.63997161213754 moveto
314.6721869171667 -150.55624066547497 lineto
314.68232390907446 -98.85385594523396 lineto
314.69243218429125 -108.89850215405214 lineto
314.7025404595081 -260.6928198750946 lineto
314.71267745141586 -368.0405202090593 lineto
314.7228144433236 -141.76321861118316 lineto
314.7329227185404 -224.19508305328702 lineto
314.7430309937572 -275.5217170515306 lineto
314.75316798566496 -215.25290650616543 lineto
314.7633049775727 -147.48111381436232 lineto
314.77341325278957 -363.1254862516513 lineto
314.81390378703867 -370.25256691346425 lineto
314.8240120622555 -210.35994132575777 lineto
314.8341490541633 -212.79988368959616 moveto
314.84428604607103 -141.6576129801894 lineto
314.8543943212878 -293.54135447687145 lineto
314.8645025965046 -268.16312242722364 lineto
314.8746395884124 -90.83776396477931 lineto
314.88477658032014 -372.3608602134422 lineto
314.894884855537 -305.69273610518314 lineto
314.9049931307538 -372.27574394144614 lineto
314.91513012266154 -100.71402985617209 lineto
314.9252671145693 -100.0041819724101 lineto
314.9353753897861 -358.84916893450526 lineto
314.95562065691064 -368.15392242164785 lineto
314.96575764881845 -102.06301795138762 lineto
314.97586592403525 -313.24953333047415 lineto
314.98597419925204 -349.21336943401224 lineto
315.00624818306756 -363.1621574660032 moveto
315.01635645828435 -230.24563240451016 lineto
315.0264647335012 -183.75946947560516 lineto
315.03660172540896 -340.1192241583471 lineto
315.0467387173167 -370.6488572486686 lineto
315.0568469925335 -339.1110385722345 lineto
315.0669552677503 -366.4821228242138 lineto
315.07709225965806 -352.8955384152614 moveto
315.0872292515658 -181.37928654564791 lineto
315.09733752678267 -309.84031649676973 lineto
315.10744580199946 -107.59631508592351 lineto
315.1175827939072 -327.35835948116755 lineto
315.127719785815 -104.99489158966207 lineto
315.13782806103177 -91.36980527730933 lineto
315.14793633624856 -362.0847933713756 lineto
315.1580733281564 -139.68919868186222 lineto
315.16821032006413 -359.81766805371547 lineto
315.1783185952809 -101.33736870842662 lineto
315.21880912953003 -92.47391896956319 lineto
315.2592996637792 -90.31411510518143 lineto
315.2896819228115 -114.31581257381337 lineto
315.29979019802835 -97.82589173822488 lineto
315.30989847324514 -210.6951512592969 lineto
315.3200354651529 -231.11268981291533 lineto
315.33017245706066 -89.15594224220133 lineto
315.34028073227745 -314.5132113160297 lineto
315.35038900749424 -218.0056167095602 lineto
315.36052599940206 -355.8931302007906 lineto
315.3706629913098 -289.872653623681 lineto
315.3807712665266 -349.7338881742958 lineto
315.3908795417434 -181.3036754983586 lineto
315.40101653365116 -371.15243314128764 lineto
315.4111535255589 -341.3683427815875 lineto
315.4212618007757 -370.84082832771503 lineto
315.43137007599256 -146.35504621187198 lineto
315.4415070679003 -317.40162224254095 lineto
315.4516440598081 -89.83804980249903 lineto
315.46175233502487 -167.53227046640802 lineto
315.4819976021494 -170.6301122200675 lineto
315.49213459405723 -89.4685808566484 lineto
315.502242869274 -236.21896257375036 lineto
315.5123511444908 -335.7063302590103 lineto
315.5224881363986 -100.31397763445243 lineto
315.53262512830634 -350.71571183811 lineto
315.54273340352313 -176.8955054946842 lineto
315.55284167874 -144.45537967169545 lineto
315.56297867064774 -353.4719972695289 lineto
315.5731156625555 -328.5844186015696 lineto
315.5832239377723 -198.68623313482206 lineto
315.5933322129891 -119.93929447629921 lineto
315.60346920489684 -95.50727021450636 lineto
315.6136061968046 -92.28532210170417 lineto
315.62371447202145 -99.63285362082 lineto
315.63382274723824 -133.1644362545234 lineto
315.643959739146 -215.92605445888458 lineto
315.65409673105376 -329.3211165913762 lineto
315.66420500627055 -367.0414090972891 lineto
315.7046955405197 -370.6363080547205 lineto
315.7148038157365 -157.10549843019996 lineto
315.72494080764426 -163.83786817481123 lineto
315.735077799552 -370.1754338815542 lineto
315.7451860747688 -112.40008622421924 lineto
315.75529434998566 -279.6202493349629 lineto
315.7654313418934 -253.83823189377102 lineto
315.7755683338012 -155.06454577051582 lineto
315.78567660901797 -337.57124960312905 lineto
315.79578488423476 -108.65043301922152 lineto
315.8059218761425 -358.538655355189 lineto
315.8160588680503 -103.68174910393343 lineto
315.8261671432671 -350.76274977789734 lineto
315.8362754184839 -127.1969355735474 lineto
315.8464124103917 -304.2906149525247 lineto
315.85654940229944 -203.86592011608823 lineto
315.86665767751623 -197.01708983130152 lineto
315.876765952733 -326.9355349235191 lineto
315.88690294464084 -93.40355722673605 lineto
315.8970399365486 -361.567634483934 lineto
315.9071482117654 -167.11103968510767 lineto
315.9172564869822 -187.97855442767425 lineto
315.92739347888994 -359.5301852605466 lineto
315.9375304707977 -103.76672897164744 lineto
315.9476387460145 -253.86961923698686 lineto
315.95774702123134 -336.0552380541358 lineto
315.9678840131391 -96.21103733895825 lineto
315.97802100504686 -251.688098375069 lineto
315.98812928026365 -350.28366922266446 lineto
315.99823755548044 -116.29063787339668 lineto
316.0083745473882 -188.504960089604 lineto
316.01851153929596 -372.4766746280711 lineto
316.0286198145128 -199.3132046484826 lineto
316.0387280897296 -101.67649129110862 lineto
316.04886508163736 -309.39328376864466 lineto
316.0590020735451 -338.00992577418566 lineto
316.0691103487619 -129.04689352167765 lineto
316.10960088301107 -128.3303115738863 lineto
316.11970915822786 -125.04585440404381 lineto
316.1298461501356 -313.0747348326199 lineto
316.1399831420434 -356.4230105823261 lineto
316.1500914172602 -187.02813246542138 lineto
316.160228409168 -90.03608010333735 lineto
316.1703366843848 -216.20597040398633 lineto
316.18047367629254 -363.86919111405143 lineto
316.19058195150933 -313.5830776959378 lineto
316.2007189434171 -145.11487283786462 lineto
316.2108272186339 -96.55369207462793 lineto
316.2209642105417 -228.23323849398258 lineto
316.2310724857585 -362.09650978128604 lineto
316.24120947766625 -329.9626474673519 lineto
316.25131775288304 -177.60292681806035 lineto
316.2614547447908 -89.19536307971234 lineto
316.2715630200076 -162.87755331252373 lineto
316.28170001191535 -310.7242162444211 lineto
316.2918082871322 -371.6709704298952 lineto
316.30194527903996 -286.1636058196963 lineto
316.31205355425675 -145.99090421219384 lineto
316.3221905461645 -89.68051721508257 lineto
316.3322988213813 -166.86279825013133 lineto
316.34243581328906 -301.562845195226 lineto
316.3525440885059 -372.11860620853037 lineto
316.36268108041367 -320.5489428547191 lineto
316.37278935563046 -194.7983521379036 lineto
316.3829263475382 -99.51162610994572 lineto
316.393034622755 -108.16207697280959 lineto
316.40317161466277 -209.95147511358775 lineto
316.4132798898796 -325.94239688346795 lineto
316.4234168817874 -372.4130958742927 lineto
316.43352515700417 -319.81876355375965 lineto
316.4436621489119 -207.68142069344998 lineto
316.4537704241287 -111.99166308708566 lineto
316.4639074160365 -93.10879475240962 lineto
316.47401569125327 -159.6780113978406 lineto
316.4841239664701 -268.2407723595709 lineto
316.4942609583779 -353.62313321403474 lineto
316.50439795028564 -368.17792957528775 lineto
316.51450622550243 -306.6317144660897 lineto
316.5246145007192 -205.04377827071923 lineto
316.534751492627 -118.08874783600434 lineto
316.54488848453474 -89.42636014176911 lineto
316.5549967597516 -130.9921765254391 lineto
316.5651050349684 -220.0788756465708 lineto
316.57524202687614 -313.12998574602085 lineto
316.5853790187839 -367.5596017856052 lineto
316.5954872940007 -360.66702162214574 lineto
316.6055955692175 -297.7444155153866 lineto
316.6157325611253 -207.3806851474045 lineto
316.62586955303306 -127.64579181154822 lineto
316.63597782824985 -89.9842321178148 lineto
316.64608610346664 -107.48935977045478 lineto
316.6562230953744 -171.49149808200872 lineto
316.66636008728216 -256.6406937642485 lineto
316.67646836249895 -331.50530810555307 lineto
316.6865766377158 -370.1819238537105 lineto
316.69671362962356 -360.74438438758347 lineto
316.7068506215313 -308.0747856200526 lineto
316.7169588967481 -230.86314176850044 lineto
316.7270671719649 -154.4937441043668 lineto
316.73720416387266 -102.58474997186413 lineto
316.7473411557805 -89.95448880515626 lineto
316.75744943099727 -118.94518724792825 lineto
316.76755770621406 -179.75934929208194 lineto
316.7776946981218 -254.21057250871735 lineto
316.7878316900296 -321.4162156383064 lineto
316.79793996524637 -363.63868223574093 lineto
316.8080482404632 -370.7008057426095 lineto
316.818185232371 -342.001344800349 lineto
316.82832222427874 -285.9105256222937 lineto
316.83843049949553 -217.01385707067496 lineto
316.8485387747123 -152.13324646606048 lineto
316.8586757666201 -106.21572427230998 lineto
316.8789210337447 -103.51809268217042 lineto
316.8890293089615 -145.4104680962288 lineto
316.89916630086924 -204.94785016457791 lineto
316.909303292777 -269.2049065417557 lineto
316.9194115679938 -324.9967275335684 lineto
316.9295198432106 -361.53288728787624 lineto
316.93965683511834 -372.3475643855292 lineto
316.94979382702616 -356.2143838225247 lineto
316.95990210224295 -316.988475209745 lineto
317.12186423923947 -312.28571503188994 lineto
317.13197251445627 -266.0476212378155 lineto
317.1421095063641 -215.7691608178419 lineto
317.15224649827184 -167.84341581292531 lineto
317.16235477348863 -128.06562983333714 lineto
317.1724630487054 -100.97123089872699 lineto
317.1826000406132 -89.38113853268483 lineto
317.19273703252094 -94.1869126601748 lineto
317.20284530773773 -114.37632582083216 lineto
317.2129535829546 -147.27188400405083 lineto
317.22309057486234 -188.93414539429935 lineto
317.2332275667701 -234.66876380417304 lineto
317.2433358419869 -279.5720914442283 lineto
317.2534441172037 -319.05383705674245 lineto
317.26358110911144 -349.28461554427616 lineto
317.2737181010192 -367.5300235939197 lineto
317.28382637623605 -372.34931610367755 lineto
317.29393465145284 -363.65215036379965 lineto
317.3040716433606 -342.62168275839855 lineto
317.31420863526836 -311.52486630498856 lineto
317.32431691048515 -273.4376893554112 lineto
317.33442518570195 -231.91967190383883 lineto
317.34456217760976 -190.6708877883323 lineto
317.3546991695175 -153.20390521334963 lineto
317.3648074447343 -122.55759620767051 lineto
317.3749157199511 -101.07316079327826 lineto
317.38505271185886 -90.24512325515764 lineto
317.40529797898347 -101.96978921419625 lineto
317.41540625420026 -123.04412874420669 lineto
317.425543246108 -152.03536562493412 lineto
317.4356802380158 -186.59372072297185 lineto
317.44578851323257 -224.06325908344968 lineto
318.741485609205 -233.38064791461326 lineto
319.0654098831981 -241.6845529301828 lineto
319.07551815841487 -254.70266172495366 lineto
319.0856551503226 -267.4507761913484 lineto
319.0957921422304 -279.82531522508566 lineto
319.1059004174472 -291.7283836266936 lineto
319.11603740935493 -303.06854745216566 lineto
319.1261456845718 -313.7613796300888 lineto
319.13628267647954 -323.72983327862573 lineto
319.14639095169633 -332.9047586059525 lineto
319.1565279436041 -341.22504649371285 lineto
319.1666362188209 -348.6379730973102 lineto
319.17677321072864 -355.09937214605276 lineto
319.18688148594543 -360.5735200763903 lineto
319.20712675307004 -368.45987004710196 lineto
319.2273720201946 -372.1804045274695 lineto
319.26786255444375 -367.294948761747 lineto
319.2881078215683 -359.0633667323523 lineto
319.29824481347606 -353.6322076883771 lineto
319.30835308869285 -347.3888257573788 lineto
319.3184900806006 -340.38735190181103 lineto
319.32859835581746 -332.68585127078853 lineto
319.3387353477252 -324.3456627161951 lineto
319.348843622942 -315.431054192392 lineto
319.35898061484977 -306.0084761222535 lineto
319.36908889006656 -296.14624551356593 lineto
319.3792258819743 -285.91382804175373 lineto
319.3893341571912 -275.3815221662793 lineto
319.39944243240797 -264.61982736344174 lineto
319.4095794243157 -253.69912824277614 lineto
319.4197164162235 -242.68906277985286 lineto
319.4298246914403 -231.6582495077133 lineto
319.43993296665707 -220.67384240815997 lineto
319.4500699585648 -209.80112887808323 lineto
319.46020695047264 -199.10321384586078 lineto
319.47031522568943 -188.64070388775696 lineto
319.4804235009062 -178.4713913443224 lineto
319.490560492814 -168.65002458686635 lineto
319.50069748472174 -159.22807828392894 lineto
319.51080575993853 -150.253509309408 lineto
319.5209140351554 -141.77065623414097 lineto
319.53105102706314 -133.8200383090679 lineto
319.5411880189709 -126.43825495681332 lineto
319.5512962941877 -119.65792833830415 lineto
319.5614045694045 -113.50759566517874 lineto
319.57154156131224 -108.01173791647781 lineto
319.59178682843685 -99.06080995778713 lineto
319.6120320955614 -92.91934356299464 lineto
319.63227736268595 -89.63795907908454 lineto
319.6727678969351 -91.55805036570412 lineto
319.69301316405966 -96.57348505386993 lineto
319.7132584311842 -104.08725031776216 lineto
319.72336670640107 -108.71801775138843 lineto
319.7335036983088 -113.89327518307451 lineto
319.7436406902166 -119.58197986989606 lineto
319.7537489654334 -125.75139478416227 lineto
319.76385724065017 -132.3672321968707 lineto
319.7739942325579 -139.39393366544405 lineto
319.7841312244657 -146.79481361718493 lineto
319.79423949968253 -154.53233933701281 lineto
319.8043477748993 -162.5682314758822 lineto
319.8144847668071 -170.86372250100135 lineto
319.82462175871484 -179.379757712669 lineto
319.83473003393163 -188.07713882772907 lineto
319.84483830914843 -196.91671063806191 lineto
319.85497530105624 -205.859562027421 lineto
319.865112292964 -214.86715519654226 lineto
319.8752205681808 -223.9015123216353 lineto
319.8853288433976 -232.92533042114718 lineto
319.89546583530534 -241.9021392975627 lineto
319.9056028272131 -250.7964451208593 lineto
319.9157111024299 -259.57378786188866 lineto
319.92581937764675 -268.2009997425957 lineto
319.9359563695545 -276.64606165256356 lineto
319.94609336146226 -284.878505182687 lineto
319.95620163667905 -292.8691828916448 lineto
319.96630991189585 -300.5906129061914 lineto
319.9764469038036 -308.0168640543926 lineto
319.9865838957114 -315.123699449081 lineto
319.9966921709282 -321.8885764878554 lineto
320.006800446145 -328.29073300315406 lineto
320.01693743805276 -334.31115854556344 lineto
320.0270744299605 -339.93270925058243 lineto
320.0371827051773 -345.13999297185813 lineto
320.0574279723019 -354.25952380232917 lineto
320.0776732394265 -361.5833137971964 lineto
320.11816377367563 -370.6414483424017 lineto
320.15865430792473 -372.18307517972846 lineto
320.16876258314153 -371.4179476658745 lineto
320.1788995750493 -370.2063904744057 lineto
320.1991448421739 -366.48200795745 lineto
320.21939010929844 -361.09797300333497 lineto
320.239635376423 -354.1599630347818 lineto
320.2598806435476 -345.78881788733685 lineto
320.27001763545536 -341.10716447733506 lineto
320.28012591067215 -336.1182137574042 lineto
320.29023418588895 -330.84031569306563 lineto
320.3003711777967 -325.29233715027806 lineto
320.31050816970446 -319.49351831198254 lineto
320.3206164449213 -313.4635013947935 lineto
320.3307247201381 -307.222273215617 lineto
320.34086171204586 -300.78999289150465 lineto
320.3509987039536 -294.186963122963 lineto
320.3611069791704 -287.43365891064417 lineto
320.3712152543872 -280.55052653850953 lineto
320.381352246295 -273.5580410072113 lineto
320.3914892382028 -266.4765050172559 lineto
320.4015975134196 -259.32619255245885 lineto
320.41170578863637 -252.12709042972614 lineto
320.4218427805441 -244.89895573243606 lineto
320.4319797724519 -237.6613301687848 lineto
320.4420880476687 -230.43331033825856 lineto
320.4521963228855 -223.2336338817067 lineto
320.4623333147933 -216.0806507646507 lineto
320.4724415900101 -208.99219405217468 lineto
320.48257858191783 -201.9856229839621 lineto
320.49268685713463 -195.07773682422265 lineto
320.5028238490424 -188.28478922003794 lineto
320.51293212425924 -181.62241640963396 lineto
320.523069116167 -175.1056515807266 lineto
320.5331773913838 -168.74886743713978 lineto
320.54331438329154 -162.56576184045988 lineto
320.55342265850834 -156.56935781003588 lineto
320.5635596504161 -150.77198916463365 lineto
320.57366792563295 -145.18527180574532 lineto
320.5838049175407 -139.8200606425525 lineto
320.59394190944846 -134.68652138365397 lineto
320.60405018466525 -129.79405874533805 lineto
320.6242954517898 -120.76627774247413 lineto
320.6445407189144 -112.79702268497009 lineto
320.66478598603896 -105.9347027346064 lineto
320.6850312531635 -100.21593167235305 lineto
320.8469933901601 -96.41076192456303 lineto
320.8571016653769 -98.51939982483245 lineto
320.86723865728464 -100.87385259969236 lineto
320.8874839244092 -106.29138557380851 lineto
320.9077291915338 -112.60247428291026 lineto
320.92797445865835 -119.74147955064305 lineto
320.9482197257829 -127.6387562222638 lineto
320.96846499290746 -136.2213567235694 lineto
320.98871026003206 -145.41382794907076 lineto
320.9988472519398 -150.21465562654342 lineto
321.0089555271566 -155.13882149167569 lineto
321.0190638023734 -160.17649007781483 lineto
321.02920079428117 -165.31778284327171 lineto
321.0393377861889 -170.5528068880117 lineto
321.0494460614058 -175.87164059530923 lineto
321.05955433662257 -181.26443414016606 lineto
321.0696913285303 -186.72133769758403 lineto
321.0798283204381 -192.23258759263783 lineto
321.0899365956549 -197.78844886709305 lineto
321.10004487087167 -203.37933014617013 lineto
321.1101818627795 -208.99568313012594 lineto
321.12031885468724 -214.62814617770852 lineto
321.13042712990404 -220.2674007227024 lineto
321.14053540512083 -225.9043722907652 lineto
321.1506723970286 -231.53004384093651 lineto
321.16080938893634 -237.13564242412897 lineto
321.17091766415314 -242.7125243163646 lineto
321.18102593937 -248.25228988553852 lineto
321.19116293127774 -253.74668308300065 lineto
321.2012999231855 -259.1876632352831 lineto
321.2114081984023 -264.56744811913643 lineto
321.2215164736191 -269.8784278114573 lineto
321.23165346552685 -275.1132795560515 lineto
321.24179045743466 -280.2648816135619 lineto
321.25189873265145 -285.3263419781588 lineto
321.26200700786825 -290.29108452761307 lineto
321.272143999776 -295.15276287322325 lineto
321.29238926690056 -304.5426326323619 lineto
321.31263453402516 -313.45037786702625 lineto
321.3328798011497 -321.83467525892945 lineto
321.35312506827427 -329.65856642681 lineto
321.3733703353989 -336.8895153598138 lineto
321.3936156025234 -343.49935098411225 lineto
321.413860869648 -349.46429587959307 lineto
321.4341061367725 -354.7649088464785 lineto
321.45435140389714 -359.38591260517944 lineto
321.49484193814624 -366.54880298061556 lineto
321.6568040751428 -367.6484799441166 lineto
321.6669123503596 -366.33319806491164 lineto
321.67704934226737 -364.86902014309555 lineto
321.6972946093919 -361.50638178212307 lineto
321.7377851436411 -353.1362417188616 lineto
321.7580304107656 -348.1854267645214 lineto
321.77827567789024 -342.7643185623811 lineto
321.7985209450148 -336.90453418918423 lineto
321.81876621213934 -330.63872452254867 lineto
321.83901147926395 -324.0002870740572 lineto
321.8592567463885 -317.0232511224937 lineto
321.87950201351305 -309.74201926362446 lineto
321.89974728063765 -302.1912812601253 lineto
321.9199925477622 -294.405841741436 lineto
321.94023781488676 -286.42036175354133 lineto
321.9604830820113 -278.2693874756624 lineto
321.9807283491359 -269.987034336656 lineto
322.00097361626047 -261.6070157317054 lineto
322.021218883385 -253.16235585541096 lineto
322.0414641505096 -244.68547585186298 lineto
322.0617094176342 -236.207906647732 lineto
322.0819546847587 -227.76030331061446 lineto
322.10219995188334 -219.37231582392334 lineto
322.1224452190079 -211.0725460118516 lineto
322.14269048613244 -202.8884613892995 lineto
322.162935753257 -194.84628029511055 lineto
322.1831810203816 -186.9710436837992 lineto
322.20342628750615 -179.28644282540478 lineto
322.2236715546307 -171.81486238052815 lineto
322.2439168217553 -164.57730860860426 lineto
322.26416208887986 -157.59343808459303 lineto
322.2844073560044 -150.88144283221564 lineto
322.304652623129 -144.45815083237278 lineto
322.32489789025357 -138.3389685897628 lineto
322.3451431573781 -132.53785241619073 lineto
322.3653884245027 -127.06736586395017 lineto
322.3856336916273 -121.93869408416882 lineto
322.4261242258764 -112.74450703638277 lineto
322.46661476012554 -105.01728342943568 lineto
322.5071052943747 -98.79805941470482 lineto
322.5475958286238 -94.10787714748885 lineto
322.6285768971221 -89.30647513619707 lineto
322.7095579656204 -90.4312576667671 lineto
322.79053903411864 -97.0694294858672 lineto
322.8310295683678 -102.27611015663281 lineto
322.8715201026169 -108.62694276601883 lineto
322.91201063686606 -116.02748529664098 lineto
322.95250117111516 -124.37803339749713 lineto
322.9929917053643 -133.57498442678778 lineto
323.01323697248887 -138.45774082356027 lineto
323.0334822396135 -143.51215124052726 lineto
323.053727506738 -148.72473319128449 lineto
323.0739727738626 -154.08198983108224 lineto
323.0942180409872 -159.57045303186177 lineto
323.11446330811174 -165.1766977406008 lineto
323.1347085752363 -170.8873706960043 lineto
323.1549538423609 -176.68923350354126 lineto
323.17519910948545 -182.5691913521353 lineto
323.19544437661 -188.51429301416496 lineto
323.21568964373455 -194.51180263719084 lineto
323.23593491085916 -200.5491423105738 lineto
323.2561801779837 -206.61399257389346 lineto
323.27642544510826 -212.6942780586024 lineto
323.29667071223287 -218.7781962047174 lineto
323.3169159793574 -224.85420290247376 lineto
323.33716124648197 -230.9110699257074 lineto
323.3574065136066 -236.93787057350926 lineto
323.3776517807311 -242.92402274526168 lineto
323.3978970478557 -248.8592458656022 lineto
323.41814231498023 -254.73358960111418 lineto
323.43838758210484 -260.537548727091 lineto
323.4586328492294 -266.26190518573543 lineto
323.47887811635394 -271.8977855195419 lineto
323.49912338347855 -277.436747021369 lineto
323.5193686506031 -282.870691584367 lineto
323.53961391772765 -288.19195185205035 lineto
323.55985918485226 -293.3931763515342 lineto
323.5801044519768 -298.4674443602978 lineto
323.60034971910136 -303.4082084728031 lineto
323.62059498622597 -308.2092658838034 lineto
323.6408402533505 -312.8649019717983 lineto
323.6813307875996 -321.7186311107729 lineto
323.7218213218488 -329.9307145070079 lineto
323.76231185609794 -337.4685874329584 lineto
323.80280239034704 -344.3053997825797 lineto
323.8432929245962 -350.4200160713275 lineto
323.88378345884536 -355.7966995525575 lineto
323.92427399309446 -360.4249686340706 lineto
324.0052550615927 -367.418717699771 lineto
324.08623613009104 -371.4112566768816 lineto
324.1672171985893 -372.47836891283754 lineto
324.2077077328384 -371.95420315280245 lineto
324.24819826708756 -370.7520363192765 lineto
324.3291793355858 -366.41090543064087 lineto
324.4101604040841 -359.6708396128532 lineto
324.4911414725824 -350.776246622647 lineto
324.5316320068315 -345.6030496135371 lineto
324.57212254108066 -339.991521033662 lineto
324.6126130753298 -333.9766378126073 lineto
324.6531036095789 -327.59366404686784 lineto
324.6935941438281 -320.87812228315727 lineto
324.7340846780772 -313.8653627680435 lineto
324.77457521232634 -306.5907070314033 lineto
324.8150657465755 -299.08904585274945 lineto
324.8555562808246 -291.3947531111571 lineto
324.89604681507376 -283.5416857852644 lineto
324.93653734932286 -275.5628680696717 lineto
324.977027883572 -267.4905488083236 lineto
325.0175184178212 -259.356000477672 lineto
325.0580089520703 -251.18954790336738 lineto
325.09849948631944 -243.02030981003995 lineto
325.1389900205686 -234.87639983813645 lineto
325.1794805548177 -226.78461066031957 lineto
325.21997108906686 -218.77055756492288 lineto
325.26046162331596 -210.85854923084128 lineto
325.3009521575651 -203.0715877275312 lineto
325.3414426918143 -195.43135415666512 lineto
325.3819332260634 -187.95817993544037 lineto
325.42242376031254 -180.67108987161595 lineto
325.46291429456164 -173.5877016550938 lineto
325.5034048288108 -166.72435508302843 lineto
325.54389536305996 -160.09604026809924 lineto
325.58438589730906 -153.71644071354723 lineto
325.6248764315582 -147.59791895482925 lineto
325.6653669658073 -141.75164578472754 lineto
325.7058575000565 -136.18747102824034 lineto
325.74634803430564 -130.914081484382 lineto
325.78683856855474 -125.9389865678378 lineto
325.86781963705306 -116.90805390814135 lineto
325.9488007055513 -109.13257190204129 lineto
326.0297817740496 -102.63412114279167 lineto
326.1917439110461 -93.48089845465555 lineto
326.5156681850392 -89.95144483591483 lineto
326.55615871928836 -90.79819954381354 lineto
326.5966492535375 -91.90880320822363 lineto
326.6776303220358 -94.8903351843352 lineto
326.8395924590323 -103.66182689958212 lineto
326.92057352753056 -109.31179994947564 lineto
327.0015545960289 -115.70779673456401 lineto
327.08253566452714 -122.77590049232438 lineto
327.1635167330254 -130.4419934433971 lineto
327.24449780152366 -138.63241009630522 lineto
327.325478870022 -147.2744972229279 lineto
327.40645993852024 -156.29716665480152 lineto
327.4874410070185 -165.63121116672008 lineto
327.52793154126766 -170.39401794536587 lineto
327.56842207551676 -175.20982137717252 lineto
327.6089126097659 -180.0706525803995 lineto
327.6494031440151 -184.96874369014293 lineto
327.6898936782642 -189.89655657502672 lineto
327.73038421251334 -194.8466679704385 lineto
327.77087474676244 -199.81191306198448 lineto
327.8113652810116 -204.78529933541677 lineto
327.85185581526076 -209.76006401001496 lineto
327.89234634950986 -214.7296166052045 lineto
327.932836883759 -219.6876107322839 lineto
327.9733274180081 -224.62790101938842 lineto
328.0138179522573 -229.54455746983547 lineto
328.05430848650644 -234.43187982047013 lineto
328.09479902075554 -239.28435446662863 lineto
328.1352895550047 -244.09672625386594 lineto
328.1757800892538 -248.8638979695372 lineto
328.21627062350296 -253.58104520956164 lineto
328.2972516920012 -262.8468875804577 lineto
328.37823276049954 -271.85976462071505 lineto
328.4592138289978 -280.58840385388163 lineto
328.54019489749606 -289.00492137303837 lineto
328.6211759659943 -297.0845059571986 lineto
328.7021570344926 -304.8053903546169 lineto
328.7831381029909 -312.1487651327168 lineto
328.86411917148916 -319.09866381132605 lineto
328.9451002399874 -325.6417044124589 lineto
329.0260813084857 -331.76717561038845 lineto
329.107062376984 -337.46666341466425 lineto
329.18804344548226 -342.7340224534217 lineto
329.2690245139805 -347.5652611066176 lineto
329.43098665097705 -355.9132318844604 lineto
329.5929487879736 -362.51562988580105 lineto
329.75491092497015 -367.40289480305375 lineto
330.40275947295635 -371.06881013722136 lineto
330.4432500072055 -370.5331577008035 lineto
330.4837405414546 -369.916782646106 lineto
330.5647216099529 -368.4484120874102 lineto
330.72668374694945 -364.61674401303975 lineto
330.888645883946 -359.68347495687414 lineto
331.05060802094255 -353.75950877938874 lineto
331.21257015793907 -346.95551960753113 lineto
331.37453229493565 -339.38040113340963 lineto
331.53649443193217 -331.14034768018263 lineto
331.69845656892875 -322.3378491178751 lineto
331.86041870592527 -313.07100166279554 lineto
331.94139977442353 -308.2927740211059 lineto
332.02238084292185 -303.4329909770989 lineto
332.1033619114201 -298.50247872326514 lineto
332.18434297991837 -293.51169013511304 lineto
332.26532404841663 -288.4707334878593 lineto
332.34630511691495 -283.38934373973837 lineto
332.4272861854132 -278.2769399653841 lineto
332.50826725391147 -273.1425104890659 lineto
332.58924832240973 -267.99472775145273 lineto
332.670229390908 -262.8418908762312 lineto
332.7512104594063 -257.6919256701054 lineto
332.83219152790457 -252.55244205617876 lineto
332.91317259640283 -247.43064792388157 lineto
332.9941536649011 -242.33337784566152 lineto
333.0751347333994 -237.26723666043867 lineto
333.15611580189767 -232.2383553817323 lineto
333.23709687039593 -227.25263528953408 lineto
333.3180779388942 -222.31558998850767 lineto
333.3990590073925 -217.43244591640726 lineto
333.48004007589077 -212.60809926904096 lineto
333.56102114438903 -207.8471734336528 lineto
333.6420022128873 -203.1539615555409 lineto
333.80396434988387 -193.98651692620842 lineto
333.9659264868804 -185.13464001380058 lineto
334.12788862387697 -176.62302717254028 lineto
334.2898507608735 -168.47245492833477 lineto
334.45181289787 -160.70008150403078 lineto
334.6137750348666 -153.31963347790568 lineto
334.7757371718631 -146.3417934589954 lineto
334.9376993088597 -139.77434367054923 lineto
335.0996614458562 -133.6224674752849 lineto
335.2616235828528 -127.88899346726166 lineto
335.4235857198493 -122.57455341368053 lineto
335.5855478568459 -117.67789095931218 lineto
335.90947213083894 -109.12431585339121 lineto
336.23339640483204 -102.18669356016596 lineto
336.88124495281824 -92.90121615182814 lineto
337.52909350080444 -89.18328771116498 lineto
338.01497991179406 -89.59556606405951 lineto
338.17694204879064 -90.27678340693755 lineto
338.82479059677684 -95.39165681671415 lineto
339.472639144763 -103.75914058606209 lineto
339.7965634187561 -108.93682457813404 lineto
340.1204876927492 -114.66543828621283 lineto
340.4444119667423 -120.86733177795124 lineto
340.7683362407354 -127.46993079612857 lineto
341.0922605147285 -134.40584444624187 lineto
341.4161847887216 -141.6127718672603 lineto
341.7401090627147 -149.03345197741595 lineto
342.0640333367078 -156.61546245736707 lineto
342.3879576107009 -164.31106180839797 lineto
342.7118818846939 -172.07698833558214 lineto
343.035806158687 -179.87417298087283 lineto
343.3597304326801 -187.66753830626627 lineto
343.6836547066732 -195.42572568523758 lineto
344.0075789806663 -203.12089428590411 lineto
344.3315032546594 -210.72839082907942 lineto
344.6554275286525 -218.22659164647303 lineto
344.9793518026456 -225.59658679708986 lineto
345.3032760766387 -232.82205084212092 lineto
345.6272003506318 -239.8889700363793 lineto
345.95112462462487 -246.78544131146342 lineto
346.27504889861797 -253.50152869230214 lineto
346.59897317261107 -260.0290048469364 lineto
346.92289744660417 -266.3612649364461 lineto
347.24682172059727 -272.493139956459 lineto
347.57074599459037 -278.42078187038686 lineto
347.89467026858347 -284.1414338758979 lineto
348.21859454257657 -289.65343040491655 lineto
348.54251881656967 -294.956024823478 lineto
348.86644309056277 -300.0492745649641 lineto
349.1903673645558 -304.93398369672167 lineto
349.838215912542 -314.08406908637073 lineto
350.4860644605282 -322.4241140575094 lineto
351.1339130085144 -329.9787000975968 lineto
351.7817615565006 -336.77746283170023 lineto
352.42961010448676 -342.85351260449306 lineto
353.07745865247296 -348.2423145293069 lineto
353.72530720045916 -352.9806259705665 lineto
355.02100429643156 -360.65513291208964 lineto
357.6123984883763 -369.8153265769555 lineto
357.9363227623694 -370.46432379258 lineto
358.2602470363625 -371.01651704298894 lineto
358.90809558434864 -371.84536689407605 lineto
359.55594413233484 -372.3308512713923 lineto
360.20379268032104 -372.5002510313467 lineto
360.85164122830724 -372.3793537624184 lineto
361.49948977629344 -371.9923102017022 lineto
362.1473383242796 -371.36186396843584 lineto
362.7951868722658 -370.5091505471636 lineto
364.0908839682382 -368.215002823313 lineto
365.38658106421053 -365.2526177008969 lineto
367.97797525615533 -357.79948772996005 lineto
370.5693694481001 -348.9419105543973 lineto
371.8650665440725 -344.1737911879245 lineto
373.1607636400448 -339.2572926792777 lineto
374.4564607360172 -334.23959655169904 lineto
375.75215783198956 -329.1604179887818 lineto
377.04785492796196 -324.05295348527204 lineto
378.34355202393436 -318.9449720813251 lineto
379.6392491199067 -313.85947584639734 lineto
380.9349462158791 -308.8154177965203 lineto
382.23064331185145 -303.82836237819254 lineto
383.52634040782385 -298.9108300686713 lineto
384.82203750379625 -294.0729865765553 lineto
386.1177345997686 -289.3227577085486 lineto
388.70912879171334 -280.10851923130195 lineto
391.30052298365814 -271.3007080811674 lineto
393.8919171756029 -262.9144866709701 lineto
396.4833113675476 -254.9527841031877 lineto
399.0747055594924 -247.40988575631977 lineto
401.6660997514371 -240.2744916124748 lineto
404.2574939433819 -233.53149669220952 lineto
406.84888813532666 -227.16352739749502 lineto
409.4402823272714 -221.1520040292822 lineto
412.03167651921615 -215.47781562973935 lineto
414.6230707111609 -210.12186559938013 lineto
417.2144649031057 -205.06545937239164 lineto
419.80585909505044 -200.29046235843467 lineto
424.9886474789399 -191.51622102002864 lineto
430.17143586282947 -183.67080669227593 lineto
435.35422424671896 -176.64027154545985 lineto
440.5370126306085 -170.32466713670513 lineto
445.719801014498 -164.6368813839942 lineto
450.9025893983875 -159.50127452334678 lineto
456.085377782277 -154.85230070765385 lineto
461.2681661661665 -150.6331870388938 lineto
466.45095455005605 -146.7946556753847 lineto
471.63374293394554 -143.29393310594628 lineto
476.81653131783503 -140.093816857444 lineto
481.9993197017246 -137.16188578578763 lineto
487.18210808561406 -134.46979651700275 lineto
492.3648964695036 -131.9927521884481 lineto
497.5476848533931 -129.70897119003297 lineto
502.73047323728264 -127.59928513054362 lineto
507.9132616211721 -125.646794237352 lineto
513.0960500050617 -123.83653711446958 lineto
518.2788383889512 -122.15527536736526 lineto
523.4616267728406 -120.59124951109223 lineto
528.6444151567301 -119.13394923676026 lineto
533.8272035406197 -117.77403444063566 lineto
539.0099919245092 -116.50313420730451 lineto
544.1927803083987 -115.3137391220816 lineto
549.3755686922882 -114.19912230011028 lineto
554.5583570761777 -113.15320298208044 lineto
559.7411454600673 -112.17051063836483 lineto
564.9239338439568 -111.24611317729158 lineto
570.1067222278463 -110.37553079507144 lineto
575.2895106117357 -109.55470725910676 lineto
580.4722989956252 -108.77995247460959 lineto
585.6550873795148 -108.04790658873796 lineto
590.8378757634043 -107.35552563225045 lineto
596.0206641472938 -106.70000972777879 lineto
601.2034525311833 -106.07881026900054 lineto
606.3862409150728 -105.48958684560273 lineto
611.5690292989624 -104.93020006410907 lineto
616.7518176828519 -104.39868283118902 lineto
621.9346060667414 -103.89322599531229 lineto
627.1173944506309 -103.41215680923067 lineto
632.3001828345205 -102.9539532883234 lineto
637.48297121841 -102.51718677721543 lineto
642.6657596022994 -102.10055784564094 lineto
647.8485479861889 -101.70284603423426 lineto
653.0313363700784 -101.32293139204808 lineto
658.214124753968 -100.9597729390352 lineto
663.3969131378575 -100.6124086660486 lineto
stroke
newpath
0.0 0.39215687 0.0 setrgbcolor
1.5 setlinewidth
10.0 setmiterlimit
1 setlinejoin
1 setlinecap
[ ] 0 setdash
newpath
7.880778932666037 -110.72788459311181 moveto
7.880778932666037 -117.62356615919458 lineto
6.425187301446004 -117.62356615919458 lineto
6.425187301446004 -110.72788459311181 lineto
5.293060477163756 -110.72788459311181 lineto
5.293060477163756 -109.63986660613925 lineto
6.425187301446004 -109.63986660613925 lineto
6.425187301446004 -108.6841751310958 lineto
6.425187301446004 -106.78259408818396 7.292661127722798 -105.83180365173533 9.027608702718185 -105.83180365173533 curveto
9.512805927584866 -105.83180365173533 10.064166388697906 -105.91266985587977 10.681690101831858 -106.07440225693867 curveto
10.681690101831858 -107.22123202699082 lineto
10.029859486606922 -107.02029176214704 9.507904925359137 -106.91982163870787 9.11582637733758 -106.91982163870787 curveto
8.640431116609621 -106.91982163870787 8.315741075766317 -107.0337694718205 8.141756220081751 -107.26166512785804 curveto
7.967771356619456 -107.4895607940833 7.880778932666037 -107.91227048737791 7.880778932666037 -108.52979420051186 curveto
7.880778932666037 -109.63986660613925 lineto
9.873028084487396 -109.63986660613925 lineto
9.873028084487396 -110.72788459311181 lineto
closepath
fill
newpath
