%!PS-Adobe-3.0 EPSF-3.0
%%Creator: EpsGraphics 1.0.0 by Thomas Abeel, http://www.sourceforge.net/epsgraphics/
%%Title: GeoGebra, http://www.geogebra.org/
%%CreationDate: Sun Nov 23 21:19:44 CET 2014
%%BoundingBox: 0 0 284 91
%%DocumentData: Clean7Bit
%%LanguageLevel: 2
%%DocumentProcessColors: Black
%%ColorUsage: Color
%%Origin: 0 0
%%Pages: 1
%%Page: 1 1
%%EndComments

gsave
0.0 91.0 translate
0.0 0.0 0.0 setrgbcolor
0.0 0.0 0.0 setrgbcolor
gsave
newpath
0.0 -0.0 moveto
284.5984251968504 -0.0 lineto
284.5984251968504 -91.84251968503939 lineto
0.0 -91.84251968503939 lineto
0.0 -0.0 lineto
closepath
clip
newpath
1.0 1.0 1.0 setrgbcolor
newpath
0.0 -0.0 moveto
284.5984251968504 -0.0 lineto
284.5984251968504 -91.84251968503939 lineto
0.0 -91.84251968503939 lineto
0.0 -0.0 lineto
closepath
fill
newpath
0.0 0.0 0.0 setrgbcolor
1.0 setlinewidth
10.0 setmiterlimit
0 setlinejoin
0 setlinecap
[ ] 0 setdash
newpath
4.5354330708661745 -32.88188976377955 moveto
4.5354330708661745 -35.149606299212614 lineto
stroke
newpath
1.0 setlinewidth
10.0 setmiterlimit
0 setlinejoin
0 setlinecap
[ ] 0 setdash
newpath
0.0 -32.88188976377955 moveto
283.4645669291339 -32.88188976377955 lineto
stroke
newpath
1.0 setlinewidth
10.0 setmiterlimit
0 setlinejoin
0 setlinecap
[ ] 0 setdash
newpath
284.0314960629922 -33.16535433070868 moveto
282.33070866141736 -31.181102362204744 lineto
stroke
newpath
1.0 setlinewidth
10.0 setmiterlimit
0 setlinejoin
0 setlinecap
[ ] 0 setdash
newpath
284.0314960629922 -32.598425196850414 moveto
282.33070866141736 -34.58267716535435 lineto
stroke
newpath
1.0 setlinewidth
10.0 setmiterlimit
0 setlinejoin
0 setlinecap
[ ] 0 setdash
newpath
32.881889763779554 -32.88188976377955 moveto
32.881889763779554 -35.149606299212614 lineto
stroke
newpath
1.0 setlinewidth
10.0 setmiterlimit
0 setlinejoin
0 setlinecap
[ ] 0 setdash
newpath
61.22834645669294 -32.88188976377955 moveto
61.22834645669294 -35.149606299212614 lineto
stroke
newpath
1.0 setlinewidth
10.0 setmiterlimit
0 setlinejoin
0 setlinecap
[ ] 0 setdash
newpath
89.57480314960631 -32.88188976377955 moveto
89.57480314960631 -35.149606299212614 lineto
stroke
newpath
1.0 setlinewidth
10.0 setmiterlimit
0 setlinejoin
0 setlinecap
[ ] 0 setdash
newpath
117.9212598425197 -32.88188976377955 moveto
117.9212598425197 -35.149606299212614 lineto
stroke
newpath
1.0 setlinewidth
10.0 setmiterlimit
0 setlinejoin
0 setlinecap
[ ] 0 setdash
newpath
174.6141732283465 -32.88188976377955 moveto
174.6141732283465 -35.149606299212614 lineto
stroke
newpath
1.0 setlinewidth
10.0 setmiterlimit
0 setlinejoin
0 setlinecap
[ ] 0 setdash
newpath
202.96062992125988 -32.88188976377955 moveto
202.96062992125988 -35.149606299212614 lineto
stroke
newpath
1.0 setlinewidth
10.0 setmiterlimit
0 setlinejoin
0 setlinecap
[ ] 0 setdash
newpath
231.30708661417327 -32.88188976377955 moveto
231.30708661417327 -35.149606299212614 lineto
stroke
newpath
1.0 setlinewidth
10.0 setmiterlimit
0 setlinejoin
0 setlinecap
[ ] 0 setdash
newpath
259.65354330708664 -32.88188976377955 moveto
259.65354330708664 -35.149606299212614 lineto
stroke
newpath
0.0 0.0 0.0 setrgbcolor
1.0 setlinewidth
10.0 setmiterlimit
1 setlinejoin
1 setlinecap
[ ] 0 setdash
newpath
61.228346456692954 -61.228346456692925 moveto
195.02362204724412 -61.228346456692925 lineto
stroke
newpath
1.0 setlinewidth
10.0 setmiterlimit
1 setlinejoin
1 setlinecap
[ ] 0 setdash
newpath
202.96062992125988 -61.228346456692925 moveto
195.02362204724412 -63.21259842519686 lineto
195.02362204724412 -59.244094488188985 lineto
closepath
fill
newpath
0.0 0.0 0.0 setrgbcolor
1.0 setlinewidth
10.0 setmiterlimit
1 setlinejoin
1 setlinecap
[ ] 0 setdash
newpath
202.96062992125988 -61.228346456692925 moveto
69.16535433070871 -61.228346456692925 lineto
stroke
newpath
1.0 setlinewidth
10.0 setmiterlimit
1 setlinejoin
1 setlinecap
[ ] 0 setdash
newpath
61.228346456692925 -61.228346456692925 moveto
69.16535433070868 -59.244094488188985 lineto
69.16535433070868 -63.21259842519686 lineto
closepath
fill
newpath
0.0 0.0 0.0 setrgbcolor
1.0 setlinewidth
10.0 setmiterlimit
1 setlinejoin
1 setlinecap
[ ] 0 setdash
newpath
62.92913385826776 -32.88188976377955 moveto
62.92913385826776 -33.821208708373646 62.16766540128707 -34.58267716535435 61.228346456692954 -34.58267716535435 curveto
60.28902751209885 -34.58267716535435 59.527559055118154 -33.821208708373646 59.527559055118154 -32.88188976377955 curveto
59.527559055118154 -31.942570819185438 60.28902751209885 -31.181102362204744 61.228346456692954 -31.181102362204744 curveto
62.16766540128707 -31.181102362204744 62.92913385826776 -31.942570819185438 62.92913385826776 -32.88188976377955 curveto
closepath
fill
newpath
0.0 0.0 0.0 setrgbcolor
1.0 setlinewidth
10.0 setmiterlimit
1 setlinejoin
1 setlinecap
[ ] 0 setdash
newpath
62.92913385826776 -32.88188976377955 moveto
62.92913385826776 -33.821208708373646 62.16766540128707 -34.58267716535435 61.228346456692954 -34.58267716535435 curveto
60.28902751209885 -34.58267716535435 59.527559055118154 -33.821208708373646 59.527559055118154 -32.88188976377955 curveto
59.527559055118154 -31.942570819185438 60.28902751209885 -31.181102362204744 61.228346456692954 -31.181102362204744 curveto
62.16766540128707 -31.181102362204744 62.92913385826776 -31.942570819185438 62.92913385826776 -32.88188976377955 curveto
closepath
stroke
newpath
0.0 0.0 0.0 setrgbcolor
1.0 setlinewidth
10.0 setmiterlimit
1 setlinejoin
1 setlinecap
[ ] 0 setdash
newpath
204.6614173228347 -32.88188976377955 moveto
204.6614173228347 -33.821208708373646 203.899948865854 -34.58267716535435 202.96062992125988 -34.58267716535435 curveto
202.02131097666577 -34.58267716535435 201.25984251968507 -33.821208708373646 201.25984251968507 -32.88188976377955 curveto
201.25984251968507 -31.942570819185438 202.02131097666577 -31.181102362204744 202.96062992125988 -31.181102362204744 curveto
203.899948865854 -31.181102362204744 204.6614173228347 -31.942570819185438 204.6614173228347 -32.88188976377955 curveto
closepath
fill
newpath
0.0 0.0 0.0 setrgbcolor
1.0 setlinewidth
10.0 setmiterlimit
1 setlinejoin
1 setlinecap
[ ] 0 setdash
newpath
204.6614173228347 -32.88188976377955 moveto
204.6614173228347 -33.821208708373646 203.899948865854 -34.58267716535435 202.96062992125988 -34.58267716535435 curveto
202.02131097666577 -34.58267716535435 201.25984251968507 -33.821208708373646 201.25984251968507 -32.88188976377955 curveto
201.25984251968507 -31.942570819185438 202.02131097666577 -31.181102362204744 202.96062992125988 -31.181102362204744 curveto
203.899948865854 -31.181102362204744 204.6614173228347 -31.942570819185438 204.6614173228347 -32.88188976377955 curveto
closepath
stroke
newpath
0.0 0.0 0.0 setrgbcolor
0.0 0.0 0.0 setrgbcolor
0.0 0.0 0.0 setrgbcolor
1.0 setlinewidth
10.0 setmiterlimit
1 setlinejoin
1 setlinecap
[ ] 0 setdash
newpath
116.98228670856146 -70.56495846725825 moveto
116.98228670856146 -78.53739941214015 lineto
116.98228670856146 -78.71456477175079 116.9379953686588 -78.8031474436362 116.84941269281343 -78.8031474436362 curveto
116.7608300130081 -78.8031474436362 116.7165386770654 -78.71456476383088 116.7165386770654 -78.53739941214015 curveto
116.7165386770654 -70.56495846725825 lineto
116.7165386770654 -70.38779310764761 116.76083001696806 -70.29921043576219 116.84941269281343 -70.29921043576219 curveto
116.93799537261876 -70.29921043576219 116.98228670856146 -70.38779311556752 116.98228670856146 -70.56495846725825 curveto
closepath
fill
newpath
1.0 setlinewidth
10.0 setmiterlimit
1 setlinejoin
1 setlinecap
[ ] 0 setdash
newpath
120.80611281507599 -74.15255689245511 moveto
120.54036478357992 -75.21554901843936 lineto
120.45178210377459 -75.65846241746597 120.40749076783189 -75.92421043708217 120.40749076783189 -76.01279311292754 curveto
120.40749076783189 -76.27854115234352 120.49607344763722 -76.4557065000743 120.67323879932796 -76.54428917591967 curveto
120.76182147913329 -76.54428917591967 120.85040415497865 -76.54428917591967 120.93898683082402 -76.54428917591967 curveto
121.20473487023999 -76.54428917591967 121.42619155787344 -76.41141515621169 121.60335690956417 -76.14566712867557 curveto
121.78052226917482 -75.96850176906493 121.9133962809629 -75.74704507747153 122.00197895680827 -75.48129704993542 curveto
122.00197895680827 -75.3927143701301 122.04627029671093 -75.34842303418739 122.1348529725563 -75.34842303418739 curveto
122.22343565236163 -75.34842303418739 122.26772698830433 -75.39271437409005 122.26772698830433 -75.48129704993542 curveto
122.26772698830433 -75.56987972974075 122.179144308499 -75.74704508539143 122.00197895680827 -76.01279311292754 curveto
121.64764823758698 -76.54428919175949 121.2933175342055 -76.81003720741573 120.93898683082402 -76.81003720741573 curveto
120.4960734317974 -76.81003720741573 120.18603407227853 -76.63287184780509 120.0088687205878 -76.27854114442361 curveto
120.0088687205878 -76.18995846461829 120.0088687205878 -76.14566712867557 120.0088687205878 -76.14566712867557 curveto
119.83170336097716 -76.41141516809155 119.61024666938376 -76.58858051582233 119.34449864184764 -76.6771631916677 curveto
119.25591596204231 -76.76574587147303 119.16733328619695 -76.81003720741573 119.07875061035158 -76.81003720741573 curveto
118.72441989113028 -76.81003720741573 118.45867186755413 -76.67716318770775 118.28150651586338 -76.41141516017164 curveto
118.28150651586338 -76.41141516017164 118.28150651586338 -76.32283248036632 118.28150651586338 -76.14566712867557 curveto
118.28150651586338 -75.96850176906493 118.37008919566871 -75.83562775727685 118.54725454735946 -75.74704508143148 curveto
118.63583722716479 -75.74704508143148 118.68012856310749 -75.74704508143148 118.68012856310749 -75.74704508143148 curveto
118.85729392271813 -75.74704508143148 118.9901679345062 -75.79133642133414 119.07875061035158 -75.87991909717951 curveto
119.07875061035158 -75.96850177698484 119.07875061035158 -76.01279311292754 119.07875061035158 -76.01279311292754 curveto
119.07875061035158 -76.1899584725382 118.99016793054625 -76.32283248432627 118.81300257885552 -76.41141516017164 curveto
118.72441989905019 -76.41141516017164 118.68012856310749 -76.41141516017164 118.68012856310749 -76.41141516017164 curveto
118.76871124291281 -76.49999783997697 118.90158525866084 -76.54428917591967 119.07875061035158 -76.54428917591967 curveto
119.34449864976754 -76.54428917591967 119.565955337401 -76.36712381630902 119.74312068909174 -76.01279311292754 curveto
119.83170336889707 -75.92421043312221 119.87599470483977 -75.83562775727685 119.87599470483977 -75.74704508143148 curveto
120.14174274425574 -74.59547024396227 120.27461675208386 -73.88680885699908 120.27461675208386 -73.62106082946298 curveto
120.27461675208386 -73.26673011024168 120.14174273237587 -73.08956476647086 119.87599470483977 -73.08956476647086 curveto
119.61024666542379 -73.08956476647086 119.34449863788768 -73.2667301260815 119.07875061035158 -73.62106082946298 curveto
119.07875061035158 -73.62106082946298 lineto
119.07875061035158 -73.62106082946298 119.07875061035158 -73.62106082946298 119.07875061035158 -73.62106082946298 curveto
118.99016793054625 -73.7096435092683 118.90158525470089 -73.84251752501633 118.81300257885552 -74.01968287670707 curveto
118.81300257885552 -74.01968287670707 118.81300257885552 -74.06397421660974 118.81300257885552 -74.15255689245511 curveto
118.68012856310749 -74.28543090820314 lineto
118.68012856310749 -74.28543090820314 118.68012856310749 -74.28543090820314 118.68012856310749 -74.28543090820314 curveto
118.59154588330216 -74.28543090820314 118.54725454735946 -74.28543090820314 118.54725454735946 -74.28543090820314 curveto
118.54725454735946 -74.10826554859248 118.63583722716479 -73.88680885699908 118.81300257885552 -73.62106082946298 curveto
119.07875061827148 -73.17814743043635 119.43308132561292 -72.95669075072281 119.87599470483977 -72.95669075072281 curveto
120.31890810386638 -72.95669075072281 120.62894746338524 -73.17814745023612 120.80611281507599 -73.62106082946298 curveto
120.98327817468663 -73.26673011024168 121.20473486628003 -73.04527342656819 121.47048289381614 -72.95669075072281 curveto
121.55906557362147 -72.95669075072281 121.64764824946684 -72.95669075072281 121.73623092531221 -72.95669075072281 curveto
122.09056164453351 -72.95669075072281 122.31201832820699 -73.04527343052814 122.40060100405236 -73.22243878221889 curveto
122.48918368385769 -73.31102146202421 122.53347501980039 -73.39960413786957 122.53347501980039 -73.48818681371495 curveto
122.53347501980039 -73.75393485313091 122.40060100009241 -73.88680886095904 122.1348529725563 -73.88680886095904 curveto
122.1348529725563 -73.97539154076436 122.09056163265365 -74.01968287670707 122.00197895680827 -74.01968287670707 curveto
121.82481359719763 -74.01968287670707 121.73623092531221 -73.93110019690174 121.73623092531221 -73.753934845211 curveto
121.73623092531221 -73.753934845211 121.73623092531221 -73.70964350530835 121.73623092531221 -73.62106082946298 curveto
121.73623092531221 -73.44389546985234 121.82481360511754 -73.31102145806426 122.00197895680827 -73.22243878221889 curveto
122.00197895680827 -73.22243878221889 122.04627029671093 -73.22243878221889 122.1348529725563 -73.22243878221889 curveto
122.04627029275098 -73.13385610241356 121.91339627700295 -73.08956476647086 121.73623092531221 -73.08956476647086 curveto
121.29331752628559 -73.08956476647086 121.0275695066694 -73.39960414578948 120.93898683082402 -74.01968287670707 curveto
120.8504041510187 -74.01968287670707 120.80611281507599 -74.06397421660974 120.80611281507599 -74.15255689245511 curveto
closepath
fill
newpath
1.0 setlinewidth
10.0 setmiterlimit
1 setlinejoin
1 setlinecap
[ ] 0 setdash
newpath
130.34648174376002 -74.68405295544723 moveto
125.69589119257891 -74.68405295544723 lineto
125.51872583296827 -74.68405295544723 125.43014316108285 -74.63976161554457 125.43014316108285 -74.5511789396992 curveto
125.43014316108285 -74.46259625989387 125.51872584088818 -74.41830492395117 125.69589119257891 -74.41830492395117 curveto
130.34648174376002 -74.41830492395117 lineto
130.52364710337068 -74.41830492395117 130.61222977525608 -74.46259626385383 130.61222977525608 -74.5511789396992 curveto
130.61222977525608 -74.63976161950453 130.52364709545077 -74.68405295544723 130.34648174376002 -74.68405295544723 curveto
closepath
fill
newpath
1.0 setlinewidth
10.0 setmiterlimit
1 setlinejoin
1 setlinecap
[ ] 0 setdash
newpath
137.38884512833724 -73.48818681371495 moveto
136.59160103384906 -76.6771631916677 lineto
136.4144356742384 -77.20865927049965 136.10439630283966 -77.65157264576654 135.66148292361282 -78.00590334914801 curveto
135.30715220439154 -78.271651388564 134.95282150101005 -78.40452539639212 134.59849079762859 -78.40452539639212 curveto
134.24416007840728 -78.40452539639212 133.97841205483113 -78.27165137668413 133.80124670314038 -78.00590334914801 curveto
133.71266402333507 -77.91732066934269 133.66837268739235 -77.82873799349733 133.66837268739235 -77.74015531765195 curveto
133.66837268739235 -77.38582459843066 133.80124670710035 -77.20865925465984 134.06699473463644 -77.20865925465984 curveto
134.06699473463644 -77.12007657485451 134.1112860745391 -77.07578523891179 134.19986875038447 -77.07578523891179 curveto
134.37703410999512 -77.07578523891179 134.46561678188056 -77.16436791871712 134.46561678188056 -77.34153327040787 curveto
134.46561678188056 -77.34153327040787 134.46561678188056 -77.38582461031052 134.46561678188056 -77.4744072861559 curveto
134.46561678188056 -77.56298996596122 134.4213254419779 -77.65157264180658 134.33274276613253 -77.74015531765195 curveto
134.24416008632718 -77.82873799745728 134.11128607057915 -77.87302933339998 133.9341207188884 -77.87302933339998 curveto
134.02270339869372 -78.13877737281597 134.2441600942471 -78.27165138064409 134.59849079762859 -78.27165138064409 curveto
134.95282151684987 -78.27165138064409 135.2628608803287 -78.09448602103343 135.5286089078648 -77.74015531765195 curveto
135.79435694728076 -77.38582459843066 135.97152229501154 -76.98720255514652 136.0601049708569 -76.54428917591967 curveto
136.0601049708569 -76.45570649611435 136.0601049708569 -76.41141516017164 136.0601049708569 -76.41141516017164 curveto
135.79435693144094 -76.67716319958761 135.52860890390482 -76.81003720741573 135.26286087636873 -76.81003720741573 curveto
134.8199474773421 -76.81003720741573 134.50990811782327 -76.63287184780509 134.33274276613253 -76.27854114442361 curveto
134.24416008632718 -76.10137578481296 134.19986875038447 -75.92421043312221 134.19986875038447 -75.74704508143148 curveto
134.19986875038447 -75.48129704201551 134.33274277009247 -74.90550963516077 134.59849079762859 -74.01968287670707 curveto
134.59849079762859 -74.01968287670707 134.64278213753124 -74.01968287670707 134.73136481337662 -74.01968287670707 curveto
134.81994749318193 -73.7539348372911 134.86423882912464 -73.53247814965765 134.86423882912464 -73.35531279796692 curveto
134.86423882912464 -73.17814743835628 134.77565614931933 -73.08956476647086 134.59849079762859 -73.08956476647086 curveto
134.3327427582126 -73.08956476647086 134.06699473067647 -73.35531280588683 133.80124670314038 -73.88680886095904 curveto
133.80124670314038 -73.88680886095904 lineto
133.80124670314038 -73.97539154076436 133.80124670314038 -74.06397421660974 133.80124670314038 -74.15255689245511 curveto
133.71266402333507 -74.24113957226044 133.66837268739235 -74.28543090820314 133.66837268739235 -74.28543090820314 curveto
133.57979000758704 -74.28543090820314 133.53549867164432 -74.28543090820314 133.53549867164432 -74.28543090820314 curveto
133.53549867164432 -74.10826554859248 133.57979001154698 -73.93110019690174 133.66837268739235 -73.753934845211 curveto
133.93412072680832 -73.22243876637906 134.2441600942471 -72.95669075072281 134.59849079762859 -72.95669075072281 curveto
134.95282151684987 -72.95669075072281 135.17427820052336 -73.0895647704308 135.26286087636873 -73.35531279796692 curveto
135.35144355617405 -73.44389547777224 135.39573489211676 -73.5324781536176 135.39573489211676 -73.62106082946298 curveto
135.39573489211676 -73.7096435092683 135.30715221231145 -73.93110020482166 135.1299868606207 -74.28543090820314 curveto
134.86423882120474 -74.99409234664573 134.73136481337662 -75.52558839379803 134.73136481337662 -75.87991909717951 curveto
134.73136481337662 -76.32283249620613 134.90853017298727 -76.54428917591967 135.26286087636873 -76.54428917591967 curveto
135.61719159559001 -76.54428917591967 135.88293961916617 -76.36712381630902 136.0601049708569 -76.01279311292754 curveto
136.14868765066223 -75.92421043312221 136.19297898660494 -75.87991909717951 136.19297898660494 -75.87991909717951 curveto
136.59160103384906 -74.28543090820314 lineto
136.68018371365437 -74.10826554859248 136.7244750495971 -73.88680885699908 136.7244750495971 -73.62106082946298 curveto
136.8130577294024 -73.35531279004701 136.85734906534512 -73.22243878221889 136.85734906534512 -73.22243878221889 curveto
136.94593174515043 -73.04527342260823 137.07880576089846 -72.95669075072281 137.2559711125892 -72.95669075072281 curveto
137.34455379239452 -73.04527343052814 137.38884512833724 -73.13385610637351 137.38884512833724 -73.22243878221889 curveto
137.38884512833724 -73.31102146202421 137.38884512833724 -73.39960413786957 137.38884512833724 -73.48818681371495 curveto
closepath
fill
newpath
1.0 setlinewidth
10.0 setmiterlimit
1 setlinejoin
1 setlinecap
[ ] 0 setdash
newpath
138.7678185410387 -70.56495846725825 moveto
138.7678185410387 -78.53739941214015 lineto
138.7678185410387 -78.71456477175079 138.72352720113605 -78.8031474436362 138.63494452529068 -78.8031474436362 curveto
138.54636184548536 -78.8031474436362 138.50207050954265 -78.71456476383088 138.50207050954265 -78.53739941214015 curveto
138.50207050954265 -70.56495846725825 lineto
138.50207050954265 -70.38779310764761 138.5463618494453 -70.29921043576219 138.63494452529068 -70.29921043576219 curveto
138.723527205096 -70.29921043576219 138.7678185410387 -70.38779311556752 138.7678185410387 -70.56495846725825 curveto
closepath
fill
newpath
0.0 0.0 0.0 setrgbcolor
0.0 0.0 0.0 setrgbcolor
0.0 0.0 0.0 setrgbcolor
0.0 0.0 0.0 setrgbcolor
0.0 0.0 0.0 setrgbcolor
1.0 setlinewidth
10.0 setmiterlimit
1 setlinejoin
1 setlinecap
[ ] 0 setdash
newpath
55.88681183462069 -21.88878006822481 moveto
58.94291419682541 -16.839567469799615 lineto
58.94291419682541 -16.75098478999429 58.98720553672808 -16.706693454051585 59.07578821257344 -16.706693454051585 curveto
59.16437089237876 -16.706693454051585 59.20866222832147 -16.750984793954245 59.20866222832147 -16.839567469799615 curveto
59.29724490812679 -16.839567469799615 59.3415362440695 -16.88385880970228 59.3415362440695 -16.972441485547648 curveto
59.87303230706163 -22.287402115468907 lineto
59.87303230706163 -22.37598479527423 59.87303230706163 -22.4645674711196 59.87303230706163 -22.55315014696497 curveto
59.87303230706163 -22.55315014696497 lineto
59.87303230706163 -22.55315014696497 lineto
59.87303230706163 -22.55315014696497 lineto
59.87303230706163 -22.55315014696497 lineto
59.87303230706163 -22.55315014696497 lineto
59.961614986866955 -22.55315014696497 60.13878034251765 -22.55315014696497 60.404528370053754 -22.55315014696497 curveto
60.49311104985908 -22.55315014696497 60.53740238580179 -22.59744148686763 60.53740238580179 -22.686024162713 curveto
60.53740238580179 -22.774606842518324 60.49311104589913 -22.818898178461033 60.404528370053754 -22.818898178461033 curveto
59.47441025981754 -22.818898178461033 lineto
59.47441025981754 -22.818898178461033 lineto
58.41141813383329 -22.818898178461033 lineto
58.41141813383329 -22.818898178461033 lineto
58.32283545402796 -22.818898178461033 58.27854411808525 -22.77460683855837 58.27854411808525 -22.686024162713 curveto
58.27854411808525 -22.597441482907676 58.322835457987914 -22.55315014696497 58.41141813383329 -22.55315014696497 curveto
58.8543315328599 -22.55315014696497 59.07578821257344 -22.464567467159647 59.07578821257344 -22.287402115468907 curveto
59.07578821257344 -22.287402115468907 59.03149687267078 -21.800197376539625 58.94291419682541 -20.82578794224056 curveto
56.81692994485691 -20.82578794224056 lineto
56.152559866116746 -21.88878006822481 lineto
56.063977186311426 -22.06594542783546 56.01968585036872 -22.198819439623538 56.01968585036872 -22.287402115468907 curveto
56.01968585036872 -22.464567475079555 56.1525598700767 -22.55315014696497 56.41830789761281 -22.55315014696497 curveto
56.50689057741813 -22.55315014696497 56.55118191336084 -22.59744148686763 56.55118191336084 -22.686024162713 curveto
56.55118191336084 -22.774606842518324 56.50689057345818 -22.818898178461033 56.41830789761281 -22.818898178461033 curveto
55.62106380312462 -22.818898178461033 lineto
55.62106380312462 -22.818898178461033 lineto
54.823819708636435 -22.818898178461033 lineto
54.823819708636435 -22.818898178461033 lineto
54.735237028831115 -22.818898178461033 54.690945692888405 -22.77460683855837 54.690945692888405 -22.686024162713 curveto
54.690945692888405 -22.597441482907676 54.73523703279107 -22.55315014696497 54.823819708636435 -22.55315014696497 curveto
54.823819708636435 -22.55315014696497 lineto
54.956693724384465 -22.55315014696497 lineto
55.31102444360576 -22.55315014696497 55.57677246718192 -22.420276127256983 55.75393781887266 -22.154528099720874 curveto
55.84252049867798 -22.06594541991555 55.88681183462069 -21.97736274407018 55.88681183462069 -21.88878006822481 curveto
closepath
56.94980396060494 -20.560039910744496 moveto
58.94291419682541 -20.560039910744496 lineto
58.677166165329346 -17.769685580035837 lineto
56.94980396060494 -20.560039910744496 lineto
closepath
fill
newpath
1.0 setlinewidth
10.0 setmiterlimit
1 setlinejoin
1 setlinecap
[ ] 0 setdash
newpath
63.59352096797914 -24.812008414681507 moveto
63.59352096797914 -24.812008414681507 lineto
63.59352096797914 -24.90059109448683 63.59352096797914 -24.944882430429537 63.59352096797914 -24.944882430429537 curveto
63.50493828817382 -24.944882430429537 63.327772932523125 -24.812008410721553 63.06202490498701 -24.546260383185444 curveto
62.70769418576572 -24.19192966396415 62.441946162189566 -23.793307620680007 62.26478081049883 -23.35039424145316 curveto
61.82186741147221 -22.553150123205242 61.60041073175867 -21.667323360791595 61.60041073175867 -20.69291392649253 curveto
61.60041073175867 -19.718504448633965 61.77757609136932 -18.832677694140227 62.1319067947508 -18.0354336115319 curveto
62.48623751397209 -17.415354852894634 62.884859557256235 -16.92815014168503 63.32777293648308 -16.573819438303552 curveto
63.4163556162884 -16.48523675849823 63.50493829213377 -16.440945422555522 63.59352096797914 -16.440945422555522 curveto
63.59352096797914 -16.440945422555522 63.59352096797914 -16.485236762458182 63.59352096797914 -16.573819438303552 curveto
63.59352096797914 -16.573819438303552 63.549229628076475 -16.618110778206216 63.46064695223111 -16.706693454051585 curveto
62.57482015417787 -17.592520252104823 62.1319067947508 -18.921260409585138 62.1319067947508 -20.69291392649253 curveto
62.1319067947508 -22.464567522599005 62.57482019377741 -23.793307640479778 63.46064695223111 -24.679134398933474 curveto
63.54922963203643 -24.767717078738798 63.59352096797914 -24.812008414681507 63.59352096797914 -24.812008414681507 curveto
closepath
fill
newpath
1.0 setlinewidth
10.0 setmiterlimit
1 setlinejoin
1 setlinecap
[ ] 0 setdash
newpath
66.90061524158389 -20.294291879248433 moveto
66.63486721008782 -21.357284005232685 lineto
66.54628453028249 -21.800197404259304 66.50199319433979 -22.065945423875505 66.50199319433979 -22.154528099720874 curveto
66.50199319433979 -22.420276139136845 66.59057587414512 -22.59744148686763 66.76774122583586 -22.686024162713 curveto
66.85632390564119 -22.686024162713 66.94490658148655 -22.686024162713 67.03348925733192 -22.686024162713 curveto
67.29923729674789 -22.686024162713 67.52069398438134 -22.553150143005016 67.69785933607207 -22.287402115468907 curveto
67.87502469568273 -22.11023675585826 68.0078987074708 -21.888780064264857 68.09648138331617 -21.62303203672875 curveto
68.09648138331617 -21.534449356923425 68.14077272321883 -21.49015802098072 68.2293553990642 -21.49015802098072 curveto
68.31793807886953 -21.49015802098072 68.36222941481223 -21.53444936088338 68.36222941481223 -21.62303203672875 curveto
68.36222941481223 -21.711614716534072 68.2736467350069 -21.888780072184765 68.09648138331617 -22.154528099720874 curveto
67.74215066409488 -22.68602417855282 67.3878199607134 -22.951772194209067 67.03348925733192 -22.951772194209067 curveto
66.5905758583053 -22.951772194209067 66.28053649878643 -22.77460683459842 66.1033711470957 -22.420276131216937 curveto
66.1033711470957 -22.331693451411613 66.1033711470957 -22.287402115468907 66.1033711470957 -22.287402115468907 curveto
65.92620578748506 -22.55315015488488 65.70474909589166 -22.730315502615664 65.43900106835554 -22.818898178461033 curveto
65.35041838855021 -22.907480858266357 65.26183571270485 -22.951772194209067 65.17325303685948 -22.951772194209067 curveto
64.81892231763818 -22.951772194209067 64.55317429406203 -22.81889817450108 64.37600894237129 -22.55315014696497 curveto
64.37600894237129 -22.55315014696497 64.37600894237129 -22.464567467159647 64.37600894237129 -22.287402115468907 curveto
64.37600894237129 -22.11023675585826 64.46459162217661 -21.97736274407018 64.64175697386736 -21.88878006822481 curveto
64.73033965367269 -21.88878006822481 64.77463098961539 -21.88878006822481 64.77463098961539 -21.88878006822481 curveto
64.95179634922603 -21.88878006822481 65.0846703610141 -21.933071408127475 65.17325303685948 -22.021654083972845 curveto
65.17325303685948 -22.11023676377817 65.17325303685948 -22.154528099720874 65.17325303685948 -22.154528099720874 curveto
65.17325303685948 -22.33169345933152 65.08467035705415 -22.4645674711196 64.90750500536342 -22.55315014696497 curveto
64.81892232555809 -22.55315014696497 64.77463098961539 -22.55315014696497 64.77463098961539 -22.55315014696497 curveto
64.86321366942072 -22.641732826770294 64.99608768516875 -22.686024162713 65.17325303685948 -22.686024162713 curveto
65.43900107627545 -22.686024162713 65.6604577639089 -22.508858803102353 65.83762311559964 -22.154528099720874 curveto
65.92620579540497 -22.06594541991555 65.97049713134767 -21.97736274407018 65.97049713134767 -21.88878006822481 curveto
66.23624517076364 -20.737205230755603 66.36911917859176 -20.028543843792416 66.36911917859176 -19.762795816256308 curveto
66.36911917859176 -19.408465097035013 66.23624515888378 -19.23129975326418 65.97049713134767 -19.23129975326418 curveto
65.70474909193169 -19.23129975326418 65.43900106439558 -19.40846511287483 65.17325303685948 -19.762795816256308 curveto
65.17325303685948 -19.762795816256308 lineto
65.17325303685948 -19.762795816256308 65.17325303685948 -19.762795816256308 65.17325303685948 -19.762795816256308 curveto
65.08467035705415 -19.85137849606163 64.99608768120879 -19.984252511809665 64.90750500536342 -20.161417863500404 curveto
64.90750500536342 -20.161417863500404 64.90750500536342 -20.205709203403064 64.90750500536342 -20.294291879248433 curveto
64.77463098961539 -20.427165894996467 lineto
64.77463098961539 -20.427165894996467 64.77463098961539 -20.427165894996467 64.77463098961539 -20.427165894996467 curveto
64.68604830981006 -20.427165894996467 64.64175697386736 -20.427165894996467 64.64175697386736 -20.427165894996467 curveto
64.64175697386736 -20.25000053538582 64.73033965367269 -20.028543843792416 64.90750500536342 -19.762795816256308 curveto
65.17325304477939 -19.31988241722969 65.52758375212082 -19.098425737516152 65.97049713134767 -19.098425737516152 curveto
66.41341053037428 -19.098425737516152 66.72344988989315 -19.31988243702946 66.90061524158389 -19.762795816256308 curveto
67.07778060119453 -19.408465097035013 67.29923729278794 -19.18700841336152 67.56498532032404 -19.098425737516152 curveto
67.65356800012937 -19.098425737516152 67.74215067597474 -19.098425737516152 67.83073335182011 -19.098425737516152 curveto
68.18506407104141 -19.098425737516152 68.40652075471489 -19.187008417321476 68.49510343056026 -19.364173769012215 curveto
68.58368611036559 -19.45275644881754 68.6279774463083 -19.54133912466291 68.6279774463083 -19.629921800508278 curveto
68.6279774463083 -19.89566983992425 68.49510342660031 -20.02854384775237 68.2293553990642 -20.02854384775237 curveto
68.2293553990642 -20.117126527557694 68.18506405916155 -20.161417863500404 68.09648138331617 -20.161417863500404 curveto
67.91931602370553 -20.161417863500404 67.83073335182011 -20.07283518369508 67.83073335182011 -19.89566983200434 curveto
67.83073335182011 -19.89566983200434 67.83073335182011 -19.851378492101677 67.83073335182011 -19.762795816256308 curveto
67.83073335182011 -19.58563045664566 67.91931603162544 -19.452756444857584 68.09648138331617 -19.364173769012215 curveto
68.09648138331617 -19.364173769012215 68.14077272321883 -19.364173769012215 68.2293553990642 -19.364173769012215 curveto
68.14077271925888 -19.27559108920689 68.00789870351085 -19.23129975326418 67.83073335182011 -19.23129975326418 curveto
67.38781995279349 -19.23129975326418 67.1220719331773 -19.541339132582817 67.03348925733192 -20.161417863500404 curveto
66.9449065775266 -20.161417863500404 66.90061524158389 -20.205709203403064 66.90061524158389 -20.294291879248433 curveto
closepath
fill
newpath
1.0 setlinewidth
10.0 setmiterlimit
1 setlinejoin
1 setlinecap
[ ] 0 setdash
newpath
71.36223500169169 -20.69291392649253 moveto
71.36223500169169 -20.69291392649253 lineto
71.36223500169169 -21.66732340435109 71.18506964208105 -22.553150158844833 70.83073893869957 -23.35039424145316 curveto
70.56499089928359 -23.970473000090426 70.21066019194215 -24.45767771130003 69.76774681271532 -24.812008414681507 curveto
69.67916413290999 -24.90059109448683 69.59058145706463 -24.944882430429537 69.50199878121926 -24.944882430429537 curveto
69.50199878121926 -24.944882430429537 69.50199878121926 -24.900591090526877 69.50199878121926 -24.812008414681507 curveto
69.50199878121926 -24.812008414681507 69.50199878121926 -24.767717074778844 69.50199878121926 -24.679134398933474 curveto
70.47640825907781 -23.793307600880237 70.9636129544476 -22.464567443399922 70.9636129544476 -20.69291392649253 curveto
70.9636129544476 -18.921260330386055 70.52069955542098 -17.59252021250528 69.63487279696729 -16.706693454051585 curveto
69.63487279696729 -16.706693454051585 lineto
69.54629011716196 -16.61811077424626 69.50199878121926 -16.573819438303552 69.50199878121926 -16.573819438303552 curveto
69.50199878121926 -16.48523675849823 69.50199878121926 -16.440945422555522 69.50199878121926 -16.440945422555522 curveto
69.59058146102458 -16.440945422555522 69.76774681667527 -16.573819442263506 70.03349484421138 -16.839567469799615 curveto
70.38782556343267 -17.19389818902091 70.65357358700884 -17.592520232305052 70.83073893869957 -18.0354336115319 curveto
71.18506965792086 -18.832677729779814 71.36223500169169 -19.718504492193464 71.36223500169169 -20.69291392649253 curveto
closepath
fill
newpath
0.0 0.0 0.0 setrgbcolor
0.0 0.0 0.0 setrgbcolor
0.0 0.0 0.0 setrgbcolor
0.0 0.0 0.0 setrgbcolor
0.0 0.0 0.0 setrgbcolor
1.0 setlinewidth
10.0 setmiterlimit
1 setlinejoin
1 setlinecap
[ ] 0 setdash
newpath
195.7854341521977 -21.020668885839267 moveto
196.98130029392996 -16.502952350406197 lineto
196.98130029392996 -16.414369670600873 196.98130029392996 -16.325786994755504 196.98130029392996 -16.237204318910134 curveto
196.98130029392996 -16.237204318910134 196.9370089540273 -16.192912979007474 196.84842627818193 -16.104330303162104 curveto
196.84842627818193 -16.104330303162104 lineto
196.84842627818193 -16.104330303162104 lineto
196.84842627818193 -16.104330303162104 196.80413493827928 -16.104330303162104 196.7155522624339 -16.104330303162104 curveto
196.6269695826286 -16.104330303162104 196.53838690678322 -16.104330303162104 196.44980423093784 -16.104330303162104 curveto
196.2726388713272 -16.104330303162104 196.18405619944178 -16.104330303162104 196.18405619944178 -16.104330303162104 curveto
196.18405619944178 -15.927164943551457 196.22834753934444 -15.838582271666041 196.3169302151898 -15.838582271666041 curveto
196.3169302151898 -15.838582271666041 lineto
196.3169302151898 -15.838582271666041 lineto
196.44980423093784 -15.838582271666041 lineto
199.2401585616465 -15.838582271666041 lineto
199.94882000008909 -15.838582271666041 200.43602470733876 -16.06003897117935 200.70177273487485 -16.502952350406197 curveto
200.79035541468016 -16.680117710016845 200.83464675062288 -16.857283061707584 200.83464675062288 -17.034448413398323 curveto
200.83464675062288 -17.47736181242494 200.61319005110957 -17.87598385174913 200.17027667188273 -18.230314555130608 curveto
200.17027667188273 -18.230314555130608 200.12598533198008 -18.230314555130608 200.0374026561347 -18.230314555130608 curveto
199.7716546167187 -18.407479914741256 199.46161524927993 -18.54035392652933 199.10728454589847 -18.6289366023747 curveto
199.72736330453574 -18.717519282180024 200.12598533594002 -18.93897597773338 200.30315068763076 -19.29330668111486 curveto
200.39173336743607 -19.470472040725507 200.4360247033788 -19.647637392416247 200.4360247033788 -19.824802744106986 curveto
200.4360247033788 -20.267716143133605 200.21456800386548 -20.66633818245779 199.77165462463864 -21.020668885839267 curveto
199.77165462463864 -21.020668885839267 lineto
199.32874122561202 -21.463582284865886 198.75295382667719 -21.685038964579427 198.04429241991423 -21.685038964579427 curveto
194.9881900577095 -21.685038964579427 lineto
194.89960737790418 -21.685038964579427 194.85531604196146 -21.640747624676763 194.85531604196146 -21.552164948831393 curveto
194.85531604196146 -21.46358226902607 194.89960738186412 -21.419290933083364 194.9881900577095 -21.419290933083364 curveto
194.9881900577095 -21.419290933083364 lineto
195.4311034567361 -21.419290933083364 195.65256013644967 -21.3749995931807 195.65256013644967 -21.28641691733533 curveto
195.74114281625498 -21.28641691733533 195.7854341521977 -21.197834237530007 195.7854341521977 -21.020668885839267 curveto
195.7854341521977 -21.020668885839267 195.7854341521977 -21.020668885839267 195.7854341521977 -21.020668885839267 curveto
closepath
197.114174309678 -18.6289366023747 moveto
198.3100404514103 -18.6289366023747 lineto
198.93011921004754 -18.6289366023747 199.41732392125715 -18.407479902861393 199.77165462463864 -17.964566523634545 curveto
200.0374026640546 -17.698818484218574 200.17027667188273 -17.3887791167798 200.17027667188273 -17.034448413398323 curveto
200.17027667188273 -16.591535014371704 199.99311131227208 -16.325786994755504 199.63878060889058 -16.237204318910134 curveto
199.46161524927993 -16.14862163910481 199.32874123749187 -16.104330303162104 199.2401585616465 -16.104330303162104 curveto
198.04429241991423 -16.104330303162104 lineto
197.86712706030357 -16.104330303162104 197.77854438841817 -16.148621643064764 197.77854438841817 -16.237204318910134 curveto
197.77854438841817 -16.237204318910134 lineto
197.77854438841817 -16.237204318910134 lineto
197.64567037267014 -16.237204318910134 lineto
197.64567037267014 -16.237204318910134 lineto
197.64567037267014 -16.237204318910134 197.64567037267014 -16.325786998715458 197.64567037267014 -16.502952350406197 curveto
197.114174309678 -18.6289366023747 lineto
closepath
196.7155522624339 -21.419290933083364 moveto
197.9114184041662 -21.419290933083364 lineto
198.44291448299813 -21.419290933083364 198.88582785826503 -21.197834233570052 199.2401585616465 -20.754920854343204 curveto
199.50590660106246 -20.489172814927233 199.63878060889058 -20.1348421075858 199.63878060889058 -19.691928728358953 curveto
199.63878060889058 -19.337598009137658 199.5059065891826 -19.071849985561503 199.2401585616465 -18.894684633870764 curveto
199.06299320203584 -18.80610195406544 198.88582785034512 -18.761810618122734 198.70866249865438 -18.761810618122734 curveto
197.114174309678 -18.761810618122734 lineto
196.44980423093784 -21.1535429015873 lineto
196.44980423093784 -21.242125581392624 196.44980423093784 -21.28641691733533 196.44980423093784 -21.28641691733533 curveto
196.44980423093784 -21.374999597140654 196.44980423093784 -21.419290933083364 196.44980423093784 -21.419290933083364 curveto
196.44980423093784 -21.419290933083364 lineto
196.44980423093784 -21.419290933083364 lineto
196.58267824668587 -21.419290933083364 lineto
196.58267824668587 -21.419290933083364 196.62696958658853 -21.419290933083364 196.7155522624339 -21.419290933083364 curveto
closepath
fill
newpath
1.0 setlinewidth
10.0 setmiterlimit
1 setlinejoin
1 setlinecap
[ ] 0 setdash
newpath
203.69737459918647 -23.6781492007999 moveto
203.69737459918647 -23.6781492007999 lineto
203.69737459918647 -23.766731880605224 203.69737459918647 -23.81102321654793 203.69737459918647 -23.81102321654793 curveto
203.60879191938116 -23.81102321654793 203.43162656373045 -23.678149196839946 203.16587853619436 -23.412401169303838 curveto
202.81154781697307 -23.058070450082543 202.54579979339692 -22.6594484067984 202.36863444170618 -22.216535027571553 curveto
201.92572104267956 -21.419290909323635 201.704264362966 -20.53346414690999 201.704264362966 -19.559054712610923 curveto
201.704264362966 -18.584645234752358 201.88142972257666 -17.69881848025862 202.23576042595815 -16.901574397650293 curveto
202.59009114517943 -16.281495639013027 202.98871318846358 -15.794290927803424 203.43162656769042 -15.439960224421945 curveto
203.52020924749573 -15.351377544616621 203.6087919233411 -15.307086208673914 203.69737459918647 -15.307086208673914 curveto
203.69737459918647 -15.307086208673914 203.69737459918647 -15.351377548576576 203.69737459918647 -15.439960224421945 curveto
203.69737459918647 -15.439960224421945 203.65308325928382 -15.484251564324607 203.56450058343844 -15.572834240169978 curveto
202.67867378538523 -16.458661038223216 202.23576042595815 -17.78740119570353 202.23576042595815 -19.559054712610923 curveto
202.23576042595815 -21.330708308717398 202.67867382498477 -22.65944842659817 203.56450058343844 -23.545275185051867 curveto
203.65308326324376 -23.63385786485719 203.69737459918647 -23.6781492007999 203.69737459918647 -23.6781492007999 curveto
closepath
fill
newpath
1.0 setlinewidth
10.0 setmiterlimit
1 setlinejoin
1 setlinecap
[ ] 0 setdash
newpath
208.3332049752784 -18.49606258662667 moveto
207.5359608807902 -21.685038964579427 lineto
207.35879552117956 -22.21653504341137 207.04875614978081 -22.659448418678263 206.60584277055398 -23.01377912205974 curveto
206.2515120513327 -23.279527161475713 205.8971813479512 -23.412401169303838 205.54285064456974 -23.412401169303838 curveto
205.18851992534843 -23.412401169303838 204.92277190177228 -23.27952714959585 204.74560655008153 -23.01377912205974 curveto
204.65702387027622 -22.925196442254418 204.6127325343335 -22.836613766409048 204.6127325343335 -22.74803109056368 curveto
204.6127325343335 -22.393700371342383 204.7456065540415 -22.216535027571553 205.0113545815776 -22.216535027571553 curveto
205.0113545815776 -22.12795234776623 205.05564592148025 -22.083661011823523 205.14422859732562 -22.083661011823523 curveto
205.32139395693628 -22.083661011823523 205.4099766288217 -22.172243691628847 205.4099766288217 -22.349409043319586 curveto
205.4099766288217 -22.349409043319586 205.4099766288217 -22.393700383222246 205.4099766288217 -22.482283059067615 curveto
205.4099766288217 -22.57086573887294 205.36568528891905 -22.65944841471831 205.27710261307368 -22.74803109056368 curveto
205.18851993326834 -22.836613770369002 205.0556459175203 -22.88090510631171 204.87848056582956 -22.88090510631171 curveto
204.96706324563488 -23.146653145727683 205.18851994118825 -23.279527153555804 205.54285064456974 -23.279527153555804 curveto
205.89718136379102 -23.279527153555804 206.20722072726986 -23.102361793945157 206.47296875480595 -22.74803109056368 curveto
206.73871679422192 -22.393700371342383 206.9158821419527 -21.99507832805824 207.00446481779807 -21.552164948831393 curveto
207.00446481779807 -21.46358226902607 207.00446481779807 -21.419290933083364 207.00446481779807 -21.419290933083364 curveto
206.7387167783821 -21.685038972499335 206.47296875084598 -21.81791298032746 206.2072207233099 -21.81791298032746 curveto
205.76430732428327 -21.81791298032746 205.45426796476443 -21.640747620716812 205.27710261307368 -21.28641691733533 curveto
205.18851993326834 -21.109251557724683 205.14422859732562 -20.932086206033944 205.14422859732562 -20.754920854343204 curveto
205.14422859732562 -20.489172814927233 205.27710261703362 -19.913385408072493 205.54285064456974 -19.027558649618797 curveto
205.54285064456974 -19.027558649618797 205.5871419844724 -19.027558649618797 205.67572466031777 -19.027558649618797 curveto
205.76430734012308 -18.761810610202826 205.8085986760658 -18.540353922569377 205.8085986760658 -18.363188570878638 curveto
205.8085986760658 -18.18602321126799 205.72001599626049 -18.097440539382575 205.54285064456974 -18.097440539382575 curveto
205.27710260515374 -18.097440539382575 205.01135457761762 -18.363188578798546 204.74560655008153 -18.894684633870764 curveto
204.74560655008153 -18.894684633870764 lineto
204.74560655008153 -18.983267313676087 204.74560655008153 -19.071849989521457 204.74560655008153 -19.160432665366827 curveto
204.65702387027622 -19.24901534517215 204.6127325343335 -19.29330668111486 204.6127325343335 -19.29330668111486 curveto
204.5241498545282 -19.29330668111486 204.47985851858547 -19.29330668111486 204.47985851858547 -19.29330668111486 curveto
204.47985851858547 -19.116141321504212 204.52414985848813 -18.938975969813473 204.6127325343335 -18.761810618122734 curveto
204.87848057374947 -18.23031453929079 205.18851994118825 -17.964566523634545 205.54285064456974 -17.964566523634545 curveto
205.89718136379102 -17.964566523634545 206.11863804746451 -18.09744054334253 206.2072207233099 -18.363188570878638 curveto
206.2958034031152 -18.45177125068396 206.34009473905792 -18.54035392652933 206.34009473905792 -18.6289366023747 curveto
206.34009473905792 -18.717519282180024 206.2515120592526 -18.93897597773338 206.07434670756186 -19.29330668111486 curveto
205.8085986681459 -20.00196811955745 205.67572466031777 -20.53346416670976 205.67572466031777 -20.887794870091238 curveto
205.67572466031777 -21.330708269117856 205.85289001992842 -21.552164948831393 206.2072207233099 -21.552164948831393 curveto
206.56155144253117 -21.552164948831393 206.82729946610732 -21.374999589220746 207.00446481779807 -21.020668885839267 curveto
207.09304749760338 -20.932086206033944 207.1373388335461 -20.887794870091238 207.1373388335461 -20.887794870091238 curveto
207.5359608807902 -19.29330668111486 lineto
207.62454356059553 -19.116141321504212 207.66883489653824 -18.89468462991081 207.66883489653824 -18.6289366023747 curveto
207.75741757634356 -18.36318856295873 207.80170891228627 -18.230314555130608 207.80170891228627 -18.230314555130608 curveto
207.8902915920916 -18.05314919551996 208.02316560783962 -17.964566523634545 208.20033095953036 -17.964566523634545 curveto
208.28891363933568 -18.05314920343987 208.3332049752784 -18.14173187928524 208.3332049752784 -18.230314555130608 curveto
208.3332049752784 -18.318897234935932 208.3332049752784 -18.4074799107813 208.3332049752784 -18.49606258662667 curveto
closepath
fill
newpath
1.0 setlinewidth
10.0 setmiterlimit
1 setlinejoin
1 setlinecap
[ ] 0 setdash
newpath
210.7751705139641 -19.559054712610923 moveto
210.7751705139641 -19.559054712610923 lineto
210.7751705139641 -20.533464190469484 210.59800515435344 -21.419290944963226 210.24367445097198 -22.216535027571553 curveto
209.977926411556 -22.83661378620882 209.62359570421458 -23.323818497418422 209.1806823249877 -23.6781492007999 curveto
209.0920996451824 -23.766731880605224 209.00351696933703 -23.81102321654793 208.91493429349165 -23.81102321654793 curveto
208.91493429349165 -23.81102321654793 208.91493429349165 -23.76673187664527 208.91493429349165 -23.6781492007999 curveto
208.91493429349165 -23.6781492007999 208.91493429349165 -23.633857860897237 208.91493429349165 -23.545275185051867 curveto
209.8893437713502 -22.65944838699863 210.37654846672 -21.330708229518315 210.37654846672 -19.559054712610923 curveto
210.37654846672 -17.787401116504448 209.9336350676934 -16.458660998623674 209.04780830923968 -15.572834240169978 curveto
209.04780830923968 -15.572834240169978 lineto
208.95922562943437 -15.484251560364653 208.91493429349165 -15.439960224421945 208.91493429349165 -15.439960224421945 curveto
208.91493429349165 -15.351377544616621 208.91493429349165 -15.307086208673914 208.91493429349165 -15.307086208673914 curveto
209.00351697329697 -15.307086208673914 209.18068232894768 -15.4399602283819 209.4464303564838 -15.705708255918008 curveto
209.80076107570508 -16.060038975139303 210.06650909928123 -16.458661018423445 210.24367445097198 -16.901574397650293 curveto
210.59800517019326 -17.698818515898207 210.7751705139641 -18.584645278311857 210.7751705139641 -19.559054712610923 curveto
closepath
fill
newpath
0.0 0.0 0.0 setrgbcolor
0.0 0.0 0.0 setrgbcolor
grestore
grestore
showpage

%%EOF