%!PS-Adobe-3.0 EPSF-3.0
%%Creator: EpsGraphics 1.0.0 by Thomas Abeel, http://www.sourceforge.net/epsgraphics/
%%Title: GeoGebra, https://www.geogebra.org/
%%CreationDate: Fri Aug 19 14:14:44 CEST 2016
%%BoundingBox: 0 0 335 144
%%DocumentData: Clean7Bit
%%LanguageLevel: 2
%%DocumentProcessColors: Black
%%ColorUsage: Color
%%Origin: 0 0
%%Pages: 1
%%Page: 1 1
%%EndComments

gsave
0.0 144.0 translate
0.0 0.0 0.0 setrgbcolor
0.0 0.0 0.0 setrgbcolor
gsave
newpath
0.0 -0.0 moveto
335.03154198474635 -0.0 lineto
335.03154198474635 -144.1051818785322 lineto
0.0 -144.1051818785322 lineto
0.0 -0.0 lineto
closepath
clip
newpath
1.0 1.0 1.0 setrgbcolor
newpath
0.0 -0.0 moveto
335.03154198474635 -0.0 lineto
335.03154198474635 -144.1051818785322 lineto
0.0 -144.1051818785322 lineto
0.0 -0.0 lineto
closepath
fill
newpath
0.0 0.0 0.0 setrgbcolor
1.0 setlinewidth
10.0 setmiterlimit
0 setlinejoin
0 setlinecap
[ ] 0 setdash
newpath
29.982656411301324 -1.040470627281821 moveto
29.982656411301324 -144.1051818785322 lineto
stroke
newpath
1.0 setlinewidth
10.0 setmiterlimit
0 setlinejoin
0 setlinecap
[ ] 0 setdash
newpath
29.982656411301324 -0.5202353136409105 moveto
27.901715156737684 -2.6011765682045525 lineto
stroke
newpath
1.0 setlinewidth
10.0 setmiterlimit
0 setlinejoin
0 setlinecap
[ ] 0 setdash
newpath
29.982656411301324 -0.5202353136409105 moveto
32.06359766586497 -2.6011765682045525 lineto
stroke
newpath
1.0 setlinewidth
10.0 setmiterlimit
0 setlinejoin
0 setlinecap
[ ] 0 setdash
newpath
1.6361997183879422 -130.6642878620651 moveto
1.6361997183879422 -132.22499380298783 lineto
stroke
newpath
1.0 setlinewidth
10.0 setmiterlimit
0 setlinejoin
0 setlinecap
[ ] 0 setdash
newpath
0.0 -130.6642878620651 moveto
333.99107135746453 -130.6642878620651 lineto
stroke
newpath
1.0 setlinewidth
10.0 setmiterlimit
0 setlinejoin
0 setlinecap
[ ] 0 setdash
newpath
334.51130667110544 -130.6642878620651 moveto
332.4303654165418 -128.58334660750145 lineto
stroke
newpath
1.0 setlinewidth
10.0 setmiterlimit
0 setlinejoin
0 setlinecap
[ ] 0 setdash
newpath
334.51130667110544 -130.6642878620651 moveto
332.4303654165418 -132.74522911662874 lineto
stroke
newpath
1.0 setlinewidth
10.0 setmiterlimit
0 setlinejoin
0 setlinecap
[ ] 0 setdash
newpath
28.421950470378594 -102.31783116915175 moveto
29.982656411301324 -102.31783116915175 lineto
stroke
newpath
1.0 setlinewidth
10.0 setmiterlimit
0 setlinejoin
0 setlinecap
[ ] 0 setdash
newpath
28.421950470378594 -73.9713744762384 moveto
29.982656411301324 -73.9713744762384 lineto
stroke
newpath
1.0 setlinewidth
10.0 setmiterlimit
0 setlinejoin
0 setlinecap
[ ] 0 setdash
newpath
28.421950470378594 -45.624917783325046 moveto
29.982656411301324 -45.624917783325046 lineto
stroke
newpath
1.0 setlinewidth
10.0 setmiterlimit
0 setlinejoin
0 setlinecap
[ ] 0 setdash
newpath
28.421950470378594 -17.278461090411703 moveto
29.982656411301324 -17.278461090411703 lineto
stroke
newpath
1.0 0.0 0.0 setrgbcolor
2.0 setlinewidth
10.0 setmiterlimit
1 setlinejoin
1 setlinecap
[ ] 0 setdash
newpath
29.98265603958894 -130.66428781943813 moveto
30.339293794959197 -126.16775626067155 lineto
30.695931550329455 -124.30522556548773 lineto
31.40920706106997 -121.67121676374408 lineto
32.71792402194789 -118.21156778352633 lineto
34.0266409828258 -115.52277773331717 lineto
36.64407490458163 -111.23093165371063 lineto
39.26150882633746 -107.72861505858168 lineto
41.878942748093294 -104.69439593621242 lineto
44.49637666984913 -101.97936232602252 lineto
47.11381059160495 -99.4999650843952 lineto
49.731244513360785 -97.20378853481722 lineto
52.34867843511662 -95.05537291248704 lineto
54.96611235687244 -93.02939548408993 lineto
57.583546278628276 -91.1070507464213 lineto
60.20098020038411 -89.2738912466182 lineto
62.81841412213994 -87.51854953825222 lineto
65.43584804389577 -85.83188085995073 lineto
68.0532819656516 -84.20640746413304 lineto
70.67071588740743 -82.6359137708037 lineto
73.28814980916326 -81.11517647008151 lineto
75.90558373091909 -79.63974225369384 lineto
78.52301765267492 -78.20578492808032 lineto
81.14045157443076 -76.81000221830084 lineto
83.75788549618659 -75.44948875746095 lineto
86.37531941794242 -74.1216963959074 lineto
88.99275333969825 -72.82438657226248 lineto
91.61018726145407 -71.55553505549322 lineto
94.2276211832099 -70.31336369755493 lineto
96.84505510496574 -69.09624517546033 lineto
99.46248902672157 -67.90271886760127 lineto
102.0799229484774 -66.73147497742698 lineto
104.69735687023324 -65.58131087355905 lineto
107.31479079198907 -64.45111521346956 lineto
109.93222471374489 -63.3398957270443 lineto
112.54965863550072 -62.246719680375904 lineto
115.16709255725655 -61.170733721166144 lineto
117.78452647901238 -60.11115990964548 lineto
120.40196040076822 -59.06726396592939 lineto
123.01939432252405 -58.03837114634022 lineto
125.63682824427988 -57.02385433616577 lineto
128.25426216603572 -56.02312214241798 lineto
130.87169608779155 -55.03563080107426 lineto
133.48913000954738 -54.06087226983614 lineto
136.1065639313032 -53.098358351807406 lineto
138.72399785305902 -52.14764450997691 lineto
141.34143177481485 -51.2083020836553 lineto
143.95886569657068 -50.279942102957804 lineto
146.57629961832652 -49.36217559799966 lineto
149.19373354008235 -48.45465725878111 lineto
151.81116746183818 -47.557049713463336 lineto
154.428601383594 -46.66903146652932 lineto
157.04603530534985 -45.7903048369448 lineto
159.66346922710568 -44.92058008183643 lineto
162.2809031488615 -44.05959524189405 lineto
164.89833707061734 -43.2070804196466 lineto
167.51577099237318 -42.36279747026667 lineto
170.133204914129 -41.526512218007305 lineto
172.75063883588484 -40.698002394362916 lineto
175.36807275764068 -39.877049699908376 lineto
177.9855066793965 -39.06345568062085 lineto
180.6029406011523 -38.25702188247749 lineto
183.22037452290814 -37.45756969685774 lineto
185.83780844466398 -36.66491257698012 lineto
188.4552423664198 -35.87888382146545 lineto
191.07267628817564 -35.09932466709546 lineto
193.69011020993148 -34.32606841249095 lineto
196.3075441316873 -33.55897217075548 lineto
198.92497805344314 -32.79788710137191 lineto
201.54241197519897 -32.0426762710645 lineto
204.1598458969548 -31.293204731097696 lineto
206.77727981871064 -30.549343486356655 lineto
209.39471374046647 -29.81096751080699 lineto
212.0121476622223 -29.07795971657522 lineto
214.62958158397814 -28.35020301578787 lineto
217.24701550573397 -27.627584289651917 lineto
219.86444942748977 -26.910000342075485 lineto
222.4818833492456 -26.19734599242647 lineto
225.09931727100144 -25.489520029153216 lineto
227.71675119275727 -24.786425209784536 lineto
230.3341851145131 -24.08796826092969 lineto
232.95161903626894 -23.394059878278398 lineto
235.56905295802477 -22.704610757520385 lineto
238.1864868797806 -22.019537547966053 lineto
240.80392080153644 -21.338756898925812 lineto
243.42135472329227 -20.662189428790523 lineto
246.0387886450481 -19.989757740491275 lineto
248.65622256680393 -19.32138642149939 lineto
251.27365648855977 -18.657004028366643 lineto
253.8910904103156 -17.996539117644815 lineto
256.50852433207143 -17.339924214966135 lineto
259.12595825382726 -16.687091845962836 lineto
261.7433921755831 -16.037976520807387 lineto
264.36082609733893 -15.392516718752697 lineto
266.97826001909476 -14.750650919051692 lineto
269.5956939408506 -14.112320577767628 lineto
272.2131278626064 -13.477466158693657 lineto
274.83056178436226 -12.846033086973494 lineto
277.44799570611804 -12.217966787750859 lineto
280.06542962787387 -11.593212686169469 lineto
282.6828635496297 -10.971719184183385 lineto
285.30029747138553 -10.353436668286898 lineto
287.91773139314137 -9.738315524974295 lineto
290.5351653148972 -9.126307133009982 lineto
293.15259923665303 -8.517364855698588 lineto
295.77003315840886 -7.911443544749919 lineto
298.3874670801647 -7.308499044143891 lineto
301.00490100192053 -6.708486701725364 lineto
303.62233492367636 -6.111364842149542 lineto
306.2397688454322 -5.517092286206686 lineto
308.857202767188 -4.925628350822111 lineto
311.47463668894386 -4.336933345191249 lineto
314.0920706106997 -3.7509693149822327 lineto
316.7095045324555 -3.1676983058631927 lineto
319.32693845421136 -2.587083355772374 lineto
321.9443723759672 -2.0090887429856656 lineto
324.561806297723 -1.4336791178802482 lineto
327.17924021947886 -0.8608203091540638 lineto
329.7966741412347 -0.2904786106316701 lineto
332.4141080629905 0.2773789086513484 lineto
335.03154198474635 0.8427843734399393 lineto
stroke
newpath
0.0 0.0 1.0 setrgbcolor
2.0 setlinewidth
10.0 setmiterlimit
1 setlinejoin
1 setlinecap
[ ] 0 setdash
newpath
29.982656411301324 -73.9713744762384 moveto
29.982656411301324 -130.6642878620651 lineto
stroke
newpath
0.0 0.0 1.0 setrgbcolor
2.0 setlinewidth
10.0 setmiterlimit
1 setlinejoin
1 setlinecap
[ ] 0 setdash
newpath
11.802838678228156 -98.32447427813207 moveto
13.481410432397656 -96.04438044256527 lineto
11.851610738881991 -93.91060278895998 lineto
12.802665921631782 -93.91060278895998 lineto
14.0910611905706 -95.60949623506858 lineto
15.257526307874826 -93.91060278895998 lineto
16.03787927833619 -93.91060278895998 lineto
14.509688044516018 -96.15005324064859 lineto
16.17200244513424 -98.32447427813207 lineto
15.22094726238445 -98.32447427813207 lineto
13.891908609567437 -96.57680877136964 lineto
12.60757767901644 -98.32447427813207 lineto
closepath
17.54981315860509 -96.97104959498814 moveto
17.54981315860509 -96.36952751359084 lineto
22.361989809783513 -96.36952751359084 lineto
22.361989809783513 -96.97104959498814 lineto
closepath
17.54981315860509 -95.46724439149489 moveto
17.54981315860509 -94.86572231009758 lineto
22.361989809783513 -94.86572231009758 lineto
22.361989809783513 -95.46724439149489 lineto
closepath
26.019894358821162 -98.4748547984814 moveto
25.399405346455353 -98.4748547984814 24.8974595683385 -98.18289981558875 24.514056986133998 -97.59898987590628 curveto
24.13065438679006 -97.01507991012099 23.93895310425752 -96.25301646579636 23.93895310425752 -95.31279953275775 curveto
23.93895310425752 -94.36445388067027 24.132009183432473 -93.6017130628857 24.518121324521815 -93.02457702041531 curveto
24.904233482871717 -92.44744095214493 25.412953168980945 -92.15887294380973 26.04428038914808 -92.15887294380973 curveto
26.675607637537745 -92.15887294380973 27.184327312685003 -92.44744097794492 27.570439453774345 -93.02457702041531 curveto
27.956551612124247 -93.60171308868568 28.14960767403864 -94.36038958455568 28.14960767403864 -95.30060651759429 curveto
28.14960767403864 -96.26520952371756 27.95655159486369 -97.03540162804177 27.570439453774345 -97.61118289106973 curveto
27.184327295424445 -98.18696417983713 26.667478932297325 -98.4748547984814 26.019894358821162 -98.4748547984814 curveto
closepath
26.028023035596803 -97.8733327170841 moveto
26.876115004463607 -97.8733327170841 27.300160950984342 -97.01169295318748 27.300160950984342 -95.28841350243083 curveto
27.300160950984342 -93.60306780072108 26.88153408456287 -92.76039502520703 26.04428038914808 -92.76039502520703 curveto
25.2097362153111 -92.76039502520703 24.792464165699638 -93.6111965530798 24.792464165699638 -95.31279953275775 curveto
24.792464165699638 -97.0198217065152 25.2043171346062 -97.8733327170841 26.028023035596803 -97.8733327170841 curveto
closepath
fill
newpath
