%!PS
%%BoundingBox: -76 -32 76 219 
%%HiResBoundingBox: -75.08434 -31.43106 75.08434 218.51738 
%%Creator: MetaPost 2.02
%%CreationDate: 2023.03.30:0943
%%Pages: 1
%*Font: cmmi10 6.97382 9.96265 19:8
%*Font: cmmi7 4.88167 6.97385 19:8
%*Font: cmr7 4.88167 6.97385 32:8
%*Font: cmsy10 6.97382 9.96265 00:8
%*Font: cmr10 6.97382 9.96265 30:f
%*Font: cmr10 9.96265 9.96265 61:a0026
%%BeginProlog
%%EndProlog
%%Page: 1 1
 1 0 0 setrgbcolor 0 1.5 dtransform truncate idtransform setlinewidth pop
 [] 0 setdash 1 setlinecap 1 setlinejoin 10 setmiterlimit
newpath -62.3621 195.94734 moveto
-62.35823 192.99518 -62.14996 190.04683 -61.73883 187.12343 curveto
-61.56606 185.89497 -61.35757 184.67183 -61.11555 183.45512 curveto
-60.9277 182.51068 -60.7197 181.57037 -60.49226 180.63467 curveto
-60.29836 179.83687 -60.09036 179.04256 -59.86899 178.25194 curveto
-59.67168 177.54726 -59.46376 176.8456 -59.24571 176.14706 curveto
-59.04626 175.5081 -58.83838 174.8718 -58.62244 174.23822 curveto
-58.42162 173.64899 -58.21384 173.06215 -57.99916 172.47781 curveto
-57.79732 171.92842 -57.5894 171.3813 -57.37589 170.83635 curveto
-57.17316 170.31891 -56.96541 169.80344 -56.7526 169.29005 curveto
-56.54933 168.79968 -56.34146 168.31123 -56.12932 167.82463 curveto
-55.92543 167.35696 -55.71762 166.89102 -55.50604 166.42677 curveto
-55.30177 165.97856 -55.09401 165.53194 -54.88277 165.08696 curveto
-54.67816 164.65598 -54.47029 164.22653 -54.25949 163.79854 curveto
-54.0546 163.38254 -53.84695 162.96791 -53.6362 162.55484 curveto
-53.4311 162.15285 -53.2231 161.75237 -53.01292 161.35301 curveto
-52.80746 160.9626 -52.59993 160.57327 -52.38965 160.18542 curveto
-52.1843 159.80666 -51.9763 159.42932 -51.76637 159.05305 curveto
-51.1431 157.94923 lineto
-50.93727 157.58907 -50.72958 157.22995 -50.51982 156.87206 curveto
-50.31393 156.52078 -50.10603 156.17067 -49.89653 155.82153 curveto
-49.27325 154.79384 lineto
-48.64998 153.78802 lineto
-48.0267 152.80124 lineto
-47.40343 151.8335 lineto
-46.78015 150.88193 lineto
-46.15686 149.94653 lineto
-45.53358 149.02731 lineto
-44.91031 148.12238 lineto
-44.28703 147.23076 lineto
-43.66376 146.3515 lineto
-43.04047 145.48367 lineto
-42.41719 144.62726 lineto
-41.79391 143.78226 lineto
-41.17064 142.94774 lineto
-40.54736 142.12273 lineto
-39.92409 141.30627 lineto
-39.3008 140.50029 lineto
-38.67752 139.70193 lineto
-38.05424 138.91022 lineto
-37.43097 138.12708 lineto
-36.8077 137.35155 lineto
-36.1844 136.58269 lineto
-35.56113 135.82048 lineto
-34.93785 135.06493 lineto
-34.31458 134.31604 lineto
-33.6913 133.57191 lineto
-33.06802 132.8335 lineto
-32.44473 132.10078 lineto
-31.82146 131.37378 lineto
-31.19818 130.65155 lineto
-30.5749 129.93407 lineto
-29.95163 129.22038 lineto
-29.32834 128.51242 lineto
-28.70506 127.80826 lineto
-28.08179 127.1079 lineto
-27.45851 126.41135 lineto
-26.83524 125.71956 lineto
-26.21196 125.03062 lineto
-25.58867 124.34549 lineto
-24.9654 123.66321 lineto
-24.34212 122.98474 lineto
-23.71884 122.30913 lineto
-23.09557 121.63637 lineto
-22.47229 120.96646 lineto
-21.849 120.30037 lineto
-21.22572 119.63521 lineto
-20.60245 118.97388 lineto
-19.97917 118.31444 lineto
-19.3559 117.65785 lineto
-18.7326 117.00317 lineto
-18.10933 116.35039 lineto
-17.48605 115.70047 lineto
-16.86278 115.0515 lineto
-16.2395 114.40538 lineto
-15.61623 113.76022 lineto
-14.99294 113.11696 lineto
-14.36966 112.4756 lineto
-13.74638 111.83615 lineto
-13.12311 111.19765 lineto
-12.49983 110.56104 lineto
-11.87654 109.9254 lineto
-11.25327 109.2907 lineto
-10.62999 108.6579 lineto
-10.00671 108.0251 lineto
-9.38344 107.39421 lineto
-8.76016 106.76428 lineto
-8.13687 106.13528 lineto
-7.5136 105.5063 lineto
-6.89032 104.87921 lineto
-6.26704 104.25214 lineto
-5.64377 103.62599 lineto
-5.02048 103.00081 lineto
-4.3972 102.37564 lineto
-3.77393 101.75046 lineto
-3.15065 101.12622 lineto
-2.52737 100.502 lineto
-1.9041 99.87871 lineto
-1.2808 99.25449 lineto
-0.65753 98.63121 lineto
-0.03426 98.00793 lineto
0.58902 97.38464 lineto
1.2123 96.76137 lineto
1.83559 96.13715 lineto
2.45886 95.51385 lineto
3.08214 94.88963 lineto
3.70541 94.2654 lineto
4.32869 93.64117 lineto
4.95197 93.01599 lineto
5.57526 92.38986 lineto
6.19853 91.76372 lineto
6.82181 91.13759 lineto
7.44508 90.50955 lineto
8.06836 89.88152 lineto
8.69164 89.25253 lineto
9.31493 88.62259 lineto
9.9382 87.9917 lineto
10.56148 87.3589 lineto
11.18475 86.7261 lineto
11.80803 86.09236 lineto
12.43132 85.45671 lineto
13.0546 84.82011 lineto
13.67787 84.18161 lineto
14.30115 83.54216 lineto
14.92442 82.9008 lineto
15.5477 82.25754 lineto
16.17099 81.61333 lineto
16.79427 80.96721 lineto
17.41754 80.31824 lineto
18.04082 79.66832 lineto
18.6641 79.0165 lineto
19.28738 78.3618 lineto
19.91066 77.70523 lineto
20.53394 77.04579 lineto
21.15721 76.38445 lineto
21.78049 75.72025 lineto
22.40376 75.05415 lineto
23.02705 74.3852 lineto
23.65033 73.71243 lineto
24.2736 73.03777 lineto
24.89688 72.3593 lineto
25.52016 71.67798 lineto
26.14345 70.99284 lineto
26.76672 70.30391 lineto
27.39 69.61212 lineto
28.01328 68.91652 lineto
28.63655 68.21617 lineto
29.25983 67.51201 lineto
29.88312 66.805 lineto
30.5064 66.09225 lineto
31.12967 65.37477 lineto
31.75294 64.65349 lineto
32.37622 63.92648 lineto
32.9995 63.19473 lineto
33.62279 62.45726 lineto
34.24606 61.71408 lineto
34.86934 60.9652 lineto
35.49261 60.2106 lineto
36.11589 59.4484 lineto
36.73918 58.68048 lineto
37.36246 57.9059 lineto
37.98573 57.12276 lineto
38.60901 56.33391 lineto
39.23228 55.53554 lineto
39.85556 54.72957 lineto
40.47885 53.91502 lineto
41.10213 53.09096 lineto
41.7254 52.25739 lineto
42.34868 51.41238 lineto
42.97195 50.55788 lineto
43.59525 49.69196 lineto
44.21852 48.8146 lineto
44.8418 47.92393 lineto
45.46507 47.01898 lineto
46.08835 46.10167 lineto
46.71162 45.16913 lineto
47.33492 44.22041 lineto
47.95819 43.25363 lineto
48.58147 42.26875 lineto
49.20474 41.26485 lineto
49.82802 40.23904 lineto
50.03746 39.89082 50.24542 39.54172 50.45131 39.19138 curveto
50.66107 38.83443 50.86867 38.47623 51.07458 38.11705 curveto
51.2842 37.75143 51.49207 37.38481 51.69786 37.01703 curveto
51.90784 36.64175 52.11566 36.26527 52.32114 35.88751 curveto
52.53128 35.50119 52.73898 35.11356 52.94441 34.7247 curveto
53.1547 34.32668 53.3626 33.9274 53.56769 33.52667 curveto
53.7783 33.11514 53.98596 32.70209 54.19098 32.28773 curveto
54.40167 31.86191 54.60959 31.43472 54.81425 31.00597 curveto
55.02559 30.56326 55.23341 30.1189 55.43753 29.67282 curveto
55.6492 29.2102 55.85684 28.74577 56.0608 28.27971 curveto
56.2727 27.79555 56.4806 27.30966 56.68408 26.82191 curveto
56.8968 26.312 57.10466 25.80006 57.30736 25.28607 curveto
57.52087 24.74463 57.72864 24.20093 57.93065 23.65509 curveto
58.14505 23.07576 58.353 22.49403 58.55392 21.9099 curveto
58.7698 21.28235 58.97758 20.65204 59.1772 20.01913 curveto
59.39493 19.32878 59.60292 18.63539 59.80048 17.939 curveto
60.02145 17.16006 60.22935 16.37747 60.42375 15.59148 curveto
60.65019 14.67593 60.85829 13.75597 61.04704 12.83192 curveto
61.28644 11.66 61.49464 10.4819 61.67032 9.29875 curveto
61.98389 7.18683 62.1935 5.06071 62.2936 2.92798 curveto
62.33937 1.95267 62.36221 0.9764 62.3621 0 curveto stroke
 0 0 0.5 setrgbcolor 0 0.5 dtransform truncate idtransform setlinewidth pop
 [0 2.5 ] 1.25 setdash
newpath -62.3621 195.91594 moveto
0 195.91594 lineto stroke
3 194.41461 moveto
(\031) cmmi10 6.97382 fshow
2.93683 105.2091 moveto
(\031) cmmi7 4.88167 fshow
 0 0.27895 dtransform truncate idtransform setlinewidth pop [] 0 setdash
 0 setlinecap
newpath 2.93683 104.20677 moveto
6.37318 104.20677 lineto stroke
3.26506 100.05844 moveto
(2) cmr7 4.88167 fshow
 0 3 dtransform truncate idtransform setlinewidth pop 1 setlinecap
newpath 0 97.95845 moveto 0 0 rlineto stroke
 0 0 0 setrgbcolor 0.5 0 dtransform exch truncate exch idtransform pop setlinewidth
newpath -62.3621 -3.1183 moveto
-62.3621 3.1183 lineto stroke
-66.81763 -10.61256 moveto
(\000) cmsy10 6.97382 fshow
-61.39355 -10.61256 moveto
(1) cmr10 6.97382 fshow
newpath 0 -3.1183 moveto
0 3.1183 lineto stroke
newpath 62.3621 -3.1183 moveto
62.3621 3.1183 lineto stroke
60.61865 -10.61256 moveto
(1) cmr10 6.97382 fshow
 0 0.5 dtransform truncate idtransform setlinewidth pop
newpath -3.1183 62.3621 moveto
3.1183 62.3621 lineto stroke
6.1183 60.11497 moveto
(1) cmr10 6.97382 fshow
newpath -3.1183 124.72421 moveto
3.1183 124.72421 lineto stroke
6.1183 122.47708 moveto
(2) cmr10 6.97382 fshow
newpath -3.1183 187.08632 moveto
3.1183 187.08632 lineto stroke
6.1183 184.83919 moveto
(3) cmr10 6.97382 fshow
newpath -74.83434 0 moveto
74.83434 0 lineto stroke
newpath 71.13986 -1.53033 moveto
74.83434 0 lineto
71.13986 1.53033 lineto
 closepath
gsave fill grestore stroke
 0.5 0 dtransform exch truncate exch idtransform pop setlinewidth
newpath 0 -31.18106 moveto
0 218.26738 lineto stroke
 0 0.5 dtransform truncate idtransform setlinewidth pop
newpath 1.53091 214.57152 moveto
0 218.26738 lineto
-1.53091 214.57152 lineto
 closepath
gsave fill grestore stroke
34.18106 153.76051 moveto
(arccos) cmr10 9.96265 fshow
-5.58688 -9.71255 moveto
(0) cmr10 6.97382 fshow
showpage
%%EOF
