%!PS
%%BoundingBox: -76 -125 76 125 
%%HiResBoundingBox: -75.08434 -124.97421 75.08434 124.97421 
%%Creator: MetaPost 2.02
%%CreationDate: 2023.03.30:0943
%%Pages: 1
%*Font: cmsy10 6.97382 9.96265 00:8
%*Font: cmmi7 4.88167 6.97385 19:8
%*Font: cmr7 4.88167 6.97385 32:8
%*Font: cmr10 6.97382 9.96265 30:c
%*Font: cmr10 9.96265 9.96265 61:a0846
%%BeginProlog
%%EndProlog
%%Page: 1 1
 1 0 0 setrgbcolor 0 1.5 dtransform truncate idtransform setlinewidth pop
 [] 0 setdash 1 setlinecap 1 setlinejoin 10 setmiterlimit
newpath -62.3621 -97.97366 moveto
-62.35823 -95.0215 -62.14998 -92.07315 -61.73883 -89.14977 curveto
-61.56606 -87.92131 -61.35756 -86.69817 -61.11555 -85.48146 curveto
-60.9277 -84.53702 -60.7197 -83.5967 -60.49226 -82.661 curveto
-60.29836 -81.86319 -60.09036 -81.0689 -59.86899 -80.27827 curveto
-59.67168 -79.5736 -59.46375 -78.87193 -59.24571 -78.1734 curveto
-59.04626 -77.53444 -58.83838 -76.89813 -58.62244 -76.26454 curveto
-58.42162 -75.67531 -58.21384 -75.08847 -57.99916 -74.50414 curveto
-57.79732 -73.95476 -57.5894 -73.40764 -57.37589 -72.86269 curveto
-57.17316 -72.34525 -56.96541 -71.82976 -56.7526 -71.31638 curveto
-56.54933 -70.826 -56.34145 -70.33757 -56.12932 -69.85097 curveto
-55.92543 -69.3833 -55.71762 -68.91736 -55.50604 -68.45311 curveto
-55.30177 -68.0049 -55.09402 -67.55827 -54.88277 -67.1133 curveto
-54.67816 -66.68231 -54.47029 -66.25287 -54.25949 -65.82487 curveto
-54.0546 -65.40887 -53.84695 -64.99423 -53.6362 -64.58116 curveto
-53.4311 -64.17917 -53.2231 -63.77869 -53.01292 -63.37933 curveto
-52.80746 -62.98892 -52.59993 -62.5996 -52.38965 -62.21176 curveto
-52.18428 -61.833 -51.97629 -61.45566 -51.76637 -61.07939 curveto
-51.1431 -59.97557 lineto
-50.93727 -59.6154 -50.72958 -59.25629 -50.51982 -58.89839 curveto
-50.31393 -58.5471 -50.10603 -58.19699 -49.89653 -57.84785 curveto
-49.27325 -56.82016 lineto
-48.64998 -55.81435 lineto
-48.0267 -54.82758 lineto
-47.40343 -53.85983 lineto
-46.78015 -52.90825 lineto
-46.15686 -51.97287 lineto
-45.53358 -51.05365 lineto
-44.91031 -50.1487 lineto
-44.28703 -49.25708 lineto
-43.66376 -48.37782 lineto
-43.04047 -47.51 lineto
-42.41719 -46.65358 lineto
-41.79391 -45.8086 lineto
-41.17064 -44.97406 lineto
-40.54736 -44.14905 lineto
-39.92409 -43.33261 lineto
-39.3008 -42.52663 lineto
-38.67752 -41.72826 lineto
-38.05424 -40.93655 lineto
-37.43097 -40.15341 lineto
-36.8077 -39.37788 lineto
-36.1844 -38.60901 lineto
-35.56113 -37.8468 lineto
-34.93785 -37.09126 lineto
-34.31458 -36.34238 lineto
-33.6913 -35.59824 lineto
-33.06802 -34.85982 lineto
-32.44473 -34.12712 lineto
-31.82146 -33.40012 lineto
-31.19818 -32.67787 lineto
-30.5749 -31.96039 lineto
-29.95163 -31.2467 lineto
-29.32834 -30.53874 lineto
-28.70506 -29.83458 lineto
-28.08179 -29.13423 lineto
-27.45851 -28.43768 lineto
-26.83524 -27.74588 lineto
-26.21196 -27.05695 lineto
-25.58867 -26.37181 lineto
-24.9654 -25.68954 lineto
-24.34212 -25.01108 lineto
-23.71884 -24.33546 lineto
-23.09557 -23.66269 lineto
-22.47229 -22.9928 lineto
-21.849 -22.32669 lineto
-21.22572 -21.66154 lineto
-20.60245 -21.0002 lineto
-19.97917 -20.34076 lineto
-19.3559 -19.68419 lineto
-18.7326 -19.0295 lineto
-18.10933 -18.37672 lineto
-17.48605 -17.7268 lineto
-16.86278 -17.07784 lineto
-16.2395 -16.43172 lineto
-15.61623 -15.78654 lineto
-14.99294 -15.1433 lineto
-14.36966 -14.50194 lineto
-13.74638 -13.86247 lineto
-13.12311 -13.22397 lineto
-12.49983 -12.58737 lineto
-11.87654 -11.95172 lineto
-11.25327 -11.31703 lineto
-10.62999 -10.68423 lineto
-10.00671 -10.05144 lineto
-9.38344 -9.42055 lineto
-8.76016 -8.7906 lineto
-8.13687 -8.16162 lineto
-7.5136 -7.53262 lineto
-6.89032 -6.90555 lineto
-6.26704 -6.27846 lineto
-5.64377 -5.65233 lineto
-5.02048 -5.02715 lineto
-4.3972 -4.40196 lineto
-3.77393 -3.77678 lineto
-3.15065 -3.15256 lineto
-2.52737 -2.52832 lineto
-1.9041 -1.90504 lineto
-1.2808 -1.2808 lineto
-0.65753 -0.65753 lineto
-0.03426 -0.03426 lineto
0.58902 0.58902 lineto
1.2123 1.2123 lineto
1.83559 1.83653 lineto
2.45886 2.45981 lineto
3.08214 3.08405 lineto
3.70541 3.70827 lineto
4.32869 4.3325 lineto
4.95197 4.95769 lineto
5.57526 5.58382 lineto
6.19853 6.20995 lineto
6.82181 6.83607 lineto
7.44508 7.46411 lineto
8.06836 8.09215 lineto
8.69164 8.72115 lineto
9.31493 9.35107 lineto
9.9382 9.98196 lineto
10.56148 10.61476 lineto
11.18475 11.24756 lineto
11.80803 11.8813 lineto
12.43132 12.51695 lineto
13.0546 13.15355 lineto
13.67787 13.79205 lineto
14.30115 14.43152 lineto
14.92442 15.07288 lineto
15.5477 15.71614 lineto
16.17099 16.36035 lineto
16.79427 17.00647 lineto
17.41754 17.65544 lineto
18.04082 18.30536 lineto
18.6641 18.95718 lineto
19.28738 19.61186 lineto
19.91066 20.26845 lineto
20.53394 20.92789 lineto
21.15721 21.58922 lineto
21.78049 22.25342 lineto
22.40376 22.91953 lineto
23.02705 23.58847 lineto
23.65033 24.26123 lineto
24.2736 24.9359 lineto
24.89688 25.61436 lineto
25.52016 26.29568 lineto
26.14345 26.98082 lineto
26.76672 27.66975 lineto
27.39 28.36156 lineto
28.01328 29.05714 lineto
28.63655 29.7575 lineto
29.25983 30.46167 lineto
29.88312 31.16869 lineto
30.5064 31.88141 lineto
31.12967 32.59889 lineto
31.75294 33.32019 lineto
32.37622 34.04718 lineto
32.9995 34.77895 lineto
33.62279 35.5164 lineto
34.24606 36.25958 lineto
34.86934 37.00847 lineto
35.49261 37.76306 lineto
36.11589 38.52527 lineto
36.73918 39.29318 lineto
37.36246 40.06776 lineto
37.98573 40.8509 lineto
38.60901 41.63976 lineto
39.23228 42.43813 lineto
39.85556 43.24411 lineto
40.47885 44.05865 lineto
41.10213 44.8827 lineto
41.7254 45.7163 lineto
42.34868 46.56128 lineto
42.97195 47.41579 lineto
43.59525 48.28172 lineto
44.21852 49.15907 lineto
44.8418 50.04974 lineto
45.46507 50.95468 lineto
46.08835 51.872 lineto
46.71162 52.80453 lineto
47.33492 53.75325 lineto
47.95819 54.72005 lineto
48.58147 55.70493 lineto
49.20474 56.70883 lineto
49.82802 57.73462 lineto
50.03746 58.08284 50.24544 58.43196 50.45131 58.7823 curveto
50.66107 59.13925 50.86867 59.49745 51.07458 59.85663 curveto
51.2842 60.22224 51.49207 60.58885 51.69786 60.95663 curveto
51.90784 61.33191 52.11566 61.70839 52.32114 62.08615 curveto
52.53128 62.47247 52.73898 62.8601 52.94441 63.24896 curveto
53.1547 63.64699 53.36261 64.04626 53.56769 64.44699 curveto
53.7783 64.85854 53.98596 65.27159 54.19098 65.68594 curveto
54.40167 66.11177 54.60959 66.53896 54.81425 66.96771 curveto
55.02559 67.41042 55.23341 67.85478 55.43753 68.30086 curveto
55.6492 68.76347 55.85684 69.22789 56.0608 69.69395 curveto
56.2727 70.17812 56.4806 70.664 56.68408 71.15176 curveto
56.8968 71.66168 57.10468 72.17361 57.30736 72.68759 curveto
57.52087 73.22903 57.72864 73.77275 57.93065 74.31859 curveto
58.14505 74.89792 58.35298 75.47963 58.55392 76.06377 curveto
58.7698 76.69131 58.97758 77.32162 59.1772 77.95453 curveto
59.39493 78.64488 59.60292 79.33827 59.80048 80.03467 curveto
60.02145 80.8136 60.22935 81.59619 60.42375 82.38219 curveto
60.65019 83.29773 60.85829 84.2177 61.04704 85.14174 curveto
61.28644 86.31367 61.49464 87.49176 61.67032 88.67493 curveto
61.98389 90.78685 62.1935 92.91295 62.2936 95.04568 curveto
62.33913 96.01595 62.36197 96.98712 62.3621 97.95845 curveto stroke
 0 0 0.5 setrgbcolor 0 0.5 dtransform truncate idtransform setlinewidth pop
 [0 2.5 ] 1.25 setdash
newpath 62.3621 97.95845 moveto
0 97.95845 lineto stroke
newpath -62.3621 -97.95845 moveto
0 -97.95845 lineto stroke
3 -99.17984 moveto
(\000) cmsy10 6.97382 fshow
9.26099 -96.43402 moveto
(\031) cmmi7 4.88167 fshow
 0 0.27895 dtransform truncate idtransform setlinewidth pop [] 0 setdash
 0 setlinecap
newpath 9.26099 -97.43636 moveto
12.69727 -97.43636 lineto stroke
9.5892 -101.58469 moveto
(2) cmr7 4.88167 fshow
2.93683 105.2091 moveto
(\031) cmmi7 4.88167 fshow
newpath 2.93683 104.20677 moveto
6.37318 104.20677 lineto stroke
3.26506 100.05844 moveto
(2) cmr7 4.88167 fshow
 0 0 0 setrgbcolor 0.5 0 dtransform exch truncate exch idtransform pop setlinewidth
 1 setlinecap
newpath -62.3621 -3.1183 moveto
-62.3621 3.1183 lineto stroke
-66.81763 -10.61256 moveto
(\000) cmsy10 6.97382 fshow
-61.39355 -10.61256 moveto
(1) cmr10 6.97382 fshow
newpath 0 -3.1183 moveto
0 3.1183 lineto stroke
newpath 62.3621 -3.1183 moveto
62.3621 3.1183 lineto stroke
60.61865 -10.61256 moveto
(1) cmr10 6.97382 fshow
 0 0.5 dtransform truncate idtransform setlinewidth pop
newpath -3.1183 -62.3621 moveto
3.1183 -62.3621 lineto stroke
6.1183 -64.31866 moveto
(\000) cmsy10 6.97382 fshow
11.54237 -64.31866 moveto
(1) cmr10 6.97382 fshow
newpath -3.1183 0 moveto
3.1183 0 lineto stroke
newpath -3.1183 62.3621 moveto
3.1183 62.3621 lineto stroke
6.1183 60.11497 moveto
(1) cmr10 6.97382 fshow
newpath -74.83434 0 moveto
74.83434 0 lineto stroke
newpath 71.13986 -1.53033 moveto
74.83434 0 lineto
71.13986 1.53033 lineto
 closepath
gsave fill grestore stroke
 0.5 0 dtransform exch truncate exch idtransform pop setlinewidth
newpath 0 -124.72421 moveto
0 124.72421 lineto stroke
 0 0.5 dtransform truncate idtransform setlinewidth pop
newpath 1.53091 121.02835 moveto
0 124.72421 lineto
-1.53091 121.02835 lineto
 closepath
gsave fill grestore stroke
-59.72417 59.03531 moveto
(arcsin) cmr10 9.96265 fshow
2.09999 -9.71255 moveto
(0) cmr10 6.97382 fshow
showpage
%%EOF
