%!PS
%%BoundingBox: -172 -171 171 171 
%%HiResBoundingBox: -171.07828 -170.32828 170.32828 170.32828 
%%Creator: MetaPost 2.02
%%CreationDate: 2023.03.30:0943
%%Pages: 1
%*Font: cmmi10 9.96265 9.96265 78:c
%*Font: cmr10 9.96265 9.96265 31:f00800000000a0045
%*Font: cmsy10 9.96265 9.96265 00:8
%*Font: cmmi7 6.97385 6.97385 19:8
%*Font: cmr7 6.97385 6.97385 32:8
%%BeginProlog
%%EndProlog
%%Page: 1 1
 1 0 0 setrgbcolor 0 2 dtransform truncate idtransform setlinewidth pop
 [] 0 setdash 1 setlinecap 1 setlinejoin 10 setmiterlimit
newpath -170.07828 -46.72429 moveto
-166.6765 -46.5909 lineto
-163.27473 -46.45232 lineto
-159.87296 -46.30803 lineto
-156.47119 -46.1575 lineto
-153.06941 -46.00076 lineto
-149.66763 -45.83727 lineto
-146.26587 -45.66649 lineto
-142.86409 -45.48795 lineto
-139.46233 -45.30109 lineto
-138.32822 -45.23724 -137.19412 -45.17238 -136.06055 -45.10541 curveto
-134.92645 -45.03845 -133.79236 -44.97046 -132.65877 -44.90039 curveto
-129.257 -44.68552 lineto
-128.12291 -44.61234 -126.9888 -44.53706 -125.85522 -44.45973 curveto
-124.72113 -44.3824 -123.58704 -44.3035 -122.45346 -44.22202 curveto
-121.31935 -44.14052 -120.18526 -44.05748 -119.05168 -43.97183 curveto
-117.91759 -43.8862 -116.78348 -43.79848 -115.6499 -43.70816 curveto
-114.51581 -43.61786 -113.38171 -43.52495 -112.24814 -43.42944 curveto
-111.11403 -43.33394 -109.97993 -43.23584 -108.84636 -43.13515 curveto
-107.71227 -43.03445 -106.57817 -42.93065 -105.44458 -42.82373 curveto
-104.31049 -42.7168 -103.17639 -42.60677 -102.04282 -42.49362 curveto
-100.90872 -42.38046 -99.77461 -42.26317 -98.64104 -42.14275 curveto
-97.50694 -42.02234 -96.37285 -41.89777 -95.23927 -41.76956 curveto
-94.10464 -41.64084 -92.97107 -41.50848 -91.8375 -41.37198 curveto
-90.70288 -41.23495 -89.5693 -41.09377 -88.43571 -40.94792 curveto
-87.3011 -40.80156 -86.167 -40.65051 -85.03395 -40.49428 curveto
-83.89934 -40.33754 -82.76523 -40.1756 -81.63217 -40.00795 curveto
-80.49756 -39.83978 -79.36346 -39.66641 -78.23041 -39.48631 curveto
-77.09526 -39.3057 -75.96169 -39.11884 -74.82863 -38.92471 curveto
-73.6935 -38.73007 -72.5594 -38.52869 -71.42685 -38.31952 curveto
-70.2912 -38.1093 -69.15762 -37.89131 -68.02509 -37.66501 curveto
-66.88943 -37.43767 -65.75533 -37.20203 -64.6233 -36.95653 curveto
-63.48714 -36.70998 -62.35304 -36.4541 -61.22154 -36.18678 curveto
-60.08484 -35.91844 -58.95074 -35.63972 -57.81976 -35.34854 curveto
-56.68256 -35.0558 -55.54845 -34.75165 -54.41798 -34.434 curveto
-53.28026 -34.11427 -52.14565 -33.78105 -51.01622 -33.43329 curveto
-49.87744 -33.08295 -48.74335 -32.71754 -47.61444 -32.33604 curveto
-46.47464 -31.95093 -45.34055 -31.5492 -44.21268 -31.1298 curveto
-43.07182 -30.70523 -41.93721 -30.26302 -40.8109 -29.80107 curveto
-39.6685 -29.3329 -38.5344 -28.84448 -37.40912 -28.33531 curveto
-36.26465 -27.8173 -35.13055 -27.27751 -34.00735 -26.71591 curveto
-32.86131 -26.1429 -31.72722 -25.546 -30.60558 -24.92627 curveto
-29.45747 -24.292 -28.32336 -23.63335 -27.20381 -22.95029 curveto
-26.05414 -22.24907 -24.92004 -21.52242 -23.80203 -20.77138 curveto
-22.6508 -19.99852 -21.51723 -19.20076 -20.40025 -18.37912 curveto
-19.248 -17.53206 -18.11493 -16.66008 -16.99849 -15.7663 curveto
-15.84674 -14.84448 -14.71368 -13.90034 -13.59671 -12.93701 curveto
-12.44652 -11.94513 -11.31346 -10.93353 -10.19495 -9.90688 curveto
-9.04787 -8.85426 -7.91533 -7.78557 -6.79317 -6.70596 curveto
-5.65024 -5.60664 -4.51822 -4.49643 -3.39139 -3.3805 curveto
-2.25366 -2.25366 -1.12164 -1.12164 0.01038 0.01038 curveto
1.1424 1.1424 2.27443 2.27495 3.41216 3.40126 curveto
4.53899 4.51718 5.671 5.62741 6.81393 6.72621 curveto
7.93608 7.80528 9.06863 8.87347 10.2157 9.92555 curveto
11.33475 10.95169 12.46729 11.9633 13.61748 12.95467 curveto
14.73444 13.91748 15.86751 14.8616 17.01924 15.7829 curveto
18.1357 16.67616 19.26927 17.5471 20.42102 18.39418 curveto
21.538 19.2153 22.67157 20.01306 23.8228 20.78539 curveto
24.9408 21.53592 26.07489 22.26204 27.22456 22.96275 curveto
28.34413 23.64528 29.47823 24.30394 30.62634 24.93768 curveto
31.74799 25.5569 32.88208 26.15327 34.0281 26.72629 curveto
35.1513 27.28789 36.2854 27.82716 37.42989 28.34465 curveto
38.55516 28.85382 39.68925 29.34172 40.83167 29.80989 curveto
41.95798 30.27132 43.09259 30.71353 44.23343 31.13759 curveto
45.3613 31.55698 46.49539 31.95819 47.63521 32.34332 curveto
48.76411 32.72481 49.89821 33.08969 51.03697 33.44005 curveto
52.1664 33.78728 53.30103 34.11998 54.43875 34.43971 curveto
55.56921 34.75684 56.70331 35.06152 57.84053 35.35373 curveto
58.97151 35.6444 60.1056 35.92365 61.2423 36.19147 curveto
62.3738 36.45825 63.5079 36.71413 64.64407 36.96068 curveto
65.7761 37.20618 66.91019 37.44182 68.04584 37.66916 curveto
69.17839 37.89546 70.31197 38.11346 71.44762 38.32315 curveto
72.58015 38.53232 73.71425 38.73422 74.8494 38.92834 curveto
75.98193 39.12247 77.11603 39.3088 78.25116 39.48943 curveto
79.38422 39.66954 80.51833 39.84341 81.65294 40.01106 curveto
82.786 40.17871 83.92009 40.34065 85.0547 40.49687 curveto
86.18777 40.6531 87.32187 40.80415 88.45648 40.95052 curveto
89.59006 41.09637 90.72363 41.23755 91.85826 41.37457 curveto
92.99184 41.5116 94.12541 41.64395 95.26003 41.77216 curveto
96.3936 41.90036 97.52771 42.02441 98.6618 42.14482 curveto
99.79538 42.26524 100.92947 42.38202 102.06358 42.4957 curveto
103.19716 42.60884 104.33125 42.71889 105.46535 42.8258 curveto
106.59892 42.93272 107.73303 43.03653 108.86713 43.13722 curveto
110.0007 43.23792 111.1348 43.33601 112.26889 43.43152 curveto
113.40248 43.52702 114.53658 43.61942 115.67067 43.70972 curveto
116.80424 43.80003 117.93834 43.88776 119.07245 43.97339 curveto
120.20602 44.05904 121.34012 44.14207 122.47421 44.22357 curveto
123.60779 44.30505 124.7419 44.38396 125.87599 44.46129 curveto
127.00957 44.53862 128.14366 44.61389 129.27776 44.68707 curveto
132.67953 44.90195 lineto
133.81311 44.97202 134.9472 45.04054 136.08131 45.10698 curveto
139.48308 45.30212 lineto
142.88486 45.48898 lineto
146.28662 45.66753 lineto
149.6884 45.8383 lineto
153.09018 46.0018 lineto
156.49194 46.15854 lineto
159.89372 46.30907 lineto
163.29549 46.45335 lineto
166.69727 46.59193 lineto stroke
 0 0 1 setrgbcolor 0 1.5 dtransform truncate idtransform setlinewidth pop
newpath -45.92134 -151.5559 moveto
-45.81339 -149.2877 -45.6997 -147.02003 -45.58086 -144.75235 curveto
-45.47186 -142.67776 -45.3587 -140.60316 -45.24089 -138.52856 curveto
-45.13188 -136.61177 -45.01874 -134.69548 -44.90091 -132.77919 curveto
-44.79192 -131.00928 -44.67877 -129.23987 -44.56094 -127.47047 curveto
-44.45143 -125.8272 -44.33827 -124.18393 -44.22098 -122.54117 curveto
-44.11147 -121.01053 -43.9983 -119.47989 -43.88101 -117.94977 curveto
-43.77148 -116.52345 -43.65834 -115.09766 -43.54103 -113.67238 curveto
-43.43152 -112.33688 -43.31837 -111.0014 -43.20107 -109.66644 curveto
-43.09155 -108.4166 -42.97787 -107.16675 -42.8611 -105.91743 curveto
-42.75105 -104.74129 -42.63791 -103.56516 -42.52113 -102.38953 curveto
-42.41109 -101.28139 -42.29794 -100.17375 -42.18115 -99.06613 curveto
-42.07112 -98.02235 -41.95746 -96.97856 -41.84119 -95.9353 curveto
-41.73064 -94.94809 -41.61748 -93.9614 -41.50122 -92.97522 curveto
-41.39066 -92.04044 -41.27751 -91.10617 -41.16125 -90.1719 curveto
-41.05069 -89.28539 -40.93755 -88.39886 -40.82127 -87.51288 curveto
-40.71072 -86.67099 -40.59758 -85.82964 -40.48131 -84.98878 curveto
-40.37076 -84.1874 -40.2576 -83.386 -40.14134 -82.58513 curveto
-40.03078 -81.82266 -39.91711 -81.06071 -39.80138 -80.29877 curveto
-39.69029 -79.57056 -39.57767 -78.84235 -39.4614 -78.11465 curveto
-39.35085 -77.41966 -39.23717 -76.72519 -39.12143 -76.03072 curveto
-39.01036 -75.36531 -38.8972 -74.6999 -38.78146 -74.03502 curveto
-38.67038 -73.39816 -38.55724 -72.76183 -38.44148 -72.126 curveto
-38.33041 -71.51561 -38.21727 -70.90523 -38.10152 -70.29535 curveto
-37.99045 -69.70988 -37.87729 -69.12492 -37.76155 -68.54048 curveto
-37.65048 -67.97836 -37.5368 -67.41624 -37.42159 -66.85466 curveto
-37.3105 -66.3133 -37.19736 -65.77194 -37.0816 -65.23163 curveto
-36.97054 -64.71103 -36.85687 -64.19095 -36.74164 -63.67139 curveto
-36.63057 -63.17 -36.51689 -62.66965 -36.40167 -62.1693 curveto
-36.29008 -61.68608 -36.17693 -61.20285 -36.0617 -60.72066 curveto
-35.9501 -60.25404 -35.83696 -59.78743 -35.72173 -59.32185 curveto
-35.61014 -58.87134 -35.497 -58.42133 -35.38176 -57.97185 curveto
-35.27017 -57.53584 -35.15701 -57.10089 -35.0418 -56.66594 curveto
-34.9302 -56.24448 -34.81705 -55.82355 -34.70183 -55.40312 curveto
-34.59023 -54.99516 -34.47708 -54.58824 -34.36185 -54.1813 curveto
-34.25026 -53.78632 -34.13712 -53.39185 -34.02188 -52.99791 curveto
-33.9103 -52.61537 -33.79662 -52.23283 -33.68192 -51.85135 curveto
-33.34195 -50.738 lineto
-33.00197 -49.65634 lineto
-32.89038 -49.3065 -32.77672 -48.95668 -32.662 -48.60788 curveto
-32.32204 -47.58797 lineto
-31.98207 -46.59712 lineto
-31.64209 -45.63223 lineto
-31.30212 -44.6933 lineto
-30.96216 -43.77771 lineto
-30.6222 -42.88602 lineto
-30.28221 -42.0161 lineto
-29.94225 -41.16852 lineto
-29.60228 -40.34013 lineto
-29.26231 -39.53198 lineto
-28.92233 -38.74202 lineto
-28.58237 -37.96968 lineto
-28.2424 -37.21448 lineto
-27.90244 -36.47589 lineto
-27.56245 -35.75287 lineto
-27.22249 -35.04387 lineto
-26.88252 -34.35147 lineto
-26.54256 -33.67102 lineto
-26.20258 -33.00458 lineto
-25.86261 -32.35007 lineto
-25.52264 -31.70905 lineto
-25.18268 -31.07945 lineto
-24.8427 -30.4618 lineto
-24.50273 -29.854 lineto
-24.16277 -29.25816 lineto
-23.8228 -28.67113 lineto
-23.48282 -28.09447 lineto
-23.14285 -27.52768 lineto
-22.80289 -26.9692 lineto
-22.46292 -26.41954 lineto
-22.12294 -25.87923 lineto
-21.78297 -25.3467 lineto
-21.44301 -24.82143 lineto
-21.10304 -24.30446 lineto
-20.76306 -23.79477 lineto
-20.4231 -23.2913 lineto
-20.08313 -22.79562 lineto
-19.74316 -22.30617 lineto
-19.40318 -21.82346 lineto
-19.06322 -21.34595 lineto
-18.72325 -20.8757 lineto
-18.38327 -20.41013 lineto
-18.0433 -19.95078 lineto
-17.70334 -19.4961 lineto
-17.36337 -19.04713 lineto
-17.02339 -18.60283 lineto
-16.68343 -18.16425 lineto
-16.34346 -17.72878 lineto
-16.0035 -17.29901 lineto
-15.66351 -16.8734 lineto
-15.32355 -16.45193 lineto
-14.98358 -16.03464 lineto
-14.64362 -15.62096 lineto
-14.30363 -15.21092 lineto
-13.96367 -14.80504 lineto
-13.6237 -14.40225 lineto
-13.28374 -14.0026 lineto
-12.94376 -13.60709 lineto
-12.60379 -13.21419 lineto
-12.26382 -12.82387 lineto
-11.92386 -12.43718 lineto
-11.58388 -12.05362 lineto
-11.24391 -11.67212 lineto
-10.90395 -11.29323 lineto
-10.56398 -10.91692 lineto
-10.224 -10.54373 lineto
-9.88403 -10.17159 lineto
-9.54407 -9.80307 lineto
-9.2041 -9.4356 lineto
-8.86412 -9.07019 lineto
-8.52415 -8.70738 lineto
-8.18419 -8.34561 lineto
-7.84422 -7.98592 lineto
-7.50424 -7.6283 lineto
-7.16428 -7.27223 lineto
-6.82431 -6.91722 lineto
-6.48434 -6.56427 lineto
-6.14436 -6.21236 lineto
-5.8044 -5.8615 lineto
-5.46443 -5.51218 lineto
-5.12447 -5.16391 lineto
-4.78448 -4.81667 lineto
-4.44452 -4.46996 lineto
-4.10455 -4.12479 lineto
-3.76459 -3.78015 lineto
-3.4246 -3.43655 lineto
-3.08464 -3.09294 lineto
-2.74467 -2.75038 lineto
-2.40471 -2.40886 lineto
-2.06473 -2.06732 lineto
-1.72476 -1.72632 lineto
-1.3848 -1.38531 lineto
-1.04483 -1.04535 lineto
-0.70485 -0.70485 lineto
-0.36488 -0.36488 lineto
-0.02492 -0.02492 lineto
0.31506 0.31506 lineto
0.65503 0.65503 lineto
0.995 0.99551 lineto
1.33496 1.33548 lineto
1.67494 1.6765 lineto
2.01491 2.0175 lineto
2.35487 2.3585 lineto
2.69484 2.70055 lineto
3.03482 3.0426 lineto
3.37479 3.38568 lineto
3.71475 3.72981 lineto
4.05472 4.07445 lineto
4.3947 4.41908 lineto
4.73466 4.76581 lineto
5.07463 5.11252 lineto
5.4146 5.4608 lineto
5.75458 5.8101 lineto
6.09454 6.16046 lineto
6.43451 6.51236 lineto
6.77448 6.86531 lineto
7.11446 7.21982 lineto
7.45442 7.57588 lineto
7.79439 7.934 lineto
8.13435 8.29318 lineto
8.47433 8.65443 lineto
8.8143 9.01724 lineto
9.15427 9.38213 lineto
9.49423 9.74857 lineto
9.83421 10.1176 lineto
10.17418 10.48871 lineto
10.51414 10.86243 lineto
10.85411 11.2382 lineto
11.19409 11.61658 lineto
11.53406 11.99756 lineto
11.87402 12.38112 lineto
12.21399 12.7678 lineto
12.55397 13.15709 lineto
12.89394 13.54897 lineto
13.2339 13.94499 lineto
13.57387 14.3431 lineto
13.91385 14.74586 lineto
14.25381 15.15071 lineto
14.59378 15.56023 lineto
14.93375 15.9739 lineto
15.27373 16.39017 lineto
15.6137 16.81163 lineto
15.95366 17.23672 lineto
16.29362 17.66597 lineto
16.6336 18.09988 lineto
16.97357 18.53847 lineto
17.31354 18.98122 lineto
17.6535 19.4307 lineto
17.99348 19.88382 lineto
18.33345 20.34265 lineto
18.67342 20.80719 lineto
19.01338 21.27692 lineto
19.35336 21.75287 lineto
19.69333 22.23506 lineto
20.0333 22.72346 lineto
20.37328 23.21863 lineto
20.71324 23.72054 lineto
21.0532 24.2292 lineto
21.39317 24.74512 lineto
21.73315 25.26935 lineto
22.07312 25.80084 lineto
22.41309 26.34012 lineto
22.75305 26.88823 lineto
23.09303 27.44516 lineto
23.433 28.01091 lineto
23.77296 28.58652 lineto
24.11293 29.17148 lineto
24.45291 29.7663 lineto
24.79288 30.37253 lineto
25.13284 30.98811 lineto
25.47281 31.61615 lineto
25.81279 32.25612 lineto
26.15276 32.90804 lineto
26.49272 33.5724 lineto
26.83269 34.25078 lineto
27.17267 34.94214 lineto
27.51263 35.64803 lineto
27.8526 36.36897 lineto
28.19257 37.10548 lineto
28.53255 37.8581 lineto
28.87251 38.6273 lineto
29.21248 39.41469 lineto
29.55244 40.22075 lineto
29.89243 41.0455 lineto
30.23239 41.89154 lineto
30.57236 42.75677 lineto
30.91232 43.64536 lineto
31.2523 44.55731 lineto
31.59227 45.4921 lineto
31.93224 46.45439 lineto
32.2722 47.44109 lineto
32.61218 48.45633 lineto
32.95215 49.50114 lineto
33.29211 50.57712 lineto
33.40683 50.94563 33.5205 51.31519 33.63208 51.68474 curveto
33.74731 52.06467 33.86046 52.44565 33.97206 52.82661 curveto
34.08676 53.21901 34.20044 53.61244 34.31203 54.00587 curveto
34.42673 54.41072 34.5404 54.81609 34.652 55.22198 curveto
34.76723 55.64032 34.88037 56.05867 34.99196 56.47806 curveto
35.1072 56.91042 35.22034 57.34381 35.33194 57.7772 curveto
35.44716 58.22461 35.56032 58.67255 35.6719 59.12099 curveto
35.78712 59.58397 35.90028 60.04799 36.01187 60.51201 curveto
36.1271 60.99213 36.24025 61.47327 36.35184 61.95442 curveto
36.46707 62.45218 36.58022 62.95045 36.69182 63.44925 curveto
36.80704 63.96568 36.92072 64.48265 37.03178 65.00014 curveto
37.147 65.53682 37.26068 66.07402 37.37175 66.61174 curveto
37.4875 67.17023 37.60065 67.72923 37.71172 68.28876 curveto
37.82747 68.87059 37.94061 69.45296 38.0517 70.03531 curveto
38.16743 70.64052 38.2806 71.24623 38.39166 71.85246 curveto
38.5074 72.48465 38.62056 73.11736 38.73163 73.7506 curveto
38.84738 74.41028 38.96053 75.0705 39.07161 75.73071 curveto
39.18735 76.42104 39.30049 77.11188 39.41158 77.80324 curveto
39.52731 78.52522 39.64099 79.2472 39.75154 79.9697 curveto
39.86781 80.72697 39.98096 81.48477 40.0915 82.24309 curveto
40.20778 83.03825 40.32092 83.83342 40.43149 84.6291 curveto
40.54774 85.46423 40.66089 86.29988 40.77145 87.13605 curveto
40.88771 88.01479 41.00087 88.89351 41.11142 89.77277 curveto
41.22769 90.70029 41.34084 91.6278 41.45139 92.55585 curveto
41.56766 93.53474 41.6808 94.51366 41.79137 95.49307 curveto
41.90814 96.52805 42.02129 97.56352 42.13133 98.59952 curveto
42.24811 99.69572 42.36127 100.79245 42.4713 101.8897 curveto
42.58809 103.05441 42.70123 104.21915 42.81126 105.38438 curveto
42.92805 106.62436 43.0412 107.86485 43.15125 109.10588 curveto
43.26802 110.42683 43.38116 111.7483 43.49121 113.06976 curveto
43.6085 114.48103 43.72166 115.89282 43.83118 117.3046 curveto
43.94849 118.8176 44.06163 120.33058 44.17114 121.8441 curveto
44.28845 123.47025 44.4016 125.09639 44.51112 126.72305 curveto
44.62894 128.47325 44.7421 130.22345 44.85109 131.97417 curveto
44.9689 133.86606 45.08206 135.75847 45.19106 137.65088 curveto
45.30888 139.70367 45.42203 141.7575 45.53102 143.81082 curveto
45.64937 146.04372 45.76251 148.27661 45.871 150.51004 curveto stroke
 0 0 0 setrgbcolor 0 1.2 dtransform truncate idtransform setlinewidth pop
newpath -136.06262 -136.06262 moveto
136.06262 136.06262 lineto stroke
 0.5 0 0 setrgbcolor 0 0.5 dtransform truncate idtransform setlinewidth pop
 [3 3 ] 0 setdash
newpath -170.07828 -53.43182 moveto
170.07828 -53.43182 lineto stroke
85.25986 -63.35703 moveto
(y) cmmi10 9.96265 fshow
93.26915 -63.35703 moveto
(=) cmr10 9.96265 fshow
103.78516 -63.35703 moveto
(\000) cmsy10 9.96265 fshow
112.72946 -59.43442 moveto
(\031) cmmi7 6.97385 fshow
 0 0.3985 dtransform truncate idtransform setlinewidth pop 0 setlinecap
newpath 112.72946 -60.86632 moveto
117.63855 -60.86632 lineto stroke
113.19836 -66.79253 moveto
(2) cmr7 6.97385 fshow
 0 0.5 dtransform truncate idtransform setlinewidth pop 1 setlinecap
newpath -170.07828 53.43182 moveto
170.07828 53.43182 lineto stroke
-114.95967 59.86734 moveto
(y) cmmi10 9.96265 fshow
-106.95038 59.86734 moveto
(=) cmr10 9.96265 fshow
-95.23877 63.78995 moveto
(\031) cmmi7 6.97385 fshow
 0 0.3985 dtransform truncate idtransform setlinewidth pop 0 setlinecap
newpath -95.23877 62.35805 moveto
-90.32977 62.35805 lineto stroke
-94.76987 56.43184 moveto
(2) cmr7 6.97385 fshow
 0 0 0 setrgbcolor 0.5 0 dtransform exch truncate exch idtransform pop setlinewidth
 [] 0 setdash 1 setlinecap
newpath -136.06262 -3.40178 moveto
-136.06262 3.40178 lineto stroke
-142.42767 -12.82217 moveto
(\000) cmsy10 9.96265 fshow
-134.67897 -12.82217 moveto
(4) cmr10 9.96265 fshow
newpath -102.04697 -3.40178 moveto
-102.04697 3.40178 lineto stroke
-108.41202 -12.82217 moveto
(\000) cmsy10 9.96265 fshow
-100.66331 -12.82217 moveto
(3) cmr10 9.96265 fshow
newpath -68.03131 -3.40178 moveto
-68.03131 3.40178 lineto stroke
-74.39636 -12.82217 moveto
(\000) cmsy10 9.96265 fshow
-66.64766 -12.82217 moveto
(2) cmr10 9.96265 fshow
newpath -34.01566 -3.40178 moveto
-34.01566 3.40178 lineto stroke
-40.3807 -12.82217 moveto
(\000) cmsy10 9.96265 fshow
-32.632 -12.82217 moveto
(1) cmr10 9.96265 fshow
newpath 34.01566 -3.40178 moveto
34.01566 3.40178 lineto stroke
31.52501 -12.82217 moveto
(1) cmr10 9.96265 fshow
newpath 68.03131 -3.40178 moveto
68.03131 3.40178 lineto stroke
65.54066 -12.82217 moveto
(2) cmr10 9.96265 fshow
newpath 102.04697 -3.40178 moveto
102.04697 3.40178 lineto stroke
99.55632 -12.82217 moveto
(3) cmr10 9.96265 fshow
newpath 136.06262 -3.40178 moveto
136.06262 3.40178 lineto stroke
133.57198 -12.82217 moveto
(4) cmr10 9.96265 fshow
 0 0.5 dtransform truncate idtransform setlinewidth pop
newpath -3.40178 -136.06262 moveto
3.40178 -136.06262 lineto stroke
6.40178 -138.85773 moveto
(\000) cmsy10 9.96265 fshow
14.15048 -138.85773 moveto
(4) cmr10 9.96265 fshow
newpath -3.40178 -102.04697 moveto
3.40178 -102.04697 lineto stroke
6.40178 -104.84207 moveto
(\000) cmsy10 9.96265 fshow
14.15048 -104.84207 moveto
(3) cmr10 9.96265 fshow
newpath -3.40178 -68.03131 moveto
3.40178 -68.03131 lineto stroke
6.40178 -70.82642 moveto
(\000) cmsy10 9.96265 fshow
14.15048 -70.82642 moveto
(2) cmr10 9.96265 fshow
newpath -3.40178 -34.01566 moveto
3.40178 -34.01566 lineto stroke
6.40178 -36.81076 moveto
(\000) cmsy10 9.96265 fshow
14.15048 -36.81076 moveto
(1) cmr10 9.96265 fshow
newpath -3.40178 34.01566 moveto
3.40178 34.01566 lineto stroke
6.40178 30.80545 moveto
(1) cmr10 9.96265 fshow
newpath -3.40178 68.03131 moveto
3.40178 68.03131 lineto stroke
6.40178 64.8211 moveto
(2) cmr10 9.96265 fshow
newpath -3.40178 102.04697 moveto
3.40178 102.04697 lineto stroke
6.40178 98.83676 moveto
(3) cmr10 9.96265 fshow
newpath -3.40178 136.06262 moveto
3.40178 136.06262 lineto stroke
6.40178 132.85242 moveto
(4) cmr10 9.96265 fshow
newpath -170.07828 0 moveto
170.07828 0 lineto stroke
newpath 166.38115 -1.53143 moveto
170.07828 0 lineto
166.38115 1.53143 lineto
 closepath
gsave fill grestore stroke
 0.5 0 dtransform exch truncate exch idtransform pop setlinewidth
newpath 0 -170.07828 moveto
0 170.07828 lineto stroke
 0 0.5 dtransform truncate idtransform setlinewidth pop
newpath 1.53143 166.38115 moveto
0 170.07828 lineto
-1.53143 166.38115 lineto
 closepath
gsave fill grestore stroke
138.16261 140.09981 moveto
(y) cmmi10 9.96265 fshow
146.1719 140.09981 moveto
(=) cmr10 9.96265 fshow
156.68791 140.09981 moveto
(x) cmmi10 9.96265 fshow
 1 0 0 setrgbcolor
122.21176 29.1751 moveto
(arctan) cmr10 9.96265 fshow
 0 0 1 setrgbcolor
47.22046 119.47 moveto
(tan) cmr10 9.96265 fshow
showpage
%%EOF
