%!PS
%%BoundingBox: -35 -22 205 171 
%%HiResBoundingBox: -34.26523 -21.50984 204.34393 170.3287 
%%Creator: MetaPost 2.02
%%CreationDate: 2023.03.30:0943
%%Pages: 1
%*Font: cmmi10 9.96265 9.96265 61:c00001
%*Font: cmr7 6.97385 6.97385 30:e
%*Font: cmr10 6.97382 9.96265 30:c
%*Font: cmr7 4.88167 6.97385 31:f
%%BeginProlog
%%EndProlog
%%Page: 1 1
 1 0 0 setrgbcolor 0 2 dtransform truncate idtransform setlinewidth pop
 [] 0 setdash 1 setlinecap 1 setlinejoin 10 setmiterlimit
newpath 0 -6.4296 moveto
0.56638 -6.47757 1.13301 -6.52255 1.69986 -6.56454 curveto
2.26627 -6.6065 2.83289 -6.64546 3.3997 -6.68134 curveto
3.96613 -6.71718 4.53273 -6.74992 5.09956 -6.77866 curveto
5.66602 -6.80737 6.23265 -6.83209 6.79941 -6.85391 curveto
7.36592 -6.87573 7.93254 -6.89465 8.49927 -6.90971 curveto
9.0658 -6.92476 9.63243 -6.93593 10.19911 -6.94345 curveto
10.7657 -6.95097 11.33234 -6.95483 11.89897 -6.95512 curveto
12.4656 -6.95541 13.03224 -6.95212 13.59882 -6.94475 curveto
14.1655 -6.93738 14.73213 -6.92592 15.29868 -6.91101 curveto
15.86542 -6.8961 16.43205 -6.87773 16.99854 -6.85521 curveto
17.56535 -6.83267 18.13197 -6.80598 18.69838 -6.77475 curveto
19.26526 -6.7435 19.83188 -6.70769 20.39824 -6.66835 curveto
20.96513 -6.62897 21.5318 -6.58604 22.09808 -6.53859 curveto
22.6651 -6.49107 23.23172 -6.43906 23.79794 -6.38289 curveto
24.36502 -6.32664 24.93166 -6.26627 25.49779 -6.20122 curveto
26.06496 -6.13606 26.63156 -6.06622 27.19765 -5.99231 curveto
27.76485 -5.91824 28.33148 -5.84007 28.89749 -5.75745 curveto
29.4648 -5.67464 30.03145 -5.58733 30.59735 -5.49533 curveto
31.16475 -5.40309 31.73137 -5.30612 32.2972 -5.20467 curveto
32.86469 -5.10292 33.43135 -4.99664 33.99706 -4.88545 curveto
34.56465 -4.77388 35.13124 -4.65733 35.69691 -4.5364 curveto
36.26453 -4.41507 36.83118 -4.28929 37.39676 -4.1588 curveto
37.96452 -4.0278 38.53117 -3.89204 39.09662 -3.75136 curveto
39.66449 -3.61008 40.23111 -3.46384 40.79646 -3.31276 curveto
41.3644 -3.161 41.93103 -3.00438 42.49632 -2.84303 curveto
43.06435 -2.68091 43.63101 -2.51405 44.19617 -2.34216 curveto
44.76433 -2.16936 45.33095 -1.99152 45.89603 -1.80885 curveto
46.46426 -1.62518 47.03093 -1.43668 47.59587 -1.2431 curveto
48.16428 -1.04836 48.73091 -0.84851 49.29573 -0.64362 curveto
49.86415 -0.43741 50.43071 -0.2261 50.99559 -0.01038 curveto
51.56407 0.20673 52.13084 0.42827 52.69543 0.65529 curveto
53.26422 0.88399 53.83078 1.11823 54.3953 1.35728 curveto
54.964 1.59811 55.53062 1.84383 56.09514 2.09433 curveto
56.66399 2.34677 57.23065 2.60406 57.795 2.8664 curveto
58.36397 3.13087 58.93056 3.40044 59.49484 3.67479 curveto
60.06389 3.95146 60.63055 4.23299 61.1947 4.51953 curveto
61.7639 4.80864 62.3305 5.10283 62.89455 5.4019 curveto
63.46378 5.70372 64.03036 6.01048 64.5944 6.3219 curveto
65.16376 6.63625 65.73048 6.95529 66.29427 7.27953 curveto
66.86383 7.60709 67.43036 7.93991 67.99411 8.27737 curveto
68.56358 8.61827 69.13022 8.96388 69.69397 9.31415 curveto
70.26355 9.66801 70.83017 10.02661 71.39381 10.38986 curveto
71.96356 10.75705 72.53024 11.129 73.09367 11.5058 curveto
73.6635 11.88687 74.23 12.27292 74.79352 12.66325 curveto
75.36333 13.05794 75.93008 13.457 76.49338 13.86093 curveto
77.06343 14.2697 77.6299 14.68344 78.19322 15.10144 curveto
78.76317 15.52435 79.32986 15.95164 79.89308 16.38347 curveto
80.4632 16.82059 81.02971 17.26236 81.59293 17.70831 curveto
82.1631 18.15977 82.72986 18.61554 83.29279 19.07599 curveto
83.86313 19.5425 84.42953 20.01382 84.99265 20.48906 curveto
85.56279 20.97023 86.12953 21.45541 86.69249 21.94498 curveto
87.26294 22.44106 87.82945 22.94165 88.39235 23.44629 curveto
88.96277 23.95767 89.52943 24.47324 90.0922 24.99303 curveto
90.66272 25.51999 91.2292 26.05133 91.79205 26.58647 curveto
92.36246 27.1288 92.92915 27.67506 93.4919 28.22534 curveto
94.06244 28.78323 94.62894 29.34526 95.19176 29.91092 curveto
95.76237 30.4844 96.32922 31.06165 96.8916 31.64322 curveto
97.46242 32.2335 98.02861 32.82823 98.59146 33.42612 curveto
99.16187 34.03203 99.72882 34.64117 100.29132 35.25443 curveto
100.86221 35.87683 101.42851 36.50346 101.99117 37.13335 curveto
102.56177 37.77213 103.12863 38.41426 103.69102 39.06029 curveto
104.26198 39.71616 104.82831 40.37604 105.39087 41.03912 curveto
105.96153 41.71178 106.5283 42.38771 107.09073 43.06726 curveto
107.66165 43.75708 108.22809 44.45059 108.79057 45.14731 curveto
109.36131 45.85423 109.92798 46.56444 110.49043 47.27797 curveto
111.0613 48.00217 111.62782 48.72978 112.19028 49.46053 curveto
112.7611 50.20215 113.32771 50.94699 113.89014 51.69499 curveto
114.46107 52.45433 115.0277 53.21689 115.59 53.98265 curveto
116.16096 54.76021 116.72746 55.54103 117.28984 56.32481 curveto
117.86063 57.1203 118.42715 57.91884 118.9897 58.72018 curveto
119.56056 59.53342 120.1273 60.34953 120.68954 61.16875 curveto
121.26067 62.00092 121.82712 62.83626 122.3894 63.67441 curveto
122.9603 64.52539 123.52687 65.37924 124.08925 66.23587 curveto
124.66016 67.1055 125.2267 67.97798 125.78911 68.85312 curveto
126.35997 69.74142 126.92656 70.63246 127.48895 71.52617 curveto
128.05992 72.4335 128.62654 73.34357 129.18881 74.25632 curveto
129.75978 75.18317 130.32625 76.1128 130.88866 77.04486 curveto
131.45949 77.99089 132.0261 78.93944 132.58852 79.89049 curveto
133.15945 80.85596 133.72604 81.82399 134.28838 82.79451 curveto
134.85933 83.77992 135.42587 84.76788 135.98822 85.75822 curveto
136.55911 86.76361 137.12567 87.77147 137.68808 88.78162 curveto
138.25896 89.80696 138.82556 90.83467 139.38792 91.86472 curveto
139.95883 92.91042 140.52538 93.9585 141.08778 95.00879 curveto
141.65866 96.07489 142.22528 97.14325 142.78763 98.21387 curveto
143.35852 99.30075 143.92499 100.38997 144.48749 101.48122 curveto
145.05826 102.58853 145.62497 103.69795 146.18733 104.80956 curveto
146.75824 105.93803 147.32469 107.06877 147.88719 108.20146 curveto
148.45798 109.35081 149.0247 110.50217 149.58705 111.65567 curveto
150.15791 112.82664 150.72427 113.9998 151.2869 115.17476 curveto
151.8576 116.36661 152.42447 117.56029 152.98676 118.75613 curveto
153.5577 119.97038 154.12393 121.18686 154.6866 122.40497 curveto
155.25717 123.6402 155.82411 124.8771 156.38646 126.1161 curveto
156.95743 127.3741 157.5237 128.63423 158.0863 129.896 curveto
158.6568 131.17545 159.22357 132.45654 159.78616 133.73949 curveto
160.35703 135.04129 160.9236 136.34497 161.48601 137.65045 curveto
162.05675 138.97527 162.6232 140.30191 163.18587 141.63017 curveto
163.75645 142.97714 164.32317 144.32574 164.88573 145.67609 curveto
165.45644 147.04596 166.0229 148.41759 166.58557 149.79077 curveto
167.15613 151.18323 167.72278 152.57727 168.28543 153.97293 curveto
168.85617 155.38869 169.42279 156.80609 169.98528 158.22516 curveto stroke
 0 0 0 setrgbcolor
53.12411 -6.3895 moveto
(x) cmmi10 9.96265 fshow
58.81801 -7.8839 moveto
(0) cmr7 6.97385 fshow
 0 3 dtransform truncate idtransform setlinewidth pop
newpath 51.02412 0 moveto 0 0 rlineto stroke
 0 0 1 setrgbcolor 0 1.2 dtransform truncate idtransform setlinewidth pop
newpath 0 51.02412 moveto
170.0787 51.02412 lineto stroke
-12.7355 49.62656 moveto
(a) cmmi10 9.96265 fshow
-7.4694 48.13216 moveto
(0) cmr7 6.97385 fshow
173.0787 48.31207 moveto
(b) cmmi10 9.96265 fshow
177.35431 46.81767 moveto
(0) cmr7 6.97385 fshow
newpath 0 85.03935 moveto
85.03935 85.03935 lineto stroke
-12.7355 83.64178 moveto
(a) cmmi10 9.96265 fshow
-7.4694 82.14738 moveto
(1) cmr7 6.97385 fshow
88.03935 82.3273 moveto
(b) cmmi10 9.96265 fshow
92.31496 80.8329 moveto
(1) cmr7 6.97385 fshow
newpath 42.51968 119.05458 moveto
85.03935 119.05458 lineto stroke
29.78418 117.65701 moveto
(a) cmmi10 9.96265 fshow
35.05028 116.16261 moveto
(2) cmr7 6.97385 fshow
88.03935 116.34253 moveto
(b) cmmi10 9.96265 fshow
92.31496 114.84813 moveto
(2) cmr7 6.97385 fshow
 0 0 0.8 setrgbcolor 0.8
 0 dtransform exch truncate exch idtransform pop setlinewidth
 [0 2.5 ] 1.25 setdash
newpath 85.03935 0 moveto
85.03935 119.05458 lineto stroke
newpath 170.0787 0 moveto
170.0787 51.02412 lineto stroke
newpath 42.51968 0 moveto
42.51968 119.05458 lineto stroke
newpath 0 0 moveto
0 85.03935 lineto stroke
 0 0 0 setrgbcolor 0.5 0 dtransform exch truncate exch idtransform pop setlinewidth
 [] 0 setdash
newpath 0 -1.70116 moveto
0 1.70116 lineto stroke
newpath 42.51968 -1.70116 moveto
42.51968 1.70116 lineto stroke
41.12971 -8.7827 moveto
(1) cmr7 4.88167 fshow
 0 0.27895 dtransform truncate idtransform setlinewidth pop 0 setlinecap
newpath 41.12971 -9.78503 moveto
43.90962 -9.78503 lineto stroke
41.12971 -13.93336 moveto
(4) cmr7 4.88167 fshow
 0.5 0 dtransform exch truncate exch idtransform pop setlinewidth 1 setlinecap
newpath 85.03935 -1.70116 moveto
85.03935 1.70116 lineto stroke
83.64938 -8.7827 moveto
(2) cmr7 4.88167 fshow
 0 0.27895 dtransform truncate idtransform setlinewidth pop 0 setlinecap
newpath 83.64938 -9.78503 moveto
86.42929 -9.78503 lineto stroke
83.64938 -13.93336 moveto
(4) cmr7 4.88167 fshow
 0.5 0 dtransform exch truncate exch idtransform pop setlinewidth 1 setlinecap
newpath 127.55904 -1.70116 moveto
127.55904 1.70116 lineto stroke
126.16907 -8.7827 moveto
(3) cmr7 4.88167 fshow
 0 0.27895 dtransform truncate idtransform setlinewidth pop 0 setlinecap
newpath 126.16907 -9.78503 moveto
128.94897 -9.78503 lineto stroke
126.16907 -13.93336 moveto
(4) cmr7 4.88167 fshow
 0.5 0 dtransform exch truncate exch idtransform pop setlinewidth 1 setlinecap
newpath 170.0787 -1.70116 moveto
170.0787 1.70116 lineto stroke
168.33525 -10.13098 moveto
(1) cmr10 6.97382 fshow
 0 0.5 dtransform truncate idtransform setlinewidth pop
newpath -1.69986 0 moveto
1.69986 0 lineto stroke
newpath -1.69986 21.25984 moveto
1.69986 21.25984 lineto stroke
-11.76033 19.01271 moveto
(1) cmr10 6.97382 fshow
newpath -1.69986 42.51968 moveto
1.69986 42.51968 lineto stroke
newpath -1.69986 63.77951 moveto
1.69986 63.77951 lineto stroke
newpath -1.69986 85.03935 moveto
1.69986 85.03935 lineto stroke
newpath -1.69986 106.2992 moveto
1.69986 106.2992 lineto stroke
newpath -1.69986 127.55904 moveto
1.69986 127.55904 lineto stroke
newpath -1.69986 148.81886 moveto
1.69986 148.81886 lineto stroke
-5.58688 -17.64978 moveto
(0) cmr10 6.97382 fshow
newpath -34.01523 0 moveto
204.09393 0 lineto stroke
newpath 200.39824 -1.53084 moveto
204.09393 0 lineto
200.39824 1.53084 lineto
 closepath
gsave fill grestore stroke
 0.5 0 dtransform exch truncate exch idtransform pop setlinewidth
newpath 0 -21.25984 moveto
0 170.0787 lineto stroke
 0 0.5 dtransform truncate idtransform setlinewidth pop
newpath 1.5307 166.38335 moveto
0 170.0787 lineto
-1.5307 166.38335 lineto
 closepath
gsave fill grestore stroke
showpage
%%EOF
