%!PS
%%BoundingBox: -222 -94 222 94 
%%HiResBoundingBox: -221.35222 -93.79317 221.35222 93.79317 
%%Creator: MetaPost 2.02
%%CreationDate: 2023.03.30:0943
%%Pages: 1
%*Font: cmsy10 9.96265 9.96265 00:80000000000000001
%*Font: cmr10 9.96265 9.96265 31:f8
%*Font: cmmi7 6.97385 6.97385 66:8
%%BeginProlog
%%EndProlog
%%Page: 1 1
 1 0 0 setrgbcolor 0 2 dtransform truncate idtransform setlinewidth pop
 [] 0 setdash 1 setlinecap 1 setlinejoin 10 setmiterlimit
newpath -212.59842 16.78897 moveto
-212.17346 16.82205 lineto
-211.74849 16.85449 lineto
-211.32353 16.88759 lineto
-210.89856 16.92067 lineto
-210.4736 16.9544 lineto
-210.04865 16.9875 lineto
-209.62367 17.02124 lineto
-209.19872 17.05432 lineto
-208.77374 17.08871 lineto
-208.34879 17.12245 lineto
-207.92383 17.15685 lineto
-207.49886 17.19058 lineto
-207.0739 17.22496 lineto
-206.64893 17.25935 lineto
-206.22397 17.29439 lineto
-205.79901 17.32877 lineto
-205.37404 17.3638 lineto
-204.94908 17.39883 lineto
-204.52412 17.43387 lineto
-204.09915 17.4689 lineto
-203.6742 17.5046 lineto
-203.24922 17.54028 lineto
-202.82426 17.57596 lineto
-202.3993 17.61165 lineto
-201.97433 17.64798 lineto
-201.54938 17.68367 lineto
-201.1244 17.72 lineto
-200.69945 17.75697 lineto
-200.27449 17.7933 lineto
-199.84952 17.82964 lineto
-199.42456 17.86662 lineto
-198.99959 17.90425 lineto
-198.57463 17.94058 lineto
-198.14967 17.97887 lineto
-197.7247 18.01585 lineto
-197.29974 18.05348 lineto
-196.87477 18.09111 lineto
-196.44981 18.1294 lineto
-196.02486 18.16702 lineto
-195.59988 18.20595 lineto
-195.17493 18.24358 lineto
-194.74995 18.2825 lineto
-194.325 18.32143 lineto
-193.90004 18.36037 lineto
-193.47507 18.39929 lineto
-193.05011 18.43886 lineto
-192.62515 18.47844 lineto
-192.20018 18.51802 lineto
-191.77522 18.5576 lineto
-191.35025 18.59717 lineto
-190.9253 18.63739 lineto
-190.50034 18.67763 lineto
-190.07536 18.71785 lineto
-189.6504 18.75873 lineto
-189.22543 18.79959 lineto
-188.80048 18.84047 lineto
-188.37552 18.88199 lineto
-187.95055 18.92287 lineto
-187.52559 18.96439 lineto
-187.10062 19.00592 lineto
-186.67566 19.04744 lineto
-186.2507 19.08961 lineto
-185.82573 19.13177 lineto
-185.40077 19.1746 lineto
-184.9758 19.21678 lineto
-184.55084 19.2596 lineto
-184.12589 19.30241 lineto
-183.70091 19.34523 lineto
-183.27596 19.3887 lineto
-182.85098 19.43217 lineto
-182.42603 19.47629 lineto
-182.00107 19.51976 lineto
-181.5761 19.56453 lineto
-181.15114 19.60864 lineto
-180.72618 19.65277 lineto
-180.30121 19.69754 lineto
-179.87625 19.74295 lineto
-179.45128 19.78772 lineto
-179.02632 19.83313 lineto
-178.60136 19.87856 lineto
-178.17639 19.9246 lineto
-177.75143 19.97067 lineto
-177.32646 20.0161 lineto
-176.9015 20.0628 lineto
-176.47655 20.10887 lineto
-176.05157 20.15558 lineto
-175.62662 20.20294 lineto
-175.20164 20.2503 lineto
-174.77669 20.29703 lineto
-174.35173 20.34503 lineto
-173.92676 20.39305 lineto
-173.5018 20.44106 lineto
-173.07683 20.48907 lineto
-172.65187 20.53773 lineto
-172.22691 20.5864 lineto
-171.80194 20.63506 lineto
-171.37698 20.68436 lineto
-170.95201 20.73367 lineto
-170.52705 20.78297 lineto
-170.1021 20.83359 lineto
-169.67712 20.88354 lineto
-169.25217 20.9335 lineto
-168.82721 20.98476 lineto
-168.40224 21.03535 lineto
-167.97728 21.08597 lineto
-167.5523 21.13786 lineto
-167.12735 21.18912 lineto
-166.7024 21.24103 lineto
-166.27742 21.29294 lineto
-165.85246 21.34549 lineto
-165.42749 21.39738 lineto
-165.00253 21.45123 lineto
-164.57758 21.50378 lineto
-164.1526 21.55699 lineto
-163.72765 21.61084 lineto
-163.30267 21.66469 lineto
-162.87772 21.71854 lineto
-162.45276 21.77304 lineto
-162.02779 21.82755 lineto
-161.60283 21.88269 lineto
-161.17786 21.93784 lineto
-160.7529 21.99298 lineto
-160.32794 22.04878 lineto
-159.90297 22.10458 lineto
-159.47801 22.16103 lineto
-159.05304 22.21747 lineto
-158.62808 22.27457 lineto
-158.20313 22.33167 lineto
-157.77815 22.3894 lineto
-157.3532 22.4465 lineto
-156.92824 22.50488 lineto
-156.50327 22.56264 lineto
-156.07831 22.62167 lineto
-155.65334 22.68071 lineto
-155.22838 22.73975 lineto
-154.80342 22.7988 lineto
-154.37845 22.85913 lineto
-153.95349 22.91882 lineto
-153.52852 22.97916 lineto
-153.10356 23.04015 lineto
-152.6786 23.10114 lineto
-152.25363 23.16277 lineto
-151.82867 23.22441 lineto
-151.4037 23.28604 lineto
-150.97874 23.34833 lineto
-150.55379 23.41125 lineto
-150.12881 23.4742 lineto
-149.70386 23.53712 lineto
-149.27888 23.60071 lineto
-148.85393 23.66493 lineto
-148.42897 23.72917 lineto
-148.004 23.79405 lineto
-147.57904 23.85893 lineto
-147.15407 23.92445 lineto
-146.72911 23.98933 lineto
-146.30415 24.05551 lineto
-145.87918 24.12234 lineto
-145.45422 24.18916 lineto
-145.02927 24.256 lineto
-144.6043 24.32347 lineto
-144.17934 24.39095 lineto
-143.75436 24.45972 lineto
-143.3294 24.52849 lineto
-142.90445 24.59726 lineto
-142.47948 24.66669 lineto
-142.05452 24.7361 lineto
-141.62955 24.80618 lineto
-141.20459 24.87689 lineto
-140.77963 24.94762 lineto
-140.35466 25.01898 lineto
-139.9297 25.09035 lineto
-139.50473 25.16237 lineto
-139.07977 25.23503 lineto
-138.65482 25.30835 lineto
-138.22984 25.38101 lineto
-137.80489 25.45497 lineto
-137.37991 25.52895 lineto
-136.95496 25.60355 lineto
-136.53 25.67816 lineto
-136.10503 25.75407 lineto
-135.68007 25.82933 lineto
-135.2551 25.90588 lineto
-134.83014 25.98245 lineto
-134.40518 26.05966 lineto
-133.98021 26.13686 lineto
-133.55525 26.21536 lineto
-133.1303 26.29387 lineto
-132.70532 26.37238 lineto
-132.28036 26.45218 lineto
-131.8554 26.53133 lineto
-131.43044 26.61243 lineto
-131.00548 26.69289 lineto
-130.5805 26.77399 lineto
-130.15555 26.85573 lineto
-129.73058 26.93813 lineto
-129.30562 27.02052 lineto
-128.88066 27.10358 lineto
-128.45569 27.18727 lineto
-128.03073 27.2716 lineto
-127.60576 27.3566 lineto
-127.1808 27.4416 lineto
-126.75584 27.52724 lineto
-126.33087 27.61353 lineto
-125.90591 27.70047 lineto
-125.48094 27.78741 lineto
-125.05598 27.875 lineto
-124.63103 27.96388 lineto
-124.20605 28.05276 lineto
-123.7811 28.1423 lineto
-123.35612 28.23248 lineto
-122.93117 28.32266 lineto
-122.50621 28.41415 lineto
-122.08124 28.50563 lineto
-121.65628 28.59776 lineto
-121.23132 28.69054 lineto
-120.80635 28.78397 lineto
-120.3814 28.87804 lineto
-119.95642 28.97276 lineto
-119.53146 29.06749 lineto
-119.1065 29.16351 lineto
-118.68153 29.26018 lineto
-118.25658 29.35686 lineto
-117.8316 29.45418 lineto
-117.40665 29.5528 lineto
-116.98169 29.65141 lineto
-116.55672 29.75133 lineto
-116.13176 29.85124 lineto
-115.70679 29.95245 lineto
-115.28183 30.05367 lineto
-114.85687 30.15552 lineto
-114.4319 30.25868 lineto
-114.00694 30.36185 lineto
-113.58197 30.4663 lineto
-113.15701 30.57141 lineto
-112.73206 30.67651 lineto
-112.30708 30.78226 lineto
-111.88213 30.88997 lineto
-111.45715 30.99701 lineto
-111.0322 31.10602 lineto
-110.60724 31.21501 lineto
-110.18227 31.32466 lineto
-109.75731 31.43495 lineto
-109.33235 31.54655 lineto
-108.90738 31.65814 lineto
-108.48242 31.77103 lineto
-108.05745 31.88457 lineto
-107.63249 31.9994 lineto
-107.20753 32.11424 lineto
-106.78256 32.23038 lineto
-106.3576 32.34717 lineto
-105.93263 32.4646 lineto
-105.50768 32.58269 lineto
-105.08272 32.70206 lineto
-104.65775 32.82208 lineto
-104.23279 32.94276 lineto
-103.80782 33.06474 lineto
-103.38286 33.18736 lineto
-102.9579 33.31064 lineto
-102.53293 33.43456 lineto
-102.10797 33.56042 lineto
-101.683 33.6863 lineto
-101.25804 33.81345 lineto
-100.83308 33.94127 lineto
-100.40811 34.06973 lineto
-99.98315 34.1995 lineto
-99.55818 34.3299 lineto
-99.13322 34.46225 lineto
-98.70827 34.5946 lineto
-98.2833 34.72826 lineto
-97.85834 34.86256 lineto
-97.43338 34.99815 lineto
-97.0084 35.1344 lineto
-96.58345 35.27196 lineto
-96.15848 35.41014 lineto
-95.73352 35.54964 lineto
-95.30856 35.69043 lineto
-94.88359 35.83252 lineto
-94.45863 35.9746 lineto
-94.03366 36.11864 lineto
-93.6087 36.26332 lineto
-93.18375 36.4093 lineto
-92.75877 36.55658 lineto
-92.33382 36.7045 lineto
-91.90884 36.85373 lineto
-91.48389 37.00424 lineto
-91.05893 37.15607 lineto
-90.63396 37.30853 lineto
-90.209 37.4623 lineto
-89.78403 37.61801 lineto
-89.35907 37.77437 lineto
-88.93411 37.93138 lineto
-88.50914 38.09033 lineto
-88.08418 38.25058 lineto
-87.65921 38.41148 lineto
-87.23425 38.57434 lineto
-86.8093 38.73784 lineto
-86.38432 38.90327 lineto
-85.95937 39.06937 lineto
-85.53441 39.23741 lineto
-85.10944 39.40675 lineto
-84.68448 39.57674 lineto
-84.2595 39.74866 lineto
-83.83455 39.92189 lineto
-83.40959 40.09642 lineto
-82.98462 40.27289 lineto
-82.55966 40.45001 lineto
-82.13469 40.62909 lineto
-81.70973 40.80945 lineto
-81.28477 40.99112 lineto
-80.8598 41.17473 lineto
-80.43484 41.35963 lineto
-80.00987 41.54584 lineto
-79.58492 41.734 lineto
-79.15996 41.92343 lineto
-78.73499 42.11484 lineto
-78.31003 42.30753 lineto
-77.88506 42.50217 lineto
-77.4601 42.6981 lineto
-77.03514 42.89534 lineto
-76.61017 43.09517 lineto
-76.18521 43.29565 lineto
-75.76024 43.49872 lineto
-75.33528 43.7031 lineto
-74.91032 43.90941 lineto
-74.48535 44.11768 lineto
-74.0604 44.32724 lineto
-73.63544 44.53874 lineto
-73.21046 44.7522 lineto
-72.7855 44.9676 lineto
-72.36053 45.18495 lineto
-71.93558 45.40425 lineto
-71.51062 45.62483 lineto
-71.08565 45.84802 lineto
-70.66069 46.07315 lineto
-70.23572 46.30023 lineto
-69.81076 46.52927 lineto
-69.3858 46.76024 lineto
-68.96083 46.99315 lineto
-68.53587 47.22867 lineto
-68.1109 47.46613 lineto
-67.68594 47.70554 lineto
-67.26099 47.94688 lineto
-66.83601 48.19084 lineto
-66.41106 48.43674 lineto
-65.98608 48.68523 lineto
-65.56113 48.93565 lineto
-65.13617 49.18803 lineto
-64.7112 49.44366 lineto
-64.28624 49.70123 lineto
-63.86127 49.96141 lineto
-63.43631 50.22353 lineto
-63.01135 50.48824 lineto
-62.58638 50.75554 lineto
-62.16142 51.0248 lineto
-61.73647 51.29729 lineto
-61.3115 51.57173 lineto
-60.88654 51.84941 lineto
-60.46156 52.12904 lineto
-60.0366 52.41193 lineto
-59.61165 52.69739 lineto
-59.18668 52.98546 lineto
-58.76172 53.27612 lineto
-58.33675 53.56938 lineto
-57.91179 53.86588 lineto
-57.48683 54.16498 lineto
-57.06186 54.46666 lineto
-56.6369 54.77225 lineto
-56.21193 55.07979 lineto
-55.78697 55.39055 lineto
-55.36201 55.70457 lineto
-54.93704 56.02184 lineto
-54.51208 56.34169 lineto
-54.08711 56.6648 lineto
-53.66216 56.9905 lineto
-53.2372 57.32008 lineto
-52.81223 57.65292 lineto
-52.38727 57.989 lineto
-51.9623 58.32832 lineto
-51.53734 58.67088 lineto
-51.11238 59.0167 lineto
-50.68741 59.3664 lineto
-50.26245 59.71935 lineto
-49.8375 60.07553 lineto
-49.41252 60.43497 lineto
-48.98756 60.79895 lineto
-48.56259 61.16551 lineto
-48.13763 61.53662 lineto
-47.71268 61.91098 lineto
-47.2877 62.28923 lineto
-46.86275 62.67073 lineto
-46.43777 63.05676 lineto
-46.01282 63.44604 lineto
-45.58786 63.83986 lineto
-45.16289 64.23758 lineto
-44.73793 64.63853 lineto
-44.31296 65.04404 lineto
-43.888 65.45343 lineto
-43.46304 65.86736 lineto
-43.03807 66.28519 lineto stroke
newpath -42.09473 -66.37343 moveto
-41.66911 -65.94067 lineto
-41.24414 -65.50533 lineto
-40.81918 -65.06544 lineto
-40.39423 -64.62038 lineto
-39.96925 -64.1714 lineto
-39.5443 -63.7179 lineto
-39.11932 -63.25984 lineto
-38.69437 -62.79724 lineto
-38.26941 -62.33011 lineto
-37.84444 -61.85779 lineto
-37.41948 -61.38156 lineto
-36.9945 -60.90016 lineto
-36.56955 -60.41356 lineto
-36.14459 -59.92241 lineto
-35.71962 -59.42673 lineto
-35.29466 -58.92586 lineto
-34.86969 -58.4198 lineto
-34.44473 -57.9092 lineto
-34.01978 -57.3934 lineto
-33.5948 -56.8724 lineto
-33.16985 -56.3469 lineto
-32.74487 -55.81616 lineto
-32.31992 -55.27962 lineto
-31.89496 -54.73851 lineto
-31.46999 -54.19157 lineto
-31.04503 -53.64009 lineto
-30.62006 -53.08278 lineto
-30.1951 -52.52026 lineto
-29.77014 -51.95258 lineto
-29.34517 -51.37968 lineto
-28.92021 -50.80095 lineto
-28.49525 -50.21704 lineto
-28.07028 -49.62727 lineto
-27.64532 -49.03297 lineto
-27.22035 -48.43283 lineto
-26.7954 -47.82686 lineto
-26.37044 -47.21568 lineto
-25.94547 -46.59933 lineto
-25.52051 -45.97713 lineto
-25.09554 -45.34909 lineto
-24.67058 -44.71652 lineto
-24.24562 -44.07745 lineto
-23.82065 -43.4332 lineto
-23.39569 -42.7831 lineto
-22.97072 -42.12846 lineto
-22.54576 -41.46733 lineto
-22.1208 -40.80101 lineto
-21.69583 -40.1295 lineto
-21.27087 -39.45216 lineto
-20.8459 -38.76962 lineto
-20.42094 -38.0819 lineto
-19.99599 -37.38834 lineto
-19.57101 -36.68958 lineto
-19.14606 -35.98499 lineto
-18.72108 -35.27585 lineto
-18.29613 -34.56087 lineto
-17.87117 -33.84135 lineto
-17.4462 -33.11664 lineto
-17.02124 -32.3861 lineto
-16.59628 -31.651 lineto
-16.17131 -30.91072 lineto
-15.74635 -30.16591 lineto
-15.32138 -29.4159 lineto
-14.89642 -28.66135 lineto
-14.47147 -27.9016 lineto
-14.0465 -27.13731 lineto
-13.62154 -26.36848 lineto
-13.19656 -25.59576 lineto
-12.7716 -24.81786 lineto
-12.34665 -24.03606 lineto
-11.92168 -23.25035 lineto
-11.49672 -22.46011 lineto
-11.07175 -21.66599 lineto
-10.64679 -20.86797 lineto
-10.22183 -20.06606 lineto
-9.79686 -19.2609 lineto
-9.3719 -18.45184 lineto
-8.94693 -17.63954 lineto
-8.52197 -16.824 lineto
-8.09702 -16.00458 lineto
-7.67204 -15.1832 lineto
-7.24709 -14.35857 lineto
-6.82211 -13.53136 lineto
-6.39716 -12.70154 lineto
-5.9722 -11.86913 lineto
-5.54723 -11.03412 lineto
-5.12227 -10.19717 lineto
-4.69731 -9.35828 lineto
-4.27234 -8.51743 lineto
-3.84738 -7.6753 lineto
-3.42241 -6.8312 lineto
-2.99745 -5.98582 lineto
-2.5725 -5.13913 lineto
-2.14752 -4.29181 lineto
-1.72256 -3.44382 lineto
-1.29759 -2.5952 lineto
-0.87263 -1.74527 lineto
-0.44768 -0.89534 lineto
-0.0227 -0.04541 lineto
0.40225 0.8045 lineto
0.82722 1.65443 lineto
1.25218 2.50371 lineto
1.67714 3.353 lineto
2.10211 4.20161 lineto
2.52707 5.04895 lineto
2.95204 5.89563 lineto
3.377 6.74103 lineto
3.80196 7.58446 lineto
4.22693 8.42725 lineto
4.65189 9.26874 lineto
5.07686 10.107 lineto
5.50182 10.9446 lineto
5.92677 11.77959 lineto
6.35175 12.612 lineto
6.7767 13.44312 lineto
7.20166 14.27032 lineto
7.62663 15.09496 lineto
8.05159 15.91698 lineto
8.47656 16.73642 lineto
8.90152 17.55261 lineto
9.32648 18.3649 lineto
9.75145 19.1746 lineto
10.1764 19.98041 lineto
10.60138 20.78233 lineto
11.02634 21.58035 lineto
11.4513 22.37512 lineto
11.87627 23.16602 lineto
12.30122 23.95236 lineto
12.7262 24.7348 lineto
13.15115 25.51273 lineto
13.57611 26.28674 lineto
14.00108 27.05556 lineto
14.42604 27.8205 lineto
14.85101 28.58025 lineto
15.27597 29.33545 lineto
15.70093 30.08545 lineto
16.1259 30.83157 lineto
16.55086 31.5725 lineto
16.97583 32.30759 lineto
17.40079 33.03879 lineto
17.82574 33.76414 lineto
18.25072 34.48431 lineto
18.67567 35.19994 lineto
19.10063 35.90971 lineto
19.5256 36.61432 lineto
19.95056 37.31372 lineto
20.37553 38.0073 lineto
20.80049 38.69632 lineto
21.22545 39.3795 lineto
21.65042 40.0575 lineto
22.07538 40.72964 lineto
22.50035 41.3966 lineto
22.92531 42.05774 lineto
23.35027 42.71367 lineto
23.77524 43.36377 lineto
24.2002 44.00868 lineto
24.62517 44.64839 lineto
25.05013 45.28227 lineto
25.47508 45.91031 lineto
25.90005 46.53316 lineto
26.32501 47.15016 lineto
26.74998 47.76198 lineto
27.17494 48.36795 lineto
27.5999 48.96875 lineto
28.02487 49.56435 lineto
28.44983 50.1541 lineto
28.8748 50.73866 lineto
29.29976 51.31804 lineto
29.72472 51.89159 lineto
30.14969 52.45993 lineto
30.57465 53.02309 lineto
30.9996 53.58041 lineto
31.42458 54.13254 lineto
31.84953 54.68011 lineto
32.2745 55.22186 lineto
32.69946 55.75908 lineto
33.12442 56.29044 lineto
33.5494 56.81662 lineto
33.97435 57.33826 lineto
34.39932 57.85405 lineto
34.82428 58.36595 lineto
35.24924 58.87201 lineto
35.67421 59.37354 lineto
36.09917 59.86986 lineto
36.52414 60.36101 lineto
36.9491 60.84825 lineto
37.37405 61.3303 lineto
37.79903 61.80717 lineto
38.22398 62.2795 lineto
38.64896 62.74728 lineto
39.07391 63.21053 lineto
39.49887 63.66924 lineto
39.92384 64.12338 lineto
40.3488 64.57301 lineto
40.77377 65.01744 lineto
41.19873 65.45862 lineto
41.62369 65.8946 lineto
42.04866 66.3267 lineto stroke
newpath 42.94464 -66.37732 moveto
43.37025 -65.95819 lineto
43.79523 -65.54361 lineto
44.22018 -65.13292 lineto
44.64514 -64.72678 lineto
45.07011 -64.32452 lineto
45.49507 -63.92615 lineto
45.92004 -63.53168 lineto
46.345 -63.14175 lineto
46.76996 -62.75443 lineto
47.19493 -62.37228 lineto
47.61989 -61.99274 lineto
48.04486 -61.61772 lineto
48.46982 -61.24661 lineto
48.89478 -60.87874 lineto
49.31975 -60.51411 lineto
49.7447 -60.15338 lineto
50.16968 -59.79655 lineto
50.59464 -59.44295 lineto
51.01959 -59.0926 lineto
51.44456 -58.74614 lineto
51.86952 -58.40292 lineto
52.2945 -58.06232 lineto
52.71945 -57.72623 lineto
53.14441 -57.39275 lineto
53.56938 -57.06252 lineto
53.99434 -56.73552 lineto
54.41931 -56.41176 lineto
54.84427 -56.09126 lineto
55.26923 -55.77335 lineto
55.6942 -55.45868 lineto
56.11916 -55.14726 lineto
56.54411 -54.83908 lineto
56.96909 -54.5335 lineto
57.39404 -54.2305 lineto
57.81902 -53.93076 lineto
58.24397 -53.6336 lineto
58.66893 -53.3397 lineto
59.0939 -53.04839 lineto
59.51886 -52.75967 lineto
59.94383 -52.47421 lineto
60.36879 -52.19067 lineto
60.79375 -51.9104 lineto
61.21872 -51.63206 lineto
61.64368 -51.35698 lineto
62.06865 -51.08447 lineto
62.4936 -50.81393 lineto
62.91856 -50.54597 lineto
63.34354 -50.28061 lineto
63.7685 -50.01785 lineto
64.19347 -49.75769 lineto
64.61842 -49.49947 lineto
65.04338 -49.24384 lineto
65.46835 -48.9908 lineto
65.89331 -48.73972 lineto
66.31828 -48.49059 lineto
66.74324 -48.24403 lineto
67.1682 -48.00009 lineto
67.59317 -47.75809 lineto
68.01813 -47.51804 lineto
68.44308 -47.28056 lineto
68.86806 -47.0444 lineto
69.29301 -46.81084 lineto
69.71799 -46.57986 lineto
70.14294 -46.35019 lineto
70.5679 -46.12247 lineto
70.99287 -45.89732 lineto
71.41783 -45.6735 lineto
71.8428 -45.45226 lineto
72.26776 -45.23296 lineto
72.69272 -45.01497 lineto
73.11769 -44.79956 lineto
73.54265 -44.58546 lineto
73.96762 -44.3733 lineto
74.39258 -44.16309 lineto
74.81754 -43.95483 lineto
75.24251 -43.7485 lineto
75.66747 -43.54349 lineto
76.09244 -43.33977 lineto
76.5174 -43.13864 lineto
76.94235 -42.93881 lineto
77.36732 -42.74092 lineto
77.79228 -42.54434 lineto
78.21725 -42.3497 lineto
78.64221 -42.157 lineto
79.06717 -41.96497 lineto
79.49214 -41.77551 lineto
79.9171 -41.58736 lineto
80.34206 -41.40051 lineto
80.76703 -41.21495 lineto
81.19199 -41.03134 lineto
81.61696 -40.84903 lineto
82.04192 -40.66801 lineto
82.46687 -40.48894 lineto
82.89185 -40.31117 lineto
83.3168 -40.1347 lineto
83.74178 -39.96017 lineto
84.16673 -39.7863 lineto
84.59169 -39.61436 lineto
85.01666 -39.44373 lineto
85.44162 -39.2744 lineto
85.8666 -39.10635 lineto
86.29155 -38.9396 lineto
86.7165 -38.77417 lineto
87.14148 -38.61002 lineto
87.56644 -38.44717 lineto
87.99141 -38.28563 lineto
88.41637 -38.12537 lineto
88.84132 -37.96642 lineto
89.2663 -37.80876 lineto
89.69125 -37.65175 lineto
90.11623 -37.49669 lineto
90.54118 -37.34227 lineto
90.96614 -37.18915 lineto
91.39111 -37.03734 lineto
91.81607 -36.88681 lineto
92.24103 -36.73694 lineto
92.666 -36.58902 lineto
93.09096 -36.44109 lineto
93.51593 -36.2951 lineto
93.94089 -36.14978 lineto
94.36584 -36.0064 lineto
94.79082 -35.863 lineto
95.21577 -35.72157 lineto
95.64075 -35.58078 lineto
96.0657 -35.44064 lineto
96.49066 -35.30244 lineto
96.91563 -35.16425 lineto
97.34059 -35.02736 lineto
97.76556 -34.89175 lineto
98.19052 -34.75746 lineto
98.61548 -34.62315 lineto
99.04045 -34.4908 lineto
99.46541 -34.35909 lineto
99.89038 -34.22803 lineto
100.31534 -34.09828 lineto
100.7403 -33.96916 lineto
101.16527 -33.8407 lineto
101.59023 -33.71353 lineto
102.0152 -33.58768 lineto
102.44016 -33.4618 lineto
102.86511 -33.33788 lineto
103.29008 -33.21396 lineto
103.71504 -33.09134 lineto
104.14 -32.96936 lineto
104.56497 -32.8487 lineto
104.98993 -32.72801 lineto
105.4149 -32.60928 lineto
105.83986 -32.49055 lineto
106.26482 -32.37247 lineto
106.68979 -32.25569 lineto
107.11475 -32.13956 lineto
107.53972 -32.02406 lineto
107.96468 -31.90988 lineto
108.38963 -31.79568 lineto
108.8146 -31.6828 lineto
109.23956 -31.57056 lineto
109.66454 -31.45895 lineto
110.0895 -31.34866 lineto
110.51445 -31.23837 lineto
110.93942 -31.12936 lineto
111.36438 -31.02103 lineto
111.78935 -30.91331 lineto
112.21431 -30.80562 lineto
112.63927 -30.69986 lineto
113.06424 -30.59412 lineto
113.4892 -30.48901 lineto
113.91417 -30.38455 lineto
114.33913 -30.28139 lineto
114.76408 -30.17824 lineto
115.18906 -30.07571 lineto
115.61401 -29.9745 lineto
116.03897 -29.87329 lineto
116.46394 -29.77274 lineto
116.8889 -29.67346 lineto
117.31387 -29.5742 lineto
117.73883 -29.47623 lineto
118.16379 -29.37827 lineto
118.58876 -29.28094 lineto
119.01372 -29.18427 lineto
119.43869 -29.0889 lineto
119.86365 -28.99353 lineto
120.2886 -28.8988 lineto
120.71358 -28.80472 lineto
121.13853 -28.7113 lineto
121.5635 -28.61787 lineto
121.98846 -28.52574 lineto
122.41342 -28.43427 lineto
122.8384 -28.34277 lineto
123.26335 -28.25195 lineto
123.68832 -28.16176 lineto
124.11328 -28.07224 lineto
124.53824 -27.98334 lineto
124.96321 -27.89511 lineto
125.38817 -27.80687 lineto
125.81314 -27.71928 lineto
126.2381 -27.63234 lineto
126.66306 -27.54605 lineto
127.08803 -27.46042 lineto
127.51299 -27.37477 lineto
127.93794 -27.29042 lineto
128.36292 -27.20609 lineto
128.78787 -27.12239 lineto
129.21284 -27.0387 lineto
129.6378 -26.95564 lineto
130.06276 -26.8739 lineto
130.48773 -26.79214 lineto
130.91269 -26.7104 lineto
131.33766 -26.62994 lineto
131.76262 -26.54884 lineto
132.18758 -26.46906 lineto
132.61255 -26.3899 lineto
133.0375 -26.31075 lineto
133.46248 -26.23224 lineto
133.88744 -26.15437 lineto
134.3124 -26.07652 lineto
134.73737 -25.99931 lineto
135.16232 -25.92276 lineto
135.5873 -25.8462 lineto
136.01225 -25.7703 lineto
136.43721 -25.69504 lineto
136.86218 -25.61977 lineto
137.28714 -25.54517 lineto
137.71211 -25.47119 lineto
138.13707 -25.39723 lineto
138.56203 -25.32391 lineto
138.987 -25.25125 lineto
139.41196 -25.17859 lineto
139.83691 -25.10657 lineto
140.26189 -25.03456 lineto
140.68684 -24.96318 lineto
141.11182 -24.89182 lineto
141.53677 -24.82175 lineto
141.96173 -24.75168 lineto
142.3867 -24.68161 lineto
142.81166 -24.61218 lineto
143.23663 -24.54341 lineto
143.66159 -24.47464 lineto
144.08655 -24.40651 lineto
144.51152 -24.3384 lineto
144.93648 -24.27092 lineto
145.36145 -24.20345 lineto
145.7864 -24.13661 lineto
146.21136 -24.07043 lineto
146.63634 -24.00426 lineto
147.0613 -23.93874 lineto
147.48627 -23.8732 lineto
147.91122 -23.80768 lineto
148.33618 -23.7428 lineto
148.76115 -23.67921 lineto
149.18611 -23.61497 lineto
149.61108 -23.5514 lineto
150.03604 -23.48782 lineto
150.461 -23.42488 lineto
150.88597 -23.36195 lineto
151.31093 -23.29967 lineto
151.73589 -23.23738 lineto
152.16086 -23.17575 lineto
152.58582 -23.11476 lineto
153.01079 -23.05312 lineto
153.43575 -22.99278 lineto
153.8607 -22.93245 lineto
154.28568 -22.8721 lineto
154.71063 -22.81177 lineto
155.1356 -22.75273 lineto
155.56056 -22.6937 lineto
155.98552 -22.634 lineto
156.41049 -22.5756 lineto
156.83545 -22.51721 lineto
157.26042 -22.45947 lineto
157.68538 -22.40173 lineto
158.11034 -22.34398 lineto
158.53531 -22.2869 lineto
158.96027 -22.23044 lineto
159.38524 -22.17336 lineto
159.8102 -22.11691 lineto
160.23515 -22.06111 lineto
160.66013 -22.00531 lineto
161.08508 -21.95016 lineto
161.51006 -21.89436 lineto
161.93501 -21.83922 lineto
162.35997 -21.78471 lineto
162.78494 -21.73022 lineto
163.2099 -21.67572 lineto
163.63487 -21.62253 lineto
164.05983 -21.56866 lineto
164.48479 -21.51547 lineto
164.90976 -21.46227 lineto
165.33472 -21.40971 lineto
165.75967 -21.3565 lineto
166.18465 -21.30461 lineto
166.6096 -21.2527 lineto
167.03458 -21.20015 lineto
167.45953 -21.1489 lineto
167.88449 -21.09764 lineto
168.30946 -21.04639 lineto
168.73442 -20.99577 lineto
169.1594 -20.94452 lineto
169.58435 -20.89456 lineto
170.00931 -20.8446 lineto
170.43428 -20.79465 lineto
170.85924 -20.74469 lineto
171.28421 -20.69539 lineto
171.70917 -20.64607 lineto
172.13412 -20.59741 lineto
172.5591 -20.54811 lineto
172.98405 -20.49945 lineto
173.40903 -20.45143 lineto
173.83398 -20.40343 lineto
174.25894 -20.35542 lineto
174.68391 -20.3074 lineto
175.10887 -20.2607 lineto
175.53384 -20.21333 lineto
175.9588 -20.16597 lineto
176.38376 -20.11925 lineto
176.80873 -20.07318 lineto
177.23369 -20.02647 lineto
177.65865 -19.98041 lineto
178.08362 -19.93434 lineto
178.50858 -19.88828 lineto
178.93355 -19.84286 lineto
179.3585 -19.79745 lineto
179.78346 -19.75269 lineto
180.20844 -19.70726 lineto
180.63339 -19.6625 lineto
181.05836 -19.61838 lineto
181.48332 -19.57361 lineto
181.90828 -19.53015 lineto
182.33325 -19.48538 lineto
182.75821 -19.44255 lineto
183.18318 -19.39844 lineto
183.60814 -19.35562 lineto
184.0331 -19.31215 lineto
184.45807 -19.26933 lineto
184.88303 -19.2265 lineto
185.308 -19.18369 lineto
185.73296 -19.14151 lineto
186.15791 -19.0987 lineto
186.58289 -19.05717 lineto
187.00784 -19.015 lineto
187.43282 -18.97348 lineto
187.85777 -18.93195 lineto
188.28273 -18.89108 lineto
188.7077 -18.84955 lineto
189.13266 -18.80803 lineto
189.55762 -18.76715 lineto
189.98259 -18.72693 lineto
190.40755 -18.6867 lineto
190.83252 -18.64648 lineto
191.25748 -18.60625 lineto
191.68243 -18.56602 lineto
192.1074 -18.52646 lineto
192.53236 -18.48688 lineto
192.95734 -18.4473 lineto
193.3823 -18.40771 lineto
193.80725 -18.36879 lineto
194.23222 -18.32986 lineto
194.65718 -18.29094 lineto
195.08215 -18.25266 lineto
195.50711 -18.21373 lineto
195.93207 -18.17545 lineto
196.35704 -18.13782 lineto
196.782 -18.09955 lineto
197.20697 -18.0619 lineto
197.63193 -18.02364 lineto
198.05688 -17.98665 lineto
198.48186 -17.94902 lineto
198.90681 -17.91203 lineto
199.33179 -17.87506 lineto
199.75674 -17.83807 lineto
200.1817 -17.8011 lineto
200.60667 -17.76411 lineto
201.03163 -17.72778 lineto
201.45659 -17.69145 lineto
201.88156 -17.65512 lineto
202.30652 -17.61943 lineto
202.73149 -17.58374 lineto
203.15645 -17.54741 lineto
203.5814 -17.51237 lineto
204.00638 -17.4767 lineto
204.43134 -17.44101 lineto
204.85631 -17.40663 lineto
205.28127 -17.3716 lineto
205.70622 -17.33655 lineto
206.1312 -17.30151 lineto
206.55615 -17.26714 lineto
206.98112 -17.2321 lineto
207.40608 -17.19836 lineto
207.83104 -17.16397 lineto
208.25601 -17.1296 lineto
208.68097 -17.09586 lineto
209.10594 -17.06212 lineto
209.5309 -17.02838 lineto
209.95586 -16.99529 lineto
210.38083 -16.96155 lineto
210.80579 -16.92781 lineto
211.23076 -16.89473 lineto
211.65572 -16.86163 lineto
212.08067 -16.8292 lineto
212.50565 -16.79611 lineto stroke
 0 0 0 setrgbcolor 0.5 0 dtransform exch truncate exch idtransform pop setlinewidth
 [3 3 ] 0 setdash
newpath -42.51968 -85.03937 moveto
-42.51968 85.03937 lineto stroke
newpath 42.51968 -85.03937 moveto
42.51968 85.03937 lineto stroke
 [] 0 setdash
newpath -212.59842 -4.25223 moveto
-212.59842 4.25223 lineto stroke
-218.96347 -13.67262 moveto
(\000) cmsy10 9.96265 fshow
-211.21477 -13.67262 moveto
(5) cmr10 9.96265 fshow
newpath -170.07874 -4.25223 moveto
-170.07874 4.25223 lineto stroke
-176.44379 -13.67262 moveto
(\000) cmsy10 9.96265 fshow
-168.69508 -13.67262 moveto
(4) cmr10 9.96265 fshow
newpath -127.55905 -4.25223 moveto
-127.55905 4.25223 lineto stroke
-133.9241 -13.67262 moveto
(\000) cmsy10 9.96265 fshow
-126.1754 -13.67262 moveto
(3) cmr10 9.96265 fshow
newpath -85.03937 -4.25223 moveto
-85.03937 4.25223 lineto stroke
-91.40442 -13.67262 moveto
(\000) cmsy10 9.96265 fshow
-83.65572 -13.67262 moveto
(2) cmr10 9.96265 fshow
newpath -42.51968 -4.25223 moveto
-42.51968 4.25223 lineto stroke
-48.88474 -13.67262 moveto
(\000) cmsy10 9.96265 fshow
-41.13603 -13.67262 moveto
(1) cmr10 9.96265 fshow
newpath 42.51968 -4.25223 moveto
42.51968 4.25223 lineto stroke
40.02904 -13.67262 moveto
(1) cmr10 9.96265 fshow
newpath 85.03937 -4.25223 moveto
85.03937 4.25223 lineto stroke
82.54872 -13.67262 moveto
(2) cmr10 9.96265 fshow
newpath 127.55905 -4.25223 moveto
127.55905 4.25223 lineto stroke
125.0684 -13.67262 moveto
(3) cmr10 9.96265 fshow
newpath 170.07874 -4.25223 moveto
170.07874 4.25223 lineto stroke
167.58809 -13.67262 moveto
(4) cmr10 9.96265 fshow
newpath 212.59842 -4.25223 moveto
212.59842 4.25223 lineto stroke
210.10777 -13.67262 moveto
(5) cmr10 9.96265 fshow
 0 0.5 dtransform truncate idtransform setlinewidth pop
newpath -4.25223 -85.03937 moveto
4.25223 -85.03937 lineto stroke
7.25223 -87.83447 moveto
(\000) cmsy10 9.96265 fshow
15.00093 -87.83447 moveto
(2) cmr10 9.96265 fshow
newpath -4.25223 -42.51968 moveto
4.25223 -42.51968 lineto stroke
7.25223 -45.31479 moveto
(\000) cmsy10 9.96265 fshow
15.00093 -45.31479 moveto
(1) cmr10 9.96265 fshow
newpath -4.25223 42.51968 moveto
4.25223 42.51968 lineto stroke
7.25223 39.30948 moveto
(1) cmr10 9.96265 fshow
newpath -4.25223 85.03937 moveto
4.25223 85.03937 lineto stroke
7.25223 81.82916 moveto
(2) cmr10 9.96265 fshow
newpath -221.10222 0 moveto
221.10222 0 lineto stroke
newpath 217.40555 -1.53125 moveto
221.10222 0 lineto
217.40555 1.53125 lineto
 closepath
gsave fill grestore stroke
 0.5 0 dtransform exch truncate exch idtransform pop setlinewidth
newpath 0 -93.54317 moveto
0 93.54317 lineto stroke
 0 0.5 dtransform truncate idtransform setlinewidth pop
newpath 1.53055 89.84819 moveto
0 93.54317 lineto
-1.53055 89.84819 lineto
 closepath
gsave fill grestore stroke
 1 0 0 setrgbcolor
164.87358 -34.89621 moveto
(C) cmsy10 9.96265 fshow
170.11919 -36.39061 moveto
(f) cmmi7 6.97385 fshow
showpage
%%EOF
