input TEX;

verbatimtex
%&latex
 \documentclass[8cm]{article}
 \usepackage[latin1]{inputenc}
 \usepackage[frenchb]{babel}
 \usepackage{amsmath}
 \begin{document}
etex

outputtemplate := "fonction_carre.mps";
beginfig(1)
  u:=.6cm;
  v:=.6cm;

vardef carre(expr x) = x**2 enddef;

   % Graphe de la fonction

  path graphe; 

  graphe=(-2.8u, (carre (-2.8))*v) for i=-2.799 step .001 until 2.8: ..(i*u, (carre(i))*v) endfor;

  draw graphe withpen pencircle scaled 1.3bp withcolor red;
    
    
  % Encadrement : axe, ...
  for i=1 upto 3: draw (i*u,-0.08v)--(i*u,0.08v); label.bot(TEX("$"& decimal(i) &"$") scaled .7, (i*u,-0.1v)); endfor;
  for i=-3 upto -1: draw (i*u,-0.08v)--(i*u,0.08v); label.bot(TEX("$"& decimal(i) &"$") scaled .7, (i*u,-0.1v)); endfor;
  for j=1 upto 8: draw (-0.05u,j*v)--(0.05u,j*v); label.lft(TEX("$"& decimal(j) &"$") scaled .7, (-0.05*u,j*v)); endfor;
  label.llft(btex $0$ etex scaled .7, (0,-0.13v));
  drawarrow (-3.5u,0)--(3.5u,0);
  drawarrow (0,-0.5v)--(0,8.5v);
    

endfig;

end
