%!PS-Adobe-3.0 EPSF-3.0
%%Creator: EpsGraphics 1.0.0 by Thomas Abeel, http://www.sourceforge.net/epsgraphics/
%%Title: GeoGebra, http://www.geogebra.org/
%%CreationDate: Tue Jan 14 10:21:20 CET 2014
%%BoundingBox: 0 0 296 231
%%DocumentData: Clean7Bit
%%LanguageLevel: 2
%%DocumentProcessColors: Black
%%ColorUsage: Color
%%Origin: 0 0
%%Pages: 1
%%Page: 1 1
%%EndComments

gsave
0.0 231.0 translate
0.0 0.0 0.0 setrgbcolor
0.0 0.0 0.0 setrgbcolor
gsave
newpath
0.0 -0.0 moveto
296.28977943694883 -0.0 lineto
296.28977943694883 -231.37979795076183 lineto
0.0 -231.37979795076183 lineto
0.0 -0.0 lineto
closepath
clip
newpath
1.0 1.0 1.0 setrgbcolor
newpath
0.0 -0.0 moveto
296.28977943694883 -0.0 lineto
296.28977943694883 -231.37979795076183 lineto
0.0 -231.37979795076183 lineto
0.0 -0.0 lineto
closepath
fill
newpath
0.0 0.0 0.0 setrgbcolor
1.0 setlinewidth
10.0 setmiterlimit
0 setlinejoin
0 setlinecap
[ ] 0 setdash
newpath
32.52983273857422 -0.883128999812068 moveto
32.52983273857422 -231.37979795076183 lineto
stroke
newpath
1.0 setlinewidth
10.0 setmiterlimit
0 setlinejoin
0 setlinecap
[ ] 0 setdash
newpath
32.75061498852724 -0.441564499906034 moveto
31.20513923885612 -1.766257999624136 lineto
stroke
newpath
1.0 setlinewidth
10.0 setmiterlimit
0 setlinejoin
0 setlinecap
[ ] 0 setdash
newpath
32.3090504886212 -0.441564499906034 moveto
33.85452623829232 -1.766257999624136 lineto
stroke
newpath
1.0 setlinewidth
10.0 setmiterlimit
0 setlinejoin
0 setlinecap
[ ] 0 setdash
newpath
0.0 -199.16779459229454 moveto
295.40665043713676 -199.16779459229454 lineto
stroke
newpath
1.0 setlinewidth
10.0 setmiterlimit
0 setlinejoin
0 setlinecap
[ ] 0 setdash
newpath
295.84821493704277 -199.38857684224757 moveto
294.5235214373247 -197.84310109257646 lineto
stroke
newpath
1.0 setlinewidth
10.0 setmiterlimit
0 setlinejoin
0 setlinecap
[ ] 0 setdash
newpath
295.84821493704277 -198.94701234234154 moveto
294.5235214373247 -200.49248809201265 lineto
stroke
newpath
1.0 0.0 0.0 setrgbcolor
1.0 setlinewidth
10.0 setmiterlimit
1 setlinejoin
1 setlinecap
[ ] 0 setdash
newpath
32.529833554143245 -114.12842783199066 moveto
34.52294450706536 -118.06793025171507 lineto
36.51605209111769 -121.91400717467897 lineto
38.50916304403981 -125.66665860088234 lineto
40.502273996961925 -129.32588453032523 lineto
42.495384949884034 -132.89168496300758 lineto
44.488492533936366 -136.3640598989294 lineto
46.48160348685848 -139.74300933809073 lineto
48.4747144397806 -143.02851980501242 lineto
50.46782539270271 -146.2206182506527 lineto
52.46093634562482 -149.31927772405336 lineto
54.454043929677155 -152.3245117006935 lineto
56.44715488259927 -155.23632018057313 lineto
58.4402624666516 -158.05470316369224 lineto
60.43337341957372 -160.77966065005083 lineto
62.42648437249583 -163.41119263964893 lineto
64.41959532541794 -165.94928565700738 lineto
66.41270627834005 -168.39396665308442 lineto
68.40581723126218 -170.74520867692186 lineto
70.39892818418429 -173.00303867947787 lineto
72.3920391371064 -175.16742970979428 lineto
74.38515009002852 -177.23839524335014 lineto
76.37826104295063 -179.21593528014552 lineto
78.37136525813318 -181.10003634470124 lineto
80.36447621105529 -182.89072538797555 lineto
82.3575871639774 -184.58798893448937 lineto
84.35069811689952 -186.19181350876357 lineto
86.34380906982163 -187.70222606175636 lineto
88.33692002274374 -189.1191996425095 lineto
90.33003097566586 -190.44274772650215 lineto
92.32314192858797 -191.67287031373425 lineto
94.31625288151008 -192.80956740420586 lineto
96.30935709669264 -193.85283899791696 lineto
98.30246804961476 -194.80267161938843 lineto
100.29557900253687 -195.6590922195785 lineto
102.28868995545898 -196.4220738475289 lineto
104.2818009083811 -197.09164345419796 lineto
106.27491186130321 -197.66777408862737 lineto
108.26802281422532 -198.15047922629626 lineto
110.26113376714744 -198.53975886720463 lineto
112.25424472006955 -198.83561301135248 lineto
114.2473489352521 -199.03802818326068 lineto
116.24046662591378 -199.14703133388753 lineto
118.23357084109632 -199.16260898775383 lineto
120.226688531758 -199.0847476693805 lineto
122.21979274694056 -198.91346085424667 lineto
124.21289696212311 -198.64876201783144 lineto
126.20601465278479 -198.29062420917657 lineto
128.19911886796734 -197.8390609037612 lineto
130.19223655862902 -197.29405862610616 lineto
132.18534077381156 -196.65564432716977 lineto
134.17845846447324 -195.92380453147285 lineto
136.17156267965578 -195.0985257635363 lineto
138.16468037031746 -194.17983497431834 lineto
140.15778458550002 -193.16770521286074 lineto
142.1509022761617 -192.06214995464262 lineto
144.14400649134424 -190.86316919966401 lineto
146.13711070652678 -189.5707629479249 lineto
148.13022839718846 -188.18493119942522 lineto
150.12333261237103 -186.70566047868596 lineto
152.1164503030327 -185.13297773666528 lineto
154.10955451821525 -183.46685602240495 lineto
156.10267220887692 -181.70732228686325 lineto
158.09577642405947 -179.8543495790819 lineto
160.08889411472114 -177.90795137454006 lineto
162.0819983299037 -175.8681276732377 lineto
164.07510254508625 -173.7348784751748 lineto
166.06822023574793 -171.5082037803514 lineto
168.0613244509305 -169.18809011328835 lineto
170.05444214159215 -166.77456442494395 lineto
172.04754635677472 -164.26759976435986 lineto
174.0406640474364 -161.66722308249442 lineto
176.03376826261893 -158.97340742838932 lineto
178.0268859532806 -156.1861662775237 lineto
180.01999016846318 -153.30549962989758 lineto
182.01309438364572 -150.33140748551094 lineto
184.0062120743074 -147.26387636888467 lineto
185.99931628948994 -144.10293323097702 lineto
187.99243398015162 -140.84856459630882 lineto
189.9855381953342 -137.500756989401 lineto
191.97865588599586 -134.0595238857327 lineto
193.9717601011784 -130.52486528530383 lineto
195.96487779184008 -126.89678118811447 lineto
197.95798200702262 -123.1752715941646 lineto
199.9510862222052 -119.3603365034542 lineto
201.94420391286687 -115.4519759159833 lineto
203.9373081280494 -111.45018309401232 lineto
205.9304258187111 -107.35496477528083 lineto
207.92353003389363 -103.16632095978882 lineto
209.9166477245553 -98.88424490979673 lineto
211.90975193973787 -94.50874336304413 lineto
212.90630404732914 -92.28596308168731 lineto
213.90286963039955 -90.03981631953103 lineto
214.89942173799082 -87.77032328979395 lineto
215.8959738455821 -85.47746377925739 lineto
216.89252595317336 -83.1612512634005 lineto
217.88907806076463 -80.82168574222325 lineto
218.88564364383504 -78.4587604779861 lineto
219.8821957514263 -76.07247547068904 lineto
220.8787478590176 -73.66283745807162 lineto
221.87529996660888 -71.2298397023943 lineto
222.87186554967928 -68.77348894139664 lineto
223.86841765727056 -66.29377843733906 lineto
224.86496976486183 -63.79071492796113 lineto
225.8615218724531 -61.264291675523296 lineto
226.85807398004437 -58.71450868002555 lineto
227.85463956311477 -56.141372679207464 lineto
228.85117819522694 -53.54488030419924 lineto
229.8477437782973 -50.92503155500089 lineto
230.84430936136772 -48.28182306274263 lineto
231.84084799347988 -45.615261565164026 lineto
232.8374135765503 -42.925340324525514 lineto
233.83397915962067 -40.212062709696866 lineto
234.83051779173283 -37.475428720678096 lineto
235.82708337480324 -34.71543835746919 lineto
236.82362200691537 -31.93209162007016 lineto
237.82018758998578 -29.125388508481002 lineto
238.81675317305618 -26.295325653831934 lineto
239.81329180516832 -23.44190810942763 lineto
240.80985738823873 -20.565134190833195 lineto
241.8063960203509 -17.66500389804863 lineto
242.8029616034213 -14.741515546639048 lineto
243.79952718649167 -11.794670821039336 lineto
244.79606581860384 -8.824469721249496 lineto
245.79263140167424 -5.830911405052084 lineto
246.78917003378638 -2.8139962935558187 lineto
247.78573561685678 0.22627529740775496 lineto
248.7823011999272 3.28990368367018 lineto
stroke
newpath
1.0 0.0 0.0 setrgbcolor
1.0 setlinewidth
10.0 setmiterlimit
1 setlinejoin
1 setlinecap
[ ] 0 setdash
newpath
39.377721682050016 -125.45520138248253 moveto
39.437229397857664 -125.0127744519126 lineto
39.73218069369451 -125.1524882236248 40.02281982289809 -125.2223451032352 40.309146799039304 -125.2223451032352 curveto
40.883525638300526 -125.2223451032352 41.1707150322544 -124.91790706981297 41.1707150322544 -124.30903103018737 curveto
41.1707150322544 -123.86660409961746 lineto
40.98270514192565 -124.25987249406658 40.673954963460204 -124.45650667371068 40.24446449924838 -124.45650667371068 curveto
39.90811653031163 -124.45650667371068 39.64076303157732 -124.33404151579012 39.44240398184094 -124.08911121089822 curveto
39.24404492323721 -123.84418089505711 39.144865402802694 -123.51386995189667 39.144865402802694 -123.0981783781013 curveto
39.144865402802694 -122.67041275606891 39.257843823137854 -122.32199077660063 39.48380065370713 -122.05291241347997 curveto
39.709757494377456 -121.78383403833057 40.002121488044494 -121.64929486278461 40.360892638872045 -121.64929486278461 curveto
40.67481740987968 -121.64929486278461 40.944758201685126 -121.77693460484267 41.1707150322544 -122.03221407754688 curveto
41.1707150322544 -121.7113898705839 lineto
41.68299884659851 -121.7113898705839 lineto
41.68299884659851 -123.75535054397707 lineto
41.68299884659851 -124.19519019566359 41.660144433324604 -124.52075776131821 41.61443560882013 -124.73205327082 curveto
41.568726782272314 -124.94334878976744 41.48291493070231 -125.11626613358288 41.35700005565226 -125.25080531514321 curveto
41.134492937740255 -125.48711132408852 40.788658241164946 -125.60526431799747 40.31949596700585 -125.60526431799747 curveto
39.99177230496492 -125.60526431799747 39.67784754860767 -125.55524333800174 39.377721682050016 -125.45520138248253 curveto
closepath
41.1707150322544 -123.54836718464611 moveto
41.1707150322544 -122.38149849641786 lineto
40.94648305296323 -122.14864221023089 40.70241517783564 -122.03221407754688 40.43851139862115 -122.03221407754688 curveto
40.203930251055006 -122.03221407754688 40.02023252466076 -122.12621902271125 39.887418204402486 -122.3142289046353 curveto
39.75460387820695 -122.50223879496406 39.688196721046445 -122.7601055627442 39.688196721046445 -123.08782921013474 curveto
39.688196721046445 -123.70360472249587 39.904666824131375 -124.01149245114912 40.33760701094731 -124.01149245114912 curveto
40.632558306784155 -124.01149245114912 40.910260975644015 -123.85711735771405 41.1707150322544 -123.54836718464611 curveto
closepath
fill
newpath
0.0 0.0 1.0 setrgbcolor
1.0 setlinewidth
10.0 setmiterlimit
1 setlinejoin
1 setlinecap
[ ] 0 setdash
newpath
57.00207197179976 -156.03039440387542 moveto
221.28369919226077 -72.67700863810816 lineto
stroke
newpath
0.0 0.0 0.0 setrgbcolor
1.0 setlinewidth
10.0 setmiterlimit
1 setlinejoin
0 setlinecap
[ 1.0 3.0 ] 0 setdash
newpath
57.00207197179976 -156.03039440387542 moveto
57.191250061408866 -199.16779459229454 lineto
stroke
newpath
0.0 0.0 0.0 setrgbcolor
1.0 setlinewidth
10.0 setmiterlimit
1 setlinejoin
0 setlinecap
[ 1.0 3.0 ] 0 setdash
newpath
221.28369919226077 -72.67700863810816 moveto
221.31723431337738 -199.16779459229454 lineto
stroke
newpath
0.0 0.0 0.0 setrgbcolor
1.0 setlinewidth
10.0 setmiterlimit
1 setlinejoin
0 setlinecap
[ 1.0 3.0 ] 0 setdash
newpath
58.32676547151786 -156.03039440387542 moveto
58.32676547151786 -156.7620024219697 57.73367998989404 -157.35508790359353 57.00207197179976 -157.35508790359353 curveto
56.270463953705466 -157.35508790359353 55.67737847208166 -156.7620024219697 55.67737847208166 -156.03039440387542 curveto
55.67737847208166 -155.29878638578114 56.270463953705466 -154.7057009041573 57.00207197179976 -154.7057009041573 curveto
57.73367998989404 -154.7057009041573 58.32676547151786 -155.29878638578114 58.32676547151786 -156.03039440387542 curveto
closepath
fill
newpath
0.0 0.0 0.0 setrgbcolor
1.0 setlinewidth
10.0 setmiterlimit
1 setlinejoin
1 setlinecap
[ ] 0 setdash
newpath
58.32676547151786 -156.03039440387542 moveto
58.32676547151786 -156.7620024219697 57.73367998989404 -157.35508790359353 57.00207197179976 -157.35508790359353 curveto
56.270463953705466 -157.35508790359353 55.67737847208166 -156.7620024219697 55.67737847208166 -156.03039440387542 curveto
55.67737847208166 -155.29878638578114 56.270463953705466 -154.7057009041573 57.00207197179976 -154.7057009041573 curveto
57.73367998989404 -154.7057009041573 58.32676547151786 -155.29878638578114 58.32676547151786 -156.03039440387542 curveto
closepath
stroke
newpath
0.0 0.0 0.0 setrgbcolor
1.0 setlinewidth
10.0 setmiterlimit
1 setlinejoin
1 setlinecap
[ ] 0 setdash
newpath
222.60839269197885 -72.67700863810816 moveto
222.60839269197885 -73.40861665620244 222.01530721035505 -74.00170213782626 221.28369919226077 -74.00170213782626 curveto
220.55209117416646 -74.00170213782626 219.95900569254266 -73.40861665620244 219.95900569254266 -72.67700863810816 curveto
219.95900569254266 -71.94540062001387 220.55209117416646 -71.35231513839005 221.28369919226077 -71.35231513839005 curveto
222.01530721035505 -71.35231513839005 222.60839269197885 -71.94540062001387 222.60839269197885 -72.67700863810816 curveto
closepath
fill
newpath
0.0 0.0 0.0 setrgbcolor
1.0 setlinewidth
10.0 setmiterlimit
1 setlinejoin
1 setlinecap
[ ] 0 setdash
newpath
222.60839269197885 -72.67700863810816 moveto
222.60839269197885 -73.40861665620244 222.01530721035505 -74.00170213782626 221.28369919226077 -74.00170213782626 curveto
220.55209117416646 -74.00170213782626 219.95900569254266 -73.40861665620244 219.95900569254266 -72.67700863810816 curveto
219.95900569254266 -71.94540062001387 220.55209117416646 -71.35231513839005 221.28369919226077 -71.35231513839005 curveto
222.01530721035505 -71.35231513839005 222.60839269197885 -71.94540062001387 222.60839269197885 -72.67700863810816 curveto
closepath
stroke
newpath
0.0 0.0 0.0 setrgbcolor
1.0 setlinewidth
10.0 setmiterlimit
1 setlinejoin
1 setlinecap
[ ] 0 setdash
newpath
58.51594356112697 -199.16779459229454 moveto
58.51594356112697 -199.89940261038885 57.92285807950315 -200.49248809201265 57.191250061408866 -200.49248809201265 curveto
56.459642043314574 -200.49248809201265 55.866556561690764 -199.89940261038885 55.866556561690764 -199.16779459229454 curveto
55.866556561690764 -198.43618657420026 56.459642043314574 -197.84310109257646 57.191250061408866 -197.84310109257646 curveto
57.92285807950315 -197.84310109257646 58.51594356112697 -198.43618657420026 58.51594356112697 -199.16779459229454 curveto
closepath
fill
newpath
0.0 0.0 0.0 setrgbcolor
1.0 setlinewidth
10.0 setmiterlimit
1 setlinejoin
1 setlinecap
[ ] 0 setdash
newpath
58.51594356112697 -199.16779459229454 moveto
58.51594356112697 -199.89940261038885 57.92285807950315 -200.49248809201265 57.191250061408866 -200.49248809201265 curveto
56.459642043314574 -200.49248809201265 55.866556561690764 -199.89940261038885 55.866556561690764 -199.16779459229454 curveto
55.866556561690764 -198.43618657420026 56.459642043314574 -197.84310109257646 57.191250061408866 -197.84310109257646 curveto
57.92285807950315 -197.84310109257646 58.51594356112697 -198.43618657420026 58.51594356112697 -199.16779459229454 curveto
closepath
stroke
newpath
0.0 0.0 0.0 setrgbcolor
1.0 setlinewidth
10.0 setmiterlimit
1 setlinejoin
1 setlinecap
[ ] 0 setdash
newpath
58.920400525547535 -206.73670416108405 moveto
58.61510006143572 -207.0178565658876 58.32101120993645 -207.15843275572087 58.03813395639935 -207.15843275572087 curveto
57.80527767021237 -207.15843275572087 57.61209320615562 -207.08555736245125 57.45858055027268 -206.93980658242756 curveto
57.30506788752719 -206.7940557958883 57.228311563016995 -206.60992685017823 57.228311563016995 -206.38741974221307 curveto
57.228311563016995 -206.0803944167221 57.357244951109415 -205.84451963684668 57.61511171576671 -205.67979538250037 curveto
57.87297849195155 -205.5150711207903 58.24253003090964 -205.43270899729904 58.72376633418313 -205.43270899729904 curveto
58.845369057790066 -205.43270899729904 lineto
58.845369057790066 -205.09377374639462 lineto
58.845369057790066 -204.76777494573284 58.67805750401127 -204.60477555997525 58.3434344114125 -204.60477555997525 curveto
58.074356036263104 -204.60477555997525 57.78371690590291 -204.68756890617507 57.47151701023086 -204.8531555911724 curveto
57.47151701023086 -204.43142699653558 lineto
57.81476442468426 -204.29171322482338 58.136451056553774 -204.22185634521298 58.43657692311143 -204.22185634521298 curveto
58.750501694119066 -204.22185634521298 58.982064320238145 -204.29257566175866 59.131264822865944 -204.4340142885272 curveto
59.28046533216353 -204.57545292161856 59.355065580142536 -204.795372741139 59.355065580142536 -205.09377374639462 curveto
59.355065580142536 -206.36672140628 lineto
59.355065580142536 -206.6582229793585 59.444758371859 -206.80397375286663 59.62414394727278 -206.80397375286663 curveto
59.64656714520189 -206.80397375286663 59.679339510403594 -206.8005240301083 59.72246104295498 -206.79362458490007 curveto
59.758683130837895 -207.0756394119885 lineto
59.64311741843399 -207.1308349761217 59.51547768154213 -207.15843275572087 59.375763916075634 -207.15843275572087 curveto
59.13773304575117 -207.15843275572087 58.98594525502565 -207.0178565533191 58.920400525547535 -206.73670416108405 curveto
closepath
58.845369057790066 -206.4598639179789 moveto
58.845369057790066 -205.73283486832895 lineto
58.67460778634203 -205.72766028434566 lineto
58.395180242917654 -205.72766028434566 58.16922341473871 -205.7806997717549 57.996737284533154 -205.88677874183134 curveto
57.824251146616874 -205.99285771664987 57.738008085369465 -206.13214026827515 57.738008085369465 -206.3046263984807 curveto
57.738008085369465 -206.42709155640125 57.781129619848535 -206.5305832336764 57.86737268495131 -206.61510143747714 curveto
57.95361575390945 -206.69961964505612 58.05883229418301 -206.74187874506734 58.18302230793101 -206.74187874506734 curveto
58.39518025756804 -206.74187874506734 58.61596250461668 -206.64787379990295 58.845369057790066 -206.4598639179789 curveto
closepath
fill
newpath
0.0 0.0 0.0 setrgbcolor
1.0 setlinewidth
10.0 setmiterlimit
1 setlinejoin
1 setlinecap
[ ] 0 setdash
newpath
222.6419278130955 -199.16779459229454 moveto
222.6419278130955 -199.89940261038885 222.0488423314717 -200.49248809201265 221.31723431337738 -200.49248809201265 curveto
220.5856262952831 -200.49248809201265 219.9925408136593 -199.89940261038885 219.9925408136593 -199.16779459229454 curveto
219.9925408136593 -198.43618657420026 220.5856262952831 -197.84310109257646 221.31723431337738 -197.84310109257646 curveto
222.0488423314717 -197.84310109257646 222.6419278130955 -198.43618657420026 222.6419278130955 -199.16779459229454 curveto
closepath
fill
newpath
0.0 0.0 0.0 setrgbcolor
1.0 setlinewidth
10.0 setmiterlimit
1 setlinejoin
1 setlinecap
[ ] 0 setdash
newpath
222.6419278130955 -199.16779459229454 moveto
222.6419278130955 -199.89940261038885 222.0488423314717 -200.49248809201265 221.31723431337738 -200.49248809201265 curveto
220.5856262952831 -200.49248809201265 219.9925408136593 -199.89940261038885 219.9925408136593 -199.16779459229454 curveto
219.9925408136593 -198.43618657420026 220.5856262952831 -197.84310109257646 221.31723431337738 -197.84310109257646 curveto
222.0488423314717 -197.84310109257646 222.6419278130955 -198.43618657420026 222.6419278130955 -199.16779459229454 curveto
closepath
stroke
newpath
0.0 0.0 0.0 setrgbcolor
1.0 setlinewidth
10.0 setmiterlimit
1 setlinejoin
1 setlinecap
[ ] 0 setdash
newpath
222.17507547518156 -208.00792695964168 moveto
222.17507547518156 -203.89154540094734 lineto
222.68477199753403 -203.89154540094734 lineto
222.68477199753403 -205.69488791911826 lineto
222.8934802244127 -205.30161952466915 223.2065425554008 -205.10498534502506 223.62395899049824 -205.10498534502506 curveto
223.96203182081413 -205.10498534502506 224.22809167343695 -205.22831293363518 224.42213856991822 -205.4749680998291 curveto
224.61618547507402 -205.7216232770494 224.71320891897736 -206.0588336656494 224.71320891897736 -206.48659926855916 curveto
224.71320891897736 -206.9523118409331 224.60324900605573 -207.32790038542686 224.38332919004367 -207.61336493091704 curveto
224.1634093642004 -207.8988294891685 223.87406387767703 -208.04156175553294 223.51529272684948 -208.04156175553294 curveto
223.18239448067106 -208.04156175553294 222.90555424419713 -207.9139220134749 222.68477199753403 -207.65864254077067 curveto
222.62267698973474 -208.00792695964168 lineto
closepath
222.68477199753403 -207.30677082990806 moveto
222.9469509271668 -207.5413519774742 223.19705581542507 -207.65864254077067 223.43508667510872 -207.65864254077067 curveto
223.92494730679098 -207.65864254077067 224.16987760073363 -207.28521005218192 224.16987760073363 -206.5383451083919 curveto
224.16987760073363 -205.8794480615517 223.95254506695912 -205.5499995675866 223.5178800188411 -205.5499995675866 curveto
223.23327789127924 -205.5499995675866 222.95557522195674 -205.7043746610217 222.68477199753403 -206.0131248340896 curveto
closepath
fill
newpath
0.0 0.0 0.0 setrgbcolor
1.0 setlinewidth
10.0 setmiterlimit
1 setlinejoin
1 setlinecap
[ ] 0 setdash
newpath
161.98786604236227 -177.32978914883805 moveto
161.98786604236227 -178.06139716693232 161.39478056073844 -178.65448264855613 160.66317254264416 -178.65448264855613 curveto
159.93156452454988 -178.65448264855613 159.33847904292605 -178.06139716693232 159.33847904292605 -177.32978914883805 curveto
159.33847904292605 -176.59818113074374 159.93156452454988 -176.00509564911994 160.66317254264416 -176.00509564911994 curveto
161.39478056073844 -176.00509564911994 161.98786604236227 -176.59818113074374 161.98786604236227 -177.32978914883805 curveto
closepath
fill
newpath
0.0 0.0 0.0 setrgbcolor
1.0 setlinewidth
10.0 setmiterlimit
1 setlinejoin
1 setlinecap
[ ] 0 setdash
newpath
161.98786604236227 -177.32978914883805 moveto
161.98786604236227 -178.06139716693232 161.39478056073844 -178.65448264855613 160.66317254264416 -178.65448264855613 curveto
159.93156452454988 -178.65448264855613 159.33847904292605 -178.06139716693232 159.33847904292605 -177.32978914883805 curveto
159.33847904292605 -176.59818113074374 159.93156452454988 -176.00509564911994 160.66317254264416 -176.00509564911994 curveto
161.39478056073844 -176.00509564911994 161.98786604236227 -176.59818113074374 161.98786604236227 -177.32978914883805 curveto
closepath
stroke
newpath
0.0 0.0 0.0 setrgbcolor
1.0 setlinewidth
10.0 setmiterlimit
1 setlinejoin
1 setlinecap
[ ] 0 setdash
newpath
164.93813960552578 -179.05612957322455 moveto
164.93813960552578 -181.48300946138 lineto
164.42585579118168 -181.48300946138 lineto
164.42585579118168 -179.05612957322455 lineto
164.02741282446956 -179.05612957322455 lineto
164.02741282446956 -178.67321035846228 lineto
164.42585579118168 -178.67321035846228 lineto
164.42585579118168 -178.3368623995495 lineto
164.42585579118168 -177.6676161844343 164.73115625529348 -177.33299310679436 165.34175715622112 -177.33299310679436 curveto
165.51251843275824 -177.33299310679436 165.70656533028045 -177.36145331955055 165.92389785433943 -177.41837374251838 curveto
165.92389785433943 -177.82199129321376 lineto
165.69449129091078 -177.75127197666808 165.51079356428522 -177.71591232155663 165.37280466012078 -177.71591232155663 curveto
165.20549310634198 -177.71591232155663 165.09122104745185 -177.75601534862216 165.02998847122888 -177.83622139916775 curveto
164.9687558922686 -177.9164274532988 164.93813960552578 -178.06519674366612 164.93813960552578 -178.28252926772512 curveto
164.93813960552578 -178.67321035846228 lineto
165.63929573525937 -178.67321035846228 lineto
165.63929573525937 -179.05612957322455 lineto
closepath
167.30033719389027 -181.8969761800419 moveto
167.30033719389027 -182.2488478909045 lineto
166.9277671359911 -181.9952932681676 166.63238464146465 -181.65075221901458 166.41418968675464 -181.21522474024556 curveto
166.19599472229052 -180.77969724200693 166.08689724981255 -180.31527833513695 166.08689724981255 -179.8219680027491 curveto
166.08689724981255 -179.33038250968767 166.1959947320446 -178.86682603601324 166.41418968675464 -178.43129855724425 curveto
166.63238465121873 -177.99577105900562 166.92776715264628 -177.65123001798744 167.30033719389027 -177.39767540658528 curveto
167.30033719389027 -177.74954711744792 lineto
167.04678257115336 -178.02552493811396 166.86610335302083 -178.3222010829928 166.75829952164236 -178.63957556257103 curveto
166.65049568544467 -178.95695005633698 166.59659377216505 -179.35108086728792 166.59659377216505 -179.8219680027491 curveto
166.59659377216505 -180.2945800206397 166.65049569026388 -180.68957325534058 166.75829952164236 -181.00694773491878 curveto
166.86610335784005 -181.32432222868476 167.04678258248813 -181.62099837171303 167.30033719389027 -181.8969761800419 curveto
closepath
168.84495051289753 -181.5476917611709 moveto
168.58622130602308 -181.5476917611709 168.38441253622713 -181.4735227218669 168.23952418685448 -181.32518464989013 curveto
168.0946358310048 -181.17684657128214 168.02219165955697 -180.9707256431034 168.02219165955697 -180.7068218638889 curveto
168.02219165955697 -179.05612957322455 lineto
167.67031994869436 -179.05612957322455 lineto
167.67031994869436 -178.67321035846228 lineto
168.02219165955697 -178.67321035846228 lineto
168.02219165955697 -178.16351383610981 lineto
168.53188818190944 -178.1143552882687 lineto
168.53188818190944 -178.67321035846228 lineto
169.26667910753434 -178.67321035846228 lineto
169.26667910753434 -179.05612957322455 lineto
168.53188818190944 -179.05612957322455 lineto
168.53188818190944 -180.61367935219 lineto
168.53188818190944 -180.98107482595165 168.6905754287924 -181.16477254640864 169.00794990837065 -181.16477254640864 curveto
169.075219502158 -181.16477254640864 169.15715041466103 -181.15356094744408 169.25374264757616 -181.13113775051735 curveto
169.25374264757616 -181.48300946138 lineto
169.09678026207234 -181.52613099585906 168.96051622013525 -181.5476917611709 168.84495051289753 -181.5476917611709 curveto
closepath
171.43224250453443 -181.1259631665341 moveto
171.12694204042262 -181.40711557133764 170.83285318892334 -181.5476917611709 170.54997593538624 -181.5476917611709 curveto
170.31711964919927 -181.5476917611709 170.1239351851425 -181.47481636790127 169.97042252925957 -181.32906558787758 curveto
169.8169098665141 -181.18331480133833 169.7401535420039 -180.99918585562827 169.7401535420039 -180.7766787476631 curveto
169.7401535420039 -180.46965342217214 169.8690869300963 -180.23377864229673 170.1269536947536 -180.06905438795042 curveto
170.38482047093845 -179.90433012624035 170.75437200989654 -179.8219680027491 171.23560831317002 -179.8219680027491 curveto
171.35721103677696 -179.8219680027491 lineto
171.35721103677696 -179.48303275184463 lineto
171.35721103677696 -179.15703395118285 171.18989948299816 -178.99403456542527 170.8552763903994 -178.99403456542527 curveto
170.58619801525 -178.99403456542527 170.2955588848898 -179.0768279116251 169.98335898921775 -179.2424145966224 curveto
169.98335898921775 -178.8206860019856 lineto
170.32660640367115 -178.6809722302734 170.64829303554066 -178.611115350663 170.94841890209833 -178.611115350663 curveto
171.26234367310596 -178.611115350663 171.49390629922505 -178.68183466720868 171.64310680185284 -178.82327329397722 curveto
171.7923073111504 -178.96471192706858 171.86690755912943 -179.18463174658902 171.86690755912943 -179.48303275184463 curveto
171.86690755912943 -180.75598041173 lineto
171.86690755912943 -181.0474819848085 171.9566003508459 -181.19323275831664 172.13598592625968 -181.19323275831664 curveto
172.1584091241888 -181.19323275831664 172.1911814893905 -181.18978303555832 172.23430302194188 -181.18288359035012 curveto
172.2705251098248 -181.46489841743852 lineto
172.1549593974209 -181.52009398157173 172.02731966052903 -181.5476917611709 171.88760589506253 -181.5476917611709 curveto
171.64957502473806 -181.5476917611709 171.49778723401255 -181.40711555876914 171.43224250453443 -181.1259631665341 curveto
closepath
171.35721103677696 -180.84912292342895 moveto
171.35721103677696 -180.12209387377897 lineto
171.18644976532892 -180.1169192897957 lineto
170.90702222190455 -180.1169192897957 170.68106539372562 -180.16995877720495 170.50857926352006 -180.27603774728135 curveto
170.33609312560378 -180.38211672209988 170.24985006435637 -180.52139927372517 170.24985006435637 -180.69388540393072 curveto
170.24985006435637 -180.8163505618513 170.29297159883544 -180.91984223912644 170.3792146639382 -181.00436044292715 curveto
170.46545773289634 -181.08887865050613 170.5706742731699 -181.13113775051735 170.69486428691792 -181.13113775051735 curveto
170.90702223655492 -181.13113775051735 171.12780448360357 -181.037132805353 171.35721103677696 -180.84912292342895 curveto
closepath
174.31448578321798 -181.48300946138 moveto
174.31448578321798 -180.14279220971207 lineto
172.97426853155005 -180.14279220971207 lineto
172.97426853155005 -179.7598729949498 lineto
174.31448578321798 -179.7598729949498 lineto
174.31448578321798 -178.41965574328188 lineto
174.69740499798021 -178.41965574328188 lineto
174.69740499798021 -179.7598729949498 lineto
176.03762224964814 -179.7598729949498 lineto
176.03762224964814 -180.14279220971207 lineto
174.69740499798021 -180.14279220971207 lineto
174.69740499798021 -181.48300946138 lineto
closepath
178.1436779308406 -181.8969761800419 moveto
178.1436779308406 -182.2488478909045 lineto
177.77110787294143 -181.9952932681676 177.47572537841498 -181.65075221901458 177.25753042370496 -181.21522474024556 curveto
177.03933545924085 -180.77969724200693 176.93023798676288 -180.31527833513695 176.93023798676288 -179.8219680027491 curveto
176.93023798676288 -179.33038250968767 177.03933546899492 -178.86682603601324 177.25753042370496 -178.43129855724425 curveto
177.47572538816905 -177.99577105900562 177.7711078895966 -177.65123001798744 178.1436779308406 -177.39767540658528 curveto
178.1436779308406 -177.74954711744792 lineto
177.89012330810368 -178.02552493811396 177.70944408997116 -178.3222010829928 177.60164025859268 -178.63957556257103 curveto
177.493836422395 -178.95695005633698 177.43993450911535 -179.35108086728792 177.43993450911535 -179.8219680027491 curveto
177.43993450911535 -180.2945800206397 177.4938364272142 -180.68957325534058 177.60164025859268 -181.00694773491878 curveto
177.70944409479037 -181.32432222868476 177.89012331943846 -181.62099837171303 178.1436779308406 -181.8969761800419 curveto
closepath
179.1320234716459 -181.48300946138 moveto
179.1320234716459 -181.10009024661773 lineto
179.89786190117044 -181.10009024661773 lineto
179.89786190117044 -178.0781332003858 lineto
179.1320234716459 -178.26959280776694 lineto
179.1320234716459 -177.87632442503812 lineto
180.41014571551455 -177.55808751006677 lineto
180.41014571551455 -181.10009024661773 lineto
181.17598414503908 -181.10009024661773 lineto
181.17598414503908 -181.48300946138 lineto
closepath
182.06859988215382 -180.14279220971207 moveto
182.06859988215382 -179.7598729949498 lineto
184.3661151707274 -179.7598729949498 lineto
184.3661151707274 -180.14279220971207 lineto
closepath
186.1047753891074 -181.5476917611709 moveto
185.84604618223298 -181.5476917611709 185.64423741243704 -181.4735227218669 185.49934906306436 -181.32518464989013 curveto
185.35446070721468 -181.17684657128214 185.28201653576687 -180.9707256431034 185.28201653576687 -180.7068218638889 curveto
185.28201653576687 -179.05612957322455 lineto
184.93014482490423 -179.05612957322455 lineto
184.93014482490423 -178.67321035846228 lineto
185.28201653576687 -178.67321035846228 lineto
185.28201653576687 -178.16351383610981 lineto
185.79171305811934 -178.1143552882687 lineto
185.79171305811934 -178.67321035846228 lineto
186.52650398374422 -178.67321035846228 lineto
186.52650398374422 -179.05612957322455 lineto
185.79171305811934 -179.05612957322455 lineto
185.79171305811934 -180.61367935219 lineto
185.79171305811934 -180.98107482595165 185.95040030500232 -181.16477254640864 186.26777478458052 -181.16477254640864 curveto
186.33504437836788 -181.16477254640864 186.4169752908709 -181.15356094744408 186.51356752378604 -181.13113775051735 curveto
186.51356752378604 -181.48300946138 lineto
186.35660513828222 -181.52613099585906 186.22034109634512 -181.5476917611709 186.1047753891074 -181.5476917611709 curveto
closepath
186.9249469504563 -181.8969761800419 moveto
186.9249469504563 -182.2488478909045 lineto
187.29751700835547 -181.9952932681676 187.59289950288192 -181.65075221901458 187.81109445759193 -181.21522474024556 curveto
188.02928942205605 -180.77969724200693 188.13838689453402 -180.31527833513695 188.13838689453402 -179.8219680027491 curveto
188.13838689453402 -179.33038250968767 188.02928941230198 -178.86682603601324 187.81109445759193 -178.43129855724425 curveto
187.59289949312785 -177.99577105900562 187.2975169917003 -177.65123001798744 186.9249469504563 -177.39767540658528 curveto
186.9249469504563 -177.74954711744792 lineto
187.17850157319324 -178.02552493811396 187.35918079132577 -178.3222010829928 187.46698462270425 -178.63957556257103 curveto
187.57478845890193 -178.95695005633698 187.62869037218155 -179.35108086728792 187.62869037218155 -179.8219680027491 curveto
187.62869037218155 -180.2945800206397 187.57478845408272 -180.68957325534058 187.46698462270425 -181.00694773491878 curveto
187.35918078650656 -181.32432222868476 187.17850156185847 -181.62099837171303 186.9249469504563 -181.8969761800419 curveto
closepath
188.96632033185784 -181.51405696527962 moveto
188.96632033185784 -177.39767540658528 lineto
189.47601685421031 -177.39767540658528 lineto
189.47601685421031 -179.20101792475623 lineto
189.684725081089 -178.8077495303071 189.99778741207706 -178.611115350663 190.4152038471745 -178.611115350663 curveto
190.75327667749042 -178.611115350663 191.01933653011324 -178.73444293927315 191.2133834265945 -178.98109810546708 curveto
191.4074303317503 -179.22775328268736 191.50445377565364 -179.56496367128736 191.50445377565364 -179.99272927419713 curveto
191.50445377565364 -180.45844184657108 191.39449386273202 -180.8340303910648 191.17457404671995 -181.119494936555 curveto
190.95465422087668 -181.40495949480643 190.66530873435332 -181.5476917611709 190.30653758352577 -181.5476917611709 curveto
189.97363933734732 -181.5476917611709 189.69679910087342 -181.42005201911286 189.47601685421031 -181.16477254640864 curveto
189.41392184641103 -181.51405696527962 lineto
closepath
189.47601685421031 -180.81290083554603 moveto
189.73819578384305 -181.04748198311216 189.98830067210133 -181.16477254640864 190.226331531785 -181.16477254640864 curveto
190.71619216346724 -181.16477254640864 190.96112245740989 -180.7913400578199 190.96112245740989 -180.04447511402986 curveto
190.96112245740989 -179.38557806718967 190.74378992363538 -179.05612957322455 190.3091248755174 -179.05612957322455 curveto
190.02452274795553 -179.05612957322455 189.74682007863302 -179.21050466665963 189.47601685421031 -179.51925483972755 curveto
closepath
191.9831027941065 -181.8969761800419 moveto
191.9831027941065 -182.2488478909045 lineto
192.35567285200565 -181.9952932681676 192.6510553465321 -181.65075221901458 192.86925030124212 -181.21522474024556 curveto
193.0874452657062 -180.77969724200693 193.19654273818418 -180.31527833513695 193.19654273818418 -179.8219680027491 curveto
193.19654273818418 -179.33038250968767 193.08744525595213 -178.86682603601324 192.86925030124212 -178.43129855724425 curveto
192.65105533677803 -177.99577105900562 192.35567283535048 -177.65123001798744 191.9831027941065 -177.39767540658528 curveto
191.9831027941065 -177.74954711744792 lineto
192.2366574168434 -178.02552493811396 192.41733663497592 -178.3222010829928 192.5251404663544 -178.63957556257103 curveto
192.6329443025521 -178.95695005633698 192.6868462158317 -179.35108086728792 192.6868462158317 -179.8219680027491 curveto
192.6868462158317 -180.2945800206397 192.63294429773288 -180.68957325534058 192.5251404663544 -181.00694773491878 curveto
192.4173366301567 -181.32432222868476 192.23665740550862 -181.62099837171303 191.9831027941065 -181.8969761800419 curveto
closepath
fill
newpath
0.0 0.0 0.0 setrgbcolor
1.0 setlinewidth
10.0 setmiterlimit
1 setlinejoin
1 setlinecap
[ ] 0 setdash
newpath
160.89164521376813 -103.9909172461368 moveto
160.89164521376813 -104.72252526423108 160.2985597321443 -105.3156107458549 159.56695171405002 -105.3156107458549 curveto
158.83534369595574 -105.3156107458549 158.2422582143319 -104.72252526423108 158.2422582143319 -103.9909172461368 curveto
158.2422582143319 -103.25930922804251 158.83534369595574 -102.6662237464187 159.56695171405002 -102.6662237464187 curveto
160.2985597321443 -102.6662237464187 160.89164521376813 -103.25930922804251 160.89164521376813 -103.9909172461368 curveto
closepath
fill
newpath
0.0 0.0 0.0 setrgbcolor
1.0 setlinewidth
10.0 setmiterlimit
1 setlinejoin
1 setlinecap
[ ] 0 setdash
newpath
160.89164521376813 -103.9909172461368 moveto
160.89164521376813 -104.72252526423108 160.2985597321443 -105.3156107458549 159.56695171405002 -105.3156107458549 curveto
158.83534369595574 -105.3156107458549 158.2422582143319 -104.72252526423108 158.2422582143319 -103.9909172461368 curveto
158.2422582143319 -103.25930922804251 158.83534369595574 -102.6662237464187 159.56695171405002 -102.6662237464187 curveto
160.2985597321443 -102.6662237464187 160.89164521376813 -103.25930922804251 160.89164521376813 -103.9909172461368 curveto
closepath
stroke
newpath
0.0 0.0 0.0 setrgbcolor
1.0 setlinewidth
10.0 setmiterlimit
1 setlinejoin
1 setlinecap
[ ] 0 setdash
newpath
132.4978101837182 -98.5335657788365 moveto
132.23908097684378 -98.5335657788365 132.03727220704783 -98.45939673953251 131.89238385767518 -98.31105866755574 curveto
131.7474955018255 -98.16272058894774 131.67505133037767 -97.956599660769 131.67505133037767 -97.69269588155451 curveto
131.67505133037767 -96.04200359089016 lineto
131.32317961951506 -96.04200359089016 lineto
131.32317961951506 -95.6590843761279 lineto
131.67505133037767 -95.6590843761279 lineto
131.67505133037767 -95.14938785377542 lineto
132.18474785273014 -95.10022930593432 lineto
132.18474785273014 -95.6590843761279 lineto
132.91953877835502 -95.6590843761279 lineto
132.91953877835502 -96.04200359089016 lineto
132.18474785273014 -96.04200359089016 lineto
132.18474785273014 -97.59955336985558 lineto
132.18474785273014 -97.96694884361726 132.34343509961312 -98.15064656407425 132.66080957919135 -98.15064656407425 curveto
132.7280791729787 -98.15064656407425 132.81001008548174 -98.13943496510969 132.90660231839684 -98.11701176818296 curveto
132.90660231839684 -98.46888347904559 lineto
132.74963993289302 -98.51200501352466 132.61337589095592 -98.5335657788365 132.4978101837182 -98.5335657788365 curveto
closepath
134.24423227807313 -96.04200359089016 moveto
134.24423227807313 -98.46888347904559 lineto
133.73194846372903 -98.46888347904559 lineto
133.73194846372903 -96.04200359089016 lineto
133.33350549701694 -96.04200359089016 lineto
133.33350549701694 -95.6590843761279 lineto
133.73194846372903 -95.6590843761279 lineto
133.73194846372903 -95.3227364172151 lineto
133.73194846372903 -94.65349020209992 134.03724892784084 -94.31886712445997 134.6478498287685 -94.31886712445997 curveto
134.81861110530562 -94.31886712445997 135.0126580028278 -94.34732733721616 135.2299905268868 -94.40424776018399 curveto
135.2299905268868 -94.80786531087935 lineto
135.00058396345815 -94.73714599433367 134.81688623683257 -94.70178633922224 134.67889733266813 -94.70178633922224 curveto
134.51158577888933 -94.70178633922224 134.3973137199992 -94.74188936628777 134.33608114377625 -94.82209541683335 curveto
134.27484856481595 -94.90230147096443 134.24423227807313 -95.05107076133173 134.24423227807313 -95.26840328539072 curveto
134.24423227807313 -95.6590843761279 lineto
134.94538840780675 -95.6590843761279 lineto
134.94538840780675 -96.04200359089016 lineto
closepath
136.60642986643765 -98.8828501977075 moveto
136.60642986643765 -99.23472190857011 lineto
136.23385980853848 -98.98116728583318 135.93847731401203 -98.63662623668019 135.720282359302 -98.20109875791117 curveto
135.5020873948379 -97.76557125967256 135.39298992235993 -97.30115235280256 135.39298992235993 -96.80784202041468 curveto
135.39298992235993 -96.31625652735327 135.50208740459198 -95.85270005367886 135.720282359302 -95.41717257490984 curveto
135.9384773237661 -94.98164507667123 136.23385982519366 -94.63710403565305 136.60642986643765 -94.38354942425089 curveto
136.60642986643765 -94.73542113511351 lineto
136.3528752437007 -95.01139895577957 136.17219602556818 -95.3080751006584 136.0643921941897 -95.62544958023662 curveto
135.95658835799202 -95.94282407400257 135.9026864447124 -96.33695488495353 135.9026864447124 -96.80784202041468 curveto
135.9026864447124 -97.28045403830531 135.95658836281123 -97.67544727300618 136.0643921941897 -97.99282175258439 curveto
136.1721960303874 -98.31019624635036 136.35287525503549 -98.60687238937861 136.60642986643765 -98.8828501977075 curveto
closepath
138.75646951148792 -98.11183718419969 moveto
138.4511690473761 -98.39298958900322 138.15708019587683 -98.5335657788365 137.87420294233974 -98.5335657788365 curveto
137.64134665615276 -98.5335657788365 137.448162192096 -98.46069038556688 137.29464953621306 -98.31493960554319 curveto
137.1411368734676 -98.16918881900394 137.0643805489574 -97.98505987329386 137.0643805489574 -97.7625527653287 curveto
137.0643805489574 -97.45552743983772 137.1933139370498 -97.2196526599623 137.4511807017071 -97.05492840561601 curveto
137.70904747789194 -96.89020414390596 138.07859901685003 -96.80784202041468 138.5598353201235 -96.80784202041468 curveto
138.68143804373045 -96.80784202041468 lineto
138.68143804373045 -96.46890676951026 lineto
138.68143804373045 -96.14290796884848 138.51412648995165 -95.97990858309088 138.17950339735287 -95.97990858309088 curveto
137.9104250222035 -95.97990858309088 137.6197858918433 -96.0627019292907 137.30758599617124 -96.22828861428802 curveto
137.30758599617124 -95.8065600196512 lineto
137.65083341062464 -95.666846247939 137.97252004249415 -95.59698936832861 138.27264590905182 -95.59698936832861 curveto
138.58657068005945 -95.59698936832861 138.81813330617854 -95.66770868487428 138.96733380880633 -95.80914731164283 curveto
139.1165343181039 -95.95058594473419 139.19113456608292 -96.17050576425464 139.19113456608292 -96.46890676951026 curveto
139.19113456608292 -97.74185442939562 lineto
139.19113456608292 -98.03335600247412 139.28082735779938 -98.17910677598225 139.46021293321317 -98.17910677598225 curveto
139.48263613114227 -98.17910677598225 139.51540849634398 -98.17565705322393 139.55853002889538 -98.16875760801571 curveto
139.59475211677827 -98.45077243510413 lineto
139.47918640437436 -98.50596799923733 139.3515466674825 -98.5335657788365 139.21183290201603 -98.5335657788365 curveto
138.97380203169155 -98.5335657788365 138.82201424096604 -98.39298957643473 138.75646951148792 -98.11183718419969 curveto
closepath
138.68143804373045 -97.83499694109454 moveto
138.68143804373045 -97.10796789144457 lineto
138.5106767722824 -97.1027933074613 lineto
138.23124922885802 -97.1027933074613 138.00529240067908 -97.15583279487055 137.83280627047353 -97.26191176494696 curveto
137.66032013255727 -97.36799073976547 137.57407707130986 -97.50727329139077 137.57407707130986 -97.67975942159633 curveto
137.57407707130986 -97.80222457951689 137.61719860578893 -97.90571625679203 137.7034416708917 -97.99023446059276 curveto
137.78968473984983 -98.07475266817174 137.89490128012338 -98.11701176818296 138.01909129387138 -98.11701176818296 curveto
138.23124924350842 -98.11701176818296 138.45203149055706 -98.02300682301859 138.68143804373045 -97.83499694109454 curveto
closepath
139.91557632374125 -98.8828501977075 moveto
139.91557632374125 -99.23472190857011 lineto
140.28814638164042 -98.98116728583318 140.58352887616687 -98.63662623668019 140.8017238308769 -98.20109875791117 curveto
141.019918795341 -97.76557125967256 141.12901626781897 -97.30115235280256 141.12901626781897 -96.80784202041468 curveto
141.12901626781897 -96.31625652735327 141.01991878558692 -95.85270005367886 140.8017238308769 -95.41717257490984 curveto
140.5835288664128 -94.98164507667123 140.28814636498524 -94.63710403565305 139.91557632374125 -94.38354942425089 curveto
139.91557632374125 -94.73542113511351 lineto
140.1691309464782 -95.01139895577957 140.34981016461072 -95.3080751006584 140.4576139959892 -95.62544958023662 curveto
140.56541783218688 -95.94282407400257 140.6193197454665 -96.33695488495353 140.6193197454665 -96.80784202041468 curveto
140.6193197454665 -97.28045403830531 140.56541782736767 -97.67544727300618 140.4576139959892 -97.99282175258439 curveto
140.3498101597915 -98.31019624635036 140.16913093514341 -98.60687238937861 139.91557632374125 -98.8828501977075 curveto
closepath
143.36184925660163 -98.46888347904559 moveto
143.36184925660163 -97.12866622737766 lineto
142.0216320049337 -97.12866622737766 lineto
142.0216320049337 -96.7457470126154 lineto
143.36184925660163 -96.7457470126154 lineto
143.36184925660163 -95.40552976094747 lineto
143.7447684713639 -95.40552976094747 lineto
143.7447684713639 -96.7457470126154 lineto
145.08498572303182 -96.7457470126154 lineto
145.08498572303182 -97.12866622737766 lineto
143.7447684713639 -97.12866622737766 lineto
143.7447684713639 -98.46888347904559 lineto
closepath
147.19104140422428 -98.8828501977075 moveto
147.19104140422428 -99.23472190857011 lineto
146.8184713463251 -98.98116728583318 146.52308885179866 -98.63662623668019 146.30489389708862 -98.20109875791117 curveto
146.08669893262453 -97.76557125967256 145.97760146014656 -97.30115235280256 145.97760146014656 -96.80784202041468 curveto
145.97760146014656 -96.31625652735327 146.0866989423786 -95.85270005367886 146.30489389708862 -95.41717257490984 curveto
146.52308886155274 -94.98164507667123 146.8184713629803 -94.63710403565305 147.19104140422428 -94.38354942425089 curveto
147.19104140422428 -94.73542113511351 lineto
146.93748678148734 -95.01139895577957 146.7568075633548 -95.3080751006584 146.64900373197634 -95.62544958023662 curveto
146.54119989577865 -95.94282407400257 146.48729798249903 -96.33695488495353 146.48729798249903 -96.80784202041468 curveto
146.48729798249903 -97.28045403830531 146.54119990059786 -97.67544727300618 146.64900373197634 -97.99282175258439 curveto
146.75680756817403 -98.31019624635036 146.9374867928221 -98.60687238937861 147.19104140422428 -98.8828501977075 curveto
closepath
148.17938694502956 -98.46888347904559 moveto
148.17938694502956 -98.08596426428332 lineto
148.9452253745541 -98.08596426428332 lineto
148.9452253745541 -95.0640072180514 lineto
148.17938694502956 -95.25546682543253 lineto
148.17938694502956 -94.86219844270373 lineto
149.4575091888982 -94.54396152773238 lineto
149.4575091888982 -98.08596426428332 lineto
150.22334761842274 -98.08596426428332 lineto
150.22334761842274 -98.46888347904559 lineto
closepath
151.11596335553747 -97.12866622737766 moveto
151.11596335553747 -96.7457470126154 lineto
153.41347864411105 -96.7457470126154 lineto
153.41347864411105 -97.12866622737766 lineto
closepath
155.15213886249106 -98.5335657788365 moveto
154.89340965561664 -98.5335657788365 154.6916008858207 -98.45939673953251 154.54671253644804 -98.31105866755574 curveto
154.40182418059837 -98.16272058894774 154.32938000915053 -97.956599660769 154.32938000915053 -97.69269588155451 curveto
154.32938000915053 -96.04200359089016 lineto
153.97750829828792 -96.04200359089016 lineto
153.97750829828792 -95.6590843761279 lineto
154.32938000915053 -95.6590843761279 lineto
154.32938000915053 -95.14938785377542 lineto
154.839076531503 -95.10022930593432 lineto
154.839076531503 -95.6590843761279 lineto
155.57386745712788 -95.6590843761279 lineto
155.57386745712788 -96.04200359089016 lineto
154.839076531503 -96.04200359089016 lineto
154.839076531503 -97.59955336985558 lineto
154.839076531503 -97.96694884361726 154.99776377838597 -98.15064656407425 155.3151382579642 -98.15064656407425 curveto
155.38240785175157 -98.15064656407425 155.4643387642546 -98.13943496510969 155.5609309971697 -98.11701176818296 curveto
155.5609309971697 -98.46888347904559 lineto
155.40396861166587 -98.51200501352466 155.26770456972878 -98.5335657788365 155.15213886249106 -98.5335657788365 curveto
closepath
155.97231042383999 -98.8828501977075 moveto
155.97231042383999 -99.23472190857011 lineto
156.34488048173915 -98.98116728583318 156.6402629762656 -98.63662623668019 156.85845793097562 -98.20109875791117 curveto
157.0766528954397 -97.76557125967256 157.18575036791768 -97.30115235280256 157.18575036791768 -96.80784202041468 curveto
157.18575036791768 -96.31625652735327 157.07665288568563 -95.85270005367886 156.85845793097562 -95.41717257490984 curveto
156.64026296651153 -94.98164507667123 156.34488046508397 -94.63710403565305 155.97231042383999 -94.38354942425089 curveto
155.97231042383999 -94.73542113511351 lineto
156.2258650465769 -95.01139895577957 156.40654426470942 -95.3080751006584 156.5143480960879 -95.62544958023662 curveto
156.6221519322856 -95.94282407400257 156.6760538455652 -96.33695488495353 156.6760538455652 -96.80784202041468 curveto
156.6760538455652 -97.28045403830531 156.62215192746638 -97.67544727300618 156.5143480960879 -97.99282175258439 curveto
156.4065442598902 -98.31019624635036 156.22586503524212 -98.60687238937861 155.97231042383999 -98.8828501977075 curveto
closepath
158.62169742327617 -96.04200359089016 moveto
158.62169742327617 -98.46888347904559 lineto
158.10941360893207 -98.46888347904559 lineto
158.10941360893207 -96.04200359089016 lineto
157.71097064222 -96.04200359089016 lineto
157.71097064222 -95.6590843761279 lineto
158.10941360893207 -95.6590843761279 lineto
158.10941360893207 -95.3227364172151 lineto
158.10941360893207 -94.65349020209992 158.41471407304388 -94.31886712445997 159.02531497397155 -94.31886712445997 curveto
159.19607625050867 -94.31886712445997 159.39012314803085 -94.34732733721616 159.60745567208986 -94.40424776018399 curveto
159.60745567208986 -94.80786531087935 lineto
159.3780491086612 -94.73714599433367 159.19435138203562 -94.70178633922224 159.05636247787118 -94.70178633922224 curveto
158.88905092409237 -94.70178633922224 158.77477886520225 -94.74188936628777 158.71354628897927 -94.82209541683335 curveto
158.652313710019 -94.90230147096443 158.62169742327617 -95.05107076133173 158.62169742327617 -95.26840328539072 curveto
158.62169742327617 -95.6590843761279 lineto
159.3228535530098 -95.6590843761279 lineto
159.3228535530098 -96.04200359089016 lineto
closepath
160.98389501164067 -98.8828501977075 moveto
160.98389501164067 -99.23472190857011 lineto
160.6113249537415 -98.98116728583318 160.31594245921505 -98.63662623668019 160.09774750450504 -98.20109875791117 curveto
159.87955254004095 -97.76557125967256 159.77045506756298 -97.30115235280256 159.77045506756298 -96.80784202041468 curveto
159.77045506756298 -96.31625652735327 159.87955254979502 -95.85270005367886 160.09774750450504 -95.41717257490984 curveto
160.31594246896913 -94.98164507667123 160.61132497039668 -94.63710403565305 160.98389501164067 -94.38354942425089 curveto
160.98389501164067 -94.73542113511351 lineto
160.73034038890376 -95.01139895577957 160.54966117077123 -95.3080751006584 160.44185733939275 -95.62544958023662 curveto
160.33405350319507 -95.94282407400257 160.28015158991545 -96.33695488495353 160.28015158991545 -96.80784202041468 curveto
160.28015158991545 -97.28045403830531 160.33405350801428 -97.67544727300618 160.44185733939275 -97.99282175258439 curveto
160.54966117559044 -98.31019624635036 160.73034040023853 -98.60687238937861 160.98389501164067 -98.8828501977075 curveto
closepath
161.6850511413743 -98.49993098294523 moveto
161.6850511413743 -94.38354942425089 lineto
162.19474766372676 -94.38354942425089 lineto
162.19474766372676 -96.18689194242182 lineto
162.40345589060544 -95.7936235479727 162.71651822159353 -95.59698936832861 163.13393465669097 -95.59698936832861 curveto
163.4720074870069 -95.59698936832861 163.7380673396297 -95.72031695693875 163.93211423611095 -95.96697212313269 curveto
164.12616114126678 -96.21362730035297 164.22318458517012 -96.55083768895295 164.22318458517012 -96.97860329186273 curveto
164.22318458517012 -97.44431586423669 164.1132246722485 -97.81990440873041 163.8933048562364 -98.1053689542206 curveto
163.67338503039312 -98.39083351247204 163.38403954386976 -98.5335657788365 163.0252683930422 -98.5335657788365 curveto
162.6923701468638 -98.5335657788365 162.41552991038986 -98.40592603677845 162.19474766372676 -98.15064656407425 curveto
162.13265265592747 -98.49993098294523 lineto
closepath
162.19474766372676 -97.79877485321163 moveto
162.45692659335953 -98.03335600077777 162.7070314816178 -98.15064656407425 162.94506234130148 -98.15064656407425 curveto
163.4349229729837 -98.15064656407425 163.67985326692636 -97.7772140754855 163.67985326692636 -97.03034913169546 curveto
163.67985326692636 -96.37145208485526 163.46252073315185 -96.04200359089016 163.02785568503384 -96.04200359089016 curveto
162.74325355747197 -96.04200359089016 162.46555088814947 -96.19637868432523 162.19474766372676 -96.50512885739316 curveto
closepath
164.70183360362293 -98.8828501977075 moveto
164.70183360362293 -99.23472190857011 lineto
165.0744036615221 -98.98116728583318 165.36978615604855 -98.63662623668019 165.5879811107586 -98.20109875791117 curveto
165.80617607522268 -97.76557125967256 165.91527354770065 -97.30115235280256 165.91527354770065 -96.80784202041468 curveto
165.91527354770065 -96.31625652735327 165.8061760654686 -95.85270005367886 165.5879811107586 -95.41717257490984 curveto
165.36978614629447 -94.98164507667123 165.07440364486692 -94.63710403565305 164.70183360362293 -94.38354942425089 curveto
164.70183360362293 -94.73542113511351 lineto
164.95538822635987 -95.01139895577957 165.1360674444924 -95.3080751006584 165.24387127587087 -95.62544958023662 curveto
165.35167511206856 -95.94282407400257 165.40557702534818 -96.33695488495353 165.40557702534818 -96.80784202041468 curveto
165.40557702534818 -97.28045403830531 165.35167510724935 -97.67544727300618 165.24387127587087 -97.99282175258439 curveto
165.13606743967318 -98.31019624635036 164.9553882150251 -98.60687238937861 164.70183360362293 -98.8828501977075 curveto
closepath
fill
newpath
0.0 0.0 0.0 setrgbcolor
1.0 setlinewidth
10.0 setmiterlimit
1 setlinejoin
1 setlinecap
[ ] 0 setdash
newpath
162.31408487457313 -199.15433446279937 moveto
162.31408487457313 -199.88594248089368 161.72099939294932 -200.47902796251748 160.98939137485502 -200.47902796251748 curveto
160.25778335676074 -200.47902796251748 159.66469787513694 -199.88594248089368 159.66469787513694 -199.15433446279937 curveto
159.66469787513694 -198.4227264447051 160.25778335676074 -197.8296409630813 160.98939137485502 -197.8296409630813 curveto
161.72099939294932 -197.8296409630813 162.31408487457313 -198.4227264447051 162.31408487457313 -199.15433446279937 curveto
closepath
fill
newpath
0.0 0.0 0.0 setrgbcolor
1.0 setlinewidth
10.0 setmiterlimit
1 setlinejoin
1 setlinecap
[ ] 0 setdash
newpath
162.31408487457313 -199.15433446279937 moveto
162.31408487457313 -199.88594248089368 161.72099939294932 -200.47902796251748 160.98939137485502 -200.47902796251748 curveto
160.25778335676074 -200.47902796251748 159.66469787513694 -199.88594248089368 159.66469787513694 -199.15433446279937 curveto
159.66469787513694 -198.4227264447051 160.25778335676074 -197.8296409630813 160.98939137485502 -197.8296409630813 curveto
161.72099939294932 -197.8296409630813 162.31408487457313 -198.4227264447051 162.31408487457313 -199.15433446279937 curveto
closepath
stroke
newpath
0.0 0.0 0.0 setrgbcolor
1.0 setlinewidth
10.0 setmiterlimit
1 setlinejoin
1 setlinecap
[ ] 0 setdash
newpath
153.25134167930182 -208.04156175553294 moveto
152.9926124724274 -208.04156175553294 152.79080370263145 -207.96739271622894 152.64591535325877 -207.81905464425216 curveto
152.5010269974091 -207.67071656564417 152.42858282596129 -207.46459563746544 152.42858282596129 -207.20069185825096 curveto
152.42858282596129 -205.5499995675866 lineto
152.07671111509865 -205.5499995675866 lineto
152.07671111509865 -205.16708035282434 lineto
152.42858282596129 -205.16708035282434 lineto
152.42858282596129 -204.65738383047187 lineto
152.93827934831376 -204.60822528263077 lineto
152.93827934831376 -205.16708035282434 lineto
153.67307027393863 -205.16708035282434 lineto
153.67307027393863 -205.5499995675866 lineto
152.93827934831376 -205.5499995675866 lineto
152.93827934831376 -207.10754934655202 lineto
152.93827934831376 -207.47494482031368 153.09696659519673 -207.65864254077067 153.41434107477494 -207.65864254077067 curveto
153.4816106685623 -207.65864254077067 153.56354158106532 -207.6474309418061 153.66013381398045 -207.6250077448794 curveto
153.66013381398045 -207.97687945574202 lineto
153.50317142847663 -208.0200009902211 153.36690738653954 -208.04156175553294 153.25134167930182 -208.04156175553294 curveto
closepath
155.83863367093872 -207.61983316089612 moveto
155.5333332068269 -207.90098556569967 155.23924435532763 -208.04156175553294 154.95636710179053 -208.04156175553294 curveto
154.72351081560356 -208.04156175553294 154.53032635154682 -207.96868636226333 154.37681369566388 -207.82293558223964 curveto
154.22330103291839 -207.67718479570038 154.1465447084082 -207.4930558499903 154.1465447084082 -207.27054874202514 curveto
154.1465447084082 -206.96352341653417 154.2754780965006 -206.72764863665876 154.5333448611579 -206.56292438231245 curveto
154.79121163734274 -206.39820012060238 155.16076317630083 -206.31583799711112 155.64199947957434 -206.31583799711112 curveto
155.76360220318125 -206.31583799711112 lineto
155.76360220318125 -205.9769027462067 lineto
155.76360220318125 -205.6509039455449 155.59629064940245 -205.48790455978732 155.2616675568037 -205.48790455978732 curveto
154.9925891816543 -205.48790455978732 154.7019500512941 -205.57069790598715 154.38975015562207 -205.73628459098447 curveto
154.38975015562207 -205.31455599634765 lineto
154.73299757007547 -205.17484222463546 155.05468420194495 -205.10498534502506 155.35481006850262 -205.10498534502506 curveto
155.66873483951025 -205.10498534502506 155.90029746562934 -205.17570466157073 156.04949796825713 -205.31714328833928 curveto
156.1986984775547 -205.45858192143064 156.27329872553372 -205.67850174095108 156.27329872553372 -205.9769027462067 curveto
156.27329872553372 -207.24985040609207 lineto
156.27329872553372 -207.54135197917057 156.36299151725018 -207.6871027526787 156.54237709266397 -207.6871027526787 curveto
156.5648002905931 -207.6871027526787 156.59757265579478 -207.68365302992038 156.64069418834617 -207.67675358471215 curveto
156.6769162762291 -207.95876841180058 lineto
156.5613505638252 -208.01396397593376 156.43371082693332 -208.04156175553294 156.29399706146683 -208.04156175553294 curveto
156.05596619114235 -208.04156175553294 155.90417840041684 -207.90098555313116 155.83863367093872 -207.61983316089612 curveto
closepath
155.76360220318125 -207.34299291779098 moveto
155.76360220318125 -206.615963868141 lineto
155.59284093173324 -206.61078928415773 lineto
155.31341338830885 -206.61078928415773 155.0874565601299 -206.66382877156698 154.91497042992435 -206.7699077416434 curveto
154.74248429200807 -206.87598671646194 154.65624123076066 -207.01526926808722 154.65624123076066 -207.18775539829278 curveto
154.65624123076066 -207.31022055621332 154.69936276523973 -207.41371223348847 154.78560583034252 -207.4982304372892 curveto
154.87184889930066 -207.5827486448682 154.9770654395742 -207.6250077448794 155.1012554533222 -207.6250077448794 curveto
155.31341340295924 -207.6250077448794 155.5341956500079 -207.53100279971503 155.76360220318125 -207.34299291779098 curveto
closepath
158.72087694962227 -207.97687945574202 moveto
158.72087694962227 -206.6366622040741 lineto
157.38065969795434 -206.6366622040741 lineto
157.38065969795434 -206.25374298931183 lineto
158.72087694962227 -206.25374298931183 lineto
158.72087694962227 -204.9135257376439 lineto
159.10379616438453 -204.9135257376439 lineto
159.10379616438453 -206.25374298931183 lineto
160.44401341605246 -206.25374298931183 lineto
160.44401341605246 -206.6366622040741 lineto
159.10379616438453 -206.6366622040741 lineto
159.10379616438453 -207.97687945574202 lineto
closepath
162.5500690972449 -208.39084617440392 moveto
162.5500690972449 -208.74271788526656 lineto
162.17749903934572 -208.48916326252962 161.88211654481927 -208.1446222133766 161.66392159010925 -207.70909473460762 curveto
161.44572662564516 -207.273567236369 161.3366291531672 -206.809148329499 161.3366291531672 -206.31583799711112 curveto
161.3366291531672 -205.82425250404972 161.44572663539924 -205.3606960303753 161.66392159010925 -204.92516855160628 curveto
161.88211655457334 -204.48964105336765 162.1774990560009 -204.14510001234947 162.5500690972449 -203.89154540094734 curveto
162.5500690972449 -204.24341711180995 lineto
162.29651447450797 -204.51939493247602 162.11583525637545 -204.81607107735485 162.00803142499697 -205.13344555693305 curveto
161.90022758879928 -205.450820050699 161.84632567551967 -205.84495086164995 161.84632567551967 -206.31583799711112 curveto
161.84632567551967 -206.78845001500173 161.9002275936185 -207.1834432497026 162.00803142499697 -207.50081772928084 curveto
162.11583526119466 -207.8181922230468 162.29651448584275 -208.11486836607506 162.5500690972449 -208.39084617440392 curveto
closepath
163.5384146380502 -207.97687945574202 moveto
163.5384146380502 -207.59396024097975 lineto
164.30425306757473 -207.59396024097975 lineto
164.30425306757473 -204.57200319474785 lineto
163.5384146380502 -204.76346280212897 lineto
163.5384146380502 -204.37019441940015 lineto
164.81653688191884 -204.05195750442883 lineto
164.81653688191884 -207.59396024097975 lineto
165.58237531144337 -207.59396024097975 lineto
165.58237531144337 -207.97687945574202 lineto
closepath
166.4749910485581 -206.6366622040741 moveto
166.4749910485581 -206.25374298931183 lineto
168.7725063371317 -206.25374298931183 lineto
168.7725063371317 -206.6366622040741 lineto
closepath
170.5111665555117 -208.04156175553294 moveto
170.25243734863727 -208.04156175553294 170.05062857884133 -207.96739271622894 169.90574022946865 -207.81905464425216 curveto
169.76085187361898 -207.67071656564417 169.68840770217116 -207.46459563746544 169.68840770217116 -207.20069185825096 curveto
169.68840770217116 -205.5499995675866 lineto
169.33653599130852 -205.5499995675866 lineto
169.33653599130852 -205.16708035282434 lineto
169.68840770217116 -205.16708035282434 lineto
169.68840770217116 -204.65738383047187 lineto
170.19810422452363 -204.60822528263077 lineto
170.19810422452363 -205.16708035282434 lineto
170.9328951501485 -205.16708035282434 lineto
170.9328951501485 -205.5499995675866 lineto
170.19810422452363 -205.5499995675866 lineto
170.19810422452363 -207.10754934655202 lineto
170.19810422452363 -207.47494482031368 170.3567914714066 -207.65864254077067 170.67416595098481 -207.65864254077067 curveto
170.74143554477217 -207.65864254077067 170.8233664572752 -207.6474309418061 170.91995869019033 -207.6250077448794 curveto
170.91995869019033 -207.97687945574202 lineto
170.7629963046865 -208.0200009902211 170.6267322627494 -208.04156175553294 170.5111665555117 -208.04156175553294 curveto
closepath
171.3313381168606 -208.39084617440392 moveto
171.3313381168606 -208.74271788526656 lineto
171.70390817475976 -208.48916326252962 171.9992906692862 -208.1446222133766 172.21748562399625 -207.70909473460762 curveto
172.43568058846034 -207.273567236369 172.5447780609383 -206.809148329499 172.5447780609383 -206.31583799711112 curveto
172.5447780609383 -205.82425250404972 172.43568057870627 -205.3606960303753 172.21748562399625 -204.92516855160628 curveto
171.99929065953214 -204.48964105336765 171.70390815810458 -204.14510001234947 171.3313381168606 -203.89154540094734 curveto
171.3313381168606 -204.24341711180995 lineto
171.58489273959754 -204.51939493247602 171.76557195773006 -204.81607107735485 171.87337578910854 -205.13344555693305 curveto
171.98117962530623 -205.450820050699 172.03508153858584 -205.84495086164995 172.03508153858584 -206.31583799711112 curveto
172.03508153858584 -206.78845001500173 171.981179620487 -207.1834432497026 171.87337578910854 -207.50081772928084 curveto
171.76557195291085 -207.8181922230468 171.58489272826276 -208.11486836607506 171.3313381168606 -208.39084617440392 curveto
closepath
173.37271149826213 -208.00792695964168 moveto
173.37271149826213 -203.89154540094734 lineto
173.8824080206146 -203.89154540094734 lineto
173.8824080206146 -205.69488791911826 lineto
174.0911162474933 -205.30161952466915 174.40417857848135 -205.10498534502506 174.8215950135788 -205.10498534502506 curveto
175.1596678438947 -205.10498534502506 175.42572769651753 -205.22831293363518 175.6197745929988 -205.4749680998291 curveto
175.8138214981546 -205.7216232770494 175.91084494205793 -206.0588336656494 175.91084494205793 -206.48659926855916 curveto
175.91084494205793 -206.9523118409331 175.8008850291363 -207.32790038542686 175.58096521312424 -207.61336493091704 curveto
175.36104538728097 -207.8988294891685 175.0716999007576 -208.04156175553294 174.71292874993006 -208.04156175553294 curveto
174.3800305037516 -208.04156175553294 174.1031902672777 -207.9139220134749 173.8824080206146 -207.65864254077067 curveto
173.82031301281532 -208.00792695964168 lineto
closepath
173.8824080206146 -207.30677082990806 moveto
174.14458695024734 -207.5413519774742 174.39469183850562 -207.65864254077067 174.6327226981893 -207.65864254077067 curveto
175.12258332987153 -207.65864254077067 175.36751362381418 -207.28521005218192 175.36751362381418 -206.5383451083919 curveto
175.36751362381418 -205.8794480615517 175.15018109003967 -205.5499995675866 174.7155160419217 -205.5499995675866 curveto
174.43091391435982 -205.5499995675866 174.1532112450373 -205.7043746610217 173.8824080206146 -206.0131248340896 curveto
closepath
fill
newpath
grestore
grestore
showpage

%%EOF