%!PS
%%BoundingBox: -100 -92 100 142 
%%HiResBoundingBox: -99.46259 -91.63358 99.46259 141.98225 
%%Creator: MetaPost 2.00
%%CreationDate: 2019.12.19:1329
%%Pages: 1
%*Font: cmr10 6.97382 9.96265 2d:9f
%%BeginProlog
%%EndProlog
%%Page: 1 1
 1 0 0 setrgbcolor 0 2 dtransform truncate idtransform setlinewidth pop
 [] 0 setdash 1 setlinecap 1 setlinejoin 10 setmiterlimit
newpath -85.03935 113.3858 moveto
-84.11357 108.75165 -83.16862 104.12135 -82.20453 99.49503 curveto
-81.27821 95.04999 -80.33421 90.60864 -79.36972 86.17172 curveto
-78.44443 81.91515 -77.50029 77.66269 -76.5349 73.41504 curveto
-75.61035 69.3471 -74.66632 65.28363 -73.70007 61.2254 curveto
-72.77641 57.34605 -71.83246 53.47156 -70.86526 49.60283 curveto
-69.94254 45.91199 -68.99867 42.22647 -68.03044 38.5473 curveto
-67.10872 35.0449 -66.16495 31.54834 -65.19563 28.05882 curveto
-64.27502 24.74463 -63.3314 21.43684 -62.36081 18.13695 curveto
-61.44142 15.01114 -60.49786 11.89247 -59.52599 8.78258 curveto
-58.60788 5.84473 -57.66452 2.91483 -56.69118 -0.00519 curveto
-55.77454 -2.7551 -54.83131 -5.49611 -53.85635 -8.2259 curveto
-52.94127 -10.78809 -51.99825 -13.34023 -51.02153 -15.87956 curveto
-50.10814 -18.25427 -49.16536 -20.6176 -48.18672 -22.96617 curveto
-47.27518 -25.15375 -46.33263 -27.32831 -45.3519 -29.48575 curveto
-44.44235 -31.48659 -43.50009 -33.47244 -42.51707 -35.43825 curveto
-41.60963 -37.2529 -40.66763 -39.05016 -39.68227 -40.82372 curveto
-38.77702 -42.45305 -37.83542 -44.06201 -36.84744 -45.64256 curveto
-35.94443 -47.08722 -35.00298 -48.50764 -34.01263 -49.89392 curveto
-33.11151 -51.1553 -32.17032 -52.38782 -31.17781 -53.57867 curveto
-30.27809 -54.6582 -29.33682 -55.70274 -28.34299 -56.69637 curveto
-27.44339 -57.59576 -26.50166 -58.45247 -25.50818 -59.24701 curveto
-24.60649 -59.96812 -23.66362 -60.63684 -22.67336 -61.2306 curveto
-21.76598 -61.77469 -20.82101 -62.25444 -19.83853 -62.64714 curveto
-18.9206 -63.01404 -17.97319 -63.30354 -17.00372 -63.49707 curveto
-16.0702 -63.68343 -15.12085 -63.7798 -14.1689 -63.77951 curveto
-13.2169 -63.77922 -12.26753 -63.68225 -11.33408 -63.49535 curveto
-10.36456 -63.30122 -9.41716 -63.01112 -8.49927 -62.64368 curveto
-7.51674 -62.25037 -6.57181 -61.77002 -5.66444 -61.2254 curveto
-4.67416 -60.63101 -3.7313 -59.96175 -2.82962 -59.24008 curveto
-1.83614 -58.44493 -0.89441 -57.58766 0.00519 -56.68771 curveto
0.99902 -55.69348 1.94028 -54.64838 2.84001 -53.56828 curveto
3.8325 -52.37683 4.7737 -51.14375 5.67482 -49.8818 curveto
6.66516 -48.49493 7.60661 -47.07394 8.50964 -45.62872 curveto
9.4976 -44.04758 10.43922 -42.43805 11.34447 -40.80815 curveto
12.32982 -39.034 13.27184 -37.23619 14.17928 -35.42096 curveto
15.1623 -33.45457 16.10454 -31.46812 17.0141 -29.4667 curveto
17.99481 -27.30869 18.93738 -25.13356 19.84892 -22.94542 curveto
20.82755 -20.59625 21.77034 -18.23236 22.68373 -15.85707 curveto
23.66043 -13.31715 24.60345 -10.76443 25.51855 -8.20168 curveto
26.49352 -5.47131 27.43672 -2.72972 28.35338 0.02077 curveto
29.32672 2.94136 30.27008 5.87184 31.18819 8.81026 curveto
32.16006 11.92073 33.10362 15.03998 34.02301 18.16637 curveto
34.99359 21.46684 35.93721 24.7752 36.85782 28.08997 curveto
37.82713 31.58006 38.77092 35.0772 39.69264 38.58017 curveto
40.66087 42.25992 41.60474 45.94601 42.52747 49.63744 curveto
43.49466 53.50674 44.4386 57.38182 45.36227 61.26175 curveto
46.32854 65.32054 47.27263 69.38458 48.1971 73.45311 curveto
49.1624 77.70135 50.10631 81.95444 51.03192 86.21152 curveto
51.99675 90.64894 52.9417 95.09067 53.86673 99.53654 curveto stroke
 0 0 0 setrgbcolor 0.5 0 dtransform exch truncate exch idtransform pop setlinewidth
newpath -85.03935 -2.83482 moveto
-85.03935 2.83482 lineto stroke
-87.94513 -10.32906 moveto
(-3) cmr10 6.97382 fshow
newpath -56.6929 -2.83482 moveto
-56.6929 2.83482 lineto stroke
-59.59868 -10.32906 moveto
(-2) cmr10 6.97382 fshow
newpath -28.34645 -2.83482 moveto
-28.34645 2.83482 lineto stroke
-31.25223 -10.32906 moveto
(-1) cmr10 6.97382 fshow
newpath 28.34645 -2.83482 moveto
28.34645 2.83482 lineto stroke
26.60298 -10.32906 moveto
(1) cmr10 6.97382 fshow
newpath 56.6929 -2.83482 moveto
56.6929 2.83482 lineto stroke
54.94943 -10.32906 moveto
(2) cmr10 6.97382 fshow
newpath 85.03935 -2.83482 moveto
85.03935 2.83482 lineto stroke
83.29588 -10.32906 moveto
(3) cmr10 6.97382 fshow
 0 0.5 dtransform truncate idtransform setlinewidth pop
newpath -2.83482 -85.03935 moveto
2.83482 -85.03935 lineto stroke
2.09999 -91.63358 moveto
(-3) cmr10 6.97382 fshow
newpath -2.83482 -56.6929 moveto
2.83482 -56.6929 lineto stroke
2.09999 -63.28712 moveto
(-2) cmr10 6.97382 fshow
newpath -2.83482 -28.34645 moveto
2.83482 -28.34645 lineto stroke
2.09999 -34.94067 moveto
(-1) cmr10 6.97382 fshow
newpath -2.83482 28.34645 moveto
2.83482 28.34645 lineto stroke
-6.48692 26.09933 moveto
(1) cmr10 6.97382 fshow
newpath -2.83482 56.6929 moveto
2.83482 56.6929 lineto stroke
-6.48692 54.44579 moveto
(2) cmr10 6.97382 fshow
newpath -2.83482 85.03935 moveto
2.83482 85.03935 lineto stroke
-6.48692 82.79224 moveto
(3) cmr10 6.97382 fshow
newpath -2.83482 113.3858 moveto
2.83482 113.3858 lineto stroke
-6.48692 111.13869 moveto
(4) cmr10 6.97382 fshow
2.09999 -9.42905 moveto
(0) cmr10 6.97382 fshow
newpath -99.21259 0 moveto
99.21259 0 lineto stroke
newpath 95.51744 -1.53061 moveto
99.21259 0 lineto
95.51744 1.53061 lineto
 closepath
gsave fill grestore stroke
 0.5 0 dtransform exch truncate exch idtransform pop setlinewidth
newpath 0 -85.03935 moveto
0 141.73225 lineto stroke
 0 0.5 dtransform truncate idtransform setlinewidth pop
newpath 1.53079 138.03668 moveto
0 141.73225 lineto
-1.53079 138.03668 lineto
 closepath
gsave fill grestore stroke
 0.5 0 dtransform exch truncate exch idtransform pop setlinewidth
 [0 5 ] 2.5 setdash
newpath -85.03935 -85.03935 moveto
-85.03935 141.73225 lineto stroke
newpath -56.6929 -85.03935 moveto
-56.6929 141.73225 lineto stroke
newpath -28.34645 -85.03935 moveto
-28.34645 141.73225 lineto stroke
newpath 0 -85.03935 moveto
0 141.73225 lineto stroke
newpath 28.34645 -85.03935 moveto
28.34645 141.73225 lineto stroke
newpath 56.6929 -85.03935 moveto
56.6929 141.73225 lineto stroke
newpath 85.03935 -85.03935 moveto
85.03935 141.73225 lineto stroke
 0 0.5 dtransform truncate idtransform setlinewidth pop
newpath -85.03935 -85.03935 moveto
85.03935 -85.03935 lineto stroke
newpath -85.03935 -56.6929 moveto
85.03935 -56.6929 lineto stroke
newpath -85.03935 -28.34645 moveto
85.03935 -28.34645 lineto stroke
newpath -85.03935 0 moveto
85.03935 0 lineto stroke
newpath -85.03935 28.34645 moveto
85.03935 28.34645 lineto stroke
newpath -85.03935 56.6929 moveto
85.03935 56.6929 lineto stroke
newpath -85.03935 85.03935 moveto
85.03935 85.03935 lineto stroke
newpath -85.03935 113.3858 moveto
85.03935 113.3858 lineto stroke
newpath -85.03935 141.73225 moveto
85.03935 141.73225 lineto stroke
 0 0 1 setrgbcolor [] 0 setdash
newpath -85.03935 85.03935 moveto
-28.34645 -85.03935 lineto stroke
showpage
%%EOF
