input TEX;

verbatimtex
%&latex
 \documentclass{article}
 \usepackage[latin1]{inputenc}
 \usepackage[frenchb]{babel}
 \usepackage{amsmath}
 \begin{document}
etex

vardef func(expr x) = (x-1)*(x+2) enddef;

outputtemplate := "exo15.mps";
beginfig(1);
  u:=1cm;
  v:=1cm;

   % Graphe de la fonction

  path graphe;
  graphe=(-3*u, (func(-3))*v) for i=-2.9 step .1 until 2: ..(i*u, (func(i))*v) endfor;
  draw graphe withpen pencircle scaled 2bp withcolor red;

  for i=-3 step 1 until -1: draw (i*u,-0.1v)--(i*u,0.1v); label.bot(decimal(i) infont "cmr10" scaled 0.7, (i*u,-0.1v)); endfor;
  for i=1 step 1 until 3: draw (i*u,-0.1v)--(i*u,0.1v); label.bot(decimal(i)  infont "cmr10" scaled 0.7, (i*u,-0.1v)); endfor;
  for j=-3 step 1 until -1: draw (-0.1u,j*v)--(0.1u,j*v); label.lrt(decimal j  infont "cmr10" scaled 0.7, (0,j*v)); endfor;
  for j=1 step 1 until 4: draw (-0.1u,j*v)--(0.1u,j*v); label.lft(decimal j  infont "cmr10" scaled 0.7, (0,j*v)); endfor;
  label.lrt(decimal 0  infont "cmr10" scaled 0.7, (0,-0.1v));
  drawarrow (-3.5u,0)--(3.5u,0);
  drawarrow (0,-3v)--(0,5v);

  for i=-3 step 1 until 3: draw (i*u, -3*v)--(i*u,5v) dashed withdots; endfor;
  for j=-3 step 1 until 5: draw (-3u, j*v)--(3u,j*v) dashed withdots; endfor; 
  draw (-3u,3v)--(-u,-3v) withcolor blue;
endfig;

end
