input TEX;

verbatimtex
%&latex
 \documentclass{article}
 \usepackage[latin1]{inputenc}
 \usepackage[frenchb]{babel}
 \usepackage{amsmath}
 \begin{document}
etex

vardef exp(expr x) = (mexp(256)**x) enddef;
vardef func(expr x) = 2*x**(1/2)*exp(-x) enddef;

outputtemplate := "exo13.mps";
beginfig(1);
  u:=7cm;
  v:=7cm;

   % Graphe de la fonction

  path graphe;
  graphe=(0*u, (func(0))*v) for i=0.1 step .05 until 0.5: ..(i*u, (func(i))*v) endfor;
  draw graphe withpen pencircle scaled 2bp withcolor red;

  for i=1 step 1 until 5: draw (i/10*u,-0.01v)--(i/10*u,0.01v); label.bot(decimal(i/10)
    infont "cmr10" scaled 0.7, (i/10*u,-0.01v)); endfor;
  for j=1 step 1 until 8: draw (-0.01u,j/10*v)--(0.01u,j/10*v); label.lft(decimal(j/10)  infont "cmr10" scaled 0.7, (0,j/10*v)); endfor;
  label.lrt(decimal 0  infont "cmr10" scaled 0.7, (0,-0.01v));
  drawarrow (-0.1u,0)--(0.6u,0);
  drawarrow (0,-0.1v)--(0,0.9v);
  label.top(btex \text{Courbe de }g etex, (0.2u,0.8v)); 
endfig;

%beginfig(2);
%  u:=5cm;
%  v:=5cm;
%
%   % Graphe de la fonction
%
%  path graphe;
%  graphe=(0*u, (func(0))*v) for i=0.1 step .05 until 0.85: ..((func(i))*u, i*v) endfor;
%  draw graphe withpen pencircle scaled 2bp withcolor blue;
%
%  for i=1 step 1 until 8: draw (i/10*u,-0.01v)--(i/10*u,0.01v); label.bot(decimal(i/10)
%    infont "cmr10" scaled 0.7, (i/10*u,-0.01v)); endfor;
%  for j=1 step 1 until 5: draw (-0.01u,j/10*v)--(0.01u,j/10*v); label.lft(decimal(j/10)  infont "cmr10" scaled 0.7, (0,j/10*v)); endfor;
%  label.lrt(decimal 0  infont "cmr10" scaled 0.7, (0,-0.01v));
%  drawarrow (-0.1u,0)--(0.9u,0);
%  drawarrow (0,-0.1v)--(0,0.6v);
%endfig;

end
