%!PS
%%BoundingBox: -171 -142 171 142 
%%HiResBoundingBox: -170.3288 -141.98233 170.3288 141.98233 
%%Creator: MetaPost 2.00
%%CreationDate: 2019.12.13:2132
%%Pages: 1
%*Font: cmr10 6.97382 9.96265 2d:9aa8
%%BeginProlog
%%EndProlog
%%Page: 1 1
 1 0 0 setrgbcolor 0 2 dtransform truncate idtransform setlinewidth pop
 [] 0 setdash 1 setlinecap 1 setlinejoin 10 setmiterlimit
newpath -162.99219 -125.56685 moveto
-161.57477 -124.1888 lineto
-160.15736 -122.81357 lineto
-158.73994 -121.43832 lineto
-157.32254 -120.0659 lineto
-155.90514 -118.68915 lineto
-154.48772 -117.31781 lineto
-153.07031 -115.94495 lineto
-151.65291 -114.57274 lineto
-150.23549 -113.20377 lineto
-148.81808 -111.83156 lineto
-147.40067 -110.46281 lineto
-145.98326 -109.09535 lineto
-144.56586 -107.72963 lineto
-143.14844 -106.36305 lineto
-141.73103 -104.99646 lineto
-140.31363 -103.6316 lineto
-138.89621 -102.2689 lineto
-137.4788 -100.90643 lineto
-136.06139 -99.54439 lineto
-134.64398 -98.18277 lineto
-133.22658 -96.82375 lineto
-131.80916 -95.46582 lineto
-130.39175 -94.10896 lineto
-128.97435 -92.75145 lineto
-127.55693 -91.39742 lineto
-126.13953 -90.04488 lineto
-124.72212 -88.69257 lineto
-123.3047 -87.34198 lineto
-121.8873 -85.99033 lineto
-120.46988 -84.64297 lineto
-119.05247 -83.29651 lineto
-117.63507 -81.95285 lineto
-116.21765 -80.60896 lineto
-114.80025 -79.26682 lineto
-113.38284 -77.92467 lineto
-111.96542 -76.58662 lineto
-110.54802 -75.25117 lineto
-109.1306 -73.91487 lineto
-107.7132 -72.5818 lineto
-106.29579 -71.25198 lineto
-104.87837 -69.92108 lineto
-103.46097 -68.59407 lineto
-102.04356 -67.26965 lineto
-100.62614 -65.94849 lineto
-99.20874 -64.62732 lineto
-97.79134 -63.31003 lineto
-96.37392 -61.99405 lineto
-94.95651 -60.68088 lineto
-93.5391 -59.37117 lineto
-92.12169 -58.06384 lineto
-90.70428 -56.76083 lineto
-89.28687 -55.45827 lineto
-87.86946 -54.15959 lineto
-86.45206 -52.86502 lineto
-85.03464 -51.57413 lineto
-83.61723 -50.28691 lineto
-82.19981 -49.00314 lineto
-80.78241 -47.72285 lineto
-79.365 -46.44601 lineto
-77.94759 -45.17523 lineto
-76.53018 -43.9077 lineto
-75.11278 -42.64513 lineto
-73.69536 -41.38733 lineto
-72.27795 -40.13472 lineto
-70.86053 -38.88707 lineto
-69.44313 -37.64505 lineto
-68.02573 -36.40953 lineto
-66.6083 -35.1794 lineto
-65.1909 -33.95619 lineto
-63.7735 -32.74013 lineto
-62.35608 -31.53099 lineto
-60.93867 -30.32985 lineto
-59.52127 -29.13583 lineto
-58.10385 -27.9507 lineto
-56.68645 -26.77422 lineto
-55.26903 -25.60788 lineto
-53.85162 -24.45087 lineto
-52.43422 -23.30487 lineto
-51.0168 -22.16882 lineto
-49.5994 -21.04575 lineto
-48.18199 -19.93565 lineto
-46.76457 -18.83832 lineto
-45.34717 -17.75525 lineto
-43.92975 -16.6882 lineto
-43.45854 -16.33594 -42.98622 -15.98515 -42.51234 -15.63649 curveto
-42.04137 -15.28995 -41.56883 -14.9455 -41.09494 -14.60295 curveto
-40.62392 -14.26248 -40.15152 -13.9239 -39.67752 -13.58759 curveto
-39.20665 -13.2535 -38.73419 -12.92163 -38.26012 -12.5921 curveto
-37.78934 -12.26488 -37.31699 -11.93996 -36.84271 -11.61783 curveto
-36.3721 -11.29817 -35.89961 -10.98126 -35.4253 -10.66713 curveto
-34.95468 -10.35545 -34.48228 -10.04651 -34.00789 -9.74063 curveto
-33.53748 -9.4373 -33.06511 -9.13701 -32.59048 -8.84032 curveto
-32.12022 -8.54636 -31.64775 -8.25594 -31.17307 -7.9692 curveto
-30.70284 -7.68515 -30.23045 -7.40471 -29.75566 -7.12836 curveto
-29.2856 -6.85475 -28.81322 -6.58514 -28.33824 -6.32018 curveto
-27.86835 -6.05804 -27.39594 -5.80045 -26.92084 -5.54788 curveto
-26.45105 -5.29813 -25.97867 -5.05331 -25.50343 -4.81409 curveto
-25.03375 -4.57765 -24.56134 -4.34671 -24.08601 -4.12183 curveto
-23.61641 -3.89964 -23.14401 -3.68338 -22.66861 -3.47389 curveto
-22.19908 -3.26698 -21.72665 -3.0667 -21.2512 -2.87375 curveto
-20.78168 -2.68321 -20.30925 -2.49983 -19.83379 -2.32465 curveto
-19.36423 -2.15163 -18.89175 -1.98659 -18.41638 -1.83026 curveto
-17.94669 -1.6758 -17.47423 -1.52983 -16.99896 -1.3934 curveto
-16.52907 -1.2585 -16.05655 -1.13295 -15.58156 -1.01732 curveto
-15.11134 -0.90285 -14.63881 -0.79814 -14.16415 -0.70374 curveto
-13.69354 -0.61012 -13.22096 -0.52666 -12.74673 -0.4535 curveto
-12.27565 -0.38083 -11.80305 -0.31836 -11.32933 -0.26558 curveto
-10.85776 -0.21304 -10.38518 -0.17014 -9.91193 -0.13582 curveto
-9.43993 -0.1016 -8.96736 -0.07591 -8.4945 -0.05688 curveto
-8.02222 -0.03787 -7.5497 -0.02547 -7.0771 -0.0173 curveto
-6.60468 -0.00914 -6.13219 -0.0052 -5.6597 -0.00302 curveto
-4.24228 -0.00021 lineto
-2.82487 0 lineto
1.4174 0 lineto
2.83482 0 lineto
4.25223 0.00021 lineto
5.66963 0.00302 lineto
6.14214 0.00523 6.61462 0.00926 7.08705 0.01752 curveto
7.55965 0.02577 8.03217 0.03824 8.50446 0.05731 curveto
8.97731 0.0764 9.44987 0.10213 9.92188 0.13646 curveto
10.39513 0.17088 10.8677 0.21397 11.33928 0.26666 curveto
11.813 0.3196 12.2856 0.3822 12.75668 0.45502 curveto
13.23091 0.52832 13.70349 0.61192 14.1741 0.70567 curveto
14.64876 0.80023 15.12129 0.90509 15.5915 1.0197 curveto
16.0665 1.13547 16.53903 1.26115 17.00891 1.39621 curveto
17.48418 1.53279 17.95662 1.67894 18.42633 1.83351 curveto
18.90169 1.98994 19.37418 2.155 19.84373 2.32811 curveto
20.31923 2.5034 20.79164 2.68694 21.26115 2.87764 curveto
21.73659 3.07076 22.209 3.27121 22.67856 3.47821 curveto
23.15396 3.68779 23.62639 3.90404 24.09596 4.12636 curveto
24.5713 4.35141 25.04369 4.58267 25.51338 4.81927 curveto
25.98857 5.05864 26.46098 5.30348 26.93079 5.55328 curveto
27.40588 5.80591 27.87828 6.06361 28.34819 6.32579 curveto
28.82315 6.59079 29.29556 6.86035 29.76561 7.13397 curveto
30.24042 7.41037 30.71281 7.69089 31.18301 7.97504 curveto
31.65771 8.2619 32.13017 8.55247 32.60042 8.84659 curveto
33.07501 9.14342 33.54735 9.44385 34.01784 9.74713 curveto
34.49223 10.05293 34.96474 10.36163 35.43524 10.6734 curveto
35.90962 10.98775 36.38194 11.30516 36.85266 11.62497 curveto
37.32683 11.94711 37.79935 12.27165 38.27007 12.59882 curveto
38.74423 12.92838 39.21652 13.26059 39.68747 13.59473 curveto
40.1614 13.93098 40.63397 14.2692 41.10489 14.60966 curveto
41.57889 14.95236 42.05121 15.29738 42.5223 15.64406 curveto
43.9397 16.69533 lineto
45.35712 17.76326 lineto
46.77452 18.84589 lineto
48.19194 19.94344 lineto
49.60934 21.05374 lineto
51.02675 22.17703 lineto
52.44417 23.31244 lineto
53.86157 24.45865 lineto
55.27898 25.61589 lineto
56.6964 26.78242 lineto
58.1138 27.95914 lineto
59.53122 29.14427 lineto
60.94862 30.33763 lineto
62.36603 31.53986 lineto
63.78345 32.74922 lineto
65.20085 33.9655 lineto
66.61826 35.1887 lineto
68.03568 36.41795 lineto
69.45308 37.6537 lineto
70.87048 38.89572 lineto
72.2879 40.14359 lineto
73.7053 41.3962 lineto
75.12273 42.65314 lineto
76.54013 43.91699 lineto
77.95753 45.18346 lineto
79.37495 46.45554 lineto
80.79236 47.7313 lineto
82.20976 49.01158 lineto
83.62718 50.29686 lineto
85.04459 51.58408 lineto
86.462 52.87518 lineto
87.87941 54.16975 lineto
89.29681 55.46713 lineto
90.71423 56.7697 lineto
92.13164 58.07292 lineto
93.54904 59.38026 lineto
94.96646 60.69019 lineto
96.38387 62.00336 lineto
97.80127 63.31955 lineto
99.21869 64.63683 lineto
100.6361 65.95648 lineto
102.05351 67.27939 lineto
103.47092 68.6038 lineto
104.88832 69.93082 lineto
106.30574 71.26042 lineto
107.72314 72.59175 lineto
109.14055 73.92503 lineto
110.55797 75.25961 lineto
111.97537 76.59528 lineto
113.39279 77.93504 lineto
114.8102 79.27547 lineto
116.2276 80.61761 lineto
117.64502 81.96172 lineto
119.06242 83.3071 lineto
120.47983 84.65358 lineto
121.89725 86.00092 lineto
123.31465 87.35107 lineto
124.73206 88.70143 lineto
126.14948 90.05397 lineto
127.56688 91.4065 lineto
128.9843 92.76248 lineto
130.4017 94.11826 lineto
131.8191 95.47511 lineto
133.23653 96.83305 lineto
134.65393 98.19402 lineto
136.07133 99.55368 lineto
137.48875 100.91379 lineto
138.90616 102.27843 lineto
140.32358 103.64111 lineto
141.74098 105.00598 lineto
143.15839 106.37062 lineto
144.5758 107.73698 lineto
145.99321 109.10509 lineto
147.41061 110.4747 lineto
148.82803 111.84367 lineto
150.24544 113.21133 lineto
151.66286 114.58484 lineto
153.08026 115.95468 lineto
154.49767 117.32776 lineto
155.91508 118.70148 lineto
157.33249 120.07347 lineto
158.7499 121.44849 lineto
160.16731 122.82352 lineto
161.58472 124.19896 lineto stroke
 0 0 0 setrgbcolor 0.5 0 dtransform exch truncate exch idtransform pop setlinewidth
newpath -155.90556 -1.4174 moveto
-155.90556 1.4174 lineto stroke
-160.5548 -8.91164 moveto
(-11) cmr10 6.97382 fshow
newpath -127.5591 -1.4174 moveto
-127.5591 1.4174 lineto stroke
-130.46487 -8.91164 moveto
(-9) cmr10 6.97382 fshow
newpath -99.21263 -1.4174 moveto
-99.21263 1.4174 lineto stroke
-102.11841 -8.91164 moveto
(-7) cmr10 6.97382 fshow
newpath -70.86617 -1.4174 moveto
-70.86617 1.4174 lineto stroke
-73.77194 -8.91164 moveto
(-5) cmr10 6.97382 fshow
newpath -42.5197 -1.4174 moveto
-42.5197 1.4174 lineto stroke
-45.42548 -8.91164 moveto
(-3) cmr10 6.97382 fshow
newpath -14.17323 -1.4174 moveto
-14.17323 1.4174 lineto stroke
-17.07901 -8.91164 moveto
(-1) cmr10 6.97382 fshow
newpath 14.17323 -1.4174 moveto
14.17323 1.4174 lineto stroke
12.42976 -8.91164 moveto
(1) cmr10 6.97382 fshow
newpath 42.5197 -1.4174 moveto
42.5197 1.4174 lineto stroke
40.77623 -8.91164 moveto
(3) cmr10 6.97382 fshow
newpath 70.86617 -1.4174 moveto
70.86617 1.4174 lineto stroke
69.1227 -8.91164 moveto
(5) cmr10 6.97382 fshow
newpath 99.21263 -1.4174 moveto
99.21263 1.4174 lineto stroke
97.46916 -8.91164 moveto
(7) cmr10 6.97382 fshow
newpath 127.5591 -1.4174 moveto
127.5591 1.4174 lineto stroke
125.81563 -8.91164 moveto
(9) cmr10 6.97382 fshow
newpath 155.90556 -1.4174 moveto
155.90556 1.4174 lineto stroke
152.41864 -8.91164 moveto
(11) cmr10 6.97382 fshow
 0 0.5 dtransform truncate idtransform setlinewidth pop
newpath -1.4174 -127.5591 moveto
1.4174 -127.5591 lineto stroke
2.09999 -134.15332 moveto
(-9) cmr10 6.97382 fshow
newpath -1.4174 -99.21263 moveto
1.4174 -99.21263 lineto stroke
2.09999 -105.80685 moveto
(-7) cmr10 6.97382 fshow
newpath -1.4174 -70.86617 moveto
1.4174 -70.86617 lineto stroke
2.09999 -77.46039 moveto
(-5) cmr10 6.97382 fshow
newpath -1.4174 -42.5197 moveto
1.4174 -42.5197 lineto stroke
2.09999 -49.11392 moveto
(-3) cmr10 6.97382 fshow
newpath -1.4174 -14.17323 moveto
1.4174 -14.17323 lineto stroke
2.09999 -20.76746 moveto
(-1) cmr10 6.97382 fshow
newpath -1.4174 14.17323 moveto
1.4174 14.17323 lineto stroke
-6.48692 11.92612 moveto
(1) cmr10 6.97382 fshow
newpath -1.4174 42.5197 moveto
1.4174 42.5197 lineto stroke
-6.48692 40.27258 moveto
(3) cmr10 6.97382 fshow
newpath -1.4174 70.86617 moveto
1.4174 70.86617 lineto stroke
-6.48692 68.61905 moveto
(5) cmr10 6.97382 fshow
newpath -1.4174 99.21263 moveto
1.4174 99.21263 lineto stroke
-6.48692 96.96552 moveto
(7) cmr10 6.97382 fshow
newpath -1.4174 127.5591 moveto
1.4174 127.5591 lineto stroke
-6.48692 125.31198 moveto
(9) cmr10 6.97382 fshow
2.09999 -8.01163 moveto
(0) cmr10 6.97382 fshow
newpath -170.0788 0 moveto
170.0788 0 lineto stroke
newpath 166.38162 -1.53146 moveto
170.0788 0 lineto
166.38162 1.53146 lineto
 closepath
gsave fill grestore stroke
 0.5 0 dtransform exch truncate exch idtransform pop setlinewidth
newpath 0 -141.73233 moveto
0 141.73233 lineto stroke
 0 0.5 dtransform truncate idtransform setlinewidth pop
newpath 1.53113 138.03596 moveto
0 141.73233 lineto
-1.53113 138.03596 lineto
 closepath
gsave fill grestore stroke
 0 0 1 setrgbcolor [0 1.25 ] 0.625 setdash
newpath -162.99219 -120.47249 moveto
92.12602 134.64572 lineto stroke
newpath -92.12602 -134.64572 moveto
162.99219 120.47249 lineto stroke
showpage
%%EOF
