%!PS-Adobe-3.0 EPSF-3.0
%%Title: minmaxcond.eps
%%Creator: Matplotlib v3.5.1, https://matplotlib.org/
%%CreationDate: Tue May 17 09:37:19 2022
%%Orientation: portrait
%%BoundingBox: 75 223 537 569
%%HiResBoundingBox: 75.600000 223.200000 536.400000 568.800000
%%EndComments
%%BeginProlog
/mpldict 11 dict def
mpldict begin
/_d { bind def } bind def
/m { moveto } _d
/l { lineto } _d
/r { rlineto } _d
/c { curveto } _d
/cl { closepath } _d
/ce { closepath eofill } _d
/box {
      m
      1 index 0 r
      0 exch r
      neg 0 r
      cl
    } _d
/clipbox {
      box
      clip
      newpath
    } _d
/sc { setcachedevice } _d
%!PS-Adobe-3.0 Resource-Font
%%Creator: Converted from TrueType to Type 3 by Matplotlib.
10 dict begin
/FontName /DejaVuSans def
/PaintType 0 def
/FontMatrix [0.00048828125 0 0 0.00048828125 0 0] def
/FontBBox [-2090 -948 3673 2524] def
/FontType 3 def
/Encoding [/period /zero /one /two /three /four /five /six /eight] def
/CharStrings 10 dict dup begin
/.notdef 0 def
/period{651 0 219 0 430 254 sc
219 254 m
430 254 l
430 0 l
219 0 l
219 254 l

ce} _d
/zero{1303 0 135 -29 1167 1520 sc
651 1360 m
547 1360 469 1309 416 1206 c
364 1104 338 950 338 745 c
338 540 364 387 416 284 c
469 182 547 131 651 131 c
756 131 834 182 886 284 c
939 387 965 540 965 745 c
965 950 939 1104 886 1206 c
834 1309 756 1360 651 1360 c

651 1520 m
818 1520 946 1454 1034 1321 c
1123 1189 1167 997 1167 745 c
1167 494 1123 302 1034 169 c
946 37 818 -29 651 -29 c
484 -29 356 37 267 169 c
179 302 135 494 135 745 c
135 997 179 1189 267 1321 c
356 1454 484 1520 651 1520 c

ce} _d
/one{1303 0 225 0 1114 1493 sc
254 170 m
584 170 l
584 1309 l
225 1237 l
225 1421 l
582 1493 l
784 1493 l
784 170 l
1114 170 l
1114 0 l
254 0 l
254 170 l

ce} _d
/two{1303 0 150 0 1098 1520 sc
393 170 m
1098 170 l
1098 0 l
150 0 l
150 170 l
227 249 331 356 463 489 c
596 623 679 709 713 748 c
778 821 823 882 848 932 c
874 983 887 1032 887 1081 c
887 1160 859 1225 803 1275 c
748 1325 675 1350 586 1350 c
523 1350 456 1339 385 1317 c
315 1295 240 1262 160 1217 c
160 1421 l
241 1454 317 1478 388 1495 c
459 1512 523 1520 582 1520 c
737 1520 860 1481 952 1404 c
1044 1327 1090 1223 1090 1094 c
1090 1033 1078 974 1055 919 c
1032 864 991 800 930 725 c
913 706 860 650 771 557 c
682 465 556 336 393 170 c

ce} _d
/three{1303 0 156 -29 1139 1520 sc
831 805 m
928 784 1003 741 1057 676 c
1112 611 1139 530 1139 434 c
1139 287 1088 173 987 92 c
886 11 742 -29 555 -29 c
492 -29 428 -23 361 -10 c
295 2 227 20 156 45 c
156 240 l
212 207 273 183 340 166 c
407 149 476 141 549 141 c
676 141 772 166 838 216 c
905 266 938 339 938 434 c
938 522 907 591 845 640 c
784 690 698 715 588 715 c
414 715 l
414 881 l
596 881 l
695 881 771 901 824 940 c
877 980 903 1037 903 1112 c
903 1189 876 1247 821 1288 c
767 1329 689 1350 588 1350 c
533 1350 473 1344 410 1332 c
347 1320 277 1301 201 1276 c
201 1456 l
278 1477 349 1493 416 1504 c
483 1515 547 1520 606 1520 c
759 1520 881 1485 970 1415 c
1059 1346 1104 1252 1104 1133 c
1104 1050 1080 980 1033 923 c
986 866 918 827 831 805 c

ce} _d
/four{1303 0 100 0 1188 1493 sc
774 1317 m
264 520 l
774 520 l
774 1317 l

721 1493 m
975 1493 l
975 520 l
1188 520 l
1188 352 l
975 352 l
975 0 l
774 0 l
774 352 l
100 352 l
100 547 l
721 1493 l

ce} _d
/five{1303 0 158 -29 1124 1493 sc
221 1493 m
1014 1493 l
1014 1323 l
406 1323 l
406 957 l
435 967 465 974 494 979 c
523 984 553 987 582 987 c
749 987 881 941 978 850 c
1075 759 1124 635 1124 479 c
1124 318 1074 193 974 104 c
874 15 733 -29 551 -29 c
488 -29 424 -24 359 -13 c
294 -2 227 14 158 35 c
158 238 l
218 205 280 181 344 165 c
408 149 476 141 547 141 c
662 141 754 171 821 232 c
888 293 922 375 922 479 c
922 583 888 665 821 726 c
754 787 662 817 547 817 c
493 817 439 811 385 799 c
332 787 277 768 221 743 c
221 1493 l

ce} _d
/six{1303 0 143 -29 1174 1520 sc
676 827 m
585 827 513 796 460 734 c
407 672 381 587 381 479 c
381 372 407 287 460 224 c
513 162 585 131 676 131 c
767 131 838 162 891 224 c
944 287 971 372 971 479 c
971 587 944 672 891 734 c
838 796 767 827 676 827 c

1077 1460 m
1077 1276 l
1026 1300 975 1318 923 1331 c
872 1344 821 1350 770 1350 c
637 1350 535 1305 464 1215 c
394 1125 354 989 344 807 c
383 865 433 909 492 940 c
551 971 617 987 688 987 c
838 987 956 941 1043 850 c
1130 759 1174 636 1174 479 c
1174 326 1129 203 1038 110 c
947 17 827 -29 676 -29 c
503 -29 371 37 280 169 c
189 302 143 494 143 745 c
143 981 199 1169 311 1309 c
423 1450 573 1520 762 1520 c
813 1520 864 1515 915 1505 c
967 1495 1021 1480 1077 1460 c

ce} _d
/eight{1303 0 139 -29 1163 1520 sc
651 709 m
555 709 479 683 424 632 c
369 581 342 510 342 420 c
342 330 369 259 424 208 c
479 157 555 131 651 131 c
747 131 823 157 878 208 c
933 260 961 331 961 420 c
961 510 933 581 878 632 c
823 683 748 709 651 709 c

449 795 m
362 816 295 857 246 916 c
198 975 174 1048 174 1133 c
174 1252 216 1347 301 1416 c
386 1485 503 1520 651 1520 c
800 1520 916 1485 1001 1416 c
1086 1347 1128 1252 1128 1133 c
1128 1048 1104 975 1055 916 c
1007 857 940 816 854 795 c
951 772 1027 728 1081 662 c
1136 596 1163 515 1163 420 c
1163 275 1119 164 1030 87 c
942 10 816 -29 651 -29 c
486 -29 360 10 271 87 c
183 164 139 275 139 420 c
139 515 166 596 221 662 c
276 728 352 772 449 795 c

375 1114 m
375 1037 399 976 447 933 c
496 890 564 868 651 868 c
738 868 805 890 854 933 c
903 976 928 1037 928 1114 c
928 1191 903 1252 854 1295 c
805 1338 738 1360 651 1360 c
564 1360 496 1338 447 1295 c
399 1252 375 1191 375 1114 c

ce} _d
end readonly def

/BuildGlyph {
 exch begin
 CharStrings exch
 2 copy known not {pop /.notdef} if
 true 3 1 roll get exec
 end
} _d

/BuildChar {
 1 index /Encoding get exch get
 1 index /BuildGlyph get exec
} _d

FontName currentdict end definefont pop
end
%%EndProlog
mpldict begin
75.6 223.2 translate
460.8 345.6 0 0 clipbox
gsave
0 0 m
460.8 0 l
460.8 345.6 l
0 345.6 l
cl
1.000 setgray
fill
grestore
gsave
57.6 38.016 m
414.72 38.016 l
414.72 304.128 l
57.6 304.128 l
cl
1.000 setgray
fill
grestore
gsave
357.12 266.112 57.6 38.016 clipbox
106.066286 38.016 m
111.168 38.016 l
111.168 61.056 l
106.066286 61.056 l
cl
0.122 0.467 0.706 setrgbcolor
fill
grestore
gsave
357.12 266.112 57.6 38.016 clipbox
157.083429 38.016 m
162.185143 38.016 l
162.185143 84.096 l
157.083429 84.096 l
cl
0.122 0.467 0.706 setrgbcolor
fill
grestore
gsave
357.12 266.112 57.6 38.016 clipbox
208.100571 38.016 m
213.202286 38.016 l
213.202286 84.096 l
208.100571 84.096 l
cl
0.122 0.467 0.706 setrgbcolor
fill
grestore
gsave
357.12 266.112 57.6 38.016 clipbox
259.117714 38.016 m
264.219429 38.016 l
264.219429 84.096 l
259.117714 84.096 l
cl
0.122 0.467 0.706 setrgbcolor
fill
grestore
gsave
357.12 266.112 57.6 38.016 clipbox
310.134857 38.016 m
315.236571 38.016 l
315.236571 84.096 l
310.134857 84.096 l
cl
0.122 0.467 0.706 setrgbcolor
fill
grestore
gsave
357.12 266.112 57.6 38.016 clipbox
361.152 38.016 m
366.253714 38.016 l
366.253714 84.096 l
361.152 84.096 l
cl
0.122 0.467 0.706 setrgbcolor
fill
grestore
gsave
357.12 266.112 57.6 38.016 clipbox
113.718857 38.016 m
118.820571 38.016 l
118.820571 38.016 l
113.718857 38.016 l
cl
1.000 0.498 0.055 setrgbcolor
fill
grestore
gsave
357.12 266.112 57.6 38.016 clipbox
164.736 38.016 m
169.837714 38.016 l
169.837714 66.176 l
164.736 66.176 l
cl
1.000 0.498 0.055 setrgbcolor
fill
grestore
gsave
357.12 266.112 57.6 38.016 clipbox
215.753143 38.016 m
220.854857 38.016 l
220.854857 94.336 l
215.753143 94.336 l
cl
1.000 0.498 0.055 setrgbcolor
fill
grestore
gsave
357.12 266.112 57.6 38.016 clipbox
266.770286 38.016 m
271.872 38.016 l
271.872 94.336 l
266.770286 94.336 l
cl
1.000 0.498 0.055 setrgbcolor
fill
grestore
gsave
357.12 266.112 57.6 38.016 clipbox
317.787429 38.016 m
322.889143 38.016 l
322.889143 94.336 l
317.787429 94.336 l
cl
1.000 0.498 0.055 setrgbcolor
fill
grestore
gsave
357.12 266.112 57.6 38.016 clipbox
368.804571 38.016 m
373.906286 38.016 l
373.906286 94.336 l
368.804571 94.336 l
cl
1.000 0.498 0.055 setrgbcolor
fill
grestore
gsave
357.12 266.112 57.6 38.016 clipbox
121.371429 38.016 m
126.473143 38.016 l
126.473143 38.016 l
121.371429 38.016 l
cl
0.173 0.627 0.173 setrgbcolor
fill
grestore
gsave
357.12 266.112 57.6 38.016 clipbox
172.388571 38.016 m
177.490286 38.016 l
177.490286 38.016 l
172.388571 38.016 l
cl
0.173 0.627 0.173 setrgbcolor
fill
grestore
gsave
357.12 266.112 57.6 38.016 clipbox
223.405714 38.016 m
228.507429 38.016 l
228.507429 74.221714 l
223.405714 74.221714 l
cl
0.173 0.627 0.173 setrgbcolor
fill
grestore
gsave
357.12 266.112 57.6 38.016 clipbox
274.422857 38.016 m
279.524571 38.016 l
279.524571 110.427429 l
274.422857 110.427429 l
cl
0.173 0.627 0.173 setrgbcolor
fill
grestore
gsave
357.12 266.112 57.6 38.016 clipbox
325.44 38.016 m
330.541714 38.016 l
330.541714 110.427429 l
325.44 110.427429 l
cl
0.173 0.627 0.173 setrgbcolor
fill
grestore
gsave
357.12 266.112 57.6 38.016 clipbox
376.457143 38.016 m
381.558857 38.016 l
381.558857 110.427429 l
376.457143 110.427429 l
cl
0.173 0.627 0.173 setrgbcolor
fill
grestore
gsave
357.12 266.112 57.6 38.016 clipbox
129.024 38.016 m
134.125714 38.016 l
134.125714 38.016 l
129.024 38.016 l
cl
0.839 0.153 0.157 setrgbcolor
fill
grestore
gsave
357.12 266.112 57.6 38.016 clipbox
180.041143 38.016 m
185.142857 38.016 l
185.142857 38.016 l
180.041143 38.016 l
cl
0.839 0.153 0.157 setrgbcolor
fill
grestore
gsave
357.12 266.112 57.6 38.016 clipbox
231.058286 38.016 m
236.16 38.016 l
236.16 38.016 l
231.058286 38.016 l
cl
0.839 0.153 0.157 setrgbcolor
fill
grestore
gsave
357.12 266.112 57.6 38.016 clipbox
282.075429 38.016 m
287.177143 38.016 l
287.177143 88.704 l
282.075429 88.704 l
cl
0.839 0.153 0.157 setrgbcolor
fill
grestore
gsave
357.12 266.112 57.6 38.016 clipbox
333.092571 38.016 m
338.194286 38.016 l
338.194286 139.392 l
333.092571 139.392 l
cl
0.839 0.153 0.157 setrgbcolor
fill
grestore
gsave
357.12 266.112 57.6 38.016 clipbox
384.109714 38.016 m
389.211429 38.016 l
389.211429 139.392 l
384.109714 139.392 l
cl
0.839 0.153 0.157 setrgbcolor
fill
grestore
gsave
357.12 266.112 57.6 38.016 clipbox
136.676571 38.016 m
141.778286 38.016 l
141.778286 38.016 l
136.676571 38.016 l
cl
0.580 0.404 0.741 setrgbcolor
fill
grestore
gsave
357.12 266.112 57.6 38.016 clipbox
187.693714 38.016 m
192.795429 38.016 l
192.795429 38.016 l
187.693714 38.016 l
cl
0.580 0.404 0.741 setrgbcolor
fill
grestore
gsave
357.12 266.112 57.6 38.016 clipbox
238.710857 38.016 m
243.812571 38.016 l
243.812571 38.016 l
238.710857 38.016 l
cl
0.580 0.404 0.741 setrgbcolor
fill
grestore
gsave
357.12 266.112 57.6 38.016 clipbox
289.728 38.016 m
294.829714 38.016 l
294.829714 38.016 l
289.728 38.016 l
cl
0.580 0.404 0.741 setrgbcolor
fill
grestore
gsave
357.12 266.112 57.6 38.016 clipbox
340.745143 38.016 m
345.846857 38.016 l
345.846857 122.496 l
340.745143 122.496 l
cl
0.580 0.404 0.741 setrgbcolor
fill
grestore
gsave
357.12 266.112 57.6 38.016 clipbox
391.762286 38.016 m
396.864 38.016 l
396.864 206.976 l
391.762286 206.976 l
cl
0.580 0.404 0.741 setrgbcolor
fill
grestore
gsave
357.12 266.112 57.6 38.016 clipbox
144.329143 38.016 m
149.430857 38.016 l
149.430857 38.016 l
144.329143 38.016 l
cl
0.549 0.337 0.294 setrgbcolor
fill
grestore
gsave
357.12 266.112 57.6 38.016 clipbox
195.346286 38.016 m
200.448 38.016 l
200.448 38.016 l
195.346286 38.016 l
cl
0.549 0.337 0.294 setrgbcolor
fill
grestore
gsave
357.12 266.112 57.6 38.016 clipbox
246.363429 38.016 m
251.465143 38.016 l
251.465143 38.016 l
246.363429 38.016 l
cl
0.549 0.337 0.294 setrgbcolor
fill
grestore
gsave
357.12 266.112 57.6 38.016 clipbox
297.380571 38.016 m
302.482286 38.016 l
302.482286 38.016 l
297.380571 38.016 l
cl
0.549 0.337 0.294 setrgbcolor
fill
grestore
gsave
357.12 266.112 57.6 38.016 clipbox
348.397714 38.016 m
353.499429 38.016 l
353.499429 38.016 l
348.397714 38.016 l
cl
0.549 0.337 0.294 setrgbcolor
fill
grestore
gsave
357.12 266.112 57.6 38.016 clipbox
399.414857 38.016 m
404.516571 38.016 l
404.516571 291.456 l
399.414857 291.456 l
cl
0.549 0.337 0.294 setrgbcolor
fill
grestore
0.800 setlinewidth
1 setlinejoin
0 setlinecap
[] 0 setdash
0.000 setgray
gsave
/o {
gsave
newpath
translate
0.8 setlinewidth
1 setlinejoin

0 setlinecap

0 0 m
0 -3.5 l

gsave
0.000 setgray
fill
grestore
stroke
grestore
} bind def
108.617 38.016 o
grestore
/DejaVuSans 10.000 selectfont
gsave

105.437455 23.422250 translate
0.000000 rotate
0.000000 0 m /one glyphshow
grestore
gsave
/o {
gsave
newpath
translate
0.8 setlinewidth
1 setlinejoin

0 setlinecap

0 0 m
0 -3.5 l

gsave
0.000 setgray
fill
grestore
stroke
grestore
} bind def
163.461 38.016 o
grestore
gsave

160.280884 23.422250 translate
0.000000 rotate
0.000000 0 m /two glyphshow
grestore
gsave
/o {
gsave
newpath
translate
0.8 setlinewidth
1 setlinejoin

0 setlinecap

0 0 m
0 -3.5 l

gsave
0.000 setgray
fill
grestore
stroke
grestore
} bind def
218.304 38.016 o
grestore
gsave

215.124313 23.422250 translate
0.000000 rotate
0.000000 0 m /three glyphshow
grestore
gsave
/o {
gsave
newpath
translate
0.8 setlinewidth
1 setlinejoin

0 setlinecap

0 0 m
0 -3.5 l

gsave
0.000 setgray
fill
grestore
stroke
grestore
} bind def
273.147 38.016 o
grestore
gsave

269.967741 23.422250 translate
0.000000 rotate
0.000000 0 m /four glyphshow
grestore
gsave
/o {
gsave
newpath
translate
0.8 setlinewidth
1 setlinejoin

0 setlinecap

0 0 m
0 -3.5 l

gsave
0.000 setgray
fill
grestore
stroke
grestore
} bind def
327.991 38.016 o
grestore
gsave

324.811170 23.422250 translate
0.000000 rotate
0.000000 0 m /five glyphshow
grestore
gsave
/o {
gsave
newpath
translate
0.8 setlinewidth
1 setlinejoin

0 setlinecap

0 0 m
0 -3.5 l

gsave
0.000 setgray
fill
grestore
stroke
grestore
} bind def
382.834 38.016 o
grestore
gsave

379.654598 23.422250 translate
0.000000 rotate
0.000000 0 m /six glyphshow
grestore
gsave
/o {
gsave
newpath
translate
0.8 setlinewidth
1 setlinejoin

0 setlinecap

-0 0 m
-3.5 0 l

gsave
0.000 setgray
fill
grestore
stroke
grestore
} bind def
57.6 38.016 o
grestore
gsave

34.693750 34.219125 translate
0.000000 rotate
0.000000 0 m /zero glyphshow
6.362305 0 m /period glyphshow
9.541016 0 m /zero glyphshow
grestore
gsave
/o {
gsave
newpath
translate
0.8 setlinewidth
1 setlinejoin

0 setlinecap

-0 0 m
-3.5 0 l

gsave
0.000 setgray
fill
grestore
stroke
grestore
} bind def
57.6 88.704 o
grestore
gsave

34.693750 84.907125 translate
0.000000 rotate
0.000000 0 m /zero glyphshow
6.362305 0 m /period glyphshow
9.541016 0 m /two glyphshow
grestore
gsave
/o {
gsave
newpath
translate
0.8 setlinewidth
1 setlinejoin

0 setlinecap

-0 0 m
-3.5 0 l

gsave
0.000 setgray
fill
grestore
stroke
grestore
} bind def
57.6 139.392 o
grestore
gsave

34.693750 135.595125 translate
0.000000 rotate
0.000000 0 m /zero glyphshow
6.362305 0 m /period glyphshow
9.541016 0 m /four glyphshow
grestore
gsave
/o {
gsave
newpath
translate
0.8 setlinewidth
1 setlinejoin

0 setlinecap

-0 0 m
-3.5 0 l

gsave
0.000 setgray
fill
grestore
stroke
grestore
} bind def
57.6 190.08 o
grestore
gsave

34.693750 186.283125 translate
0.000000 rotate
0.000000 0 m /zero glyphshow
6.362305 0 m /period glyphshow
9.541016 0 m /six glyphshow
grestore
gsave
/o {
gsave
newpath
translate
0.8 setlinewidth
1 setlinejoin

0 setlinecap

-0 0 m
-3.5 0 l

gsave
0.000 setgray
fill
grestore
stroke
grestore
} bind def
57.6 240.768 o
grestore
gsave

34.693750 236.971125 translate
0.000000 rotate
0.000000 0 m /zero glyphshow
6.362305 0 m /period glyphshow
9.541016 0 m /eight glyphshow
grestore
gsave
/o {
gsave
newpath
translate
0.8 setlinewidth
1 setlinejoin

0 setlinecap

-0 0 m
-3.5 0 l

gsave
0.000 setgray
fill
grestore
stroke
grestore
} bind def
57.6 291.456 o
grestore
gsave

34.693750 287.659125 translate
0.000000 rotate
0.000000 0 m /one glyphshow
6.362305 0 m /period glyphshow
9.541016 0 m /zero glyphshow
grestore
0 setlinejoin
2 setlinecap
gsave
57.6 38.016 m
57.6 304.128 l
stroke
grestore
gsave
414.72 38.016 m
414.72 304.128 l
stroke
grestore
gsave
57.6 38.016 m
414.72 38.016 l
stroke
grestore
gsave
57.6 304.128 m
414.72 304.128 l
stroke
grestore

end
showpage
