%!PS
%%BoundingBox: -213 -72 213 72 
%%HiResBoundingBox: -212.8484 -71.11613 212.8484 71.11613 
%%Creator: MetaPost 2.00
%%CreationDate: 2019.07.01:2118
%%Pages: 1
%*Font: msbm10 9.96265 9.96265 44:802602
%%BeginProlog
%%EndProlog
%%Page: 1 1
 0 0 0 setrgbcolor 0 0.5 dtransform truncate idtransform setlinewidth pop
 [] 0 setdash 1 setlinejoin 10 setmiterlimit
newpath 212.5984 0 moveto
212.5984 18.7957 190.19536 36.81934 150.32666 50.10889 curveto
110.45801 63.39845 56.3871 70.86613 0 70.86613 curveto
-56.3871 70.86613 -110.45801 63.39845 -150.32666 50.10889 curveto
-190.19536 36.81934 -212.5984 18.7957 -212.5984 0 curveto
-212.5984 -18.7957 -190.19536 -36.81934 -150.32666 -50.10889 curveto
-110.45801 -63.39845 -56.3871 -70.86613 0 -70.86613 curveto
56.3871 -70.86613 110.45801 -63.39845 150.32666 -50.10889 curveto
190.19536 -36.81934 212.5984 -18.7957 212.5984 0 curveto closepath stroke
newpath 144.56662 0 moveto
144.56662 15.03656 126.64421 29.45546 94.74925 40.08711 curveto
62.8543 50.71877 19.5976 56.6929 -25.51208 56.6929 curveto
-70.62177 56.6929 -113.87846 50.71877 -145.77342 40.08711 curveto
-177.66838 29.45546 -195.59079 15.03656 -195.59079 0 curveto
-195.59079 -15.03656 -177.66838 -29.45546 -145.77342 -40.08711 curveto
-113.87846 -50.71877 -70.62177 -56.6929 -25.51208 -56.6929 curveto
19.5976 -56.6929 62.8543 -50.71877 94.74925 -40.08711 curveto
126.64421 -29.45546 144.56662 -15.03656 144.56662 0 curveto closepath stroke
newpath 76.53493 0 moveto
76.53493 11.27742 63.09311 22.0916 39.17189 30.06534 curveto
15.25067 38.03908 -17.19186 42.51968 -51.02412 42.51968 curveto
-84.85638 42.51968 -117.29892 38.03908 -141.22014 30.06534 curveto
-165.14136 22.0916 -178.58318 11.27742 -178.58318 0 curveto
-178.58318 -11.27742 -165.14136 -22.0916 -141.22014 -30.06534 curveto
-117.29892 -38.03908 -84.85638 -42.51968 -51.02412 -42.51968 curveto
-17.19186 -42.51968 15.25067 -38.03908 39.17189 -30.06534 curveto
63.09311 -22.0916 76.53493 -11.27742 76.53493 0 curveto closepath stroke
newpath 8.50447 0 moveto
8.50447 7.51828 -0.45676 14.72774 -16.40419 20.04356 curveto
-32.35167 25.35938 -53.98004 28.34645 -76.53488 28.34645 curveto
-99.08972 28.34645 -120.7181 25.35938 -136.66557 20.04356 curveto
-152.613 14.72774 -161.57423 7.51828 -161.57423 0 curveto
-161.57423 -7.51828 -152.613 -14.72774 -136.66557 -20.04356 curveto
-120.7181 -25.35938 -99.08972 -28.34645 -76.53488 -28.34645 curveto
-53.98004 -28.34645 -32.35167 -25.35938 -16.40419 -20.04356 curveto
-0.45676 -14.72774 8.50447 -7.51828 8.50447 0 curveto closepath stroke
newpath -59.52727 0 moveto
-59.52727 3.75914 -64.0079 7.36386 -71.98164 10.02177 curveto
-79.95538 12.67969 -90.76955 14.17323 -102.04697 14.17323 curveto
-113.32439 14.17323 -124.13855 12.67969 -132.11229 10.02177 curveto
-140.08603 7.36386 -144.56667 3.75914 -144.56667 0 curveto
-144.56667 -3.75914 -140.08603 -7.36386 -132.11229 -10.02177 curveto
-124.13855 -12.67969 -113.32439 -14.17323 -102.04697 -14.17323 curveto
-90.76955 -14.17323 -79.95538 -12.67969 -71.98164 -10.02177 curveto
-64.0079 -7.36386 -59.52727 -3.75914 -59.52727 0 curveto closepath stroke
-123.58101 -3.43155 moveto
(N) msbm10 9.96265 fshow
-37.98825 -3.43155 moveto
(Z) msbm10 9.96265 fshow
46.4977 -3.43155 moveto
(D) msbm10 9.96265 fshow
102.6371 -2.60135 moveto
(Q) msbm10 9.96265 fshow
188.22995 -3.43155 moveto
(R) msbm10 9.96265 fshow
showpage
%%EOF
