%!PS-Adobe-3.0 EPSF-3.0
%%Creator: EpsGraphics2D 0.9.0 by Paul Mutton, http://www.jibble.org/
%%Title: GeoGebra, http://www.geogebra.org
%%CreationDate: Fri Jul 08 10:56:21 CEST 2011
%%BoundingBox: 0 0 362 306
%%DocumentData: Clean7Bit
%%DocumentProcessColors: Black
%%ColorUsage: Color
%%Origin: 0 0
%%Pages: 1
%%Page: 1 1
%%EndComments

gsave
-0.0 306.0 translate
1.0 setlinewidth
10.0 setmiterlimit
0 setlinejoin
2 setlinecap
[ ] 0 setdash
gsave
newpath
0.0 -0.0 moveto
362.83466 -0.0 lineto
362.83466 -306.70865 lineto
0.0 -306.70865 lineto
0.0 -0.0 lineto
closepath
clip
newpath
1.0 1.0 1.0 setrgbcolor
newpath
0.0 -0.0 moveto
362.83466 -0.0 lineto
362.83466 -306.70865 lineto
0.0 -306.70865 lineto
0.0 -0.0 lineto
closepath
fill
newpath
0.7529412 0.7529412 0.7529412 setrgbcolor
1.0 setlinewidth
10.0 setmiterlimit
1 setlinejoin
0 setlinecap
[ 5.0 4.0 ] 0 setdash
newpath
0.0 -0.0 moveto
0.0 -306.70865 lineto
stroke
newpath
newpath
0.0 -0.0 moveto
0.0 -306.70865 lineto
stroke
newpath
newpath
28.346457 -0.0 moveto
28.346457 -306.70865 lineto
stroke
newpath
newpath
56.692913 -0.0 moveto
56.692913 -306.70865 lineto
stroke
newpath
newpath
85.03937 -0.0 moveto
85.03937 -306.70865 lineto
stroke
newpath
newpath
113.385826 -0.0 moveto
113.385826 -306.70865 lineto
stroke
newpath
newpath
141.73228 -0.0 moveto
141.73228 -306.70865 lineto
stroke
newpath
newpath
170.07874 -0.0 moveto
170.07874 -306.70865 lineto
stroke
newpath
newpath
198.4252 -0.0 moveto
198.4252 -306.70865 lineto
stroke
newpath
newpath
226.77165 -0.0 moveto
226.77165 -306.70865 lineto
stroke
newpath
newpath
255.1181 -0.0 moveto
255.1181 -306.70865 lineto
stroke
newpath
newpath
283.46457 -0.0 moveto
283.46457 -306.70865 lineto
stroke
newpath
newpath
311.81104 -0.0 moveto
311.81104 -306.70865 lineto
stroke
newpath
newpath
340.15747 -0.0 moveto
340.15747 -306.70865 lineto
stroke
newpath
newpath
0.0 -19.84252 moveto
362.83466 -19.84252 lineto
stroke
newpath
newpath
0.0 -19.84252 moveto
362.83466 -19.84252 lineto
stroke
newpath
newpath
0.0 -48.188976 moveto
362.83466 -48.188976 lineto
stroke
newpath
newpath
0.0 -76.53543 moveto
362.83466 -76.53543 lineto
stroke
newpath
newpath
0.0 -104.88189 moveto
362.83466 -104.88189 lineto
stroke
newpath
newpath
0.0 -133.22835 moveto
362.83466 -133.22835 lineto
stroke
newpath
newpath
0.0 -161.5748 moveto
362.83466 -161.5748 lineto
stroke
newpath
newpath
0.0 -189.92126 moveto
362.83466 -189.92126 lineto
stroke
newpath
newpath
0.0 -218.26772 moveto
362.83466 -218.26772 lineto
stroke
newpath
newpath
0.0 -246.61417 moveto
362.83466 -246.61417 lineto
stroke
newpath
newpath
0.0 -274.96063 moveto
362.83466 -274.96063 lineto
stroke
newpath
newpath
0.0 -303.3071 moveto
362.83466 -303.3071 lineto
stroke
newpath
0.0 0.0 0.0 setrgbcolor
1.0 setlinewidth
10.0 setmiterlimit
0 setlinejoin
0 setlinecap
[ ] 0 setdash
newpath
0.0 -218.26772 moveto
0.0 -220.53543 lineto
stroke
newpath
newpath
30.45694 -224.7708 moveto
30.45694 -224.3611 lineto
32.915108 -224.3611 lineto
32.915108 -224.7708 lineto
closepath
34.016857 -226.22133 moveto
34.016857 -225.73413 lineto
34.28814 -225.843 34.546505 -225.89745 34.791954 -225.89745 curveto
35.061394 -225.89745 35.273163 -225.8181 35.427258 -225.6594 curveto
35.581352 -225.50069 35.6584 -225.282 35.6584 -225.00333 curveto
35.6584 -224.38878 35.234867 -224.08151 34.387794 -224.08151 curveto
34.29183 -224.08151 34.19125 -224.08797 34.08606 -224.10089 curveto
34.08606 -222.10777 lineto
36.15945 -222.10777 lineto
36.15945 -222.58391 lineto
34.56496 -222.58391 lineto
34.56496 -223.66351 lineto
35.09092 -223.66351 35.501537 -223.7844 35.796814 -224.02614 curveto
36.09209 -224.2679 36.239727 -224.60286 36.239727 -225.031 curveto
36.239727 -225.42963 36.10547 -225.74197 35.836952 -225.96805 curveto
35.568436 -226.1941 35.196114 -226.30714 34.719982 -226.30714 curveto
34.51329 -226.30714 34.278915 -226.27853 34.016857 -226.22133 curveto
closepath
fill
newpath
1.0 setlinewidth
10.0 setmiterlimit
0 setlinejoin
0 setlinecap
[ ] 0 setdash
newpath
28.346457 -218.26772 moveto
28.346457 -220.53543 lineto
stroke
newpath
newpath
58.803394 -224.7708 moveto
58.803394 -224.3611 lineto
61.261566 -224.3611 lineto
61.261566 -224.7708 lineto
closepath
63.808315 -226.20473 moveto
63.808315 -225.04485 lineto
61.96469 -225.04485 lineto
61.96469 -224.63239 lineto
63.808315 -222.10777 lineto
64.320435 -222.10777 lineto
64.320435 -224.59917 lineto
64.86854 -224.59917 lineto
64.86854 -225.04485 lineto
64.320435 -225.04485 lineto
64.320435 -226.20473 lineto
closepath
62.498955 -224.59917 moveto
63.844303 -224.59917 lineto
63.844303 -222.77768 lineto
closepath
fill
newpath
1.0 setlinewidth
10.0 setmiterlimit
0 setlinejoin
0 setlinecap
[ ] 0 setdash
newpath
56.692913 -218.26772 moveto
56.692913 -220.53543 lineto
stroke
newpath
newpath
87.14985 -224.7708 moveto
87.14985 -224.3611 lineto
89.608025 -224.3611 lineto
89.608025 -224.7708 lineto
closepath
90.596275 -226.17427 moveto
90.596275 -225.66492 lineto
90.98752 -225.81993 91.29571 -225.89745 91.52085 -225.89745 curveto
91.78107 -225.89745 91.992836 -225.82132 92.15616 -225.66908 curveto
92.31948 -225.51683 92.401146 -225.31982 92.401146 -225.07806 curveto
92.401146 -224.50227 91.99791 -224.21439 91.19144 -224.21439 curveto
90.97552 -224.21439 lineto
90.97552 -223.8462 lineto
91.16653 -223.84344 lineto
91.92317 -223.84344 92.30149 -223.57677 92.30149 -223.04343 curveto
92.30149 -222.62451 92.05235 -222.41505 91.55407 -222.41505 curveto
91.280945 -222.41505 90.98013 -222.49164 90.651634 -222.6448 curveto
90.651634 -222.16867 lineto
90.974594 -222.0598 91.28832 -222.00536 91.59283 -222.00536 curveto
92.43067 -222.00536 92.849594 -222.32185 92.849594 -222.95485 curveto
92.849594 -223.43652 92.56447 -223.77977 91.99422 -223.98462 curveto
92.6549 -224.1378 92.98524 -224.49951 92.98524 -225.06976 curveto
92.98524 -225.45546 92.8579 -225.75812 92.603226 -225.97774 curveto
92.34855 -226.19734 91.99883 -226.30714 91.55407 -226.30714 curveto
91.30124 -226.30714 90.98198 -226.26285 90.596275 -226.17427 curveto
closepath
fill
newpath
1.0 setlinewidth
10.0 setmiterlimit
0 setlinejoin
0 setlinecap
[ ] 0 setdash
newpath
85.03937 -218.26772 moveto
85.03937 -220.53543 lineto
stroke
newpath
newpath
115.49631 -224.7708 moveto
115.49631 -224.3611 lineto
117.954475 -224.3611 lineto
117.954475 -224.7708 lineto
closepath
118.83754 -226.20473 moveto
118.83754 -225.72583 lineto
118.99625 -225.35489 119.31736 -224.95073 119.80087 -224.51335 curveto
120.11368 -224.23376 lineto
120.51599 -223.8702 120.71715 -223.50941 120.71715 -223.1514 curveto
120.71715 -222.92256 120.64841 -222.74261 120.51092 -222.61159 curveto
120.37343 -222.48056 120.18473 -222.41505 119.94482 -222.41505 curveto
119.660614 -222.41505 119.32567 -222.52486 118.939964 -222.74446 curveto
118.939964 -222.2628 lineto
119.30352 -222.09117 119.66431 -222.00536 120.02233 -222.00536 curveto
120.40619 -222.00536 120.71438 -222.1087 120.946915 -222.31538 curveto
121.17944 -222.52208 121.29571 -222.79613 121.29571 -223.13754 curveto
121.29571 -223.383 121.237114 -223.60077 121.11993 -223.79085 curveto
121.00274 -223.98093 120.78451 -224.21161 120.46524 -224.4829 curveto
120.25486 -224.66283 lineto
119.81748 -225.03377 119.56465 -225.3881 119.49637 -225.72583 curveto
121.27633 -225.72583 lineto
121.27633 -226.20473 lineto
closepath
fill
newpath
1.0 setlinewidth
10.0 setmiterlimit
0 setlinejoin
0 setlinecap
[ ] 0 setdash
newpath
113.385826 -218.26772 moveto
113.385826 -220.53543 lineto
stroke
newpath
newpath
143.84276 -224.7708 moveto
143.84276 -224.3611 lineto
146.30093 -224.3611 lineto
146.30093 -224.7708 lineto
closepath
147.56601 -226.20473 moveto
147.56601 -225.79503 lineto
148.38539 -225.79503 lineto
148.38539 -222.56177 lineto
147.56601 -222.76662 lineto
147.56601 -222.34584 lineto
148.9335 -222.00536 lineto
148.9335 -225.79503 lineto
149.75288 -225.79503 lineto
149.75288 -226.20473 lineto
closepath
fill
newpath
1.0 setlinewidth
10.0 setmiterlimit
0 setlinejoin
0 setlinecap
[ ] 0 setdash
newpath
141.73228 -218.26772 moveto
141.73228 -220.53543 lineto
stroke
newpath
newpath
175.2575 -226.30714 moveto
174.83488 -226.30714 174.49301 -226.10829 174.23189 -225.7106 curveto
173.97075 -225.3129 173.84018 -224.79385 173.84018 -224.15349 curveto
173.84018 -223.50757 173.97166 -222.98807 174.23465 -222.59499 curveto
174.49763 -222.2019 174.84412 -222.00536 175.27411 -222.00536 curveto
175.70412 -222.00536 176.0506 -222.2019 176.31358 -222.59499 curveto
176.57657 -222.98807 176.70805 -223.5048 176.70805 -224.14517 curveto
176.70805 -224.80217 176.57657 -225.32674 176.31358 -225.7189 curveto
176.0506 -226.11107 175.69858 -226.30714 175.2575 -226.30714 curveto
closepath
175.26305 -225.89745 moveto
175.84067 -225.89745 176.12949 -225.3106 176.12949 -224.13687 curveto
176.12949 -222.989 175.84436 -222.41505 175.27411 -222.41505 curveto
174.7057 -222.41505 174.42151 -222.99454 174.42151 -224.15349 curveto
174.42151 -225.31613 174.70203 -225.89745 175.26305 -225.89745 curveto
closepath
fill
newpath
1.0 setlinewidth
10.0 setmiterlimit
0 setlinejoin
0 setlinecap
[ ] 0 setdash
newpath
170.07874 -218.26772 moveto
170.07874 -220.53543 lineto
stroke
newpath
newpath
202.67938 -226.20473 moveto
202.67938 -225.79503 lineto
203.49876 -225.79503 lineto
203.49876 -222.56177 lineto
202.67938 -222.76662 lineto
202.67938 -222.34584 lineto
204.04688 -222.00536 lineto
204.04688 -225.79503 lineto
204.86627 -225.79503 lineto
204.86627 -226.20473 lineto
closepath
fill
newpath
1.0 setlinewidth
10.0 setmiterlimit
0 setlinejoin
0 setlinecap
[ ] 0 setdash
newpath
198.4252 -218.26772 moveto
198.4252 -220.53543 lineto
stroke
newpath
newpath
230.64383 -226.20473 moveto
230.64383 -225.72583 lineto
230.80254 -225.35489 231.12366 -224.95073 231.60716 -224.51335 curveto
231.91997 -224.23376 lineto
232.32228 -223.8702 232.52344 -223.50941 232.52344 -223.1514 curveto
232.52344 -222.92256 232.4547 -222.74261 232.3172 -222.61159 curveto
232.17972 -222.48056 231.99103 -222.41505 231.75111 -222.41505 curveto
231.4669 -222.41505 231.13194 -222.52486 230.74625 -222.74446 curveto
230.74625 -222.2628 lineto
231.1098 -222.09117 231.4706 -222.00536 231.82861 -222.00536 curveto
232.21248 -222.00536 232.52068 -222.1087 232.7532 -222.31538 curveto
232.98573 -222.52208 233.10199 -222.79613 233.10199 -223.13754 curveto
233.10199 -223.383 233.0434 -223.60077 232.92621 -223.79085 curveto
232.80902 -223.98093 232.59079 -224.21161 232.27153 -224.4829 curveto
232.06114 -224.66283 lineto
231.62376 -225.03377 231.37094 -225.3881 231.30266 -225.72583 curveto
233.08261 -225.72583 lineto
233.08261 -226.20473 lineto
closepath
fill
newpath
1.0 setlinewidth
10.0 setmiterlimit
0 setlinejoin
0 setlinecap
[ ] 0 setdash
newpath
226.77165 -218.26772 moveto
226.77165 -220.53543 lineto
stroke
newpath
newpath
259.09546 -226.17427 moveto
259.09546 -225.66492 lineto
259.48672 -225.81993 259.79492 -225.89745 260.02005 -225.89745 curveto
260.28027 -225.89745 260.49203 -225.82132 260.65536 -225.66908 curveto
260.81866 -225.51683 260.90033 -225.31982 260.90033 -225.07806 curveto
260.90033 -224.50227 260.4971 -224.21439 259.69064 -224.21439 curveto
259.47473 -224.21439 lineto
259.47473 -223.8462 lineto
259.6657 -223.84344 lineto
260.42236 -223.84344 260.8007 -223.57677 260.8007 -223.04343 curveto
260.8007 -222.62451 260.55154 -222.41505 260.05328 -222.41505 curveto
259.78015 -222.41505 259.47934 -222.49164 259.15085 -222.6448 curveto
259.15085 -222.16867 lineto
259.47382 -222.0598 259.78754 -222.00536 260.09204 -222.00536 curveto
260.92987 -222.00536 261.3488 -222.32185 261.3488 -222.95485 curveto
261.3488 -223.43652 261.06366 -223.77977 260.4934 -223.98462 curveto
261.15408 -224.1378 261.48444 -224.49951 261.48444 -225.06976 curveto
261.48444 -225.45546 261.3571 -225.75812 261.10242 -225.97774 curveto
260.84775 -226.19734 260.49802 -226.30714 260.05328 -226.30714 curveto
259.80045 -226.30714 259.48117 -226.26285 259.09546 -226.17427 curveto
closepath
fill
newpath
1.0 setlinewidth
10.0 setmiterlimit
0 setlinejoin
0 setlinecap
[ ] 0 setdash
newpath
255.1181 -218.26772 moveto
255.1181 -220.53543 lineto
stroke
newpath
newpath
289.00043 -226.20473 moveto
289.00043 -225.04485 lineto
287.1568 -225.04485 lineto
287.1568 -224.63239 lineto
289.00043 -222.10777 lineto
289.51254 -222.10777 lineto
289.51254 -224.59917 lineto
290.06067 -224.59917 lineto
290.06067 -225.04485 lineto
289.51254 -225.04485 lineto
289.51254 -226.20473 lineto
closepath
287.69107 -224.59917 moveto
289.0364 -224.59917 lineto
289.0364 -222.77768 lineto
closepath
fill
newpath
1.0 setlinewidth
10.0 setmiterlimit
0 setlinejoin
0 setlinecap
[ ] 0 setdash
newpath
283.46457 -218.26772 moveto
283.46457 -220.53543 lineto
stroke
newpath
newpath
315.9019 -226.22133 moveto
315.9019 -225.73413 lineto
316.17316 -225.843 316.43152 -225.89745 316.67697 -225.89745 curveto
316.9464 -225.89745 317.1582 -225.8181 317.3123 -225.6594 curveto
317.46637 -225.50069 317.54343 -225.282 317.54343 -225.00333 curveto
317.54343 -224.38878 317.1199 -224.08151 316.27283 -224.08151 curveto
316.17685 -224.08151 316.0763 -224.08797 315.9711 -224.10089 curveto
315.9711 -222.10777 lineto
318.04446 -222.10777 lineto
318.04446 -222.58391 lineto
316.44998 -222.58391 lineto
316.44998 -223.66351 lineto
316.97595 -223.66351 317.38657 -223.7844 317.68185 -224.02614 curveto
317.9771 -224.2679 318.12476 -224.60286 318.12476 -225.031 curveto
318.12476 -225.42963 317.9905 -225.74197 317.722 -225.96805 curveto
317.45346 -226.1941 317.08115 -226.30714 316.605 -226.30714 curveto
316.39832 -226.30714 316.16394 -226.27853 315.9019 -226.22133 curveto
closepath
fill
newpath
1.0 setlinewidth
10.0 setmiterlimit
0 setlinejoin
0 setlinecap
[ ] 0 setdash
newpath
311.81104 -218.26772 moveto
311.81104 -220.53543 lineto
stroke
newpath
newpath
344.53348 -224.08151 moveto
344.79367 -223.74379 345.12125 -223.57492 345.51617 -223.57492 curveto
345.8742 -223.57492 346.16718 -223.6935 346.39508 -223.93063 curveto
346.62302 -224.16779 346.73697 -224.47183 346.73697 -224.84276 curveto
346.73697 -225.26907 346.60916 -225.6197 346.35358 -225.89468 curveto
346.09796 -226.16966 345.77362 -226.30714 345.38052 -226.30714 curveto
344.9284 -226.30714 344.57498 -226.12537 344.3203 -225.76181 curveto
344.06564 -225.39825 343.9383 -224.89352 343.9383 -224.2476 curveto
343.9383 -223.5371 344.08456 -222.98529 344.37708 -222.59221 curveto
344.6696 -222.19913 345.08157 -222.00258 345.61307 -222.00258 curveto
345.85666 -222.00258 346.16116 -222.05426 346.52658 -222.15761 curveto
346.52658 -222.63373 lineto
346.14087 -222.4861 345.8253 -222.41228 345.57983 -222.41228 curveto
344.88226 -222.41228 344.53348 -222.96869 344.53348 -224.08151 curveto
closepath
346.18884 -224.96457 moveto
346.18884 -224.65453 346.11917 -224.41093 345.97986 -224.23376 curveto
345.8405 -224.0566 345.6472 -223.96802 345.3999 -223.96802 curveto
345.16922 -223.96802 344.97086 -224.04553 344.80475 -224.20055 curveto
344.63864 -224.35556 344.5556 -224.54196 344.5556 -224.75972 curveto
344.5556 -225.10298 344.6345 -225.37842 344.7923 -225.58603 curveto
344.95007 -225.79364 345.15906 -225.89745 345.41928 -225.89745 curveto
345.65366 -225.89745 345.8405 -225.81302 345.97986 -225.64417 curveto
346.11917 -225.4753 346.18884 -225.24876 346.18884 -224.96457 curveto
closepath
fill
newpath
1.0 setlinewidth
10.0 setmiterlimit
0 setlinejoin
0 setlinecap
[ ] 0 setdash
newpath
340.15747 -218.26772 moveto
340.15747 -220.53543 lineto
stroke
newpath
1.0 setlinewidth
10.0 setmiterlimit
0 setlinejoin
0 setlinecap
[ ] 0 setdash
newpath
0.0 -218.26772 moveto
362.83466 -218.26772 lineto
stroke
newpath
newpath
362.26773 -218.26772 moveto
360.56693 -216.56693 lineto
stroke
newpath
newpath
362.26773 -218.26772 moveto
360.56693 -219.9685 lineto
stroke
newpath
newpath
164.69513 -18.708662 moveto
164.74864 -18.389395 164.82477 -18.113497 164.92351 -17.880966 curveto
165.02225 -17.648438 165.1971 -17.32917 165.44807 -16.923166 curveto
166.56644 -15.123831 lineto
164.45706 -15.123831 lineto
164.45706 -14.611712 lineto
167.08685 -14.611712 lineto
167.08685 -15.123831 lineto
166.03679 -16.672182 165.449 -17.867126 165.32352 -18.708662 curveto
closepath
fill
newpath
1.0 setlinewidth
10.0 setmiterlimit
0 setlinejoin
0 setlinecap
[ ] 0 setdash
newpath
167.81102 -19.84252 moveto
170.07874 -19.84252 lineto
stroke
newpath
newpath
164.81693 -44.931904 moveto
165.07713 -44.59418 165.40471 -44.42532 165.79964 -44.42532 curveto
166.15765 -44.42532 166.45062 -44.54389 166.67854 -44.781036 curveto
166.90646 -45.018177 167.02042 -45.32222 167.02042 -45.69316 curveto
167.02042 -46.119465 166.89262 -46.470104 166.63702 -46.74508 curveto
166.38142 -47.020054 166.05708 -47.157543 165.664 -47.157543 curveto
165.21187 -47.157543 164.85846 -46.975765 164.60378 -46.612206 curveto
164.3491 -46.248646 164.22177 -45.74391 164.22177 -45.097996 curveto
164.22177 -44.38749 164.36803 -43.83569 164.66052 -43.442604 curveto
164.95303 -43.04952 165.36504 -42.852978 165.89653 -42.852978 curveto
166.14014 -42.852978 166.44464 -42.90465 166.81004 -43.007996 curveto
166.81004 -43.484127 lineto
166.42435 -43.33649 166.10876 -43.262672 165.86331 -43.262672 curveto
165.16573 -43.262672 164.81693 -43.819084 164.81693 -44.931904 curveto
closepath
166.47232 -45.81496 moveto
166.47232 -45.50492 166.40265 -45.26132 166.26332 -45.084152 curveto
166.124 -44.906986 165.93068 -44.818405 165.68338 -44.818405 curveto
165.4527 -44.818405 165.2543 -44.895916 165.08821 -45.050934 curveto
164.92212 -45.205956 164.83908 -45.39235 164.83908 -45.610115 curveto
164.83908 -45.953373 164.91797 -46.22881 165.07576 -46.436424 curveto
165.23355 -46.64404 165.44255 -46.74785 165.70276 -46.74785 curveto
165.93713 -46.74785 166.124 -46.663418 166.26332 -46.494556 curveto
166.40265 -46.325695 166.47232 -46.099163 166.47232 -45.81496 curveto
closepath
fill
newpath
1.0 setlinewidth
10.0 setmiterlimit
0 setlinejoin
0 setlinecap
[ ] 0 setdash
newpath
167.81102 -48.188976 moveto
170.07874 -48.188976 lineto
stroke
newpath
newpath
164.5318 -75.41818 moveto
164.5318 -74.93098 lineto
164.80309 -75.03986 165.06146 -75.09431 165.3069 -75.09431 curveto
165.57634 -75.09431 165.7881 -75.01495 165.9422 -74.85624 curveto
166.0963 -74.697525 166.17336 -74.478836 166.17336 -74.20017 curveto
166.17336 -73.58563 165.74982 -73.27836 164.90274 -73.27836 curveto
164.80678 -73.27836 164.7062 -73.28482 164.60101 -73.29774 curveto
164.60101 -71.30463 lineto
166.6744 -71.30463 lineto
166.6744 -71.780754 lineto
165.07991 -71.780754 lineto
165.07991 -72.86036 lineto
165.60587 -72.86036 166.0165 -72.98124 166.31177 -73.22299 curveto
166.60704 -73.46475 166.75467 -73.799706 166.75467 -74.22785 curveto
166.75467 -74.62648 166.6204 -74.93883 166.3519 -75.164894 curveto
166.08339 -75.39096 165.71106 -75.504 165.23492 -75.504 curveto
165.02824 -75.504 164.79387 -75.475395 164.5318 -75.41818 curveto
closepath
fill
newpath
1.0 setlinewidth
10.0 setmiterlimit
0 setlinejoin
0 setlinecap
[ ] 0 setdash
newpath
167.81102 -76.53543 moveto
170.07874 -76.53543 lineto
stroke
newpath
newpath
165.9768 -103.74803 moveto
165.9768 -102.58815 lineto
164.13318 -102.58815 lineto
164.13318 -102.17569 lineto
165.9768 -99.651085 lineto
166.48892 -99.651085 lineto
166.48892 -102.14247 lineto
167.03703 -102.14247 lineto
167.03703 -102.58815 lineto
166.48892 -102.58815 lineto
166.48892 -103.74803 lineto
closepath
164.66745 -102.14247 moveto
166.0128 -102.14247 lineto
166.0128 -100.32099 lineto
closepath
fill
newpath
1.0 setlinewidth
10.0 setmiterlimit
0 setlinejoin
0 setlinecap
[ ] 0 setdash
newpath
167.81102 -104.88189 moveto
170.07874 -104.88189 lineto
stroke
newpath
newpath
164.4183 -132.06404 moveto
164.4183 -131.55469 lineto
164.80956 -131.7097 165.11775 -131.78722 165.3429 -131.78722 curveto
165.6031 -131.78722 165.81487 -131.71109 165.9782 -131.55884 curveto
166.14151 -131.40659 166.22318 -131.20958 166.22318 -130.96783 curveto
166.22318 -130.39204 165.81995 -130.10414 165.01347 -130.10414 curveto
164.79755 -130.10414 lineto
164.79755 -129.73598 lineto
164.98856 -129.7332 lineto
165.7452 -129.7332 166.12352 -129.46654 166.12352 -128.9332 curveto
166.12352 -128.51427 165.87439 -128.30481 165.37611 -128.30481 curveto
165.10298 -128.30481 164.80217 -128.3814 164.47368 -128.53458 curveto
164.47368 -128.05844 lineto
164.79663 -127.94956 165.11037 -127.89512 165.41486 -127.89512 curveto
166.2527 -127.89512 166.67163 -128.21161 166.67163 -128.8446 curveto
166.67163 -129.32628 166.3865 -129.66954 165.81625 -129.87439 curveto
166.47693 -130.02756 166.80727 -130.38927 166.80727 -130.95952 curveto
166.80727 -131.34521 166.67993 -131.64787 166.42526 -131.8675 curveto
166.17058 -132.08711 165.82086 -132.19691 165.37611 -132.19691 curveto
165.12328 -132.19691 164.804 -132.15262 164.4183 -132.06404 curveto
closepath
fill
newpath
1.0 setlinewidth
10.0 setmiterlimit
0 setlinejoin
0 setlinecap
[ ] 0 setdash
newpath
167.81102 -133.22835 moveto
170.07874 -133.22835 lineto
stroke
newpath
newpath
164.31311 -160.44095 moveto
164.31311 -159.96205 lineto
164.47182 -159.59111 164.79294 -159.18695 165.27646 -158.74957 curveto
165.58926 -158.46999 lineto
165.99158 -158.10641 166.19273 -157.74562 166.19273 -157.3876 curveto
166.19273 -157.15877 166.124 -156.97884 165.9865 -156.84781 curveto
165.849 -156.71678 165.66031 -156.65126 165.4204 -156.65126 curveto
165.1362 -156.65126 164.80124 -156.76106 164.41554 -156.98068 curveto
164.41554 -156.49901 lineto
164.7791 -156.3274 165.1399 -156.24158 165.49791 -156.24158 curveto
165.88177 -156.24158 166.18996 -156.34492 166.42249 -156.5516 curveto
166.65501 -156.7583 166.77129 -157.03235 166.77129 -157.37376 curveto
166.77129 -157.61922 166.71269 -157.83699 166.5955 -158.02707 curveto
166.47832 -158.21715 166.26009 -158.44783 165.94083 -158.71912 curveto
165.73044 -158.89905 lineto
165.29306 -159.26999 165.04024 -159.62433 164.97195 -159.96205 curveto
166.7519 -159.96205 lineto
166.7519 -160.44095 lineto
closepath
fill
newpath
1.0 setlinewidth
10.0 setmiterlimit
0 setlinejoin
0 setlinecap
[ ] 0 setdash
newpath
167.81102 -161.5748 moveto
170.07874 -161.5748 lineto
stroke
newpath
newpath
164.69513 -188.7874 moveto
164.69513 -188.3777 lineto
165.51451 -188.3777 lineto
165.51451 -185.14444 lineto
164.69513 -185.34929 lineto
164.69513 -184.92851 lineto
166.06262 -184.58803 lineto
166.06262 -188.3777 lineto
166.88202 -188.3777 lineto
166.88202 -188.7874 lineto
closepath
fill
newpath
1.0 setlinewidth
10.0 setmiterlimit
0 setlinejoin
0 setlinecap
[ ] 0 setdash
newpath
167.81102 -189.92126 moveto
170.07874 -189.92126 lineto
stroke
newpath
newpath
165.6197 -217.23628 moveto
165.1971 -217.23628 164.85522 -217.03743 164.59409 -216.63974 curveto
164.33296 -216.24203 164.2024 -215.72299 164.2024 -215.08261 curveto
164.2024 -214.43669 164.33388 -213.91719 164.59686 -213.52411 curveto
164.85985 -213.13103 165.20633 -212.93448 165.63632 -212.93448 curveto
166.06631 -212.93448 166.4128 -213.13103 166.67578 -213.52411 curveto
166.93877 -213.91719 167.07025 -214.43393 167.07025 -215.07431 curveto
167.07025 -215.73131 166.93877 -216.25587 166.67578 -216.64804 curveto
166.4128 -217.0402 166.06078 -217.23628 165.6197 -217.23628 curveto
closepath
165.62524 -216.82658 moveto
166.20288 -216.82658 166.4917 -216.23973 166.4917 -215.06601 curveto
166.4917 -213.91812 166.20657 -213.34418 165.63632 -213.34418 curveto
165.06792 -213.34418 164.7837 -213.92366 164.7837 -215.08261 curveto
164.7837 -216.24525 165.06422 -216.82658 165.62524 -216.82658 curveto
closepath
fill
newpath
1.0 setlinewidth
10.0 setmiterlimit
0 setlinejoin
0 setlinecap
[ ] 0 setdash
newpath
167.81102 -218.26772 moveto
170.07874 -218.26772 lineto
stroke
newpath
newpath
160.85065 -244.04639 moveto
160.85065 -243.63669 lineto
163.3088 -243.63669 lineto
163.3088 -244.04639 lineto
closepath
164.57388 -245.48032 moveto
164.57388 -245.07062 lineto
165.39326 -245.07062 lineto
165.39326 -241.83736 lineto
164.57388 -242.0422 lineto
164.57388 -241.62143 lineto
165.94138 -241.28094 lineto
165.94138 -245.07062 lineto
166.76077 -245.07062 lineto
166.76077 -245.48032 lineto
closepath
fill
newpath
1.0 setlinewidth
10.0 setmiterlimit
0 setlinejoin
0 setlinecap
[ ] 0 setdash
newpath
167.81102 -246.61417 moveto
170.07874 -246.61417 lineto
stroke
newpath
newpath
160.85065 -272.39285 moveto
160.85065 -271.98315 lineto
163.3088 -271.98315 lineto
163.3088 -272.39285 lineto
closepath
164.19186 -273.82678 moveto
164.19186 -273.34787 lineto
164.35057 -272.97693 164.67169 -272.57278 165.1552 -272.1354 curveto
165.46802 -271.8558 lineto
165.87033 -271.49225 166.07149 -271.13144 166.07149 -270.77344 curveto
166.07149 -270.5446 166.00275 -270.36465 165.86525 -270.23364 curveto
165.72775 -270.1026 165.53906 -270.03708 165.29915 -270.03708 curveto
165.01495 -270.03708 164.68 -270.14688 164.2943 -270.36652 curveto
164.2943 -269.88486 lineto
164.65785 -269.71323 165.01865 -269.6274 165.37666 -269.6274 curveto
165.76053 -269.6274 166.06871 -269.73074 166.30124 -269.93744 curveto
166.53377 -270.14413 166.65004 -270.41818 166.65004 -270.75958 curveto
166.65004 -271.00504 166.59145 -271.2228 166.47426 -271.4129 curveto
166.35707 -271.603 166.13884 -271.83368 165.81958 -272.10495 curveto
165.60919 -272.28488 lineto
165.17181 -272.65582 164.91899 -273.01013 164.85071 -273.34787 curveto
166.63066 -273.34787 lineto
166.63066 -273.82678 lineto
closepath
fill
newpath
1.0 setlinewidth
10.0 setmiterlimit
0 setlinejoin
0 setlinecap
[ ] 0 setdash
newpath
167.81102 -274.96063 moveto
170.07874 -274.96063 lineto
stroke
newpath
1.0 setlinewidth
10.0 setmiterlimit
0 setlinejoin
0 setlinecap
[ ] 0 setdash
newpath
167.81102 -303.3071 moveto
170.07874 -303.3071 lineto
stroke
newpath
newpath
170.07874 -0.0 moveto
170.07874 -306.70865 lineto
stroke
newpath
newpath
170.07874 -0.0 moveto
168.37796 -1.7007874 lineto
stroke
newpath
newpath
170.07874 -0.0 moveto
171.77953 -1.7007874 lineto
stroke
newpath
0.8 0.0 0.0 setrgbcolor
2.0 setlinewidth
10.0 setmiterlimit
1 setlinejoin
1 setlinecap
[ ] 0 setdash
newpath
90.708664 3.968504 moveto
91.41732 0.017716536 lineto
92.125984 -3.8976378 lineto
92.83465 -7.7775593 lineto
93.543304 -11.622047 lineto
94.25197 -15.431103 lineto
94.96063 -19.204725 lineto
95.66929 -22.942913 lineto
96.37795 -26.64567 lineto
97.08662 -30.312992 lineto
97.79527 -33.94488 lineto
98.50394 -37.54134 lineto
99.2126 -41.102364 lineto
99.92126 -44.627953 lineto
100.62992 -48.11811 lineto
101.338585 -51.572834 lineto
102.04724 -54.992126 lineto
102.755905 -58.375984 lineto
103.46457 -61.72441 lineto
104.173225 -65.0374 lineto
104.88189 -68.314964 lineto
105.59055 -71.55708 lineto
106.29921 -74.76378 lineto
107.00787 -77.935036 lineto
107.71654 -81.07087 lineto
108.42519 -84.17126 lineto
109.13386 -87.23622 lineto
109.84252 -90.26575 lineto
110.55118 -93.25984 lineto
111.25984 -96.218506 lineto
111.968506 -99.14173 lineto
112.67716 -102.029526 lineto
113.385826 -104.88189 lineto
114.80315 -110.480316 lineto
116.220474 -115.937004 lineto
117.637794 -121.25197 lineto
119.055115 -126.42519 lineto
120.47244 -131.4567 lineto
121.88976 -136.34645 lineto
123.30708 -141.09448 lineto
124.72441 -145.70079 lineto
126.14173 -150.16536 lineto
127.55905 -154.48819 lineto
128.97638 -158.6693 lineto
130.3937 -162.70866 lineto
131.81102 -166.6063 lineto
133.22835 -170.3622 lineto
134.64568 -173.97638 lineto
136.06299 -177.44882 lineto
137.48032 -180.77953 lineto
138.89764 -183.9685 lineto
140.31496 -187.01575 lineto
141.73228 -189.92126 lineto
144.56693 -195.30708 lineto
147.40158 -200.12599 lineto
150.23622 -204.37796 lineto
153.07086 -208.06299 lineto
155.90552 -211.1811 lineto
158.74016 -213.73228 lineto
161.5748 -215.71654 lineto
164.40945 -217.13387 lineto
167.2441 -217.98425 lineto
168.66142 -218.19685 lineto
170.07874 -218.26772 lineto
172.91339 -217.98425 lineto
174.3307 -217.62993 lineto
175.74803 -217.13387 lineto
178.58267 -215.71654 lineto
181.41733 -213.73228 lineto
184.25197 -211.1811 lineto
187.08661 -208.06299 lineto
189.92126 -204.37796 lineto
192.7559 -200.12599 lineto
195.59055 -195.30708 lineto
198.4252 -189.92126 lineto
199.84251 -187.01575 lineto
201.25984 -183.9685 lineto
202.67717 -180.77953 lineto
204.09448 -177.44882 lineto
205.51181 -173.97638 lineto
206.92914 -170.3622 lineto
208.34645 -166.6063 lineto
209.76378 -162.70866 lineto
211.1811 -158.6693 lineto
212.59842 -154.48819 lineto
214.01575 -150.16536 lineto
215.43307 -145.70079 lineto
216.85039 -141.09448 lineto
218.26772 -136.34645 lineto
219.68504 -131.4567 lineto
221.10236 -126.42519 lineto
222.51968 -121.25197 lineto
223.93701 -115.937004 lineto
225.35432 -110.480316 lineto
226.77165 -104.88189 lineto
227.48032 -102.029526 lineto
228.18898 -99.14173 lineto
228.89764 -96.218506 lineto
229.6063 -93.25984 lineto
230.31496 -90.26575 lineto
231.02362 -87.23622 lineto
231.73228 -84.17126 lineto
232.44095 -81.07087 lineto
233.14961 -77.935036 lineto
233.85826 -74.76378 lineto
234.56693 -71.55708 lineto
235.27559 -68.314964 lineto
235.98425 -65.0374 lineto
236.69292 -61.72441 lineto
237.40158 -58.375984 lineto
238.11023 -54.992126 lineto
238.8189 -51.572834 lineto
239.52756 -48.11811 lineto
240.23622 -44.627953 lineto
240.94489 -41.102364 lineto
241.65355 -37.54134 lineto
242.3622 -33.94488 lineto
243.07086 -30.312992 lineto
243.77953 -26.64567 lineto
244.48819 -22.942913 lineto
245.19685 -19.204725 lineto
245.90552 -15.431103 lineto
246.61417 -11.622047 lineto
247.32283 -7.7775593 lineto
248.0315 -3.8976378 lineto
248.74016 0.017716536 lineto
249.44882 3.968504 lineto
stroke
newpath
0.8 0.0 0.0 setrgbcolor
newpath
98.94685 -5.3880415 moveto
98.94685 -8.503937 lineto
98.28912 -8.503937 lineto
98.28912 -5.3880415 lineto
97.77756 -5.3880415 lineto
97.77756 -4.8964076 lineto
98.28912 -4.8964076 lineto
98.28912 -4.4645667 lineto
98.28912 -3.6053147 98.6811 -3.175689 99.46506 -3.175689 curveto
99.6843 -3.175689 99.93344 -3.2122293 100.21248 -3.28531 curveto
100.21248 -3.8035188 lineto
99.91794 -3.7127216 99.68208 -3.6673229 99.50492 -3.6673229 curveto
99.29011 -3.6673229 99.143394 -3.7188115 99.06477 -3.8217888 curveto
98.98616 -3.9247663 98.94685 -4.1157727 98.94685 -4.3948083 curveto
98.94685 -4.8964076 lineto
99.84707 -4.8964076 lineto
99.84707 -5.3880415 lineto
closepath
fill
newpath
grestore
grestore
showpage

%%EOF