%!PS-Adobe-3.0 EPSF-3.0
%%Creator: EpsGraphics2D 0.9.0 by Paul Mutton, http://www.jibble.org/
%%Title: GeoGebra, http://www.geogebra.org
%%CreationDate: Fri Jul 08 10:55:55 CEST 2011
%%BoundingBox: 0 0 362 306
%%DocumentData: Clean7Bit
%%DocumentProcessColors: Black
%%ColorUsage: Color
%%Origin: 0 0
%%Pages: 1
%%Page: 1 1
%%EndComments

gsave
-0.0 306.0 translate
1.0 setlinewidth
10.0 setmiterlimit
0 setlinejoin
2 setlinecap
[ ] 0 setdash
gsave
newpath
0.0 -0.0 moveto
362.83466 -0.0 lineto
362.83466 -306.70865 lineto
0.0 -306.70865 lineto
0.0 -0.0 lineto
closepath
clip
newpath
1.0 1.0 1.0 setrgbcolor
newpath
0.0 -0.0 moveto
362.83466 -0.0 lineto
362.83466 -306.70865 lineto
0.0 -306.70865 lineto
0.0 -0.0 lineto
closepath
fill
newpath
0.7529412 0.7529412 0.7529412 setrgbcolor
1.0 setlinewidth
10.0 setmiterlimit
1 setlinejoin
0 setlinecap
[ 5.0 4.0 ] 0 setdash
newpath
17.007874 -0.0 moveto
17.007874 -306.70865 lineto
stroke
newpath
newpath
17.007874 -0.0 moveto
17.007874 -306.70865 lineto
stroke
newpath
newpath
45.354332 -0.0 moveto
45.354332 -306.70865 lineto
stroke
newpath
newpath
73.70079 -0.0 moveto
73.70079 -306.70865 lineto
stroke
newpath
newpath
102.04724 -0.0 moveto
102.04724 -306.70865 lineto
stroke
newpath
newpath
130.3937 -0.0 moveto
130.3937 -306.70865 lineto
stroke
newpath
newpath
158.74016 -0.0 moveto
158.74016 -306.70865 lineto
stroke
newpath
newpath
187.08661 -0.0 moveto
187.08661 -306.70865 lineto
stroke
newpath
newpath
215.43307 -0.0 moveto
215.43307 -306.70865 lineto
stroke
newpath
newpath
243.77953 -0.0 moveto
243.77953 -306.70865 lineto
stroke
newpath
newpath
272.12598 -0.0 moveto
272.12598 -306.70865 lineto
stroke
newpath
newpath
300.47244 -0.0 moveto
300.47244 -306.70865 lineto
stroke
newpath
newpath
328.8189 -0.0 moveto
328.8189 -306.70865 lineto
stroke
newpath
newpath
357.16534 -0.0 moveto
357.16534 -306.70865 lineto
stroke
newpath
newpath
0.0 -7.937008 moveto
362.83466 -7.937008 lineto
stroke
newpath
newpath
0.0 -7.937008 moveto
362.83466 -7.937008 lineto
stroke
newpath
newpath
0.0 -36.283466 moveto
362.83466 -36.283466 lineto
stroke
newpath
newpath
0.0 -64.62992 moveto
362.83466 -64.62992 lineto
stroke
newpath
newpath
0.0 -92.97638 moveto
362.83466 -92.97638 lineto
stroke
newpath
newpath
0.0 -121.32284 moveto
362.83466 -121.32284 lineto
stroke
newpath
newpath
0.0 -149.6693 moveto
362.83466 -149.6693 lineto
stroke
newpath
newpath
0.0 -178.01575 moveto
362.83466 -178.01575 lineto
stroke
newpath
newpath
0.0 -206.3622 moveto
362.83466 -206.3622 lineto
stroke
newpath
newpath
0.0 -234.70866 moveto
362.83466 -234.70866 lineto
stroke
newpath
newpath
0.0 -263.0551 moveto
362.83466 -263.0551 lineto
stroke
newpath
newpath
0.0 -291.40158 moveto
362.83466 -291.40158 lineto
stroke
newpath
0.0 0.0 0.0 setrgbcolor
newpath
19.118357 -156.17236 moveto
19.118357 -155.76266 lineto
21.576525 -155.76266 lineto
21.576525 -156.17236 lineto
closepath
22.678272 -157.62291 moveto
22.678272 -157.1357 lineto
22.949556 -157.24458 23.207924 -157.29903 23.453371 -157.29903 curveto
23.722809 -157.29903 23.934578 -157.21967 24.088675 -157.06096 curveto
24.242771 -156.90225 24.31982 -156.68356 24.31982 -156.40489 curveto
24.31982 -155.79034 23.896284 -155.48308 23.049213 -155.48308 curveto
22.953249 -155.48308 22.85267 -155.48953 22.747478 -155.50246 curveto
22.747478 -153.50935 lineto
24.820866 -153.50935 lineto
24.820866 -153.98549 lineto
23.226377 -153.98549 lineto
23.226377 -155.06508 lineto
23.752338 -155.06508 24.162956 -155.18596 24.458231 -155.42772 curveto
24.753506 -155.66948 24.901144 -156.00443 24.901144 -156.43257 curveto
24.901144 -156.8312 24.766886 -157.14355 24.49837 -157.36961 curveto
24.229855 -157.59569 23.85753 -157.70872 23.381397 -157.70872 curveto
23.174704 -157.70872 22.940329 -157.68011 22.678272 -157.62291 curveto
closepath
fill
newpath
1.0 setlinewidth
10.0 setmiterlimit
0 setlinejoin
0 setlinecap
[ ] 0 setdash
newpath
17.007874 -149.6693 moveto
17.007874 -151.93701 lineto
stroke
newpath
newpath
47.464813 -156.17236 moveto
47.464813 -155.76266 lineto
49.92298 -155.76266 lineto
49.92298 -156.17236 lineto
closepath
52.469734 -157.6063 moveto
52.469734 -156.44643 lineto
50.626106 -156.44643 lineto
50.626106 -156.03395 lineto
52.469734 -153.50935 lineto
52.981853 -153.50935 lineto
52.981853 -156.00073 lineto
53.529957 -156.00073 lineto
53.529957 -156.44643 lineto
52.981853 -156.44643 lineto
52.981853 -157.6063 lineto
closepath
51.16037 -156.00073 moveto
52.505722 -156.00073 lineto
52.505722 -154.17926 lineto
closepath
fill
newpath
1.0 setlinewidth
10.0 setmiterlimit
0 setlinejoin
0 setlinecap
[ ] 0 setdash
newpath
45.354332 -149.6693 moveto
45.354332 -151.93701 lineto
stroke
newpath
newpath
75.81127 -156.17236 moveto
75.81127 -155.76266 lineto
78.26944 -155.76266 lineto
78.26944 -156.17236 lineto
closepath
79.25769 -157.57585 moveto
79.25769 -157.0665 lineto
79.64893 -157.22151 79.95712 -157.29903 80.182274 -157.29903 curveto
80.44248 -157.29903 80.65425 -157.2229 80.81757 -157.07065 curveto
80.980896 -156.9184 81.06256 -156.72139 81.06256 -156.47964 curveto
81.06256 -155.90385 80.659325 -155.61595 79.85285 -155.61595 curveto
79.63693 -155.61595 lineto
79.63693 -155.24779 lineto
79.82794 -155.24501 lineto
80.58459 -155.24501 80.962906 -154.97835 80.962906 -154.445 curveto
80.962906 -154.02608 80.71377 -153.81662 80.21549 -153.81662 curveto
79.94236 -153.81662 79.64155 -153.8932 79.31306 -154.04639 curveto
79.31306 -153.57025 lineto
79.63602 -153.46136 79.949745 -153.40692 80.25424 -153.40692 curveto
81.09209 -153.40692 81.51101 -153.72342 81.51101 -154.35641 curveto
81.51101 -154.83809 81.22588 -155.18135 80.65563 -155.3862 curveto
81.316315 -155.53937 81.64665 -155.90108 81.64665 -156.47133 curveto
81.64665 -156.85704 81.51932 -157.1597 81.26464 -157.3793 curveto
81.009964 -157.59892 80.66025 -157.70872 80.21549 -157.70872 curveto
79.96266 -157.70872 79.643394 -157.66443 79.25769 -157.57585 curveto
closepath
fill
newpath
1.0 setlinewidth
10.0 setmiterlimit
0 setlinejoin
0 setlinecap
[ ] 0 setdash
newpath
73.70079 -149.6693 moveto
73.70079 -151.93701 lineto
stroke
newpath
newpath
104.15773 -156.17236 moveto
104.15773 -155.76266 lineto
106.6159 -155.76266 lineto
106.6159 -156.17236 lineto
closepath
107.498955 -157.6063 moveto
107.498955 -157.1274 lineto
107.65767 -156.75645 107.978775 -156.3523 108.46229 -155.91492 curveto
108.7751 -155.63533 lineto
109.177414 -155.27177 109.37857 -154.91098 109.37857 -154.55296 curveto
109.37857 -154.32413 109.30982 -154.1442 109.17233 -154.01317 curveto
109.03484 -153.88214 108.846146 -153.81662 108.60624 -153.81662 curveto
108.32204 -153.81662 107.98708 -153.92642 107.60138 -154.14604 curveto
107.60138 -153.66437 lineto
107.964935 -153.49274 108.32572 -153.40692 108.68375 -153.40692 curveto
109.067604 -153.40692 109.3758 -153.51027 109.60833 -153.71696 curveto
109.84086 -153.92366 109.95712 -154.19771 109.95712 -154.53912 curveto
109.95712 -154.78458 109.89853 -155.00235 109.78134 -155.19243 curveto
109.664154 -155.3825 109.44593 -155.61319 109.12666 -155.88448 curveto
108.916275 -156.0644 lineto
108.4789 -156.43535 108.22607 -156.78967 108.15779 -157.1274 curveto
109.937744 -157.1274 lineto
109.937744 -157.6063 lineto
closepath
fill
newpath
1.0 setlinewidth
10.0 setmiterlimit
0 setlinejoin
0 setlinecap
[ ] 0 setdash
newpath
102.04724 -149.6693 moveto
102.04724 -151.93701 lineto
stroke
newpath
newpath
132.50418 -156.17236 moveto
132.50418 -155.76266 lineto
134.96236 -155.76266 lineto
134.96236 -156.17236 lineto
closepath
136.22742 -157.6063 moveto
136.22742 -157.19661 lineto
137.04681 -157.19661 lineto
137.04681 -153.96333 lineto
136.22742 -154.16818 lineto
136.22742 -153.74742 lineto
137.59492 -153.40692 lineto
137.59492 -157.19661 lineto
138.4143 -157.19661 lineto
138.4143 -157.6063 lineto
closepath
fill
newpath
1.0 setlinewidth
10.0 setmiterlimit
0 setlinejoin
0 setlinecap
[ ] 0 setdash
newpath
130.3937 -149.6693 moveto
130.3937 -151.93701 lineto
stroke
newpath
newpath
163.91891 -157.70872 moveto
163.4963 -157.70872 163.15443 -157.50987 162.8933 -157.11217 curveto
162.63217 -156.71448 162.5016 -156.19543 162.5016 -155.55505 curveto
162.5016 -154.90913 162.63309 -154.38963 162.89607 -153.99655 curveto
163.15906 -153.60347 163.50554 -153.40692 163.93553 -153.40692 curveto
164.36552 -153.40692 164.712 -153.60347 164.97499 -153.99655 curveto
165.23798 -154.38963 165.36946 -154.90637 165.36946 -155.54675 curveto
165.36946 -156.20375 165.23798 -156.72832 164.97499 -157.12048 curveto
164.712 -157.51265 164.35999 -157.70872 163.91891 -157.70872 curveto
closepath
163.92445 -157.29903 moveto
164.50209 -157.29903 164.79091 -156.71217 164.79091 -155.53845 curveto
164.79091 -154.39056 164.50578 -153.81662 163.93553 -153.81662 curveto
163.36713 -153.81662 163.08292 -154.3961 163.08292 -155.55505 curveto
163.08292 -156.7177 163.36343 -157.29903 163.92445 -157.29903 curveto
closepath
fill
newpath
1.0 setlinewidth
10.0 setmiterlimit
0 setlinejoin
0 setlinecap
[ ] 0 setdash
newpath
158.74016 -149.6693 moveto
158.74016 -151.93701 lineto
stroke
newpath
newpath
191.34079 -157.6063 moveto
191.34079 -157.19661 lineto
192.16019 -157.19661 lineto
192.16019 -153.96333 lineto
191.34079 -154.16818 lineto
191.34079 -153.74742 lineto
192.7083 -153.40692 lineto
192.7083 -157.19661 lineto
193.52768 -157.19661 lineto
193.52768 -157.6063 lineto
closepath
fill
newpath
1.0 setlinewidth
10.0 setmiterlimit
0 setlinejoin
0 setlinecap
[ ] 0 setdash
newpath
187.08661 -149.6693 moveto
187.08661 -151.93701 lineto
stroke
newpath
newpath
219.30524 -157.6063 moveto
219.30524 -157.1274 lineto
219.46394 -156.75645 219.78506 -156.3523 220.26859 -155.91492 curveto
220.58139 -155.63533 lineto
220.9837 -155.27177 221.18486 -154.91098 221.18486 -154.55296 curveto
221.18486 -154.32413 221.11612 -154.1442 220.97862 -154.01317 curveto
220.84113 -153.88214 220.65244 -153.81662 220.41252 -153.81662 curveto
220.12833 -153.81662 219.79337 -153.92642 219.40767 -154.14604 curveto
219.40767 -153.66437 lineto
219.77122 -153.49274 220.13202 -153.40692 220.49004 -153.40692 curveto
220.8739 -153.40692 221.18208 -153.51027 221.41461 -153.71696 curveto
221.64714 -153.92366 221.76341 -154.19771 221.76341 -154.53912 curveto
221.76341 -154.78458 221.70482 -155.00235 221.58763 -155.19243 curveto
221.47044 -155.3825 221.25221 -155.61319 220.93295 -155.88448 curveto
220.72256 -156.0644 lineto
220.28519 -156.43535 220.03236 -156.78967 219.96408 -157.1274 curveto
221.74403 -157.1274 lineto
221.74403 -157.6063 lineto
closepath
fill
newpath
1.0 setlinewidth
10.0 setmiterlimit
0 setlinejoin
0 setlinecap
[ ] 0 setdash
newpath
215.43307 -149.6693 moveto
215.43307 -151.93701 lineto
stroke
newpath
newpath
247.7569 -157.57585 moveto
247.7569 -157.0665 lineto
248.14813 -157.22151 248.45633 -157.29903 248.68147 -157.29903 curveto
248.94168 -157.29903 249.15346 -157.2229 249.31677 -157.07065 curveto
249.4801 -156.9184 249.56177 -156.72139 249.56177 -156.47964 curveto
249.56177 -155.90385 249.15852 -155.61595 248.35205 -155.61595 curveto
248.13614 -155.61595 lineto
248.13614 -155.24779 lineto
248.32713 -155.24501 lineto
249.08379 -155.24501 249.46211 -154.97835 249.46211 -154.445 curveto
249.46211 -154.02608 249.21297 -153.81662 248.71469 -153.81662 curveto
248.44156 -153.81662 248.14075 -153.8932 247.81226 -154.04639 curveto
247.81226 -153.57025 lineto
248.13521 -153.46136 248.44894 -153.40692 248.75345 -153.40692 curveto
249.5913 -153.40692 250.01021 -153.72342 250.01021 -154.35641 curveto
250.01021 -154.83809 249.72508 -155.18135 249.15483 -155.3862 curveto
249.81552 -155.53937 250.14586 -155.90108 250.14586 -156.47133 curveto
250.14586 -156.85704 250.01852 -157.1597 249.76384 -157.3793 curveto
249.50916 -157.59892 249.15944 -157.70872 248.71469 -157.70872 curveto
248.46187 -157.70872 248.1426 -157.66443 247.7569 -157.57585 curveto
closepath
fill
newpath
1.0 setlinewidth
10.0 setmiterlimit
0 setlinejoin
0 setlinecap
[ ] 0 setdash
newpath
243.77953 -149.6693 moveto
243.77953 -151.93701 lineto
stroke
newpath
newpath
277.66183 -157.6063 moveto
277.66183 -156.44643 lineto
275.8182 -156.44643 lineto
275.8182 -156.03395 lineto
277.66183 -153.50935 lineto
278.17398 -153.50935 lineto
278.17398 -156.00073 lineto
278.72208 -156.00073 lineto
278.72208 -156.44643 lineto
278.17398 -156.44643 lineto
278.17398 -157.6063 lineto
closepath
276.35248 -156.00073 moveto
277.69785 -156.00073 lineto
277.69785 -154.17926 lineto
closepath
fill
newpath
1.0 setlinewidth
10.0 setmiterlimit
0 setlinejoin
0 setlinecap
[ ] 0 setdash
newpath
272.12598 -149.6693 moveto
272.12598 -151.93701 lineto
stroke
newpath
newpath
304.5633 -157.62291 moveto
304.5633 -157.1357 lineto
304.83456 -157.24458 305.09296 -157.29903 305.3384 -157.29903 curveto
305.60785 -157.29903 305.8196 -157.21967 305.9737 -157.06096 curveto
306.12778 -156.90225 306.20483 -156.68356 306.20483 -156.40489 curveto
306.20483 -155.79034 305.7813 -155.48308 304.93423 -155.48308 curveto
304.83826 -155.48308 304.7377 -155.48953 304.6325 -155.50246 curveto
304.6325 -153.50935 lineto
306.7059 -153.50935 lineto
306.7059 -153.98549 lineto
305.11142 -153.98549 lineto
305.11142 -155.06508 lineto
305.63736 -155.06508 306.04797 -155.18596 306.34326 -155.42772 curveto
306.63852 -155.66948 306.78616 -156.00443 306.78616 -156.43257 curveto
306.78616 -156.8312 306.65192 -157.14355 306.3834 -157.36961 curveto
306.11487 -157.59569 305.74255 -157.70872 305.26642 -157.70872 curveto
305.05972 -157.70872 304.82535 -157.68011 304.5633 -157.62291 curveto
closepath
fill
newpath
1.0 setlinewidth
10.0 setmiterlimit
0 setlinejoin
0 setlinecap
[ ] 0 setdash
newpath
300.47244 -149.6693 moveto
300.47244 -151.93701 lineto
stroke
newpath
newpath
333.1949 -155.48308 moveto
333.4551 -155.14536 333.78265 -154.9765 334.17758 -154.9765 curveto
334.5356 -154.9765 334.82858 -155.09508 335.0565 -155.33221 curveto
335.28442 -155.56935 335.39838 -155.8734 335.39838 -156.24434 curveto
335.39838 -156.67065 335.27057 -157.02129 335.01498 -157.29626 curveto
334.7594 -157.57124 334.43506 -157.70872 334.04196 -157.70872 curveto
333.5898 -157.70872 333.2364 -157.52695 332.98172 -157.16339 curveto
332.72705 -156.79982 332.59973 -156.29509 332.59973 -155.64917 curveto
332.59973 -154.93867 332.74597 -154.38687 333.03848 -153.99379 curveto
333.331 -153.60071 333.74298 -153.40416 334.27448 -153.40416 curveto
334.5181 -153.40416 334.8226 -153.45583 335.188 -153.55917 curveto
335.188 -154.03531 lineto
334.80228 -153.88768 334.48672 -153.81386 334.24127 -153.81386 curveto
333.54367 -153.81386 333.1949 -154.37027 333.1949 -155.48308 curveto
closepath
334.85028 -156.36613 moveto
334.85028 -156.05609 334.7806 -155.8125 334.64127 -155.63533 curveto
334.50195 -155.45816 334.30862 -155.36958 334.06134 -155.36958 curveto
333.83066 -155.36958 333.63226 -155.4471 333.46616 -155.60211 curveto
333.30008 -155.75713 333.21704 -155.94353 333.21704 -156.1613 curveto
333.21704 -156.50455 333.29593 -156.77998 333.4537 -156.98761 curveto
333.6115 -157.19522 333.8205 -157.29903 334.08072 -157.29903 curveto
334.3151 -157.29903 334.50195 -157.2146 334.64127 -157.04573 curveto
334.7806 -156.87688 334.85028 -156.65034 334.85028 -156.36613 curveto
closepath
fill
newpath
1.0 setlinewidth
10.0 setmiterlimit
0 setlinejoin
0 setlinecap
[ ] 0 setdash
newpath
328.8189 -149.6693 moveto
328.8189 -151.93701 lineto
stroke
newpath
newpath
361.41953 -157.6063 moveto
361.47305 -157.28703 361.5492 -157.01114 361.64792 -156.77861 curveto
361.74664 -156.54608 361.9215 -156.2268 362.1725 -155.8208 curveto
363.29083 -154.02147 lineto
361.18146 -154.02147 lineto
361.18146 -153.50935 lineto
363.81128 -153.50935 lineto
363.81128 -154.02147 lineto
362.7612 -155.56982 362.1734 -156.76476 362.0479 -157.6063 curveto
closepath
fill
newpath
1.0 setlinewidth
10.0 setmiterlimit
0 setlinejoin
0 setlinecap
[ ] 0 setdash
newpath
357.16534 -149.6693 moveto
357.16534 -151.93701 lineto
stroke
newpath
1.0 setlinewidth
10.0 setmiterlimit
0 setlinejoin
0 setlinecap
[ ] 0 setdash
newpath
0.0 -149.6693 moveto
362.83466 -149.6693 lineto
stroke
newpath
newpath
362.26773 -149.6693 moveto
360.56693 -147.9685 lineto
stroke
newpath
newpath
362.26773 -149.6693 moveto
360.56693 -151.37007 lineto
stroke
newpath
newpath
153.19322 -6.819759 moveto
153.19322 -6.3325543 lineto
153.46451 -6.441437 153.72287 -6.495878 153.96832 -6.495878 curveto
154.23776 -6.495878 154.44952 -6.416523 154.60362 -6.2578125 curveto
154.75772 -6.099102 154.83476 -5.8804135 154.83476 -5.601747 curveto
154.83476 -4.9872046 154.41122 -4.6799335 153.56416 -4.6799335 curveto
153.4682 -4.6799335 153.36761 -4.686393 153.26242 -4.6993113 curveto
153.26242 -2.7062008 lineto
155.33582 -2.7062008 lineto
155.33582 -3.1823328 lineto
153.74133 -3.1823328 lineto
153.74133 -4.2619343 lineto
154.26729 -4.2619343 154.6779 -4.3828125 154.97318 -4.6245694 curveto
155.26845 -4.8663263 155.41609 -5.2012796 155.41609 -5.6294293 curveto
155.41609 -6.0280514 155.28183 -6.3403974 155.01332 -6.566468 curveto
154.74481 -6.792538 154.37248 -6.9055734 153.89635 -6.9055734 curveto
153.68965 -6.9055734 153.45528 -6.8769684 153.19322 -6.819759 curveto
closepath
fill
newpath
1.0 setlinewidth
10.0 setmiterlimit
0 setlinejoin
0 setlinecap
[ ] 0 setdash
newpath
156.47244 -7.937008 moveto
158.74016 -7.937008 lineto
stroke
newpath
newpath
154.63823 -35.149605 moveto
154.63823 -33.989727 lineto
152.7946 -33.989727 lineto
152.7946 -33.577263 lineto
154.63823 -31.052658 lineto
155.15034 -31.052658 lineto
155.15034 -33.544044 lineto
155.69846 -33.544044 lineto
155.69846 -33.989727 lineto
155.15034 -33.989727 lineto
155.15034 -35.149605 lineto
closepath
153.32886 -33.544044 moveto
154.67421 -33.544044 lineto
154.67421 -31.722565 lineto
closepath
fill
newpath
1.0 setlinewidth
10.0 setmiterlimit
0 setlinejoin
0 setlinecap
[ ] 0 setdash
newpath
156.47244 -36.283466 moveto
158.74016 -36.283466 lineto
stroke
newpath
newpath
153.07973 -63.465614 moveto
153.07973 -62.95626 lineto
153.47096 -63.111282 153.77916 -63.188793 154.0043 -63.188793 curveto
154.26451 -63.188793 154.47629 -63.112667 154.6396 -62.960415 curveto
154.80293 -62.808163 154.8846 -62.61116 154.8846 -62.369404 curveto
154.8846 -61.793617 154.48137 -61.505722 153.6749 -61.505722 curveto
153.45897 -61.505722 lineto
153.45897 -61.13755 lineto
153.64998 -61.13478 lineto
154.40662 -61.13478 154.78494 -60.86811 154.78494 -60.33477 curveto
154.78494 -59.915848 154.5358 -59.706387 154.03752 -59.706387 curveto
153.76439 -59.706387 153.46358 -59.782974 153.13509 -59.936146 curveto
153.13509 -59.460014 lineto
153.45804 -59.35113 153.77177 -59.29669 154.07628 -59.29669 curveto
154.91412 -59.29669 155.33305 -59.61319 155.33305 -60.246185 curveto
155.33305 -60.727856 155.04793 -61.071114 154.47768 -61.27596 curveto
155.13835 -61.429134 155.46869 -61.790848 155.46869 -62.3611 curveto
155.46869 -62.7468 155.34135 -63.049458 155.08667 -63.26907 curveto
154.832 -63.48868 154.48228 -63.598488 154.03752 -63.598488 curveto
153.7847 -63.598488 153.46542 -63.554195 153.07973 -63.465614 curveto
closepath
fill
newpath
1.0 setlinewidth
10.0 setmiterlimit
0 setlinejoin
0 setlinecap
[ ] 0 setdash
newpath
156.47244 -64.62992 moveto
158.74016 -64.62992 lineto
stroke
newpath
newpath
152.97453 -91.84252 moveto
152.97453 -91.36362 lineto
153.13324 -90.99268 153.45436 -90.588524 153.93787 -90.151146 curveto
154.25067 -89.87155 lineto
154.65298 -89.507996 154.85414 -89.14721 154.85414 -88.789185 curveto
154.85414 -88.56035 154.7854 -88.38042 154.64792 -88.24938 curveto
154.51042 -88.118355 154.32173 -88.05284 154.08182 -88.05284 curveto
153.79762 -88.05284 153.46266 -88.16264 153.07695 -88.382256 curveto
153.07695 -87.90059 lineto
153.44052 -87.728966 153.80132 -87.64315 154.15933 -87.64315 curveto
154.54318 -87.64315 154.85138 -87.7465 155.08391 -87.953186 curveto
155.31644 -88.15988 155.43271 -88.43394 155.43271 -88.775345 curveto
155.43271 -89.02079 155.37411 -89.238556 155.25693 -89.42864 curveto
155.13974 -89.61873 154.92151 -89.84941 154.60223 -90.1207 curveto
154.39186 -90.30063 lineto
153.95448 -90.67157 153.70164 -91.0259 153.63336 -91.36362 curveto
155.41333 -91.36362 lineto
155.41333 -91.84252 lineto
closepath
fill
newpath
1.0 setlinewidth
10.0 setmiterlimit
0 setlinejoin
0 setlinecap
[ ] 0 setdash
newpath
156.47244 -92.97638 moveto
158.74016 -92.97638 lineto
stroke
newpath
newpath
153.35655 -120.18898 moveto
153.35655 -119.77928 lineto
154.17593 -119.77928 lineto
154.17593 -116.54601 lineto
153.35655 -116.75086 lineto
153.35655 -116.33009 lineto
154.72404 -115.9896 lineto
154.72404 -119.77928 lineto
155.54343 -119.77928 lineto
155.54343 -120.18898 lineto
closepath
fill
newpath
1.0 setlinewidth
10.0 setmiterlimit
0 setlinejoin
0 setlinecap
[ ] 0 setdash
newpath
156.47244 -121.32284 moveto
158.74016 -121.32284 lineto
stroke
newpath
newpath
154.28113 -148.63786 moveto
153.8585 -148.63786 153.51663 -148.43901 153.25551 -148.0413 curveto
152.99437 -147.64362 152.8638 -147.12457 152.8638 -146.48419 curveto
152.8638 -145.83827 152.99529 -145.31877 153.25827 -144.92569 curveto
153.52126 -144.53261 153.86774 -144.33606 154.29773 -144.33606 curveto
154.72774 -144.33606 155.07422 -144.53261 155.3372 -144.92569 curveto
155.60019 -145.31877 155.73167 -145.83551 155.73167 -146.47589 curveto
155.73167 -147.13287 155.60019 -147.65744 155.3372 -148.0496 curveto
155.07422 -148.44177 154.7222 -148.63786 154.28113 -148.63786 curveto
closepath
154.28667 -148.22816 moveto
154.86429 -148.22816 155.1531 -147.6413 155.1531 -146.46758 curveto
155.1531 -145.3197 154.86798 -144.74576 154.29773 -144.74576 curveto
153.72932 -144.74576 153.44513 -145.32524 153.44513 -146.48419 curveto
153.44513 -147.64684 153.72565 -148.22816 154.28667 -148.22816 curveto
closepath
fill
newpath
1.0 setlinewidth
10.0 setmiterlimit
0 setlinejoin
0 setlinecap
[ ] 0 setdash
newpath
156.47244 -149.6693 moveto
158.74016 -149.6693 lineto
stroke
newpath
newpath
149.51205 -175.44795 moveto
149.51205 -175.03827 lineto
151.97023 -175.03827 lineto
151.97023 -175.44795 lineto
closepath
153.23529 -176.8819 moveto
153.23529 -176.4722 lineto
154.05469 -176.4722 lineto
154.05469 -173.23892 lineto
153.23529 -173.44377 lineto
153.23529 -173.02301 lineto
154.6028 -172.68251 lineto
154.6028 -176.4722 lineto
155.42218 -176.4722 lineto
155.42218 -176.8819 lineto
closepath
fill
newpath
1.0 setlinewidth
10.0 setmiterlimit
0 setlinejoin
0 setlinecap
[ ] 0 setdash
newpath
156.47244 -178.01575 moveto
158.74016 -178.01575 lineto
stroke
newpath
newpath
149.51205 -203.79442 moveto
149.51205 -203.38472 lineto
151.97023 -203.38472 lineto
151.97023 -203.79442 lineto
closepath
152.85329 -205.22835 moveto
152.85329 -204.74945 lineto
153.012 -204.37851 153.33311 -203.97435 153.81662 -203.53697 curveto
154.12943 -203.25739 lineto
154.53174 -202.89383 154.7329 -202.53304 154.7329 -202.17502 curveto
154.7329 -201.94618 154.66415 -201.76624 154.52667 -201.63521 curveto
154.38918 -201.50418 154.20049 -201.43867 153.96057 -201.43867 curveto
153.67638 -201.43867 153.34142 -201.54848 152.9557 -201.76808 curveto
152.9557 -201.28642 lineto
153.31927 -201.11479 153.68005 -201.02898 154.03807 -201.02898 curveto
154.42194 -201.02898 154.73013 -201.13232 154.96266 -201.33902 curveto
155.19519 -201.5457 155.31145 -201.81976 155.31145 -202.16118 curveto
155.31145 -202.40662 155.25285 -202.62439 155.13567 -202.81447 curveto
155.01848 -203.00455 154.80025 -203.23523 154.48099 -203.50652 curveto
154.27061 -203.68645 lineto
153.83324 -204.05739 153.5804 -204.41173 153.51212 -204.74945 curveto
155.29208 -204.74945 lineto
155.29208 -205.22835 lineto
closepath
fill
newpath
1.0 setlinewidth
10.0 setmiterlimit
0 setlinejoin
0 setlinecap
[ ] 0 setdash
newpath
156.47244 -206.3622 moveto
158.74016 -206.3622 lineto
stroke
newpath
newpath
149.51205 -232.14087 moveto
149.51205 -231.73117 lineto
151.97023 -231.73117 lineto
151.97023 -232.14087 lineto
closepath
152.95848 -233.54436 moveto
152.95848 -233.035 lineto
153.34972 -233.19002 153.65791 -233.26753 153.88306 -233.26753 curveto
154.14326 -233.26753 154.35504 -233.1914 154.51836 -233.03915 curveto
154.68169 -232.8869 154.76335 -232.6899 154.76335 -232.44814 curveto
154.76335 -231.87234 154.3601 -231.58446 153.55363 -231.58446 curveto
153.33772 -231.58446 lineto
153.33772 -231.2163 lineto
153.52873 -231.21352 lineto
154.28537 -231.21352 154.6637 -230.94685 154.6637 -230.41351 curveto
154.6637 -229.99458 154.41455 -229.78513 153.91628 -229.78513 curveto
153.64314 -229.78513 153.34233 -229.86171 153.01384 -230.0149 curveto
153.01384 -229.53876 lineto
153.33679 -229.42987 153.65053 -229.37543 153.95503 -229.37543 curveto
154.79288 -229.37543 155.21179 -229.69193 155.21179 -230.32492 curveto
155.21179 -230.8066 154.92667 -231.14986 154.35641 -231.3547 curveto
155.0171 -231.50787 155.34744 -231.86958 155.34744 -232.43983 curveto
155.34744 -232.82553 155.22011 -233.12819 154.96542 -233.34781 curveto
154.71075 -233.56743 154.36104 -233.67723 153.91628 -233.67723 curveto
153.66345 -233.67723 153.34418 -233.63293 152.95848 -233.54436 curveto
closepath
fill
newpath
1.0 setlinewidth
10.0 setmiterlimit
0 setlinejoin
0 setlinecap
[ ] 0 setdash
newpath
156.47244 -234.70866 moveto
158.74016 -234.70866 lineto
stroke
newpath
newpath
149.51205 -260.48734 moveto
149.51205 -260.07764 lineto
151.97023 -260.07764 lineto
151.97023 -260.48734 lineto
closepath
154.51698 -261.92126 moveto
154.51698 -260.76138 lineto
152.67336 -260.76138 lineto
152.67336 -260.3489 lineto
154.51698 -257.8243 lineto
155.0291 -257.8243 lineto
155.0291 -260.3157 lineto
155.57721 -260.3157 lineto
155.57721 -260.76138 lineto
155.0291 -260.76138 lineto
155.0291 -261.92126 lineto
closepath
153.20761 -260.3157 moveto
154.55296 -260.3157 lineto
154.55296 -258.49423 lineto
closepath
fill
newpath
1.0 setlinewidth
10.0 setmiterlimit
0 setlinejoin
0 setlinecap
[ ] 0 setdash
newpath
156.47244 -263.0551 moveto
158.74016 -263.0551 lineto
stroke
newpath
newpath
149.51205 -288.83377 moveto
149.51205 -288.4241 lineto
151.97023 -288.4241 lineto
151.97023 -288.83377 lineto
closepath
153.07198 -290.28433 moveto
153.07198 -289.79712 lineto
153.34326 -289.906 153.60162 -289.96045 153.84708 -289.96045 curveto
154.11652 -289.96045 154.32828 -289.8811 154.48238 -289.72238 curveto
154.63647 -289.56366 154.71352 -289.34497 154.71352 -289.0663 curveto
154.71352 -288.45178 154.28998 -288.1445 153.44292 -288.1445 curveto
153.34695 -288.1445 153.24637 -288.15097 153.14117 -288.16388 curveto
153.14117 -286.17078 lineto
155.21457 -286.17078 lineto
155.21457 -286.6469 lineto
153.62007 -286.6469 lineto
153.62007 -287.7265 lineto
154.14603 -287.7265 154.55666 -287.84738 154.85193 -288.08914 curveto
155.1472 -288.3309 155.29485 -288.66586 155.29485 -289.094 curveto
155.29485 -289.4926 155.16058 -289.80496 154.89207 -290.03104 curveto
154.62357 -290.2571 154.25124 -290.37015 153.7751 -290.37015 curveto
153.5684 -290.37015 153.33403 -290.34155 153.07198 -290.28433 curveto
closepath
fill
newpath
1.0 setlinewidth
10.0 setmiterlimit
0 setlinejoin
0 setlinecap
[ ] 0 setdash
newpath
156.47244 -291.40158 moveto
158.74016 -291.40158 lineto
stroke
newpath
newpath
158.74016 -0.0 moveto
158.74016 -306.70865 lineto
stroke
newpath
newpath
158.74016 -0.0 moveto
157.03937 -1.7007874 lineto
stroke
newpath
newpath
158.74016 -0.0 moveto
160.44095 -1.7007874 lineto
stroke
newpath
0.8 0.0 0.0 setrgbcolor
2.0 setlinewidth
10.0 setmiterlimit
1 setlinejoin
1 setlinecap
[ ] 0 setdash
newpath
17.007874 -291.40158 moveto
17.362206 -291.40158 lineto
17.716536 -291.40158 lineto
18.425198 -291.40158 lineto
19.84252 -291.40158 lineto
22.677166 -291.40158 lineto
25.51181 -291.40158 lineto
28.346457 -291.40158 lineto
31.181103 -291.40158 lineto
34.015747 -291.40158 lineto
36.850395 -291.40158 lineto
39.68504 -291.40158 lineto
42.519684 -291.40158 lineto
43.937008 -291.40158 lineto
44.645668 -291.40158 lineto
45.0 -291.40158 lineto
45.31004 -291.40158 lineto
45.354332 -263.0551 moveto
45.70866 -263.0551 lineto
46.062992 -263.0551 lineto
46.771652 -263.0551 lineto
48.188976 -263.0551 lineto
51.02362 -263.0551 lineto
53.85827 -263.0551 lineto
56.692913 -263.0551 lineto
59.527557 -263.0551 lineto
62.362206 -263.0551 lineto
65.19685 -263.0551 lineto
68.031494 -263.0551 lineto
70.86614 -263.0551 lineto
72.28346 -263.0551 lineto
72.99213 -263.0551 lineto
73.34646 -263.0551 lineto
73.656494 -263.0551 lineto
73.70079 -234.70866 moveto
74.055115 -234.70866 lineto
74.40945 -234.70866 lineto
75.11811 -234.70866 lineto
76.53543 -234.70866 lineto
79.37008 -234.70866 lineto
82.20473 -234.70866 lineto
85.03937 -234.70866 lineto
87.874016 -234.70866 lineto
90.708664 -234.70866 lineto
93.543304 -234.70866 lineto
96.37795 -234.70866 lineto
99.2126 -234.70866 lineto
100.62992 -234.70866 lineto
101.338585 -234.70866 lineto
101.69292 -234.70866 lineto
102.00295 -234.70866 lineto
102.04724 -206.3622 moveto
102.40157 -206.3622 lineto
102.755905 -206.3622 lineto
103.46457 -206.3622 lineto
104.88189 -206.3622 lineto
107.71654 -206.3622 lineto
110.55118 -206.3622 lineto
113.385826 -206.3622 lineto
116.220474 -206.3622 lineto
119.055115 -206.3622 lineto
121.88976 -206.3622 lineto
124.72441 -206.3622 lineto
127.55905 -206.3622 lineto
128.97638 -206.3622 lineto
129.68504 -206.3622 lineto
130.03937 -206.3622 lineto
130.34941 -206.3622 lineto
130.3937 -178.01575 moveto
130.74803 -178.01575 lineto
131.10236 -178.01575 lineto
131.81102 -178.01575 lineto
133.22835 -178.01575 lineto
136.06299 -178.01575 lineto
138.89764 -178.01575 lineto
141.73228 -178.01575 lineto
144.56693 -178.01575 lineto
147.40158 -178.01575 lineto
150.23622 -178.01575 lineto
153.07086 -178.01575 lineto
155.90552 -178.01575 lineto
157.32283 -178.01575 lineto
158.0315 -178.01575 lineto
158.38583 -178.01575 lineto
158.69586 -178.01575 lineto
158.74016 -149.6693 moveto
159.09448 -149.6693 lineto
159.44882 -149.6693 lineto
160.15749 -149.6693 lineto
161.5748 -149.6693 lineto
164.40945 -149.6693 lineto
167.2441 -149.6693 lineto
170.07874 -149.6693 lineto
172.91339 -149.6693 lineto
175.74803 -149.6693 lineto
178.58267 -149.6693 lineto
181.41733 -149.6693 lineto
184.25197 -149.6693 lineto
185.6693 -149.6693 lineto
186.37796 -149.6693 lineto
186.73228 -149.6693 lineto
187.04233 -149.6693 lineto
187.08661 -121.32284 moveto
187.44095 -121.32284 lineto
187.79527 -121.32284 lineto
188.50394 -121.32284 lineto
189.92126 -121.32284 lineto
192.7559 -121.32284 lineto
195.59055 -121.32284 lineto
198.4252 -121.32284 lineto
201.25984 -121.32284 lineto
204.09448 -121.32284 lineto
206.92914 -121.32284 lineto
209.76378 -121.32284 lineto
212.59842 -121.32284 lineto
214.01575 -121.32284 lineto
214.72441 -121.32284 lineto
215.07874 -121.32284 lineto
215.38878 -121.32284 lineto
215.43307 -92.97638 moveto
215.7874 -92.97638 lineto
216.14174 -92.97638 lineto
216.85039 -92.97638 lineto
218.26772 -92.97638 lineto
221.10236 -92.97638 lineto
223.93701 -92.97638 lineto
226.77165 -92.97638 lineto
229.6063 -92.97638 lineto
232.44095 -92.97638 lineto
235.27559 -92.97638 lineto
238.11023 -92.97638 lineto
240.94489 -92.97638 lineto
242.3622 -92.97638 lineto
243.07086 -92.97638 lineto
243.4252 -92.97638 lineto
243.73523 -92.97638 lineto
243.77953 -64.62992 moveto
244.13387 -64.62992 lineto
244.48819 -64.62992 lineto
245.19685 -64.62992 lineto
246.61417 -64.62992 lineto
249.44882 -64.62992 lineto
252.28346 -64.62992 lineto
255.1181 -64.62992 lineto
257.95276 -64.62992 lineto
260.7874 -64.62992 lineto
263.62204 -64.62992 lineto
266.4567 -64.62992 lineto
269.29135 -64.62992 lineto
270.70865 -64.62992 lineto
271.41733 -64.62992 lineto
271.77167 -64.62992 lineto
272.0817 -64.62992 lineto
272.12598 -36.283466 moveto
272.48032 -36.283466 lineto
272.83466 -36.283466 lineto
273.5433 -36.283466 lineto
274.96063 -36.283466 lineto
277.7953 -36.283466 lineto
280.6299 -36.283466 lineto
283.46457 -36.283466 lineto
286.29922 -36.283466 lineto
289.13385 -36.283466 lineto
291.9685 -36.283466 lineto
294.80316 -36.283466 lineto
297.6378 -36.283466 lineto
299.0551 -36.283466 lineto
299.7638 -36.283466 lineto
300.1181 -36.283466 lineto
300.42816 -36.283466 lineto
300.47244 -7.937008 moveto
300.82678 -7.937008 lineto
301.1811 -7.937008 lineto
301.88977 -7.937008 lineto
303.3071 -7.937008 lineto
306.14172 -7.937008 lineto
308.97638 -7.937008 lineto
311.81104 -7.937008 lineto
314.64566 -7.937008 lineto
317.48032 -7.937008 lineto
320.31497 -7.937008 lineto
323.1496 -7.937008 lineto
325.98425 -7.937008 lineto
327.40158 -7.937008 lineto
328.11023 -7.937008 lineto
328.46457 -7.937008 lineto
328.7746 -7.937008 lineto
stroke
newpath
0.8 0.0 0.0 setrgbcolor
newpath
24.112206 -300.75812 moveto
24.112206 -303.87402 lineto
23.45448 -303.87402 lineto
23.45448 -300.75812 lineto
22.942913 -300.75812 lineto
22.942913 -300.26648 lineto
23.45448 -300.26648 lineto
23.45448 -299.83466 lineto
23.45448 -298.9754 23.846457 -298.54578 24.630413 -298.54578 curveto
24.849655 -298.54578 25.098795 -298.5823 25.37783 -298.6554 curveto
25.37783 -299.17358 lineto
25.083292 -299.0828 24.84744 -299.0374 24.670275 -299.0374 curveto
24.455463 -299.0374 24.308748 -299.0889 24.230131 -299.19186 curveto
24.151514 -299.29486 24.112206 -299.48587 24.112206 -299.7649 curveto
24.112206 -300.26648 lineto
25.012426 -300.26648 lineto
25.012426 -300.75812 lineto
closepath
fill
newpath
grestore
grestore
showpage

%%EOF