%!PS
%%BoundingBox: -8 -29 121 128 
%%HiResBoundingBox: -7.33662 -28.59645 120.72249 127.80904 
%%Creator: MetaPost 2.02
%%CreationDate: 2023.03.26:1733
%%Pages: 1
%*Font: cmmi10 6.97382 9.96265 60:8000004
%*Font: cmr10 6.97382 9.96265 3d:8
%%BeginProlog
%%EndProlog
%%Page: 1 1
 0 0 0 setrgbcolor 0 1.3 dtransform truncate idtransform setlinewidth pop
 [] 0 setdash 1 setlinecap 1 setlinejoin 10 setmiterlimit
newpath 4.25201 31.52902 moveto
4.39366 29.82138 lineto
4.53532 28.04887 lineto
4.67697 26.28543 lineto
4.81863 24.59033 lineto
4.86409 24.06248 4.91101 23.53476 4.96028 23.00726 curveto
5.0052 22.52621 5.05208 22.04535 5.10194 21.56477 curveto
5.14632 21.13712 5.19307 20.70972 5.24359 20.28275 curveto
5.28741 19.91235 5.33408 19.54231 5.38525 19.17287 curveto
5.4285 18.8607 5.47498 18.549 5.5269 18.23816 curveto
5.5694 17.98384 5.61552 17.73012 5.66856 17.47777 curveto
5.71025 17.27939 5.75621 17.0819 5.81021 16.8865 curveto
5.85033 16.74133 5.89491 16.59729 5.95187 16.45786 curveto
5.99112 16.3618 6.03622 16.26802 6.09352 16.18147 curveto
6.13026 16.12598 6.17351 16.07257 6.23517 16.0474 curveto
6.28041 16.02892 6.3309 16.02814 6.37683 16.0448 curveto
6.43567 16.06615 6.47992 16.1128 6.51848 16.162 curveto
6.57341 16.2321 6.61925 16.3087 6.66014 16.38779 curveto
6.71432 16.49257 6.75978 16.60155 6.80179 16.71176 curveto
6.8535 16.84743 6.90004 16.98499 6.94345 17.12354 curveto
6.99431 17.28581 7.04088 17.44939 7.0851 17.61359 curveto
7.13501 17.79889 7.18193 17.98497 7.22676 18.17155 curveto
7.2762 18.37737 7.3231 18.58376 7.36841 18.79051 curveto
7.51007 19.46136 lineto
7.65172 20.17722 lineto
7.79338 20.93155 lineto
7.93503 21.71875 lineto
8.07669 22.53235 lineto
8.21834 23.36844 lineto
8.35999 24.22226 lineto
8.50165 25.08948 lineto
8.6433 25.96666 lineto
8.78496 26.85118 lineto
8.9266 27.73918 lineto
9.06827 28.62933 lineto
9.20992 29.51862 lineto
9.35158 30.40488 lineto
9.49323 31.28767 lineto
9.63489 32.16399 lineto
9.77654 33.03337 lineto
9.9182 33.89455 lineto
10.05984 34.74663 lineto
10.2015 35.58835 lineto
10.34315 36.41924 lineto
10.48482 37.23889 lineto
10.62646 38.04686 lineto
10.76811 38.84229 lineto
10.90977 39.6256 lineto
11.05142 40.39594 lineto
11.19308 41.15244 lineto
11.33473 41.89684 lineto
11.4764 42.62738 lineto
11.61804 43.34496 lineto
11.7597 44.04912 lineto
11.90135 44.7403 lineto
12.04301 45.41808 lineto
12.18466 46.08244 lineto
12.32632 46.73427 lineto
12.46797 47.37312 lineto
12.60963 47.99944 lineto
12.75128 48.61319 lineto
12.89293 49.21442 lineto
13.03459 49.80353 lineto
13.17624 50.38052 lineto
13.3179 50.94585 lineto
13.45955 51.49992 lineto
13.60121 52.04231 lineto
13.74286 52.57346 lineto
13.88452 53.09337 lineto
14.02617 53.60332 lineto
14.16783 54.10204 lineto
14.30948 54.59123 lineto
14.45114 55.06961 lineto
14.59279 55.53804 lineto
14.73445 55.99739 lineto
14.8761 56.44722 lineto
15.01775 56.88754 lineto
15.15941 57.31834 lineto
15.30106 57.74092 lineto
15.44272 58.15486 lineto
15.58437 58.56015 lineto
15.72603 58.95764 lineto
15.86768 59.34692 lineto
16.00934 59.72755 lineto
16.15099 60.10126 lineto
16.29265 60.46675 lineto
16.4343 60.82532 lineto
16.57596 61.17697 lineto
16.7176 61.52126 lineto
16.85927 61.85864 lineto
17.00092 62.18953 lineto
17.14256 62.51393 lineto
17.28423 62.83228 lineto
17.42587 63.14326 lineto
17.56754 63.4495 lineto
17.70918 63.74924 lineto
17.85085 64.0425 lineto
17.9925 64.331 lineto
18.13416 64.61343 lineto
18.2758 64.89069 lineto
18.41747 65.16275 lineto
18.55911 65.42963 lineto
18.70078 65.69131 lineto
18.84242 65.94867 lineto
18.98409 66.2004 lineto
19.12573 66.44781 lineto
19.2674 66.69089 lineto
19.40904 66.92879 lineto
19.55069 67.16278 lineto
19.69235 67.39203 lineto
19.834 67.61737 lineto
19.97566 67.83884 lineto
20.11731 68.05597 lineto
20.25897 68.26964 lineto
20.40062 68.47897 lineto
20.54228 68.68486 lineto
20.68393 68.88728 lineto
20.82559 69.08539 lineto
20.96724 69.2809 lineto
21.1089 69.47295 lineto
21.25055 69.66153 lineto
21.39221 69.84622 lineto
21.53386 70.0283 lineto
21.6755 70.20695 lineto
21.81717 70.383 lineto
21.95882 70.55513 lineto
22.10048 70.72513 lineto
22.24213 70.89207 lineto
22.38379 71.05644 lineto
22.52544 71.21735 lineto
22.6671 71.37651 lineto
22.80875 71.53265 lineto
22.95041 71.68578 lineto
23.09206 71.83716 lineto
23.23372 71.98552 lineto
23.37537 72.13171 lineto
23.51703 72.27489 lineto
23.65868 72.41676 lineto
23.80032 72.55603 lineto
23.94199 72.69272 lineto
24.08363 72.82767 lineto
24.2253 72.96002 lineto
24.36694 73.09064 lineto
24.5086 73.2191 lineto
24.65025 73.3454 lineto
24.79192 73.46997 lineto
24.93356 73.59325 lineto
25.07523 73.71349 lineto
25.21687 73.83287 lineto
25.35854 73.94965 lineto
25.50018 74.06514 lineto
25.64185 74.17802 lineto
25.7835 74.28963 lineto
25.92514 74.40079 lineto
26.0668 74.50891 lineto
26.20845 74.61575 lineto
26.35011 74.72128 lineto
26.49176 74.8251 lineto
26.63342 74.92717 lineto
26.77507 75.02795 lineto
26.91673 75.127 lineto
27.05838 75.22476 lineto
27.20004 75.32164 lineto
27.34169 75.41594 lineto
27.48335 75.5098 lineto
27.625 75.60278 lineto
27.76666 75.69319 lineto
27.90831 75.78316 lineto
28.04996 75.87183 lineto
28.19162 75.95833 lineto
28.33327 76.04485 lineto
28.47493 76.12918 lineto
28.61658 76.21353 lineto
28.75824 76.2957 lineto
28.89989 76.37788 lineto
29.04155 76.4579 lineto
29.1832 76.53662 lineto
29.32486 76.61491 lineto
29.4665 76.69191 lineto
29.60817 76.7676 lineto
29.74982 76.84329 lineto
29.89148 76.91725 lineto
30.03313 76.98993 lineto
30.17479 77.06172 lineto
30.31644 77.13309 lineto
30.45808 77.20316 lineto
30.59975 77.2728 lineto
30.7414 77.34157 lineto
30.88306 77.40904 lineto
31.0247 77.47566 lineto
31.16637 77.5414 lineto
31.30801 77.60628 lineto
31.44968 77.66986 lineto
31.59132 77.73387 lineto
31.73299 77.79573 lineto
31.87463 77.85759 lineto
32.0163 77.91856 lineto
32.15794 77.9787 lineto
32.2996 78.03795 lineto
32.44125 78.0972 lineto
32.5829 78.1543 lineto
32.72456 78.21227 lineto
32.86621 78.2685 lineto
33.00787 78.32472 lineto
33.14952 78.37921 lineto
33.29118 78.43459 lineto
33.43283 78.48865 lineto
33.5745 78.54099 lineto
33.71614 78.59332 lineto
33.8578 78.64522 lineto
33.99945 78.69713 lineto
34.14111 78.7473 lineto
34.28276 78.79747 lineto
34.42442 78.84721 lineto
34.56607 78.89609 lineto
34.70772 78.9454 lineto
34.84938 78.99211 lineto
34.99103 79.04013 lineto
35.13269 79.08641 lineto
35.27434 79.13312 lineto
35.416 79.1781 lineto
35.55765 79.22395 lineto
35.69931 79.26851 lineto
35.84096 79.3122 lineto
35.98262 79.35544 lineto
36.12427 79.3987 lineto
36.26593 79.44151 lineto
36.40758 79.48347 lineto
36.54924 79.525 lineto
36.69089 79.56696 lineto
36.83253 79.60718 lineto
36.9742 79.6474 lineto
37.11584 79.68762 lineto
37.2575 79.72786 lineto
37.39915 79.76678 lineto
37.54082 79.80484 lineto
37.68246 79.84377 lineto
37.82413 79.88141 lineto
37.96577 79.91774 lineto
38.10744 79.9558 lineto
38.24908 79.99213 lineto
38.39075 80.0276 lineto
38.5324 80.06306 lineto
38.67406 80.09853 lineto
38.8157 80.13443 lineto
38.95737 80.16861 lineto
39.09901 80.2032 lineto
39.24066 80.23651 lineto
39.38232 80.27112 lineto
39.52397 80.30356 lineto
39.66563 80.3373 lineto
39.80728 80.37016 lineto
39.94894 80.4013 lineto
40.09059 80.43332 lineto
40.23225 80.46489 lineto
40.3739 80.4969 lineto
40.51556 80.5276 lineto
40.65721 80.55745 lineto
40.79887 80.58902 lineto
40.94052 80.61801 lineto
41.08218 80.64828 lineto
41.22383 80.67769 lineto
41.36548 80.7071 lineto
41.50714 80.73566 lineto
41.64879 80.76463 lineto
41.79045 80.79231 lineto
41.9321 80.82043 lineto
42.07376 80.84724 lineto
42.21541 80.87622 lineto
42.35707 80.90218 lineto
42.49872 80.9303 lineto
42.64038 80.95581 lineto
42.78203 80.98306 lineto
42.92369 81.00945 lineto
43.06534 81.03453 lineto
43.207 81.06049 lineto
43.34865 81.08644 lineto
43.4903 81.11153 lineto
43.63196 81.13531 lineto
43.7736 81.16127 lineto
43.91527 81.18462 lineto
44.05692 81.20972 lineto
44.19858 81.23264 lineto
44.34023 81.25772 lineto
44.48189 81.28151 lineto
44.62354 81.304 lineto
44.7652 81.32736 lineto
44.90685 81.34985 lineto
45.04851 81.37277 lineto
45.19016 81.39613 lineto
45.33182 81.41689 lineto
45.47346 81.43982 lineto
45.61511 81.46188 lineto
45.75677 81.48306 lineto
45.89842 81.5047 lineto
46.04008 81.52675 lineto
46.18173 81.54665 lineto
46.3234 81.56871 lineto
46.46504 81.58948 lineto
46.6067 81.6098 lineto
46.74835 81.63013 lineto
46.89001 81.65002 lineto
47.03166 81.67035 lineto
47.17332 81.68982 lineto
47.31497 81.71014 lineto
47.45663 81.72919 lineto
47.59828 81.74908 lineto
47.73993 81.76811 lineto
47.88159 81.78671 lineto
48.02324 81.80531 lineto
48.1649 81.82477 lineto
48.30655 81.84207 lineto
48.44821 81.86154 lineto
48.58986 81.88014 lineto
48.73152 81.89787 lineto
48.87317 81.91473 lineto
49.01483 81.93246 lineto
49.15648 81.95064 lineto
49.29814 81.96837 lineto
49.43979 81.98524 lineto
49.58145 82.00255 lineto
49.7231 82.01941 lineto
49.86476 82.03671 lineto
50.00641 82.05357 lineto
50.14806 82.06958 lineto
50.28972 82.08601 lineto
50.43137 82.10202 lineto
50.57303 82.1189 lineto
50.71468 82.1349 lineto
50.85634 82.15004 lineto
50.99799 82.16605 lineto
51.13965 82.18118 lineto
51.2813 82.19762 lineto
51.42296 82.21275 lineto
51.5646 82.22919 lineto
51.70627 82.24303 lineto
51.84792 82.25903 lineto
51.98958 82.2733 lineto
52.13123 82.28801 lineto
52.27287 82.30229 lineto
52.41454 82.31743 lineto
52.55618 82.3317 lineto
52.69785 82.34683 lineto
52.8395 82.35982 lineto
52.98116 82.37538 lineto
53.1228 82.38837 lineto
53.26447 82.40263 lineto
53.40611 82.41605 lineto
53.54778 82.43031 lineto
53.68942 82.44373 lineto
53.83109 82.4567 lineto
53.97273 82.47054 lineto
54.1144 82.48395 lineto
54.25604 82.49649 lineto
54.39769 82.5099 lineto
54.53935 82.52287 lineto
54.681 82.53499 lineto
54.82266 82.5484 lineto
54.96431 82.56094 lineto
55.10597 82.57306 lineto
55.24762 82.5856 lineto
55.38928 82.59814 lineto
55.53093 82.61154 lineto
55.67259 82.62236 lineto
55.81424 82.63448 lineto
55.9559 82.64745 lineto
56.09755 82.65826 lineto
56.23921 82.67036 lineto
56.38086 82.68335 lineto
56.5225 82.69373 lineto
56.66417 82.70541 lineto
56.80582 82.71666 lineto
56.94748 82.72876 lineto
57.08913 82.74045 lineto
57.23079 82.75125 lineto
57.37244 82.76164 lineto
57.5141 82.77332 lineto
57.65575 82.78413 lineto
57.79741 82.79623 lineto
57.93906 82.80576 lineto
58.08072 82.81657 lineto
58.22237 82.82695 lineto
58.36403 82.8382 lineto
58.50568 82.84901 lineto
58.64734 82.85939 lineto
58.78899 82.86891 lineto
58.93063 82.87971 lineto
59.0723 82.89009 lineto
59.21394 82.90004 lineto
59.3556 82.91086 lineto
59.49725 82.91951 lineto
59.63892 82.93118 lineto
59.78056 82.94028 lineto
59.92223 82.95065 lineto
60.06387 82.95888 lineto
60.20554 82.97012 lineto
60.34718 82.97878 lineto
60.48885 82.98915 lineto
60.6305 82.99866 lineto
60.77216 83.00775 lineto
60.9138 83.01596 lineto
61.05545 83.02591 lineto
61.19711 83.035 lineto
61.33876 83.04364 lineto
61.48042 83.05359 lineto
61.62207 83.06311 lineto
61.76373 83.07219 lineto
61.90538 83.08041 lineto
62.04704 83.08994 lineto
62.18869 83.09727 lineto
62.33035 83.10593 lineto
62.472 83.11632 lineto
62.61366 83.12367 lineto
62.75531 83.13275 lineto
62.89697 83.1414 lineto
63.03862 83.14919 lineto
63.18027 83.1587 lineto
63.32193 83.16562 lineto
63.46358 83.17384 lineto
63.60524 83.18379 lineto
63.74689 83.19115 lineto
63.88855 83.1998 lineto
64.0302 83.20628 lineto
64.17186 83.21623 lineto
64.3135 83.22314 lineto
64.45517 83.23007 lineto
64.59682 83.23828 lineto
64.73848 83.24608 lineto
64.88013 83.25516 lineto
65.02179 83.26207 lineto
65.16344 83.2703 lineto
65.30508 83.27808 lineto
65.44675 83.28543 lineto
65.5884 83.29236 lineto
65.73006 83.30057 lineto
65.8717 83.30663 lineto
66.01337 83.31398 lineto
66.15501 83.32263 lineto
66.29668 83.32912 lineto
66.43832 83.33734 lineto
66.57999 83.34296 lineto
66.72163 83.35204 lineto
66.8633 83.35854 lineto
67.00494 83.3646 lineto
67.1466 83.37238 lineto
67.28825 83.37973 lineto
67.42992 83.38622 lineto
67.57156 83.3927 lineto
67.71321 83.39833 lineto
67.85487 83.40611 lineto
67.99652 83.41302 lineto
68.13818 83.41953 lineto
68.27983 83.42601 lineto
68.4215 83.43336 lineto
68.56314 83.43898 lineto
68.7048 83.4459 lineto
68.84645 83.45197 lineto
68.98811 83.45801 lineto
69.12976 83.4658 lineto
69.27142 83.471 lineto
69.41307 83.4779 lineto
69.55473 83.48396 lineto
69.69638 83.49002 lineto
69.83803 83.4978 lineto
69.97969 83.50299 lineto
70.12134 83.50949 lineto
70.263 83.51598 lineto
70.40465 83.52203 lineto
70.54631 83.52765 lineto
70.68796 83.53458 lineto
70.82962 83.53934 lineto
70.97127 83.54582 lineto
71.11293 83.55188 lineto
71.25458 83.5575 lineto
71.39624 83.56268 lineto
71.53789 83.56961 lineto
71.67955 83.57393 lineto
71.8212 83.57999 lineto
71.96284 83.58562 lineto
72.1045 83.59123 lineto
72.24615 83.59816 lineto
72.38782 83.60248 lineto
72.52946 83.60896 lineto
72.67113 83.61502 lineto
72.81277 83.62021 lineto
72.95444 83.6254 lineto
73.09608 83.63016 lineto
73.23775 83.63664 lineto
73.3794 83.64055 lineto
73.52106 83.64659 lineto
73.6627 83.6518 lineto
73.80437 83.65698 lineto
73.94601 83.6639 lineto
74.08766 83.66779 lineto
74.22932 83.67429 lineto
74.37097 83.67773 lineto
74.51263 83.68294 lineto
74.65428 83.68768 lineto
74.79594 83.69461 lineto
74.93759 83.69893 lineto
75.07925 83.70282 lineto
75.2209 83.70845 lineto
75.36256 83.71364 lineto
75.50421 83.71883 lineto
75.64587 83.72359 lineto
75.78752 83.72748 lineto
75.92918 83.73396 lineto
76.07083 83.73743 lineto
76.21248 83.74261 lineto
76.35414 83.7478 lineto
76.49579 83.75256 lineto
76.63745 83.7569 lineto
76.7791 83.76122 lineto
76.92076 83.76685 lineto
77.06241 83.77031 lineto
77.20407 83.7755 lineto
77.34572 83.78069 lineto
77.48738 83.785 lineto
77.62903 83.78934 lineto
77.77069 83.79323 lineto
77.91234 83.79884 lineto
78.054 83.8023 lineto
78.19565 83.8075 lineto
78.33731 83.81226 lineto
78.47896 83.81659 lineto
78.6206 83.8209 lineto
78.76227 83.8248 lineto
78.90392 83.83043 lineto
79.04558 83.83388 lineto
79.18723 83.83908 lineto
79.32889 83.84123 lineto
79.47054 83.846 lineto
79.6122 83.84988 lineto
79.75385 83.85378 lineto
79.89551 83.85983 lineto
80.03716 83.86287 lineto
80.17882 83.86806 lineto
80.32047 83.87065 lineto
80.46213 83.87541 lineto
80.60378 83.87973 lineto
80.74542 83.88362 lineto
80.88708 83.88708 lineto
81.02873 83.89314 lineto
81.1704 83.89574 lineto
81.31204 83.89876 lineto
81.4537 83.90352 lineto
81.59535 83.90785 lineto
81.73701 83.91217 lineto
81.87866 83.91606 lineto
82.02032 83.91953 lineto
82.16197 83.92255 lineto
82.30363 83.92818 lineto
82.44528 83.93077 lineto
82.58694 83.93553 lineto
82.72859 83.93726 lineto
82.87024 83.94159 lineto
83.0119 83.94504 lineto
83.15355 83.94894 lineto
83.29521 83.95197 lineto
83.43686 83.9576 lineto
83.57852 83.96019 lineto
83.72017 83.96494 lineto
83.86183 83.96667 lineto
84.00348 83.971 lineto
84.14514 83.97488 lineto
84.28679 83.97879 lineto
84.42845 83.98181 lineto
84.5701 83.98483 lineto
84.71176 83.98743 lineto
84.85341 83.99263 lineto
84.99506 83.99478 lineto
85.13672 83.99911 lineto
85.27837 84.00343 lineto
85.42003 84.0069 lineto
85.56168 84.01079 lineto
85.70334 84.01382 lineto
85.84499 84.01685 lineto
85.98665 84.01944 lineto
86.1283 84.0242 lineto
86.26996 84.02637 lineto
86.4116 84.03069 lineto
86.55327 84.03241 lineto
86.69492 84.03632 lineto
86.83658 84.03976 lineto
86.97823 84.0428 lineto
87.11989 84.04582 lineto
87.26154 84.04842 lineto
87.40318 84.0536 lineto
87.54485 84.05577 lineto
87.6865 84.05751 lineto
87.82816 84.06183 lineto
87.9698 84.06572 lineto
88.11147 84.06961 lineto
88.25311 84.07005 lineto
88.39478 84.0735 lineto
88.53642 84.0761 lineto
88.67809 84.0813 lineto
88.81973 84.0839 lineto
88.9614 84.08562 lineto
89.10304 84.09038 lineto
89.2447 84.09167 lineto
89.38635 84.09557 lineto
89.528 84.09946 lineto
89.66966 84.1025 lineto
89.81131 84.10594 lineto
89.95297 84.10854 lineto
90.09462 84.11115 lineto
90.23628 84.1133 lineto
90.37793 84.11546 lineto
90.51959 84.12022 lineto
90.66124 84.12152 lineto
90.8029 84.12541 lineto
90.94455 84.12671 lineto
91.08621 84.13017 lineto
91.22786 84.1332 lineto
91.36952 84.13623 lineto
91.51117 84.13882 lineto
91.65282 84.14142 lineto
91.79448 84.14359 lineto
91.93613 84.14833 lineto
92.07779 84.15007 lineto
92.21944 84.15137 lineto
92.3611 84.15526 lineto
92.50275 84.15915 lineto
92.64441 84.16002 lineto
92.78606 84.16304 lineto
92.92772 84.16608 lineto
93.06937 84.16867 lineto
93.21103 84.17126 lineto
93.35268 84.17342 lineto
93.49434 84.17558 lineto
93.63599 84.17992 lineto
93.77763 84.18164 lineto
93.9193 84.18553 lineto
94.06094 84.1864 lineto
94.2026 84.19029 lineto
94.34425 84.19072 lineto
94.48592 84.19376 lineto
94.62756 84.19635 lineto
94.76923 84.19937 lineto
94.91087 84.20154 lineto
95.05254 84.2037 lineto
95.19418 84.20543 lineto
95.33585 84.21019 lineto
95.4775 84.21149 lineto
95.61916 84.2158 lineto
95.7608 84.21667 lineto
95.90245 84.22014 lineto
96.04411 84.22057 lineto
96.18576 84.22403 lineto
96.32742 84.22662 lineto
96.46907 84.22964 lineto
96.61073 84.23181 lineto
96.75238 84.23398 lineto
96.89404 84.23615 lineto
97.03569 84.23787 lineto
97.17735 84.2396 lineto
97.319 84.2435 lineto
97.46066 84.2448 lineto
97.60231 84.24869 lineto
97.74397 84.24911 lineto
97.88562 84.25258 lineto
98.02728 84.2556 lineto
98.16893 84.2556 lineto
98.31058 84.2582 lineto
98.45224 84.26079 lineto
98.59389 84.26295 lineto
98.73555 84.2647 lineto
98.8772 84.26642 lineto
99.01886 84.27118 lineto
99.1605 84.27248 lineto
99.30217 84.27377 lineto
99.44382 84.27766 lineto
99.58548 84.27809 lineto
99.72713 84.28156 lineto
99.86879 84.28198 lineto
100.01044 84.28502 lineto
100.1521 84.28761 lineto
100.29375 84.2902 lineto
100.4354 84.2928 lineto
100.57706 84.29497 lineto
100.7187 84.29669 lineto
100.86037 84.29843 lineto
101.00201 84.30016 lineto
101.14368 84.30145 lineto
101.28532 84.30232 lineto
101.42699 84.30664 lineto
101.56863 84.30707 lineto
101.7103 84.31053 lineto
101.85194 84.31097 lineto
101.9936 84.314 lineto
102.13525 84.31702 lineto
102.27692 84.31659 lineto
102.41856 84.31918 lineto
102.56021 84.32135 lineto
102.70187 84.32352 lineto
102.84352 84.32524 lineto
102.98518 84.32697 lineto
103.12683 84.32826 lineto
103.2685 84.33302 lineto
103.41014 84.3339 lineto
103.5518 84.33476 lineto
103.69345 84.33865 lineto
103.83511 84.33908 lineto
103.97676 84.34254 lineto
104.11842 84.34254 lineto
104.26007 84.34557 lineto
104.40173 84.34816 lineto
104.54338 84.34773 lineto
104.68503 84.3499 lineto
104.82669 84.3525 lineto
104.96834 84.35422 lineto
105.11 84.35596 lineto
105.25165 84.35768 lineto
105.39331 84.35898 lineto
105.53496 84.36028 lineto
105.67662 84.36461 lineto
105.81827 84.36546 lineto
105.95993 84.3659 lineto
106.10158 84.3698 lineto
106.24324 84.3698 lineto
106.38489 84.37325 lineto
106.52655 84.37282 lineto
106.6682 84.37585 lineto
106.80986 84.37845 lineto
106.9515 84.38104 lineto
107.09315 84.38017 lineto
107.23482 84.38234 lineto
107.37646 84.38406 lineto
107.51813 84.3858 lineto
107.65977 84.38753 lineto
107.80144 84.38882 lineto
107.94308 84.39314 lineto
108.08475 84.39444 lineto
108.2264 84.39488 lineto
108.36806 84.39574 lineto
108.5097 84.3992 lineto
108.65137 84.39964 lineto
108.79301 84.40309 lineto
108.93468 84.40266 lineto
109.07632 84.40569 lineto
109.21797 84.40526 lineto
109.35963 84.40785 lineto
109.50128 84.41045 lineto
109.64294 84.41261 lineto
109.78459 84.41478 lineto
109.92625 84.41304 lineto
110.0679 84.41478 lineto
110.20956 84.4165 lineto
110.35121 84.42126 lineto
110.49287 84.42256 lineto
110.63452 84.42343 lineto
110.77618 84.42429 lineto
110.91783 84.42473 lineto
111.0595 84.42862 lineto
111.20114 84.42905 lineto
111.34279 84.42905 lineto
111.48445 84.43208 lineto
111.6261 84.43208 lineto
111.76776 84.4351 lineto
111.90941 84.4377 lineto
112.05107 84.43683 lineto
112.19272 84.43942 lineto
112.33438 84.44159 lineto
112.47603 84.44376 lineto
112.61769 84.44548 lineto
112.75934 84.44722 lineto
112.901 84.44894 lineto
113.04265 84.45024 lineto
113.18431 84.45154 lineto
113.32596 84.45241 lineto stroke
 0 0.5 dtransform truncate idtransform setlinewidth pop
 [3 3 ] 0 setdash
newpath -2.83461 85.03935 moveto
113.38586 85.03935 lineto stroke
 [] 0 setdash
newpath -7.08662 0 moveto
120.47249 0 lineto stroke
newpath 116.77713 -1.5307 moveto
120.47249 0 lineto
116.77713 1.5307 lineto
 closepath
gsave fill grestore stroke
 0.5 0 dtransform exch truncate exch idtransform pop setlinewidth
newpath 0 -28.34645 moveto
0 127.55904 lineto stroke
 0 0.5 dtransform truncate idtransform setlinewidth pop
newpath 1.53036 123.86449 moveto
0 127.55904 lineto
-1.53036 123.86449 lineto
 closepath
gsave fill grestore stroke
77.10266 97.46915 moveto
(y) cmmi10 6.97382 fshow
82.70914 97.46915 moveto
(=) cmr10 6.97382 fshow
90.07031 97.46915 moveto
(`) cmmi10 6.97382 fshow
showpage
%%EOF
