input TEX;

verbatimtex
%&latex
 \documentclass[9pt]{article}
 \usepackage[latin1]{inputenc}
 \usepackage[frenchb]{babel}
 \usepackage{amsmath}
 \begin{document}
etex

outputtemplate := "asymptote_verticale.mps";
beginfig(1)
  u:=.5cm;
  v:=.5cm;

vardef func(expr x) = 1/3*(x**2+1)/(x+2)+1 enddef;

   % Graphe de la fonction

  path graphea, grapheb;  

  graphea=(-1.7u, (func (-1.7)) *v) for i=-1.69 step .01 until 4: ..(i*u, func(i) * v) endfor;
  grapheb=(-5.5u, (func (-5.5)) *v) for i=-5.49 step .01 until -2.4: ..(i*u, func(i) * v) endfor;

  draw graphea withpen pencircle scaled 1.3bp withcolor black;
  draw grapheb withpen pencircle scaled 1.3bp withcolor black;
    
  % asymptote
  draw (-2u, -4.5v)--(-2u,6.2v) dashed evenly;
	
  % Encadrement : axe, ...
  drawarrow (-6u,0)--(4.5u,0);
  drawarrow (0,-4.5v)--(0,6.5v);
  
  % Décoration : text
  draw thelabel(btex $x=a$ etex scaled .7, (-2.8u, 5.5*v));  

endfig;

end
