%!PS
%%BoundingBox: -86 -67 65 93 
%%HiResBoundingBox: -85.2894 -66.07599 64.02956 92.37602 
%%Creator: MetaPost 2.02
%%CreationDate: 2023.03.26:1733
%%Pages: 1
%*Font: cmmi10 6.97382 9.96265 61:800001
%*Font: cmr10 6.97382 9.96265 3d:8
%%BeginProlog
%%EndProlog
%%Page: 1 1
 0 0 0 setrgbcolor 0 1.3 dtransform truncate idtransform setlinewidth pop
 [] 0 setdash 1 setlinecap 1 setlinejoin 10 setmiterlimit
newpath -24.09445 75.43155 moveto
-23.9528 72.94016 lineto
-23.81114 70.6073 lineto
-23.6695 68.41824 lineto
-23.52783 66.36111 lineto
-23.38618 64.42467 lineto
-23.24452 62.59744 lineto
-23.10287 60.87184 lineto
-22.96121 59.24011 lineto
-22.81956 57.69403 lineto
-22.6779 56.22731 lineto
-22.53625 54.83434 lineto
-22.39459 53.51036 lineto
-22.25294 52.25017 lineto
-22.1113 51.04881 lineto
-21.96964 49.90347 lineto
-21.82799 48.80959 lineto
-21.68633 47.76437 lineto
-21.54468 46.76479 lineto
-21.40302 45.80803 lineto
-21.26137 44.89084 lineto
-21.1197 44.01193 lineto
-20.97806 43.16872 lineto
-20.8364 42.3588 lineto
-20.69475 41.58067 lineto
-20.55309 40.83282 lineto
-20.41144 40.11308 lineto
-20.26978 39.42017 lineto
-20.12813 38.75299 lineto
-19.98648 38.11003 lineto
-19.84482 37.48978 lineto
-19.70317 36.89159 lineto
-19.56151 36.31436 lineto
-19.41986 35.75684 lineto
-19.2782 35.2179 lineto
-19.13655 34.69756 lineto
-18.99489 34.19388 lineto
-18.85324 33.70706 lineto
-18.71158 33.23581 lineto
-18.56993 32.7795 lineto
-18.42827 32.33745 lineto
-18.28662 31.90967 lineto
-18.14496 31.49445 lineto
-18.00331 31.0924 lineto
-17.86165 30.70226 lineto
-17.72 30.32379 lineto
-17.57835 29.95657 lineto
-17.43669 29.60016 lineto
-17.29504 29.25392 lineto
-17.15338 28.91763 lineto
-17.01173 28.59128 lineto
-16.87007 28.2738 lineto
-16.72842 27.96541 lineto
-16.58676 27.66544 lineto
-16.44511 27.37392 lineto
-16.30345 27.09018 lineto
-16.1618 26.81422 lineto
-16.02014 26.54561 lineto
-15.8785 26.28436 lineto
-15.73683 26.02982 lineto
-15.59518 25.78198 lineto
-15.45354 25.54085 lineto
-15.31187 25.30576 lineto
-15.17023 25.07695 lineto
-15.02856 24.85376 lineto
-14.88692 24.63641 lineto
-14.74525 24.4247 lineto
-14.6036 24.21815 lineto
-14.46194 24.01682 lineto
-14.3203 23.82066 lineto
-14.17863 23.62926 lineto
-14.03699 23.44241 lineto
-13.89532 23.26031 lineto
-13.75368 23.08255 lineto
-13.61201 22.90932 lineto
-13.47037 22.74019 lineto
-13.32872 22.57497 lineto
-13.18706 22.41406 lineto
-13.04541 22.25684 lineto
-12.90375 22.10329 lineto
-12.7621 21.95341 lineto
-12.62044 21.80722 lineto
-12.47879 21.66426 lineto
-12.33713 21.52478 lineto
-12.19548 21.38853 lineto
-12.05382 21.25552 lineto
-11.91217 21.12555 lineto
-11.77051 20.99881 lineto
-11.62886 20.8749 lineto
-11.4872 20.75378 lineto
-11.34555 20.63548 lineto
-11.2039 20.52 lineto
-11.06224 20.4071 lineto
-10.9206 20.29703 lineto
-10.77893 20.18933 lineto
-10.63728 20.08401 lineto
-10.49562 19.98128 lineto
-10.35397 19.88072 lineto
-10.21231 19.78253 lineto
-10.07066 19.68672 lineto
-9.929 19.59308 lineto
-9.78735 19.5016 lineto
-9.64569 19.4123 lineto
-9.50404 19.32492 lineto
-9.36238 19.23949 lineto
-9.22073 19.156 lineto
-9.07907 19.07448 lineto
-8.93742 18.9951 lineto
-8.79578 18.91704 lineto
-8.65411 18.84134 lineto
-8.51247 18.76695 lineto
-8.3708 18.6945 lineto
-8.22916 18.62378 lineto
-8.0875 18.55458 lineto
-7.94585 18.48709 lineto
-7.80418 18.42114 lineto
-7.66254 18.35669 lineto
-7.52087 18.29376 lineto
-7.37923 18.23256 lineto
-7.23756 18.17242 lineto
-7.09592 18.11404 lineto
-6.95425 18.05695 lineto
-6.8126 18.00114 lineto
-6.67096 17.94666 lineto
-6.5293 17.89366 lineto
-6.38765 17.84198 lineto
-6.24599 17.79137 lineto
-6.10434 17.74207 lineto
-5.96268 17.69405 lineto
-5.82103 17.64734 lineto
-5.67937 17.6017 lineto
-5.53772 17.55716 lineto
-5.39606 17.51369 lineto
-5.25441 17.4713 lineto
-5.11275 17.4302 lineto
-4.9711 17.3902 lineto
-4.82944 17.35104 lineto
-4.68779 17.31299 lineto
-4.54614 17.27623 lineto
-4.40448 17.24011 lineto
-4.26283 17.20508 lineto
-4.12117 17.1709 lineto
-3.97952 17.13782 lineto
-3.83786 17.10559 lineto
-3.69621 17.07445 lineto
-3.55455 17.04395 lineto
-3.4129 17.01454 lineto
-3.27124 16.98578 lineto
-3.1296 16.9581 lineto
-2.98793 16.93106 lineto
-2.84628 16.90489 lineto
-2.70462 16.8796 lineto
-2.56297 16.85515 lineto
-2.42133 16.83136 lineto
-2.27966 16.80844 lineto
-2.13802 16.78616 lineto
-1.99635 16.76476 lineto
-1.8547 16.74399 lineto
-1.71304 16.72409 lineto
-1.5714 16.70485 lineto
-1.42973 16.68625 lineto
-1.28809 16.6683 lineto
-1.14642 16.651 lineto
-1.00478 16.63457 lineto
-0.86311 16.61856 lineto
-0.72147 16.60342 lineto
-0.5798 16.58871 lineto
-0.43816 16.57487 lineto
-0.29651 16.56146 lineto
-0.15485 16.5487 lineto
-0.0132 16.53659 lineto
0.12846 16.52492 lineto
0.27011 16.51389 lineto
0.41177 16.50351 lineto
0.55342 16.49377 lineto
0.69508 16.48447 lineto
0.83673 16.4756 lineto
0.9784 16.46739 lineto
1.12004 16.45982 lineto
1.2617 16.45268 lineto
1.40335 16.44598 lineto
1.54501 16.43993 lineto
1.68666 16.4343 lineto
1.82832 16.42932 lineto
1.96997 16.42456 lineto
2.11162 16.42046 lineto
2.25328 16.41678 lineto
2.39493 16.41354 lineto
2.53659 16.41093 lineto
2.67824 16.40857 lineto
2.8199 16.40683 lineto
2.96155 16.40532 lineto
3.10321 16.40445 lineto
3.24486 16.40381 lineto
3.38652 16.40381 lineto
3.52817 16.40424 lineto
3.66983 16.40489 lineto
3.81148 16.40596 lineto
3.95314 16.40749 lineto
4.09479 16.40942 lineto
4.23643 16.4118 lineto
4.3781 16.41461 lineto
4.51974 16.41786 lineto
4.6614 16.42133 lineto
4.80305 16.42522 lineto
4.94472 16.42932 lineto
5.08636 16.43387 lineto
5.22803 16.43884 lineto
5.36967 16.44424 lineto
5.51134 16.44987 lineto
5.65298 16.45592 lineto
5.79465 16.46242 lineto
5.9363 16.4689 lineto
6.07796 16.47604 lineto
6.2196 16.48338 lineto
6.36125 16.49118 lineto
6.50291 16.49918 lineto
6.64456 16.5074 lineto
6.78622 16.51605 lineto
6.92787 16.52492 lineto
7.06953 16.53421 lineto
7.21118 16.54373 lineto
7.35284 16.55368 lineto
7.49449 16.56384 lineto
7.63615 16.57422 lineto
7.7778 16.58504 lineto
7.91946 16.59607 lineto
8.06111 16.60732 lineto
8.20277 16.61899 lineto
8.34442 16.63066 lineto
8.48607 16.64278 lineto
8.62773 16.65532 lineto
8.76938 16.66786 lineto
8.91104 16.68085 lineto
9.05269 16.69403 lineto
9.19435 16.70744 lineto
9.336 16.72128 lineto
9.47766 16.73512 lineto
9.61931 16.7494 lineto
9.76097 16.76367 lineto
9.90262 16.77838 lineto
10.04428 16.7933 lineto
10.18593 16.80844 lineto
10.32759 16.824 lineto
10.46924 16.83958 lineto
10.6109 16.85536 lineto
10.75255 16.87137 lineto
10.8942 16.8878 lineto
11.03586 16.90425 lineto
11.1775 16.9209 lineto
11.31917 16.93799 lineto
11.46082 16.95528 lineto
11.60248 16.97258 lineto
11.74413 16.9901 lineto
11.88579 17.00806 lineto
12.02744 17.026 lineto
12.1691 17.04417 lineto
12.31075 17.06277 lineto
12.45241 17.08136 lineto
12.59406 17.10019 lineto
12.73572 17.11922 lineto
12.87737 17.13846 lineto
13.01901 17.15771 lineto
13.16068 17.17738 lineto
13.30232 17.19707 lineto
13.44398 17.21718 lineto
13.58563 17.23729 lineto
13.7273 17.25763 lineto
13.86894 17.27817 lineto
14.0106 17.29893 lineto
14.15225 17.31969 lineto
14.29391 17.34067 lineto
14.43556 17.36186 lineto
14.57722 17.38327 lineto
14.71887 17.4049 lineto
14.86053 17.42674 lineto
15.00218 17.4486 lineto
15.14383 17.47064 lineto
15.28549 17.4927 lineto
15.42714 17.5152 lineto
15.5688 17.53769 lineto
15.71045 17.5604 lineto
15.85211 17.58333 lineto
15.99376 17.60625 lineto
16.13542 17.62938 lineto
16.27707 17.65295 lineto
16.41873 17.67632 lineto
16.56038 17.69989 lineto
16.70204 17.72368 lineto
16.84369 17.74768 lineto
16.98535 17.77168 lineto
17.127 17.79591 lineto
17.26865 17.82034 lineto
17.41031 17.84479 lineto
17.55196 17.86945 lineto
17.69362 17.89409 lineto
17.83527 17.91919 lineto
17.97693 17.94405 lineto
18.11858 17.96936 lineto
18.26024 17.99466 lineto
18.40189 18.02017 lineto
18.54355 18.0457 lineto
18.6852 18.07144 lineto
18.82686 18.09717 lineto
18.9685 18.12312 lineto
19.11017 18.14929 lineto
19.25182 18.17546 lineto
19.39346 18.20184 lineto
19.53513 18.22823 lineto
19.67677 18.25482 lineto
19.81844 18.28165 lineto
19.96008 18.30846 lineto
20.10175 18.3355 lineto
20.2434 18.36253 lineto
20.38506 18.38979 lineto
20.5267 18.41702 lineto
20.66837 18.44427 lineto
20.81001 18.47195 lineto
20.95168 18.49965 lineto
21.09332 18.52733 lineto
21.23499 18.55522 lineto
21.37663 18.58311 lineto
21.5183 18.61124 lineto
21.65994 18.63957 lineto
21.80159 18.66768 lineto
21.94325 18.69623 lineto
22.0849 18.72478 lineto
22.22656 18.75333 lineto
22.36821 18.78209 lineto
22.50987 18.81085 lineto
22.65152 18.83983 lineto
22.79318 18.8688 lineto
22.93483 18.89801 lineto
23.07649 18.9272 lineto
23.21814 18.95662 lineto
23.3598 18.98602 lineto
23.50145 19.01544 lineto
23.64311 19.04506 lineto
23.78476 19.0749 lineto
23.9264 19.10475 lineto
24.06807 19.1346 lineto
24.20972 19.16466 lineto
24.35138 19.19472 lineto
24.49303 19.22478 lineto
24.63469 19.25507 lineto
24.77634 19.28555 lineto
24.918 19.31604 lineto
25.05965 19.34654 lineto
25.20131 19.37703 lineto
25.34296 19.40796 lineto
25.48462 19.43867 lineto
25.62627 19.46959 lineto
25.76793 19.50052 lineto
25.90958 19.53166 lineto
26.05122 19.5628 lineto
26.19289 19.59395 lineto
26.33453 19.6253 lineto
26.4762 19.65666 lineto
26.61784 19.68825 lineto
26.7595 19.71982 lineto
26.90115 19.75139 lineto
27.04282 19.78296 lineto
27.18446 19.81497 lineto
27.32613 19.84677 lineto
27.46777 19.87877 lineto
27.60944 19.91078 lineto
27.75108 19.9428 lineto
27.89275 19.975 lineto
28.0344 20.00723 lineto
28.17604 20.03967 lineto
28.3177 20.07211 lineto
28.45935 20.10455 lineto
28.60101 20.137 lineto
28.74266 20.16965 lineto
28.88432 20.20253 lineto
29.02597 20.23518 lineto
29.16763 20.26805 lineto
29.30928 20.30092 lineto
29.45094 20.33401 lineto
29.59259 20.3671 lineto
29.73425 20.40019 lineto
29.8759 20.43327 lineto
30.01756 20.46658 lineto
30.15921 20.4999 lineto
30.30087 20.53319 lineto
30.44252 20.56671 lineto
30.58417 20.60023 lineto
30.72583 20.63397 lineto
30.86748 20.6675 lineto
31.00914 20.70123 lineto
31.15079 20.73497 lineto
31.29245 20.76892 lineto
31.4341 20.80287 lineto
31.57576 20.83684 lineto
31.7174 20.87079 lineto
31.85907 20.90495 lineto
32.00072 20.93913 lineto
32.14238 20.9733 lineto
32.28403 21.00769 lineto
32.42569 21.04207 lineto
32.56734 21.07646 lineto
32.70898 21.11084 lineto
32.85065 21.14545 lineto
32.9923 21.18005 lineto
33.13396 21.21465 lineto
33.2756 21.24925 lineto
33.41727 21.28407 lineto
33.55891 21.3189 lineto
33.70058 21.35371 lineto
33.84222 21.38875 lineto
33.98389 21.42357 lineto
34.12553 21.45882 lineto
34.2672 21.49385 lineto
34.40884 21.52888 lineto
34.5505 21.56413 lineto
34.69215 21.59938 lineto
34.8338 21.63464 lineto
34.97546 21.6701 lineto
35.11711 21.70558 lineto
35.25877 21.74104 lineto
35.40042 21.7765 lineto
35.54208 21.81198 lineto
35.68373 21.84766 lineto
35.8254 21.88335 lineto
35.96704 21.91904 lineto
36.1087 21.95493 lineto
36.25035 21.99062 lineto
36.39201 22.02652 lineto
36.53366 22.06241 lineto
36.67532 22.09853 lineto
36.81697 22.13443 lineto
36.95862 22.17055 lineto
37.10028 22.20667 lineto
37.24193 22.24278 lineto
37.38359 22.27911 lineto
37.52524 22.31523 lineto
37.6669 22.35156 lineto
37.80855 22.3879 lineto
37.95021 22.42444 lineto
38.09186 22.46077 lineto
38.23352 22.49733 lineto
38.37517 22.53387 lineto
38.51683 22.57042 lineto
38.65848 22.6072 lineto
38.80014 22.64374 lineto
38.94179 22.6805 lineto
39.08345 22.71727 lineto
39.2251 22.75403 lineto
39.36674 22.7908 lineto
39.5084 22.82777 lineto
39.65005 22.86476 lineto
39.79172 22.90175 lineto
39.93336 22.93872 lineto
40.07503 22.97592 lineto
40.21667 23.01291 lineto
40.35834 23.05011 lineto
40.49998 23.0873 lineto
40.64165 23.1245 lineto
40.7833 23.1617 lineto
40.92496 23.19911 lineto
41.0666 23.23653 lineto
41.20827 23.27394 lineto
41.34991 23.31136 lineto
41.49156 23.34877 lineto
41.63322 23.38618 lineto
41.77487 23.42381 lineto
41.91653 23.46144 lineto
42.05818 23.49907 lineto
42.19984 23.5367 lineto
42.34149 23.57433 lineto
42.48315 23.61218 lineto
42.6248 23.65002 lineto
42.76646 23.68787 lineto
42.90811 23.72572 lineto
43.04977 23.76357 lineto
43.19142 23.8014 lineto
43.33308 23.83948 lineto
43.47473 23.87732 lineto
43.61638 23.91539 lineto
43.75804 23.95345 lineto
43.89969 23.99173 lineto
44.04135 24.02979 lineto
44.183 24.06807 lineto
44.32466 24.10612 lineto
44.46631 24.14441 lineto
44.60797 24.1827 lineto
44.74962 24.22096 lineto
44.89128 24.25946 lineto
45.03293 24.29796 lineto
45.17459 24.33624 lineto
45.31624 24.37474 lineto
45.4579 24.41322 lineto
45.59955 24.45172 lineto
45.7412 24.49022 lineto
45.88286 24.52893 lineto
46.0245 24.56743 lineto
46.16617 24.60614 lineto
46.30782 24.64485 lineto
46.44948 24.68356 lineto
46.59113 24.72227 lineto
46.73279 24.7612 lineto
46.87444 24.79991 lineto
47.0161 24.83884 lineto
47.15775 24.87778 lineto
47.29941 24.9167 lineto
47.44106 24.95563 lineto
47.58272 24.99455 lineto
47.72437 25.03348 lineto
47.86601 25.07263 lineto
48.00768 25.11177 lineto
48.14932 25.1507 lineto
48.29099 25.18983 lineto
48.43263 25.22899 lineto
48.5743 25.26813 lineto
48.71594 25.3075 lineto
48.8576 25.34663 lineto
48.99925 25.386 lineto
49.14091 25.42535 lineto
49.28256 25.4645 lineto
49.42422 25.50386 lineto
49.56587 25.54344 lineto
49.70753 25.5828 lineto
49.84918 25.62216 lineto
49.99084 25.66173 lineto
50.13249 25.7011 lineto
50.27414 25.74068 lineto
50.4158 25.78024 lineto
50.55745 25.81982 lineto
50.69911 25.8594 lineto
50.84076 25.8992 lineto
50.98242 25.93877 lineto
51.12407 25.97856 lineto
51.26573 26.01814 lineto
51.40738 26.05794 lineto
51.54904 26.09773 lineto
51.69069 26.13753 lineto
51.83235 26.1773 lineto
51.974 26.2171 lineto
52.11566 26.25711 lineto
52.25731 26.2969 lineto
52.39896 26.33691 lineto
52.54062 26.37692 lineto
52.68227 26.41693 lineto
52.82393 26.45694 lineto
52.96558 26.49696 lineto
53.10724 26.53697 lineto
53.24889 26.57698 lineto
53.39055 26.6172 lineto
53.5322 26.65721 lineto
53.67386 26.69743 lineto
53.8155 26.73766 lineto
53.95717 26.7779 lineto
54.09882 26.81812 lineto
54.24048 26.85834 lineto
54.38213 26.89856 lineto
54.52377 26.93878 lineto
54.66544 26.97923 lineto
54.80708 27.01945 lineto
54.94875 27.05989 lineto
55.0904 27.10034 lineto
55.23206 27.14078 lineto
55.3737 27.18123 lineto
55.51537 27.22166 lineto
55.65701 27.2621 lineto
55.79868 27.30255 lineto
55.94032 27.3432 lineto
56.08199 27.38365 lineto
56.22363 27.4243 lineto
56.3653 27.46497 lineto
56.50694 27.5054 lineto
56.64859 27.54607 lineto stroke
newpath -77.95279 -28.00844 moveto
-77.81113 -27.98055 lineto
-77.66948 -27.95265 lineto
-77.52782 -27.92496 lineto
-77.38617 -27.89749 lineto
-77.2445 -27.87003 lineto
-77.10286 -27.84279 lineto
-76.9612 -27.81554 lineto
-76.81955 -27.7885 lineto
-76.67789 -27.76146 lineto
-76.53624 -27.73465 lineto
-76.39458 -27.70782 lineto
-76.25293 -27.68123 lineto
-76.11127 -27.65485 lineto
-75.96962 -27.62846 lineto
-75.82796 -27.60208 lineto
-75.68631 -27.57613 lineto
-75.54466 -27.54996 lineto
-75.403 -27.52422 lineto
-75.26135 -27.49849 lineto
-75.11969 -27.47275 lineto
-74.97804 -27.44724 lineto
-74.83638 -27.42192 lineto
-74.69473 -27.39684 lineto
-74.55307 -27.37175 lineto
-74.41142 -27.34666 lineto
-74.26976 -27.322 lineto
-74.12811 -27.29736 lineto
-73.98645 -27.2727 lineto
-73.8448 -27.24847 lineto
-73.70314 -27.22426 lineto
-73.5615 -27.20004 lineto
-73.41985 -27.17625 lineto
-73.27818 -27.15247 lineto
-73.13654 -27.12868 lineto
-72.99487 -27.1051 lineto
-72.85323 -27.08195 lineto
-72.71156 -27.0586 lineto
-72.56992 -27.03568 lineto
-72.42825 -27.01276 lineto
-72.2866 -26.99004 lineto
-72.14494 -26.96733 lineto
-72.0033 -26.94505 lineto
-71.86163 -26.92279 lineto
-71.71999 -26.90073 lineto
-71.57832 -26.87866 lineto
-71.43668 -26.85704 lineto
-71.29503 -26.83542 lineto
-71.15337 -26.814 lineto
-71.01172 -26.7928 lineto
-70.87006 -26.77162 lineto
-70.72841 -26.75064 lineto
-70.58675 -26.73009 lineto
-70.4451 -26.70934 lineto
-70.30344 -26.689 lineto
-70.16179 -26.66888 lineto
-70.02013 -26.64877 lineto
-69.87848 -26.62909 lineto
-69.73682 -26.60942 lineto
-69.59517 -26.58995 lineto
-69.4535 -26.57071 lineto
-69.31186 -26.55167 lineto
-69.17021 -26.53285 lineto
-69.02855 -26.51425 lineto
-68.8869 -26.49565 lineto
-68.74524 -26.4775 lineto
-68.60359 -26.45932 lineto
-68.46193 -26.44159 lineto
-68.32028 -26.42386 lineto
-68.17862 -26.40656 lineto
-68.03697 -26.38925 lineto
-67.89531 -26.37218 lineto
-67.75366 -26.35551 lineto
-67.612 -26.33887 lineto
-67.47035 -26.32265 lineto
-67.32869 -26.30643 lineto
-67.18704 -26.29042 lineto
-67.04538 -26.27486 lineto
-66.90373 -26.25949 lineto
-66.76208 -26.24414 lineto
-66.62042 -26.22922 lineto
-66.47878 -26.21451 lineto
-66.33711 -26.20003 lineto
-66.19547 -26.18575 lineto
-66.0538 -26.1719 lineto
-65.91216 -26.15807 lineto
-65.7705 -26.14465 lineto
-65.62885 -26.13147 lineto
-65.48718 -26.11848 lineto
-65.34554 -26.10573 lineto
-65.20387 -26.0934 lineto
-65.06223 -26.08107 lineto
-64.92056 -26.06918 lineto
-64.77892 -26.05772 lineto
-64.63727 -26.04625 lineto
-64.4956 -26.03523 lineto
-64.35396 -26.02441 lineto
-64.2123 -26.01382 lineto
-64.07065 -26.00365 lineto
-63.92899 -25.9937 lineto
-63.78734 -25.98419 lineto
-63.64568 -25.97488 lineto
-63.50403 -25.9658 lineto
-63.36237 -25.95715 lineto
-63.22072 -25.94872 lineto
-63.07906 -25.94072 lineto
-62.93741 -25.93294 lineto
-62.79575 -25.92558 lineto
-62.6541 -25.91844 lineto
-62.51245 -25.91174 lineto
-62.37079 -25.90526 lineto
-62.22914 -25.8992 lineto
-62.08748 -25.89357 lineto
-61.94583 -25.88817 lineto
-61.80417 -25.88298 lineto
-61.66252 -25.87843 lineto
-61.52086 -25.87411 lineto
-61.37921 -25.87021 lineto
-61.23755 -25.86655 lineto
-61.0959 -25.8633 lineto
-60.95424 -25.86049 lineto
-60.81259 -25.85811 lineto
-60.67093 -25.85616 lineto
-60.52928 -25.85443 lineto
-60.38763 -25.85335 lineto
-60.24597 -25.85248 lineto
-60.10432 -25.85205 lineto
-59.96266 -25.85205 lineto
-59.82101 -25.85248 lineto
-59.67935 -25.85335 lineto
-59.5377 -25.85464 lineto
-59.39604 -25.85637 lineto
-59.2544 -25.85854 lineto
-59.11273 -25.86134 lineto
-58.97108 -25.86438 lineto
-58.82942 -25.86806 lineto
-58.68777 -25.87216 lineto
-58.54611 -25.87671 lineto
-58.40446 -25.88168 lineto
-58.2628 -25.88708 lineto
-58.12115 -25.89314 lineto
-57.9795 -25.89963 lineto
-57.83784 -25.90677 lineto
-57.6962 -25.91434 lineto
-57.55453 -25.92255 lineto
-57.41289 -25.9312 lineto
-57.27122 -25.94029 lineto
-57.12958 -25.95001 lineto
-56.98792 -25.9604 lineto
-56.84627 -25.9712 lineto
-56.7046 -25.98268 lineto
-56.56296 -25.99478 lineto
-56.4213 -26.00732 lineto
-56.27965 -26.02074 lineto
-56.13799 -26.03458 lineto
-55.99634 -26.04886 lineto
-55.85469 -26.064 lineto
-55.71303 -26.08 lineto
-55.57138 -26.09644 lineto
-55.42972 -26.11351 lineto
-55.28807 -26.13126 lineto
-55.14641 -26.14963 lineto
-55.00476 -26.16888 lineto
-54.8631 -26.18878 lineto
-54.72145 -26.20932 lineto
-54.57979 -26.23073 lineto
-54.43814 -26.25279 lineto
-54.29648 -26.2755 lineto
-54.15483 -26.29907 lineto
-54.01317 -26.32352 lineto
-53.87152 -26.34882 lineto
-53.72987 -26.37454 lineto
-53.58821 -26.40137 lineto
-53.44656 -26.42905 lineto
-53.3049 -26.4576 lineto
-53.16325 -26.48701 lineto
-53.02159 -26.51707 lineto
-52.87994 -26.54843 lineto
-52.73828 -26.58043 lineto
-52.59663 -26.61331 lineto
-52.45497 -26.64726 lineto
-52.31332 -26.68208 lineto
-52.17166 -26.71776 lineto
-52.03001 -26.75475 lineto
-51.88835 -26.79259 lineto
-51.7467 -26.83153 lineto
-51.60506 -26.8713 lineto
-51.4634 -26.9124 lineto
-51.32175 -26.95436 lineto
-51.18008 -26.99762 lineto
-51.03844 -27.04195 lineto
-50.89677 -27.08736 lineto
-50.75513 -27.13408 lineto
-50.61346 -27.18187 lineto
-50.47182 -27.23074 lineto
-50.33015 -27.28114 lineto
-50.1885 -27.33261 lineto
-50.04684 -27.38559 lineto
-49.9052 -27.43988 lineto
-49.76353 -27.49524 lineto
-49.62189 -27.55212 lineto
-49.48024 -27.61029 lineto
-49.33858 -27.66998 lineto
-49.19693 -27.73119 lineto
-49.05527 -27.79369 lineto
-48.91362 -27.85793 lineto
-48.77196 -27.92366 lineto
-48.63031 -27.99092 lineto
-48.48865 -28.0597 lineto
-48.347 -28.1302 lineto
-48.20534 -28.20221 lineto
-48.06369 -28.2764 lineto
-47.92203 -28.35187 lineto
-47.78038 -28.42952 lineto
-47.63872 -28.50867 lineto
-47.49707 -28.58977 lineto
-47.35541 -28.6728 lineto
-47.21376 -28.75803 lineto
-47.07211 -28.84496 lineto
-46.93045 -28.93407 lineto
-46.7888 -29.02512 lineto
-46.64714 -29.11853 lineto
-46.5055 -29.21391 lineto
-46.36383 -29.31166 lineto
-46.22218 -29.41158 lineto
-46.08052 -29.51408 lineto
-45.93887 -29.61897 lineto
-45.79721 -29.72624 lineto
-45.65556 -29.83589 lineto
-45.5139 -29.94835 lineto
-45.37225 -30.0634 lineto
-45.23059 -30.18106 lineto
-45.08894 -30.30173 lineto
-44.9473 -30.42522 lineto
-44.80563 -30.55151 lineto
-44.66399 -30.68085 lineto
-44.52232 -30.8132 lineto
-44.38068 -30.9488 lineto
-44.23901 -31.08765 lineto
-44.09737 -31.22995 lineto
-43.9557 -31.3757 lineto
-43.81406 -31.52493 lineto
-43.6724 -31.67761 lineto
-43.53075 -31.83441 lineto
-43.38908 -31.99466 lineto
-43.24744 -32.15924 lineto
-43.10577 -32.3275 lineto
-42.96413 -32.50008 lineto
-42.82248 -32.67699 lineto
-42.68082 -32.85843 lineto
-42.53917 -33.0442 lineto
-42.3975 -33.23495 lineto
-42.25586 -33.43045 lineto
-42.1142 -33.63072 lineto
-41.97255 -33.8364 lineto
-41.83089 -34.04724 lineto
-41.68924 -34.26352 lineto
-41.54758 -34.48563 lineto
-41.40593 -34.71356 lineto
-41.26427 -34.94757 lineto
-41.12262 -35.18762 lineto
-40.98096 -35.43416 lineto
-40.83931 -35.6872 lineto
-40.69766 -35.94736 lineto
-40.556 -36.21489 lineto
-40.41435 -36.48933 lineto
-40.27269 -36.77156 lineto
-40.13104 -37.062 lineto
-39.98938 -37.36044 lineto
-39.84773 -37.66733 lineto
-39.70607 -37.98308 lineto
-39.56442 -38.3079 lineto
-39.42276 -38.64247 lineto
-39.28111 -38.98677 lineto
-39.13945 -39.34145 lineto
-38.9978 -39.70673 lineto
-38.85614 -40.08324 lineto
-38.7145 -40.47122 lineto
-38.57283 -40.87154 lineto
-38.43118 -41.28395 lineto
-38.28954 -41.70978 lineto
-38.14787 -42.14902 lineto
-38.00623 -42.60275 lineto
-37.86456 -43.0714 lineto
-37.72292 -43.55562 lineto
-37.58125 -44.05606 lineto
-37.4396 -44.57358 lineto
-37.29794 -45.10905 lineto
-37.1563 -45.66313 lineto
-37.01463 -46.2369 lineto
-36.87299 -46.8314 lineto
-36.73132 -47.44754 lineto
-36.58968 -48.08661 lineto
-36.44801 -48.74947 lineto
-36.30637 -49.43762 lineto
-36.16472 -50.1526 lineto
-36.02306 -50.89569 lineto
-35.88141 -51.6682 lineto
-35.73975 -52.47249 lineto
-35.5981 -53.30966 lineto
-35.45644 -54.18208 lineto
-35.31479 -55.09213 lineto
-35.17313 -56.04198 lineto
-35.03148 -57.03398 lineto
-34.88982 -58.0712 lineto
-34.74817 -59.15599 lineto
-34.6065 -60.29225 lineto
-34.46486 -61.48323 lineto
-34.3232 -62.73282 lineto
-34.18155 -64.04556 lineto
-34.0399 -65.42598 lineto stroke
 0.5 0 dtransform exch truncate exch idtransform pop setlinewidth
 [3 3 ] 0 setdash
newpath -28.34647 -63.77956 moveto
-28.34647 87.87401 lineto stroke
 0 0.5 dtransform truncate idtransform setlinewidth pop [] 0 setdash
newpath -85.0394 0 moveto
63.77956 0 lineto stroke
newpath 60.08508 -1.53033 moveto
63.77956 0 lineto
60.08508 1.53033 lineto
 closepath
gsave fill grestore stroke
 0.5 0 dtransform exch truncate exch idtransform pop setlinewidth
newpath 0 -63.77956 moveto
0 92.12602 lineto stroke
 0 0.5 dtransform truncate idtransform setlinewidth pop
newpath 1.53036 88.43147 moveto
0 92.12602 lineto
-1.53036 88.43147 lineto
 closepath
gsave fill grestore stroke
-48.17029 76.45146 moveto
(x) cmmi10 6.97382 fshow
-42.2474 76.45146 moveto
(=) cmr10 6.97382 fshow
-34.88625 76.45146 moveto
(a) cmmi10 6.97382 fshow
showpage
%%EOF
