%!PS
%%BoundingBox: -22 -36 121 121 
%%HiResBoundingBox: -21.90987 -35.68309 120.72249 120.72249 
%%Creator: MetaPost 2.02
%%CreationDate: 2023.03.26:1733
%%Pages: 1
%*Font: cmmi10 6.97382 9.96265 61:c000018
%*Font: cmr10 6.97382 9.96265 2b:80002
%%BeginProlog
%%EndProlog
%%Page: 1 1
 0 0 0 setrgbcolor 0 1.3 dtransform truncate idtransform setlinewidth pop
 [] 0 setdash 1 setlinecap 1 setlinejoin 10 setmiterlimit
newpath -21.25986 92.12602 moveto
-21.1182 89.49037 lineto
-20.97655 86.96092 lineto
-20.83488 84.53268 lineto
-20.69324 82.19939 lineto
-20.55157 79.95605 lineto
-20.40993 77.79793 lineto
-20.26826 75.72026 lineto
-20.12662 73.71915 lineto
-19.98495 71.79071 lineto
-19.8433 69.93146 lineto
-19.70164 68.13731 lineto
-19.56 66.4061 lineto
-19.41833 64.73372 lineto
-19.27669 63.11842 lineto
-19.13503 61.55719 lineto
-18.99338 60.04744 lineto
-18.85173 58.58699 lineto
-18.71007 57.17348 lineto
-18.56842 55.80516 lineto
-18.42676 54.48009 lineto
-18.28511 53.19612 lineto
-18.14345 51.95172 lineto
-18.0018 50.74539 lineto
-17.86014 49.5756 lineto
-17.71849 48.44064 lineto
-17.57683 47.33897 lineto
-17.43518 46.26997 lineto
-17.29352 45.2319 lineto
-17.15187 44.22388 lineto
-17.01021 43.24442 lineto
-16.86856 42.2924 lineto
-16.72691 41.36743 lineto
-16.58525 40.46776 lineto
-16.4436 39.59319 lineto
-16.30194 38.74239 lineto
-16.1603 37.91473 lineto
-16.01863 37.10936 lineto
-15.87698 36.3254 lineto
-15.73532 35.5622 lineto
-15.59367 34.81932 lineto
-15.45201 34.0959 lineto
-15.31036 33.39088 lineto
-15.1687 32.70424 lineto
-15.02705 32.03554 lineto
-14.88539 31.3835 lineto
-14.74374 30.74811 lineto
-14.6021 30.12872 lineto
-14.46043 29.5249 lineto
-14.31879 28.93622 lineto
-14.17712 28.36203 lineto
-14.03548 27.80191 lineto
-13.89381 27.25562 lineto
-13.75217 26.72296 lineto
-13.6105 26.20305 lineto
-13.46886 25.6957 lineto
-13.3272 25.20065 lineto
-13.18555 24.7173 lineto
-13.04388 24.24583 lineto
-12.90224 23.78542 lineto
-12.76057 23.33601 lineto
-12.61893 22.8972 lineto
-12.47728 22.46878 lineto
-12.33562 22.05052 lineto
-12.19397 21.642 lineto
-12.0523 21.2432 lineto
-11.91066 20.85349 lineto
-11.769 20.47307 lineto
-11.62735 20.1013 lineto
-11.48569 19.7382 lineto
-11.34404 19.38353 lineto
-11.20238 19.03706 lineto
-11.06073 18.69882 lineto
-10.91907 18.36815 lineto
-10.77742 18.04504 lineto
-10.63576 17.72952 lineto
-10.49411 17.42113 lineto
-10.35245 17.11986 lineto
-10.2108 16.8253 lineto
-10.06915 16.53789 lineto
-9.92749 16.25696 lineto
-9.78584 15.9823 lineto
-9.64418 15.71413 lineto
-9.50253 15.45201 lineto
-9.36087 15.19595 lineto
-9.21922 14.94595 lineto
-9.07756 14.70157 lineto
-8.93591 14.46281 lineto
-8.79425 14.22946 lineto
-8.6526 14.00174 lineto
-8.51094 13.77919 lineto
-8.3693 13.56184 lineto
-8.22763 13.34947 lineto
-8.08598 13.14207 lineto
-7.94434 12.93944 lineto
-7.80267 12.74155 lineto
-7.66103 12.54865 lineto
-7.51936 12.35983 lineto
-7.37772 12.1758 lineto
-7.23605 11.99608 lineto
-7.0944 11.82047 lineto
-6.95274 11.64919 lineto
-6.8111 11.48222 lineto
-6.66943 11.31895 lineto
-6.52779 11.15977 lineto
-6.38612 11.0045 lineto
-6.24448 10.85289 lineto
-6.10281 10.7054 lineto
-5.96117 10.56116 lineto
-5.81952 10.42079 lineto
-5.67786 10.28368 lineto
-5.53621 10.15025 lineto
-5.39455 10.02005 lineto
-5.2529 9.89333 lineto
-5.11124 9.76984 lineto
-4.96959 9.64958 lineto
-4.82793 9.53238 lineto
-4.68628 9.4184 lineto
-4.54462 9.30745 lineto
-4.40297 9.19954 lineto
-4.2613 9.09444 lineto
-4.11966 8.99214 lineto
-3.978 8.89287 lineto
-3.83635 8.79642 lineto
-3.6947 8.70235 lineto
-3.55304 8.6113 lineto
-3.41139 8.52284 lineto
-3.26973 8.43698 lineto
-3.12808 8.3535 lineto
-2.98642 8.27284 lineto
-2.84477 8.19455 lineto
-2.70311 8.11864 lineto
-2.56146 8.0451 lineto
-2.4198 7.97374 lineto
-2.27815 7.90497 lineto
-2.13649 7.83836 lineto
-1.99484 7.77412 lineto
-1.85318 7.71184 lineto
-1.71153 7.65193 lineto
-1.56987 7.5942 lineto
-1.42822 7.53839 lineto
-1.28658 7.48476 lineto
-1.14491 7.43307 lineto
-1.00327 7.38333 lineto
-0.8616 7.33575 lineto
-0.71996 7.29013 lineto
-0.5783 7.24622 lineto
-0.43665 7.20427 lineto
-0.29498 7.16426 lineto
-0.15334 7.12598 lineto
-0.01167 7.08965 lineto
0.12997 7.05482 lineto
0.27164 7.02196 lineto
0.41328 6.99081 lineto
0.55495 6.96118 lineto
0.6966 6.93329 lineto
0.83824 6.90712 lineto
0.9799 6.88246 lineto
1.12155 6.85954 lineto
1.26321 6.83812 lineto
1.40486 6.81824 lineto
1.54652 6.80006 lineto
1.68817 6.78319 lineto
1.82983 6.76784 lineto
1.97148 6.754 lineto
2.11314 6.74167 lineto
2.25479 6.73064 lineto
2.39645 6.72113 lineto
2.5381 6.7129 lineto
2.67976 6.706 lineto
2.82141 6.70058 lineto
2.96306 6.69626 lineto
3.10472 6.69366 lineto
3.24637 6.69193 lineto
3.38803 6.69171 lineto
3.52968 6.6928 lineto
3.67134 6.69496 lineto
3.81299 6.69843 lineto
3.95465 6.70317 lineto
4.0963 6.70901 lineto
4.23796 6.71616 lineto
4.37961 6.72437 lineto
4.52127 6.73367 lineto
4.66292 6.74426 lineto
4.80458 6.75595 lineto
4.94623 6.7687 lineto
5.08788 6.78233 lineto
5.22954 6.79747 lineto
5.37119 6.81326 lineto
5.51285 6.83034 lineto
5.6545 6.84851 lineto
5.79616 6.86754 lineto
5.9378 6.88765 lineto
6.07947 6.90884 lineto
6.22112 6.93091 lineto
6.36278 6.95383 lineto
6.50443 6.97806 lineto
6.64609 7.00291 lineto
6.78773 7.02887 lineto
6.9294 7.0557 lineto
7.07104 7.08359 lineto
7.21269 7.11214 lineto
7.35435 7.14177 lineto
7.496 7.17226 lineto
7.63766 7.20361 lineto
7.77931 7.23584 lineto
7.92097 7.26894 lineto
8.06262 7.30267 lineto
8.20428 7.33748 lineto
8.34593 7.37296 lineto
8.4876 7.4095 lineto
8.62924 7.4467 lineto
8.7709 7.48454 lineto
8.91255 7.52347 lineto
9.05421 7.56284 lineto
9.19586 7.60327 lineto
9.33752 7.64436 lineto
9.47917 7.68633 lineto
9.62082 7.72871 lineto
9.76248 7.77219 lineto
9.90413 7.81609 lineto
10.04579 7.86086 lineto
10.18744 7.90648 lineto
10.3291 7.95255 lineto
10.47075 7.99948 lineto
10.61241 8.04706 lineto
10.75406 8.09528 lineto
10.89572 8.14417 lineto
11.03737 8.1939 lineto
11.17903 8.24408 lineto
11.32068 8.29512 lineto
11.46234 8.34659 lineto
11.60399 8.39871 lineto
11.74564 8.45169 lineto
11.8873 8.50511 lineto
12.02895 8.55917 lineto
12.17061 8.61368 lineto
12.31226 8.66904 lineto
12.45392 8.72484 lineto
12.59557 8.7815 lineto
12.73723 8.8386 lineto
12.87888 8.89612 lineto
13.02054 8.9543 lineto
13.16219 9.01312 lineto
13.30385 9.07259 lineto
13.4455 9.13249 lineto
13.58716 9.19284 lineto
13.7288 9.25381 lineto
13.87045 9.31546 lineto
14.01212 9.37753 lineto
14.15376 9.44025 lineto
14.29543 9.50339 lineto
14.43707 9.56697 lineto
14.57874 9.63121 lineto
14.72038 9.69588 lineto
14.86205 9.76097 lineto
15.0037 9.8267 lineto
15.14536 9.89288 lineto
15.287 9.95972 lineto
15.42867 10.02676 lineto
15.57031 10.09445 lineto
15.71198 10.16257 lineto
15.85362 10.23112 lineto
15.99527 10.30013 lineto
16.13693 10.36975 lineto
16.27858 10.4396 lineto
16.42024 10.51012 lineto
16.56189 10.58105 lineto
16.70355 10.65242 lineto
16.8452 10.72421 lineto
16.98686 10.79645 lineto
17.12851 10.8689 lineto
17.27017 10.942 lineto
17.41182 11.01553 lineto
17.55348 11.0895 lineto
17.69513 11.16388 lineto
17.83679 11.2385 lineto
17.97844 11.31377 lineto
18.1201 11.38924 lineto
18.26175 11.46515 lineto
18.4034 11.54149 lineto
18.54506 11.61826 lineto
18.6867 11.69547 lineto
18.82837 11.77289 lineto
18.97002 11.85097 lineto
19.11168 11.92926 lineto
19.25333 12.00775 lineto
19.39499 12.08691 lineto
19.53664 12.16628 lineto
19.6783 12.24608 lineto
19.81995 12.32632 lineto
19.96161 12.40677 lineto
20.10326 12.48766 lineto
20.24492 12.56876 lineto
20.38657 12.6505 lineto
20.52821 12.73225 lineto
20.66988 12.81465 lineto
20.81152 12.89726 lineto
20.95319 12.98009 lineto
21.09483 13.06335 lineto
21.2365 13.14705 lineto
21.37814 13.23096 lineto
21.5198 13.3153 lineto
21.66145 13.39987 lineto
21.80312 13.48486 lineto
21.94476 13.57007 lineto
22.08643 13.65549 lineto
22.22807 13.74156 lineto
22.36974 13.82764 lineto
22.51138 13.91414 lineto
22.65303 14.00087 lineto
22.7947 14.08803 lineto
22.93634 14.1754 lineto
23.078 14.2632 lineto
23.21965 14.35123 lineto
23.36131 14.43945 lineto
23.50296 14.52812 lineto
23.64462 14.61679 lineto
23.78627 14.70612 lineto
23.92793 14.79543 lineto
24.06958 14.88518 lineto
24.21124 14.97537 lineto
24.35289 15.06555 lineto
24.49455 15.15616 lineto
24.6362 15.247 lineto
24.77785 15.33804 lineto
24.91951 15.4293 lineto
25.06116 15.52101 lineto
25.20282 15.61292 lineto
25.34447 15.70505 lineto
25.48613 15.7976 lineto
25.62778 15.89017 lineto
25.76944 15.98317 lineto
25.91109 16.07637 lineto
26.05275 16.1698 lineto
26.1944 16.26344 lineto
26.33606 16.35753 lineto
26.4777 16.4516 lineto
26.61937 16.54611 lineto
26.76102 16.64084 lineto
26.90266 16.73578 lineto
27.04433 16.83093 lineto
27.18597 16.9263 lineto
27.32764 17.0219 lineto
27.46928 17.1177 lineto
27.61095 17.21394 lineto
27.7526 17.31018 lineto
27.89426 17.40685 lineto
28.0359 17.50352 lineto
28.17757 17.60062 lineto
28.31921 17.69772 lineto
28.46088 17.79526 lineto
28.60252 17.89302 lineto
28.74419 17.99077 lineto
28.88583 18.08896 lineto
29.0275 18.18735 lineto
29.16914 18.28575 lineto
29.31079 18.38458 lineto
29.45245 18.48343 lineto
29.5941 18.58269 lineto
29.73576 18.68217 lineto
29.87741 18.78165 lineto
30.01907 18.88135 lineto
30.16072 18.98148 lineto
30.30238 19.08162 lineto
30.44403 19.18196 lineto
30.5857 19.28253 lineto
30.72734 19.3833 lineto
30.869 19.4843 lineto
31.01065 19.58551 lineto
31.15231 19.68695 lineto
31.29396 19.78838 lineto
31.43561 19.89023 lineto
31.57727 19.9921 lineto
31.71892 20.09439 lineto
31.86058 20.19669 lineto
32.00223 20.29898 lineto
32.14389 20.4017 lineto
32.28554 20.50465 lineto
32.4272 20.60759 lineto
32.56885 20.71097 lineto
32.71051 20.81435 lineto
32.85216 20.91794 lineto
32.99382 21.02153 lineto
33.13547 21.12555 lineto
33.27713 21.22957 lineto
33.41878 21.33403 lineto
33.56042 21.43826 lineto
33.70209 21.54294 lineto
33.84373 21.64783 lineto
33.9854 21.75272 lineto
34.12704 21.85782 lineto
34.2687 21.96315 lineto
34.41035 22.06847 lineto
34.55202 22.17422 lineto
34.69366 22.27998 lineto
34.83533 22.38596 lineto
34.97697 22.49191 lineto
35.11864 22.59833 lineto
35.26028 22.70473 lineto
35.40195 22.81113 lineto
35.5436 22.91797 lineto
35.68524 23.0248 lineto
35.8269 23.13185 lineto
35.96855 23.23912 lineto
36.11021 23.34639 lineto
36.25186 23.45387 lineto
36.39352 23.56157 lineto
36.53517 23.66927 lineto
36.67683 23.77719 lineto
36.81848 23.88533 lineto
36.96014 23.99345 lineto
37.10179 24.1018 lineto
37.24345 24.21037 lineto
37.3851 24.31894 lineto
37.52676 24.42772 lineto
37.66841 24.53671 lineto
37.81007 24.64572 lineto
37.95172 24.75514 lineto
38.09337 24.86436 lineto
38.23503 24.97379 lineto
38.37668 25.08344 lineto
38.51834 25.1933 lineto
38.65999 25.30316 lineto
38.80165 25.41324 lineto
38.9433 25.52333 lineto
39.08496 25.63362 lineto
39.22661 25.74413 lineto
39.36827 25.85464 lineto
39.50992 25.96538 lineto
39.65158 26.0761 lineto
39.79323 26.18704 lineto
39.93489 26.2982 lineto
40.07654 26.40936 lineto
40.21819 26.52075 lineto
40.35985 26.63213 lineto
40.5015 26.74371 lineto
40.64316 26.85553 lineto
40.7848 26.96733 lineto
40.92647 27.07915 lineto
41.06812 27.19118 lineto
41.20978 27.3034 lineto
41.35143 27.41565 lineto
41.49309 27.5281 lineto
41.63474 27.6408 lineto
41.7764 27.75346 lineto
41.91805 27.86613 lineto
42.05971 27.97903 lineto
42.20135 28.09213 lineto
42.343 28.20525 lineto
42.48466 28.31834 lineto
42.62631 28.43188 lineto
42.76797 28.54521 lineto
42.90962 28.65875 lineto
43.05128 28.7725 lineto
43.19293 28.88626 lineto
43.3346 29.00024 lineto
43.47624 29.11421 lineto
43.6179 29.2284 lineto
43.75955 29.34259 lineto
43.90121 29.457 lineto
44.04286 29.5714 lineto
44.18452 29.68602 lineto
44.32617 29.80064 lineto
44.46782 29.91548 lineto
44.60948 30.03032 lineto
44.75113 30.14516 lineto
44.89279 30.26021 lineto
45.03444 30.37547 lineto
45.1761 30.49075 lineto
45.31775 30.60623 lineto
45.45941 30.72173 lineto
45.60106 30.8372 lineto
45.74272 30.95291 lineto
45.88437 31.0686 lineto
46.02603 31.18452 lineto
46.16768 31.30066 lineto
46.30934 31.41658 lineto
46.45099 31.53271 lineto
46.59264 31.64906 lineto
46.7343 31.76543 lineto
46.87595 31.88199 lineto
47.01761 31.99855 lineto
47.15926 32.11513 lineto
47.30092 32.2319 lineto
47.44257 32.3487 lineto
47.58423 32.4657 lineto
47.72588 32.58269 lineto
47.86754 32.69969 lineto
48.00919 32.81691 lineto
48.15085 32.93434 lineto
48.2925 33.05177 lineto
48.43416 33.1692 lineto
48.5758 33.28664 lineto
48.71747 33.40428 lineto
48.85912 33.52216 lineto
49.00076 33.64001 lineto
49.14243 33.75789 lineto
49.28407 33.87596 lineto
49.42574 33.99405 lineto
49.56738 34.11212 lineto
49.70905 34.23042 lineto
49.8507 34.34872 lineto
49.99236 34.46724 lineto
50.134 34.58575 lineto
50.27567 34.70427 lineto
50.41731 34.823 lineto
50.55898 34.94173 lineto
50.70062 35.06046 lineto
50.84229 35.1794 lineto
50.98393 35.29857 lineto
51.12558 35.41751 lineto
51.26724 35.53667 lineto
51.40889 35.65605 lineto
51.55055 35.77522 lineto
51.6922 35.89459 lineto
51.83386 36.01419 lineto
51.97551 36.13379 lineto
52.11717 36.25339 lineto
52.25882 36.3732 lineto
52.40048 36.49301 lineto
52.54213 36.61281 lineto
52.68379 36.73262 lineto
52.82544 36.85266 lineto
52.9671 36.9729 lineto
53.10875 37.09293 lineto
53.2504 37.21317 lineto
53.39206 37.33363 lineto
53.5337 37.45387 lineto
53.67537 37.57455 lineto
53.81702 37.695 lineto
53.95868 37.81569 lineto
54.10033 37.93637 lineto
54.24199 38.05704 lineto
54.38364 38.17793 lineto
54.5253 38.29883 lineto
54.66695 38.41972 lineto
54.80861 38.54083 lineto
54.95026 38.66194 lineto
55.09192 38.78305 lineto
55.23357 38.90437 lineto
55.37521 39.0257 lineto
55.51688 39.14702 lineto
55.65852 39.26857 lineto
55.80019 39.3901 lineto
55.94183 39.51166 lineto
56.0835 39.6334 lineto
56.22514 39.75494 lineto
56.3668 39.87692 lineto
56.50845 39.99869 lineto
56.65012 40.12065 lineto
56.79176 40.24263 lineto
56.93343 40.36461 lineto
57.07507 40.4868 lineto
57.21674 40.60898 lineto
57.35838 40.73117 lineto
57.50005 40.85358 lineto
57.6417 40.97598 lineto
57.78334 41.0984 lineto
57.925 41.22081 lineto
58.06665 41.34343 lineto
58.20831 41.46605 lineto
58.34996 41.58888 lineto
58.49162 41.71152 lineto
58.63327 41.83435 lineto
58.77493 41.95718 lineto
58.91658 42.08025 lineto
59.05824 42.20308 lineto
59.19989 42.32614 lineto
59.34155 42.44942 lineto
59.4832 42.57246 lineto
59.62486 42.69574 lineto
59.76651 42.81902 lineto
59.90816 42.9425 lineto
60.04982 43.06577 lineto
60.19147 43.18925 lineto
60.33313 43.31296 lineto
60.47478 43.43645 lineto
60.61644 43.56015 lineto
60.75809 43.68387 lineto
60.89975 43.80757 lineto
61.0414 43.93149 lineto
61.18306 44.05519 lineto
61.3247 44.17911 lineto
61.46637 44.30325 lineto
61.60802 44.42717 lineto
61.74968 44.5513 lineto
61.89133 44.67545 lineto
62.03297 44.79958 lineto
62.17464 44.92393 lineto
62.31628 45.04828 lineto
62.45795 45.17264 lineto
62.5996 45.297 lineto
62.74126 45.42155 lineto
62.8829 45.54613 lineto
63.02457 45.6707 lineto
63.16621 45.79527 lineto
63.30788 45.92006 lineto
63.44952 46.04485 lineto
63.59119 46.16963 lineto
63.73283 46.29442 lineto
63.8745 46.4192 lineto
64.01614 46.5442 lineto
64.15779 46.6692 lineto
64.29945 46.7942 lineto
64.4411 46.91942 lineto
64.58276 47.04465 lineto
64.72441 47.16965 lineto
64.86607 47.29507 lineto
65.00772 47.42029 lineto
65.14938 47.54573 lineto
65.29103 47.67116 lineto
65.4327 47.7966 lineto
65.57434 47.92203 lineto
65.716 48.04747 lineto
65.85765 48.17311 lineto
65.99931 48.29877 lineto
66.14096 48.42442 lineto
66.28261 48.5503 lineto
66.42427 48.67593 lineto
66.56592 48.8018 lineto
66.70758 48.92767 lineto
66.84923 49.05376 lineto
66.99089 49.17963 lineto
67.13254 49.30571 lineto
67.2742 49.4318 lineto
67.41585 49.55788 lineto
67.55751 49.68396 lineto
67.69916 49.81026 lineto
67.84082 49.93655 lineto
67.98247 50.06285 lineto
68.12413 50.18915 lineto
68.26578 50.31546 lineto
68.40744 50.44197 lineto
68.54909 50.56848 lineto
68.69073 50.695 lineto
68.8324 50.82152 lineto
68.97404 50.94824 lineto
69.1157 51.07477 lineto
69.25735 51.20149 lineto
69.39902 51.32823 lineto
69.54066 51.45496 lineto
69.68233 51.58191 lineto
69.82397 51.70863 lineto
69.96564 51.83559 lineto
70.10728 51.96254 lineto
70.24895 52.0895 lineto
70.3906 52.21664 lineto
70.53226 52.3436 lineto
70.6739 52.47076 lineto
70.81555 52.59793 lineto
70.95721 52.72531 lineto
71.09886 52.85248 lineto
71.24052 52.97964 lineto
71.38217 53.10703 lineto
71.52383 53.2344 lineto
71.66548 53.36179 lineto
71.80714 53.48938 lineto
71.94879 53.61676 lineto
72.09045 53.74435 lineto
72.2321 53.87195 lineto
72.37376 53.99956 lineto
72.51541 54.12715 lineto
72.65707 54.25475 lineto
72.79872 54.38255 lineto
72.94037 54.51038 lineto
73.08203 54.63818 lineto
73.22368 54.76599 lineto
73.36534 54.89381 lineto
73.50699 55.02184 lineto
73.64865 55.14966 lineto
73.7903 55.27768 lineto
73.93196 55.40572 lineto
74.07361 55.53374 lineto
74.21527 55.66199 lineto
74.35692 55.79002 lineto
74.49858 55.91826 lineto
74.64023 56.04651 lineto
74.78189 56.17476 lineto
74.92354 56.30301 lineto
75.06519 56.43147 lineto
75.20685 56.55971 lineto
75.3485 56.68817 lineto
75.49016 56.81664 lineto
75.6318 56.9451 lineto
75.77347 57.07356 lineto
75.91512 57.20224 lineto
76.05678 57.3307 lineto
76.19843 57.45938 lineto
76.34009 57.58806 lineto
76.48174 57.71674 lineto
76.6234 57.84541 lineto
76.76505 57.97409 lineto
76.90671 58.10298 lineto
77.04836 58.23189 lineto
77.19002 58.36057 lineto
77.33167 58.48946 lineto
77.47331 58.61856 lineto
77.61497 58.74747 lineto
77.75662 58.87636 lineto
77.89828 59.00546 lineto
78.03993 59.13458 lineto
78.1816 59.26369 lineto
78.32324 59.3928 lineto
78.4649 59.52191 lineto
78.60655 59.65125 lineto
78.74821 59.78035 lineto
78.88986 59.90968 lineto
79.03152 60.039 lineto
79.17317 60.16833 lineto
79.31483 60.29765 lineto
79.45648 60.42699 lineto
79.59813 60.55653 lineto
79.73979 60.68585 lineto
79.88144 60.8154 lineto
80.0231 60.94495 lineto
80.16475 61.0745 lineto
80.30641 61.20403 lineto
80.44806 61.33379 lineto
80.58972 61.46333 lineto
80.73137 61.5931 lineto
80.87303 61.72264 lineto
81.01468 61.8524 lineto
81.15634 61.98216 lineto
81.29799 62.11214 lineto
81.43965 62.2419 lineto
81.5813 62.37166 lineto
81.72295 62.50163 lineto
81.86461 62.6316 lineto
82.00626 62.76158 lineto
82.14792 62.89156 lineto
82.28957 63.02153 lineto
82.43123 63.1515 lineto
82.57288 63.28171 lineto
82.71454 63.41168 lineto
82.85619 63.54187 lineto
82.99785 63.67206 lineto
83.1395 63.80226 lineto
83.28116 63.93245 lineto
83.4228 64.06264 lineto
83.56447 64.19305 lineto
83.70612 64.32324 lineto
83.84776 64.45364 lineto
83.98943 64.58406 lineto
84.13107 64.71446 lineto
84.27274 64.84488 lineto
84.41438 64.97528 lineto
84.55605 65.1057 lineto
84.6977 65.23631 lineto
84.83936 65.36673 lineto
84.981 65.49734 lineto
85.12267 65.62798 lineto
85.26431 65.7586 lineto
85.40598 65.88922 lineto
85.54762 66.01985 lineto
85.68929 66.1507 lineto
85.83093 66.28131 lineto
85.9726 66.41216 lineto
86.11424 66.54279 lineto
86.25589 66.67363 lineto
86.39755 66.80447 lineto
86.5392 66.9353 lineto
86.68086 67.06615 lineto
86.82251 67.1972 lineto
86.96417 67.32805 lineto
87.10582 67.4591 lineto
87.24748 67.59016 lineto
87.38913 67.72101 lineto
87.53079 67.85207 lineto
87.67244 67.98312 lineto
87.8141 68.1144 lineto
87.95575 68.24545 lineto
88.09741 68.37651 lineto
88.23906 68.50778 lineto
88.3807 68.63884 lineto
88.52237 68.77011 lineto
88.66402 68.90138 lineto
88.80568 69.03265 lineto
88.94733 69.16393 lineto
89.08899 69.29543 lineto
89.23064 69.4267 lineto
89.3723 69.55797 lineto
89.51395 69.68945 lineto
89.65561 69.82095 lineto
89.79726 69.95222 lineto
89.93892 70.08371 lineto
90.08057 70.21521 lineto
90.22223 70.34691 lineto
90.36388 70.4784 lineto
90.50552 70.6099 lineto
90.64719 70.7416 lineto
90.78883 70.8731 lineto
90.9305 71.00479 lineto
91.07214 71.1365 lineto
91.2138 71.2682 lineto
91.35545 71.39992 lineto
91.49712 71.53162 lineto
91.63876 71.66333 lineto
91.78043 71.79503 lineto
91.92207 71.92696 lineto
92.06374 72.05865 lineto
92.20538 72.19058 lineto
92.34705 72.32251 lineto
92.4887 72.45442 lineto
92.63034 72.58635 lineto
92.772 72.71828 lineto
92.91365 72.85019 lineto
93.05531 72.98233 lineto
93.19696 73.11426 lineto
93.33862 73.24617 lineto
93.48027 73.37831 lineto
93.62193 73.51045 lineto
93.76358 73.6426 lineto
93.90524 73.77473 lineto
94.04689 73.90688 lineto
94.18855 74.03902 lineto
94.3302 74.17114 lineto
94.47186 74.30328 lineto
94.61351 74.43564 lineto
94.75516 74.56778 lineto
94.89682 74.70013 lineto
95.03847 74.83249 lineto
95.18013 74.96463 lineto
95.32178 75.09698 lineto
95.46344 75.22934 lineto
95.60509 75.36191 lineto
95.74675 75.49426 lineto
95.8884 75.62662 lineto
96.03006 75.75897 lineto
96.1717 75.89154 lineto
96.31337 76.02412 lineto
96.45502 76.15648 lineto
96.59668 76.28905 lineto
96.73833 76.42162 lineto
96.87999 76.55418 lineto
97.02164 76.68675 lineto
97.16328 76.81934 lineto
97.30495 76.95212 lineto
97.4466 77.08469 lineto
97.58826 77.21748 lineto
97.7299 77.35005 lineto
97.87157 77.48283 lineto
98.01321 77.6154 lineto
98.15488 77.7482 lineto
98.29652 77.88098 lineto
98.43819 78.01376 lineto
98.57983 78.14656 lineto
98.7215 78.27956 lineto
98.86314 78.41235 lineto
99.0048 78.54514 lineto
99.14645 78.67815 lineto
99.2881 78.81093 lineto
99.42976 78.94392 lineto
99.57141 79.07693 lineto
99.71307 79.20995 lineto
99.85472 79.34294 lineto
99.99638 79.47595 lineto
100.13803 79.60895 lineto
100.2797 79.74196 lineto
100.42134 79.87495 lineto
100.563 80.00818 lineto
100.70465 80.14117 lineto
100.84631 80.2744 lineto
100.98796 80.40741 lineto
101.12962 80.54062 lineto
101.27127 80.67384 lineto
101.41292 80.80685 lineto
101.55458 80.94006 lineto
101.69623 81.07329 lineto
101.83789 81.20673 lineto
101.97954 81.33995 lineto
102.1212 81.47316 lineto
102.26285 81.6066 lineto
102.40451 81.73982 lineto
102.54616 81.87326 lineto
102.68782 82.00648 lineto
102.82947 82.13991 lineto
102.97113 82.27335 lineto
103.11278 82.40678 lineto
103.25444 82.54022 lineto
103.39609 82.67366 lineto
103.53773 82.8071 lineto
103.6794 82.94054 lineto
103.82104 83.07397 lineto
103.9627 83.20763 lineto
104.10435 83.34106 lineto
104.24602 83.47472 lineto
104.38766 83.60815 lineto
104.52933 83.7418 lineto
104.67097 83.87546 lineto
104.81264 84.00911 lineto
104.95428 84.14276 lineto
105.09595 84.27641 lineto
105.2376 84.41006 lineto
105.37926 84.54372 lineto
105.5209 84.67737 lineto
105.66257 84.81102 lineto
105.80421 84.94489 lineto
105.94586 85.07854 lineto
106.08752 85.21242 lineto
106.22917 85.34628 lineto
106.37083 85.47993 lineto
106.51248 85.6138 lineto
106.65414 85.74767 lineto
106.79579 85.88155 lineto
106.93745 86.01541 lineto
107.0791 86.14928 lineto
107.22076 86.28314 lineto
107.36241 86.417 lineto
107.50407 86.5511 lineto
107.64572 86.68497 lineto
107.78738 86.81906 lineto
107.92903 86.95293 lineto
108.07068 87.087 lineto
108.21234 87.22087 lineto
108.35399 87.35497 lineto
108.49565 87.48904 lineto
108.6373 87.62314 lineto
108.77896 87.75722 lineto
108.92061 87.8913 lineto
109.06227 88.02539 lineto
109.20392 88.15947 lineto
109.34558 88.29378 lineto
109.48723 88.42786 lineto
109.62889 88.56195 lineto
109.77054 88.69624 lineto
109.9122 88.83034 lineto
110.05385 88.96463 lineto
110.1955 89.09894 lineto
110.33716 89.23302 lineto
110.4788 89.36732 lineto
110.62047 89.50162 lineto
110.76212 89.63593 lineto
110.90378 89.77022 lineto
111.04543 89.90453 lineto
111.18709 90.03883 lineto
111.32874 90.17334 lineto
111.4704 90.30765 lineto
111.61205 90.44196 lineto
111.75371 90.57646 lineto
111.89536 90.71077 lineto
112.03702 90.84529 lineto
112.17867 90.97958 lineto
112.32031 91.1141 lineto
112.46198 91.24863 lineto
112.60362 91.38313 lineto
112.74529 91.51765 lineto
112.88693 91.65218 lineto
113.0286 91.7867 lineto
113.17024 91.9212 lineto
113.3119 92.05573 lineto stroke
 0 0.5 dtransform truncate idtransform setlinewidth pop
 [3 3 ] 0 setdash
newpath -2.83461 -31.18108 moveto
113.38586 85.0394 lineto stroke
 [] 0 setdash
newpath -7.08662 0 moveto
120.47249 0 lineto stroke
newpath 116.77713 -1.5307 moveto
120.47249 0 lineto
116.77713 1.5307 lineto
 closepath
gsave fill grestore stroke
 0.5 0 dtransform exch truncate exch idtransform pop setlinewidth
newpath 0 -35.43309 moveto
0 120.47249 lineto stroke
 0 0.5 dtransform truncate idtransform setlinewidth pop
newpath 1.53036 116.77794 moveto
0 120.47249 lineto
-1.53036 116.77794 lineto
 closepath
gsave fill grestore stroke
68.96133 33.68965 moveto
(y) cmmi10 6.97382 fshow
74.56781 33.68965 moveto
(=) cmr10 6.97382 fshow
81.92899 33.68965 moveto
(ax) cmmi10 6.97382 fshow
91.15074 33.68965 moveto
(+) cmr10 6.97382 fshow
98.12453 33.68965 moveto
(b) cmmi10 6.97382 fshow
showpage
%%EOF
