input TEX;

verbatimtex
%&latex
 \documentclass{article}
 \usepackage[latin1]{inputenc}
 \usepackage[frenchb]{babel}
 \usepackage{amsmath}
 \begin{document}
etex

outputtemplate := "cercle_trigo.mps";
beginfig(1)
u:=2cm;
 pickup pencircle scaled 0.2mm ;
  draw (-1u,0)--(1u,0);
  draw (0,-u)--(0,u);
  drawarrow (0,0)--(0.97u,0)            withpen pencircle scaled 1bp;
  drawarrow (0,0)--(0,0.97u)            withpen pencircle scaled 1bp;
  draw fullcircle scaled 2u;
  pair M,A,B;
  M:=(1,0)*u rotated 40 ;
  A:=(xpart M,0); B:=(0, ypart M);
  draw A--M dashed evenly scaled .5; draw M--B dashed evenly scaled .5; 

  draw (0,0)--M withpen pencircle scaled 0.2bp;

%  label.bot   (btex $\vec{i}$ etex,(0.45,0)*u);
%  label.lft   (btex $\vec{j}$ etex,(-0.1,0.5)*u);
  dotlabel.llft(btex $O$ etex, (0,0));
  dotlabel.urt(btex $M_\theta$ etex, M);
  dotlabel.bot(btex \small $\cos(\theta)$ etex, A);
  dotlabel.lft(btex \small $\sin(\theta)$ etex, B);
  label.lft   (btex $\mathcal{C}$ etex,(-0.7,-0.8)*u);
  label.rt   (btex $\vec{i}$ etex,(1,0)*u);
%  label.lft   (btex $I'$ etex,(-1,0)*u);
  label.top   (btex $\vec{j}$ etex,(0,1)*u);
%  label.bot   (btex $J'$ etex,(0,-1)*u);


endfig;

end
