%!PS
%%BoundingBox: -44 -52 192 192 
%%HiResBoundingBox: -43.26968 -51.94218 191.99062 191.58858 
%%Creator: MetaPost 2.02
%%CreationDate: 2023.03.26:1733
%%Pages: 1
%*Font: cmr10 9.96265 9.96265 28:c0f80400000000040a
%*Font: cmmi10 9.96265 9.96265 78:c
%*Font: cmmi7 6.97385 6.97385 78:8
%%BeginProlog
%%EndProlog
%%Page: 1 1
 1 0 0 setrgbcolor 0 1.5 dtransform truncate idtransform setlinewidth pop
 [] 0 setdash 1 setlinecap 1 setlinejoin 10 setmiterlimit
newpath 12.75604 -51.19218 moveto
12.89551 -50.72697 13.03716 -50.26244 13.181 -49.79855 curveto
13.32062 -49.3483 13.46228 -48.89868 13.60596 -48.4497 curveto
13.74567 -48.01309 13.88727 -47.57706 14.03093 -47.14172 curveto
14.45589 -45.87332 lineto
14.88084 -44.64125 lineto
15.30582 -43.44357 lineto
15.73077 -42.27963 lineto
16.15575 -41.14618 lineto
16.5807 -40.04192 lineto
17.00566 -38.96622 lineto
17.43063 -37.91646 lineto
17.85559 -36.892 lineto
18.28056 -35.8922 lineto
18.70552 -34.91512 lineto
19.13048 -33.96008 lineto
19.55545 -33.0258 lineto
19.98041 -32.11165 lineto
20.40538 -31.21631 lineto
20.83034 -30.34042 lineto
21.2553 -29.48141 lineto
21.68027 -28.63992 lineto
22.10522 -27.81465 lineto
22.5302 -27.00496 lineto
22.95515 -26.21017 lineto
23.38011 -25.43033 lineto
23.80508 -24.6641 lineto
24.23004 -23.91212 lineto
24.65501 -23.1725 lineto
25.07997 -22.44585 lineto
25.50493 -21.73152 lineto
25.9299 -21.02887 lineto
26.35486 -20.3379 lineto
26.77982 -19.6573 lineto
27.20479 -18.9884 lineto
27.62975 -18.32922 lineto
28.05472 -17.68042 lineto
28.47968 -17.0407 lineto
28.90463 -16.41136 lineto
29.3296 -15.79047 lineto
29.75456 -15.17865 lineto
30.17953 -14.57591 lineto
30.60449 -13.98161 lineto
31.02945 -13.3951 lineto
31.45442 -12.81638 lineto
31.87938 -12.24608 lineto
32.30435 -11.68292 lineto
32.72931 -11.12755 lineto
33.15427 -10.57866 lineto
33.57924 -10.03693 lineto
34.0042 -9.5023 lineto
34.42917 -8.97418 lineto
34.85413 -8.45255 lineto
35.27908 -7.93741 lineto
35.70406 -7.4281 lineto
36.12901 -6.92528 lineto
36.55399 -6.4283 lineto
36.97894 -5.93651 lineto
37.4039 -5.45056 lineto
37.82887 -4.97044 lineto
38.25383 -4.49553 lineto
38.67879 -4.0258 lineto
39.10376 -3.56126 lineto
39.52872 -3.10126 lineto
39.95369 -2.64645 lineto
40.37865 -2.19684 lineto
40.8036 -1.75175 lineto
41.22858 -1.31122 lineto
41.65353 -0.87523 lineto
42.0785 -0.44377 lineto
42.50346 -0.01622 lineto
42.92842 0.4068 lineto
43.3534 0.82593 lineto
43.77835 1.24051 lineto
44.20332 1.6512 lineto
44.62828 2.05798 lineto
45.05324 2.46089 lineto
45.47821 2.85991 lineto
45.90317 3.25568 lineto
46.32814 3.64755 lineto
46.7531 4.03552 lineto
47.17805 4.42027 lineto
47.60303 4.80176 lineto
48.02798 5.17937 lineto
48.45296 5.55437 lineto
48.87791 5.92548 lineto
49.30287 6.29335 lineto
49.72784 6.65863 lineto
50.1528 7.02 lineto
50.57776 7.37878 lineto
51.00273 7.73499 lineto
51.42769 8.08792 lineto
51.85266 8.43762 lineto
52.27762 8.78474 lineto
52.70258 9.1286 lineto
53.12755 9.47052 lineto
53.5525 9.80919 lineto
53.97748 10.14526 lineto
54.40244 10.47874 lineto
54.8274 10.80963 lineto
55.25237 11.13792 lineto
55.67732 11.46362 lineto
56.1023 11.78673 lineto
56.52725 12.10788 lineto
56.95221 12.42645 lineto
57.37718 12.74242 lineto
57.80214 13.05579 lineto
58.22711 13.3672 lineto
58.65207 13.67668 lineto
59.07703 13.98357 lineto
59.502 14.2885 lineto
59.92696 14.59084 lineto
60.35193 14.89124 lineto
60.77689 15.18968 lineto
61.20184 15.48618 lineto
61.62682 15.78009 lineto
62.05177 16.0727 lineto
62.47673 16.3627 lineto
62.9017 16.65077 lineto
63.32666 16.93755 lineto
63.75163 17.22171 lineto
64.17659 17.50395 lineto
64.60155 17.78488 lineto
65.02652 18.06386 lineto
65.45148 18.34024 lineto
65.87645 18.61598 lineto
66.3014 18.88913 lineto
66.72636 19.16098 lineto
67.15134 19.43088 lineto
67.5763 19.69884 lineto
68.00127 19.96548 lineto
68.42622 20.2302 lineto
68.85118 20.4936 lineto
69.27615 20.75508 lineto
69.70111 21.01524 lineto
70.12608 21.27347 lineto
70.55104 21.5304 lineto
70.976 21.78601 lineto
71.40097 22.0397 lineto
71.82593 22.29208 lineto
72.2509 22.54317 lineto
72.67586 22.7923 lineto
73.10081 23.04015 lineto
73.52579 23.28668 lineto
73.95074 23.53194 lineto
74.3757 23.77524 lineto
74.80067 24.01788 lineto
75.22563 24.25859 lineto
75.6506 24.498 lineto
76.07556 24.7361 lineto
76.50052 24.97292 lineto
76.92549 25.20844 lineto
77.35045 25.44264 lineto
77.77542 25.67557 lineto
78.20038 25.90784 lineto
78.62534 26.13817 lineto
79.05031 26.36719 lineto
79.47527 26.59491 lineto
79.90024 26.82199 lineto
80.3252 27.04778 lineto
80.75015 27.2716 lineto
81.17513 27.4948 lineto
81.60008 27.71733 lineto
82.02505 27.93793 lineto
82.45001 28.15787 lineto
82.87497 28.37651 lineto
83.29994 28.59387 lineto
83.7249 28.80992 lineto
84.14987 29.02531 lineto
84.57483 29.23943 lineto
84.99979 29.45288 lineto
85.42476 29.66438 lineto
85.84972 29.87589 lineto
86.27467 30.08545 lineto
86.69965 30.29437 lineto
87.1246 30.50262 lineto
87.54958 30.7096 lineto
87.97453 30.91527 lineto
88.39949 31.12029 lineto
88.82446 31.324 lineto
89.24942 31.52708 lineto
89.6744 31.72887 lineto
90.09935 31.93 lineto
90.5243 32.12982 lineto
90.94928 32.329 lineto
91.37424 32.52753 lineto
91.79921 32.72476 lineto
92.22417 32.92136 lineto
92.64912 33.11664 lineto
93.0741 33.31128 lineto
93.49905 33.50462 lineto
93.92403 33.69797 lineto
94.34898 33.88936 lineto
94.77394 34.08075 lineto
95.19891 34.27086 lineto
95.62387 34.4603 lineto
96.04884 34.64911 lineto
96.4738 34.83661 lineto
96.89876 35.02347 lineto
97.32373 35.20967 lineto
97.74869 35.39458 lineto
98.17365 35.57948 lineto
98.59862 35.76309 lineto
99.02357 35.94606 lineto
99.44855 36.12772 lineto
99.8735 36.30939 lineto
100.29846 36.48975 lineto
100.72343 36.66946 lineto
101.14839 36.84853 lineto
101.57336 37.02695 lineto
101.99832 37.20407 lineto
102.42328 37.3812 lineto
102.84825 37.55702 lineto
103.27321 37.7322 lineto
103.69818 37.90672 lineto
104.12314 38.08125 lineto
104.5481 38.25383 lineto
104.97307 38.4264 lineto
105.39803 38.59834 lineto
105.823 38.76962 lineto
106.24796 38.9396 lineto
106.67291 39.1096 lineto
107.09789 39.27893 lineto
107.52284 39.44698 lineto
107.94781 39.615 lineto
108.37277 39.78175 lineto
108.79773 39.94849 lineto
109.2227 40.11394 lineto
109.64766 40.27939 lineto
110.07262 40.44353 lineto
110.49759 40.60767 lineto
110.92255 40.77052 lineto
111.34752 40.93336 lineto
111.77248 41.09492 lineto
112.19743 41.25647 lineto
112.6224 41.41737 lineto
113.04736 41.57762 lineto
113.47234 41.73723 lineto
113.8973 41.8962 lineto
114.32225 42.05449 lineto
114.74722 42.21216 lineto
115.17218 42.36916 lineto
115.59715 42.52553 lineto
116.02211 42.68188 lineto
116.44707 42.8376 lineto
116.87204 42.992 lineto
117.297 43.14642 lineto
117.72197 43.30019 lineto
118.14693 43.45331 lineto
118.57188 43.60641 lineto
118.99686 43.75824 lineto
119.42181 43.91006 lineto
119.84679 44.06058 lineto
120.27174 44.2111 lineto
120.6967 44.36162 lineto
121.12167 44.51085 lineto
121.54663 44.65942 lineto
121.97159 44.808 lineto
122.39656 44.95592 lineto
122.82152 45.1032 lineto
123.24649 45.25047 lineto
123.67145 45.39645 lineto
124.0964 45.54243 lineto
124.52138 45.68777 lineto
124.94633 45.83246 lineto
125.3713 45.97713 lineto
125.79626 46.12117 lineto
126.22122 46.26456 lineto
126.6462 46.40729 lineto
127.07115 46.55002 lineto
127.49612 46.69147 lineto
127.92108 46.8329 lineto
128.34604 46.97433 lineto
128.77101 47.11447 lineto
129.19597 47.25462 lineto
129.62094 47.39476 lineto
130.0459 47.5336 lineto
130.47086 47.67244 lineto
130.89583 47.81064 lineto
131.32079 47.94818 lineto
131.74576 48.08572 lineto
132.17072 48.22263 lineto
132.59567 48.35953 lineto
133.02065 48.49512 lineto
133.4456 48.63072 lineto
133.87056 48.76633 lineto
134.29553 48.90062 lineto
134.72049 49.03493 lineto
135.14546 49.16922 lineto
135.57042 49.30287 lineto
135.99538 49.43588 lineto
136.42035 49.56824 lineto
136.8453 49.70059 lineto
137.27028 49.83229 lineto
137.69524 49.964 lineto
138.1202 50.09506 lineto
138.54517 50.22546 lineto
138.97012 50.35588 lineto
139.3951 50.48564 lineto
139.82005 50.61475 lineto
140.24501 50.74387 lineto
140.66998 50.87297 lineto
141.09494 51.00078 lineto
141.51991 51.1286 lineto
141.94487 51.25641 lineto
142.36983 51.38358 lineto
142.7948 51.51009 lineto
143.21976 51.63661 lineto
143.64473 51.76247 lineto
144.06969 51.88834 lineto
144.49464 52.01357 lineto
144.91962 52.13812 lineto
145.34457 52.2627 lineto
145.76953 52.38661 lineto
146.1945 52.51054 lineto
146.61946 52.6338 lineto
147.04443 52.75708 lineto
147.46939 52.8797 lineto
147.89435 53.00233 lineto
148.31932 53.1243 lineto
148.74428 53.24562 lineto
149.16925 53.36696 lineto
149.59421 53.48828 lineto
150.01917 53.60895 lineto
150.44414 53.72899 lineto
150.8691 53.84901 lineto
151.29407 53.96838 lineto
151.71902 54.08777 lineto
152.14398 54.2065 lineto
152.56895 54.32523 lineto
152.99391 54.44331 lineto
153.41888 54.56139 lineto
153.84384 54.67882 lineto
154.2688 54.79625 lineto
154.69377 54.91304 lineto
155.11873 55.02983 lineto
155.5437 55.1466 lineto
155.96866 55.2621 lineto
156.39362 55.37823 lineto
156.81859 55.49371 lineto
157.24355 55.60855 lineto
157.6685 55.72339 lineto
158.09348 55.83759 lineto
158.51843 55.95177 lineto
158.9434 56.06595 lineto
159.36836 56.17949 lineto
159.79332 56.29239 lineto
160.21829 56.40527 lineto
160.64325 56.51817 lineto
161.06822 56.63042 lineto
161.49318 56.74266 lineto
161.91814 56.85425 lineto
162.34311 56.96584 lineto
162.76807 57.07678 lineto
163.19304 57.18773 lineto
163.618 57.29802 lineto
164.04295 57.40833 lineto
164.46793 57.51862 lineto
164.89288 57.62827 lineto
165.31786 57.73792 lineto
165.74281 57.84691 lineto
166.16777 57.9559 lineto
166.59274 58.06425 lineto
167.0177 58.1726 lineto
167.44267 58.2803 lineto
167.86763 58.38866 lineto
168.29259 58.49571 lineto
168.71756 58.60341 lineto
169.14252 58.70981 lineto
169.56747 58.81686 lineto
169.99245 58.92326 lineto
170.4174 59.02966 lineto
170.84238 59.13542 lineto
171.26733 59.24118 lineto
171.69229 59.34628 lineto
172.11726 59.45139 lineto
172.54222 59.55649 lineto
172.9672 59.66095 lineto
173.39215 59.76541 lineto
173.81711 59.86922 lineto
174.24208 59.97302 lineto
174.66704 60.07683 lineto
175.09201 60.18 lineto
175.51697 60.28314 lineto
175.94193 60.38567 lineto
176.3669 60.48817 lineto
176.79185 60.59068 lineto
177.21683 60.69319 lineto
177.64178 60.79504 lineto
178.06674 60.89627 lineto
178.49171 60.99748 lineto
178.91667 61.0987 lineto
179.34164 61.1999 lineto
179.7666 61.30046 lineto
180.19156 61.40038 lineto
180.61653 61.50095 lineto
181.04149 61.60086 lineto
181.46645 61.70078 lineto
181.89142 61.80003 lineto
182.31638 61.8993 lineto
182.74135 61.99792 lineto
183.1663 62.09718 lineto
183.59126 62.19516 lineto
184.01624 62.29378 lineto
184.4412 62.39174 lineto
184.86617 62.48972 lineto
185.29112 62.58704 lineto
185.71608 62.685 lineto
186.14105 62.78168 lineto
186.56601 62.879 lineto
186.99098 62.97566 lineto
187.41594 63.07234 lineto
187.8409 63.16835 lineto
188.26587 63.26437 lineto
188.69083 63.3604 lineto
189.1158 63.45578 lineto
189.54076 63.5518 lineto
189.96571 63.64651 lineto
190.39069 63.7419 lineto
190.81564 63.83662 lineto
191.24062 63.93135 lineto stroke
 0 0 1 setrgbcolor
newpath -42.51968 15.64189 moveto
-42.09473 15.7989 lineto
-41.66975 15.95786 lineto
-41.2448 16.11812 lineto
-40.81982 16.27966 lineto
-40.39487 16.4438 lineto
-39.96991 16.6086 lineto
-39.54494 16.77534 lineto
-39.11998 16.94403 lineto
-38.695 17.11401 lineto
-38.27005 17.28595 lineto
-37.8451 17.45982 lineto
-37.42012 17.63501 lineto
-36.99516 17.81212 lineto
-36.57019 17.9912 lineto
-36.14523 18.17221 lineto
-35.72028 18.35452 lineto
-35.2953 18.53877 lineto
-34.87035 18.72499 lineto
-34.44539 18.91313 lineto
-34.02042 19.10324 lineto
-33.59546 19.29527 lineto
-33.17049 19.48862 lineto
-32.74553 19.68456 lineto
-32.32057 19.88245 lineto
-31.8956 20.08162 lineto
-31.47064 20.28404 lineto
-31.04567 20.48778 lineto
-30.62071 20.69344 lineto
-30.19576 20.90106 lineto
-29.77078 21.11127 lineto
-29.34583 21.32277 lineto
-28.92085 21.53752 lineto
-28.4959 21.75357 lineto
-28.07094 21.97223 lineto
-27.64597 22.19281 lineto
-27.22101 22.416 lineto
-26.79604 22.64113 lineto
-26.37108 22.86821 lineto
-25.94612 23.09789 lineto
-25.52115 23.33015 lineto
-25.09619 23.56438 lineto
-24.67122 23.8012 lineto
-24.24626 24.03995 lineto
-23.8213 24.28195 lineto
-23.39633 24.5259 lineto
-22.97137 24.77179 lineto
-22.54642 25.02094 lineto
-22.12144 25.27202 lineto
-21.69649 25.5257 lineto
-21.27151 25.78262 lineto
-20.84656 26.04149 lineto
-20.4216 26.30296 lineto
-19.99663 26.56702 lineto
-19.57167 26.83368 lineto
-19.1467 27.10358 lineto
-18.72174 27.37543 lineto
-18.29678 27.65051 lineto
-17.87181 27.92819 lineto
-17.44685 28.20912 lineto
-17.02188 28.49265 lineto
-16.59692 28.77878 lineto
-16.17197 29.06749 lineto
-15.747 29.35945 lineto
-15.32204 29.65465 lineto
-14.89706 29.95245 lineto
-14.4721 30.2535 lineto
-14.04715 30.55713 lineto
-13.62218 30.86401 lineto
-13.19722 31.17413 lineto
-12.77225 31.48686 lineto
-12.34729 31.80347 lineto
-11.92233 32.12268 lineto
-11.49736 32.44579 lineto
-11.0724 32.77148 lineto
-10.64745 33.10042 lineto
-10.22247 33.43326 lineto
-9.79752 33.76869 lineto
-9.37254 34.108 lineto
-8.94759 34.45058 lineto
-8.52263 34.79703 lineto
-8.09766 35.14609 lineto
-7.6727 35.49904 lineto
-7.24773 35.85587 lineto
-6.82277 36.21596 lineto
-6.39781 36.57993 lineto
-5.97284 36.94714 lineto
-5.54788 37.31827 lineto
-5.12291 37.69327 lineto
-4.69795 38.07217 lineto
-4.273 38.45432 lineto
-3.84802 38.84035 lineto
-3.42307 39.23093 lineto
-2.9981 39.62474 lineto
-2.57314 40.02246 lineto
-2.14818 40.42471 lineto
-1.7232 40.83086 lineto
-1.29825 41.2409 lineto
-0.87328 41.65549 lineto
-0.44832 42.0733 lineto
-0.02336 42.49632 lineto
0.40161 42.92323 lineto
0.82657 43.35403 lineto
1.25153 43.78938 lineto
1.6765 44.22926 lineto
2.10146 44.67369 lineto
2.52643 45.12267 lineto
2.95139 45.57553 lineto
3.37634 46.03358 lineto
3.80132 46.49617 lineto
4.22627 46.9633 lineto
4.65125 47.43498 lineto
5.0762 47.91121 lineto
5.50116 48.39261 lineto
5.92613 48.87856 lineto
6.35109 49.3697 lineto
6.77606 49.86539 lineto
7.20102 50.36626 lineto
7.62598 50.87231 lineto
8.05095 51.38292 lineto
8.4759 51.89937 lineto
8.90088 52.42035 lineto
9.32584 52.94717 lineto
9.7508 53.47919 lineto
10.17577 54.0164 lineto
10.60072 54.55879 lineto
11.0257 55.10703 lineto
11.45065 55.66046 lineto
11.87561 56.21907 lineto
12.30058 56.78418 lineto
12.72554 57.35448 lineto
13.1505 57.9306 lineto
13.57547 58.51257 lineto
14.00043 59.10039 lineto
14.4254 59.69405 lineto
14.85036 60.29353 lineto
15.27531 60.89886 lineto
15.70029 61.51068 lineto
16.12524 62.12898 lineto
16.55022 62.75247 lineto
16.97517 63.3831 lineto
17.40013 64.01958 lineto
17.8251 64.66254 lineto
18.25006 65.31198 lineto
18.67503 65.96793 lineto
19.09999 66.631 lineto
19.52495 67.29991 lineto
19.94992 67.97595 lineto
20.37488 68.65915 lineto
20.79985 69.34882 lineto
21.22481 70.04498 lineto
21.64977 70.74892 lineto
22.07474 71.45935 lineto
22.4997 72.17693 lineto
22.92467 72.90228 lineto
23.34962 73.63412 lineto
23.77458 74.3744 lineto
24.19955 75.12119 lineto
24.62451 75.87573 lineto
25.04947 76.63808 lineto
25.47444 77.40755 lineto
25.8994 78.18546 lineto
26.32437 78.9705 lineto
26.74933 79.76398 lineto
27.17429 80.5646 lineto
27.59926 81.3743 lineto
28.02422 82.19179 lineto
28.44919 83.01706 lineto
28.87415 83.85077 lineto
29.2991 84.69356 lineto
29.72408 85.54413 lineto
30.14903 86.40314 lineto
30.574 87.27124 lineto
30.99896 88.14777 lineto
31.42392 89.03337 lineto
31.84889 89.92741 lineto
32.27385 90.83055 lineto
32.69882 91.74341 lineto
33.12378 92.6647 lineto
33.54874 93.59573 lineto
33.97371 94.53584 lineto
34.39867 95.48503 lineto
34.82364 96.44395 lineto
35.2486 97.41261 lineto
35.67355 98.39165 lineto
36.09853 99.37978 lineto
36.52348 100.37827 lineto
36.94844 101.3865 lineto
37.37341 102.40446 lineto
37.79837 103.43347 lineto
38.22334 104.4722 lineto
38.6483 105.5213 lineto
39.07326 106.58144 lineto
39.49823 107.65196 lineto
39.92319 108.7335 lineto
40.34816 109.82542 lineto
40.77312 110.92903 lineto
41.19807 112.04303 lineto
41.62305 113.16869 lineto
42.048 114.30539 lineto
42.47298 115.45311 lineto
42.89793 116.61316 lineto
43.32289 117.78424 lineto
43.74786 118.96765 lineto
44.17282 120.1621 lineto
44.5978 121.3695 lineto
45.02275 122.58861 lineto
45.44771 123.82002 lineto
45.87268 125.06377 lineto
46.29764 126.31984 lineto
46.72261 127.5889 lineto
47.14757 128.87027 lineto
47.57253 130.16463 lineto
47.9975 131.47195 lineto
48.42245 132.79227 lineto
48.84741 134.12619 lineto
49.27238 135.47375 lineto
49.69734 136.83427 lineto
50.12231 138.20909 lineto
50.54727 139.59752 lineto
50.97223 140.99957 lineto
51.3972 142.4159 lineto
51.82216 143.8465 lineto
52.24713 145.29137 lineto
52.67209 146.75052 lineto
53.09705 148.2246 lineto
53.52202 149.7136 lineto
53.94698 151.2175 lineto
54.37195 152.73634 lineto
54.7969 154.2701 lineto
55.22186 155.82008 lineto
55.64684 157.38498 lineto
56.0718 158.96611 lineto
56.49677 160.5628 lineto
56.92172 162.17572 lineto
57.34668 163.8042 lineto
57.77165 165.44955 lineto
58.19661 167.11177 lineto
58.62158 168.79022 lineto
59.04654 170.48553 lineto
59.4715 172.19836 lineto
59.89647 173.92741 lineto
60.32143 175.67462 lineto
60.74638 177.43936 lineto
61.17136 179.2216 lineto
61.59631 181.02203 lineto
62.02129 182.83997 lineto
62.44624 184.67671 lineto
62.8712 186.53163 lineto
63.29617 188.40536 lineto
63.72113 190.2979 lineto stroke
 0 0 0 setrgbcolor 0 0.5 dtransform truncate idtransform setlinewidth pop
newpath -8.5038 -8.5038 moveto
170.07874 170.07874 lineto stroke
 0.5 0 dtransform exch truncate exch idtransform pop setlinewidth
newpath 42.51968 -3.40166 moveto
42.51968 3.40166 lineto stroke
40.02904 -13.67262 moveto
(1) cmr10 9.96265 fshow
newpath 85.03937 -3.40166 moveto
85.03937 3.40166 lineto stroke
82.54872 -13.67262 moveto
(2) cmr10 9.96265 fshow
newpath 127.55905 -3.40166 moveto
127.55905 3.40166 lineto stroke
125.0684 -13.67262 moveto
(3) cmr10 9.96265 fshow
newpath 170.07874 -3.40166 moveto
170.07874 3.40166 lineto stroke
167.58809 -13.67262 moveto
(4) cmr10 9.96265 fshow
 0 0.5 dtransform truncate idtransform setlinewidth pop
newpath -2.12611 42.51968 moveto
2.12611 42.51968 lineto stroke
-10.1074 39.30948 moveto
(1) cmr10 9.96265 fshow
newpath -2.12611 85.03937 moveto
2.12611 85.03937 lineto stroke
-10.1074 81.82916 moveto
(2) cmr10 9.96265 fshow
newpath -2.12611 127.55905 moveto
2.12611 127.55905 lineto stroke
-10.1074 124.34885 moveto
(3) cmr10 9.96265 fshow
newpath -2.12611 170.07874 moveto
2.12611 170.07874 lineto stroke
-10.1074 166.86853 moveto
(4) cmr10 9.96265 fshow
-7.08128 -14.04816 moveto
(0) cmr10 9.96265 fshow
newpath -21.25984 0 moveto
191.33858 0 lineto stroke
newpath 187.64322 -1.5307 moveto
191.33858 0 lineto
187.64322 1.5307 lineto
 closepath
gsave fill grestore stroke
 0.5 0 dtransform exch truncate exch idtransform pop setlinewidth
newpath 0 -21.25984 moveto
0 191.33858 lineto stroke
 0 0.5 dtransform truncate idtransform setlinewidth pop
newpath 1.5307 187.64322 moveto
0 191.33858 lineto
-1.5307 187.64322 lineto
 closepath
gsave fill grestore stroke
 1 0 0 setrgbcolor
107.42395 31.52524 moveto
(y) cmmi10 9.96265 fshow
115.43324 31.52524 moveto
(=) cmr10 9.96265 fshow
125.94925 31.52524 moveto
(ln\() cmr10 9.96265 fshow
138.12585 31.52524 moveto
(x) cmmi10 9.96265 fshow
143.81985 31.52524 moveto
(\)) cmr10 9.96265 fshow
 0 0 1 setrgbcolor
11.52751 125.21864 moveto
(y) cmmi10 9.96265 fshow
19.5368 125.21864 moveto
(=) cmr10 9.96265 fshow
30.05281 125.21864 moveto
(e) cmr10 9.96265 fshow
34.48071 128.83405 moveto
(x) cmmi7 6.97385 fshow
 0 0 0 setrgbcolor
87.13936 78.64987 moveto
(y) cmmi10 9.96265 fshow
95.14865 78.64987 moveto
(=) cmr10 9.96265 fshow
105.66466 78.64987 moveto
(x) cmmi10 9.96265 fshow
showpage
%%EOF
