%!PS
%%BoundingBox: -15 -132 298 100 
%%HiResBoundingBox: -14.42323 -131.20563 297.88774 99.46259 
%%Creator: MetaPost 2.02
%%CreationDate: 2023.03.26:1733
%%Pages: 1
%*Font: cmr10 6.97382 9.96265 30:ffc
%*Font: cmsy10 6.97382 9.96265 00:8
%*Font: cmmi10 9.96265 9.96265 78:c
%*Font: cmr10 9.96265 9.96265 28:c0000400000000000a
%%BeginProlog
%%EndProlog
%%Page: 1 1
 1 0 0 setrgbcolor 0 1.3 dtransform truncate idtransform setlinewidth pop
 [] 0 setdash 1 setlinecap 1 setlinejoin 10 setmiterlimit
newpath 0.28331 -130.55562 moveto
0.33931 -123.9985 0.43388 -117.44177 0.56705 -110.88577 curveto
0.64482 -107.0566 0.73576 -103.22769 0.85036 -99.39943 curveto
0.9317 -96.68196 1.02498 -93.96486 1.13367 -91.24835 curveto
1.21802 -89.14018 1.31165 -87.0324 1.41698 -84.92517 curveto
1.50308 -83.20251 1.59702 -81.48027 1.70029 -79.75856 curveto
1.78766 -78.30191 1.88173 -76.84569 1.9836 -75.38998 curveto
2.0719 -74.12813 2.16606 -72.86668 2.2669 -71.60576 curveto
2.35593 -70.49255 2.45015 -69.37975 2.55022 -68.26747 curveto
2.6398 -67.27162 2.73407 -66.27618 2.83353 -65.28127 curveto
2.92358 -64.38043 3.01788 -63.48001 3.11684 -62.58011 curveto
3.20728 -61.75755 3.30159 -60.93542 3.40013 -60.1138 curveto
3.49089 -59.35713 3.58524 -58.6009 3.68344 -57.84517 curveto
3.77448 -57.14459 3.86884 -56.44444 3.96675 -55.7448 curveto
4.05803 -55.09251 4.15239 -54.44066 4.25006 -53.7893 curveto
4.34155 -53.17912 4.43593 -52.5694 4.53337 -51.96013 curveto
4.62506 -51.38686 4.71944 -50.81404 4.81668 -50.24168 curveto
4.90852 -49.70114 5.0029 -49.16104 5.09999 -48.62141 curveto
5.19197 -48.11014 5.28638 -47.5993 5.3833 -47.08894 curveto
5.47542 -46.60391 5.56982 -46.11932 5.66661 -45.63521 curveto
5.75885 -45.17383 5.85327 -44.71288 5.94992 -44.2524 curveto
6.04228 -43.81236 6.13667 -43.37274 6.23323 -42.93361 curveto
6.32567 -42.51318 6.42009 -42.09317 6.51654 -41.67365 curveto
6.79985 -40.46732 lineto
7.08315 -39.31029 lineto
7.36646 -38.19867 lineto
7.64977 -37.12903 lineto
7.93307 -36.0983 lineto
8.21638 -35.10347 lineto
8.4997 -34.14238 lineto
8.783 -33.21288 lineto
9.06631 -32.3132 lineto
9.34962 -31.4408 lineto
9.63293 -30.59476 lineto
9.91624 -29.77295 lineto
10.19955 -28.97449 lineto
10.48286 -28.19809 lineto
10.76617 -27.44203 lineto
11.04947 -26.70586 lineto
11.33278 -25.98828 lineto
11.61609 -25.28801 lineto
11.8994 -24.60504 lineto
12.18271 -23.93808 lineto
12.46602 -23.28668 lineto
12.74933 -22.64957 lineto
13.03264 -22.02629 lineto
13.31595 -21.41685 lineto
13.59926 -20.81995 lineto
13.88257 -20.2356 lineto
14.16588 -19.66293 lineto
14.44919 -19.1015 lineto
14.73248 -18.55132 lineto
15.0158 -18.01152 lineto
15.2991 -17.48167 lineto
15.58241 -16.96133 lineto
15.86572 -16.45052 lineto
16.14903 -15.94878 lineto
16.43234 -15.45612 lineto
16.71565 -14.97125 lineto
16.99896 -14.49503 lineto
17.28227 -14.0266 lineto
17.56558 -13.56552 lineto
17.84889 -13.11179 lineto
18.1322 -12.66542 lineto
18.4155 -12.22597 lineto
18.6988 -11.79343 lineto
18.98212 -11.36696 lineto
19.26543 -10.94696 lineto
19.54874 -10.53346 lineto
19.83205 -10.12558 lineto
20.11536 -9.72333 lineto
20.39867 -9.3267 lineto
20.68198 -8.93613 lineto
20.96529 -8.55031 lineto
21.2486 -8.16968 lineto
21.5319 -7.79424 lineto
21.81522 -7.42398 lineto
22.09853 -7.05806 lineto
22.38182 -6.6969 lineto
22.66513 -6.3405 lineto
22.94844 -5.98842 lineto
23.23175 -5.64023 lineto
23.51506 -5.2968 lineto
23.79837 -4.95726 lineto
24.08168 -4.62204 lineto
24.36499 -4.29028 lineto
24.6483 -3.96286 lineto
24.93161 -3.6389 lineto
25.21492 -3.31839 lineto
25.49823 -3.00177 lineto
25.78154 -2.68863 lineto
26.06483 -2.3785 lineto
26.34814 -2.07227 lineto
26.63145 -1.76906 lineto
26.91476 -1.46931 lineto
27.19807 -1.17216 lineto
27.48138 -0.87848 lineto
27.7647 -0.58781 lineto
28.048 -0.30017 lineto
28.33131 -0.01514 lineto
28.61462 0.26688 lineto
28.89793 0.5463 lineto
29.18124 0.82268 lineto
29.46455 1.09647 lineto
29.74786 1.36766 lineto
30.03116 1.6367 lineto
30.31447 1.90271 lineto
30.59778 2.16655 lineto
30.88109 2.42781 lineto
31.1644 2.68646 lineto
31.44771 2.94295 lineto
31.73102 3.19728 lineto
32.01433 3.44945 lineto
32.29764 3.69902 lineto
32.58095 3.94643 lineto
32.86426 4.19211 lineto
33.14757 4.4352 lineto
33.43088 4.67654 lineto
33.71417 4.91573 lineto
33.99748 5.15276 lineto
34.28079 5.38806 lineto
34.5641 5.62163 lineto
34.84741 5.85303 lineto
35.13072 6.08228 lineto
35.41403 6.31021 lineto
35.69734 6.536 lineto
35.98065 6.76006 lineto
36.26396 6.98238 lineto
36.54727 7.20296 lineto
36.83058 7.42183 lineto
37.11389 7.63896 lineto
37.39719 7.8548 lineto
37.6805 8.06847 lineto
37.9638 8.28084 lineto
38.24712 8.49149 lineto
38.53043 8.70082 lineto
38.81374 8.90845 lineto
39.09705 9.11476 lineto
39.38036 9.31935 lineto
39.66367 9.52263 lineto
39.94698 9.7242 lineto
40.23029 9.92445 lineto
40.5136 10.12343 lineto
40.7969 10.32109 lineto
41.08022 10.51703 lineto
41.36351 10.7121 lineto
41.64682 10.90544 lineto
41.93013 11.09792 lineto
42.21344 11.28867 lineto
42.49675 11.47812 lineto
42.78006 11.6667 lineto
43.06337 11.85355 lineto
43.34668 12.03954 lineto
43.62999 12.22423 lineto
43.9133 12.40762 lineto
44.19661 12.59015 lineto
44.47992 12.77095 lineto
44.76323 12.95088 lineto
45.04652 13.12996 lineto
45.32983 13.30772 lineto
45.61314 13.4842 lineto
45.89645 13.6598 lineto
46.17976 13.83412 lineto
46.46307 14.00757 lineto
46.74638 14.17972 lineto
47.0297 14.351 lineto
47.313 14.52141 lineto
47.59631 14.69054 lineto
47.87962 14.8588 lineto
48.16293 15.02618 lineto
48.44624 15.19228 lineto
48.72954 15.3575 lineto
49.01285 15.52187 lineto
49.29616 15.68536 lineto
49.57947 15.84799 lineto
49.86278 16.00932 lineto
50.14609 16.1698 lineto
50.4294 16.3294 lineto
50.7127 16.48857 lineto
50.99602 16.64645 lineto
51.27933 16.80345 lineto
51.56264 16.9596 lineto
51.84595 17.11488 lineto
52.12926 17.26929 lineto
52.41257 17.42284 lineto
52.69586 17.57596 lineto
52.97917 17.72778 lineto
53.26248 17.87917 lineto
53.54579 18.02925 lineto
53.8291 18.17891 lineto
54.11241 18.3277 lineto
54.39572 18.47563 lineto
54.67903 18.62312 lineto
54.96234 18.76932 lineto
55.24565 18.91508 lineto
55.52896 19.06041 lineto
55.81227 19.20444 lineto
56.09558 19.34804 lineto
56.37888 19.49078 lineto
56.66219 19.63309 lineto
56.9455 19.7741 lineto
57.2288 19.9151 lineto
57.51212 20.05481 lineto
57.79543 20.19408 lineto
58.07874 20.33292 lineto
58.36205 20.4709 lineto
58.64536 20.60802 lineto
58.92867 20.74469 lineto
59.21198 20.88051 lineto
59.49529 21.01588 lineto
59.7786 21.1504 lineto
60.0619 21.28448 lineto
60.3452 21.41815 lineto
60.62851 21.55093 lineto
60.91182 21.68286 lineto
61.19513 21.81435 lineto
61.47844 21.9454 lineto
61.76175 22.07559 lineto
62.04506 22.20535 lineto
62.32837 22.33469 lineto
62.61168 22.46315 lineto
62.89499 22.59117 lineto
63.1783 22.71834 lineto
63.46161 22.8455 lineto
63.74492 22.9718 lineto
64.02821 23.09723 lineto
64.31152 23.22267 lineto
64.59483 23.34724 lineto
64.87814 23.47095 lineto
65.16145 23.59465 lineto
65.44476 23.71748 lineto
65.72807 23.83989 lineto
66.01138 23.96187 lineto
66.2947 24.0834 lineto
66.578 24.20409 lineto
66.86131 24.32477 lineto
67.14462 24.44458 lineto
67.42793 24.56395 lineto
67.71123 24.68246 lineto
67.99454 24.80098 lineto
68.27785 24.91907 lineto
68.56116 25.03629 lineto
68.84447 25.15306 lineto
69.12778 25.26941 lineto
69.41109 25.38533 lineto
69.6944 25.50082 lineto
69.9777 25.61588 lineto
70.26102 25.7305 lineto
70.54433 25.84468 lineto
70.82764 25.95801 lineto
71.11095 26.07133 lineto
71.39426 26.18422 lineto
71.67755 26.29625 lineto
71.96086 26.40828 lineto
72.24417 26.51944 lineto
72.52748 26.6306 lineto
72.81079 26.74089 lineto
73.0941 26.85118 lineto
73.37741 26.96062 lineto
73.66072 27.07005 lineto
73.94403 27.17862 lineto
74.22734 27.28719 lineto
74.51065 27.39531 lineto
74.79396 27.50258 lineto
75.07727 27.60985 lineto
75.36057 27.71669 lineto
75.64388 27.82309 lineto
75.92719 27.92906 lineto
76.2105 28.03459 lineto
76.4938 28.1397 lineto
76.77711 28.24437 lineto
77.06042 28.34904 lineto
77.34373 28.45285 lineto
77.62704 28.55666 lineto
77.91035 28.66003 lineto
78.19366 28.76299 lineto
78.47697 28.8655 lineto
78.76028 28.96758 lineto
79.04358 29.06921 lineto
79.32689 29.17043 lineto
79.6102 29.27164 lineto
79.89351 29.37242 lineto
80.17682 29.47276 lineto
80.46013 29.57268 lineto
80.74344 29.67216 lineto
81.02675 29.77165 lineto
81.31006 29.8707 lineto
81.59337 29.96931 lineto
81.87668 30.0675 lineto
82.15999 30.16525 lineto
82.4433 30.263 lineto
82.72661 30.36032 lineto
83.0099 30.45721 lineto
83.29321 30.55367 lineto
83.57652 30.65012 lineto
83.85983 30.74571 lineto
84.14314 30.8413 lineto
84.42645 30.93689 lineto
84.70976 31.03162 lineto
84.99307 31.12634 lineto
85.27638 31.22063 lineto
85.5597 31.31448 lineto
85.843 31.40836 lineto
86.12631 31.50177 lineto
86.40962 31.59477 lineto
86.69292 31.68776 lineto
86.97623 31.78032 lineto
87.25954 31.87245 lineto
87.54285 31.96416 lineto
87.82616 32.05585 lineto
88.10947 32.14711 lineto
88.39278 32.23795 lineto
88.67609 32.32878 lineto
88.9594 32.41917 lineto
89.2427 32.50914 lineto
89.52602 32.5991 lineto
89.80933 32.68864 lineto
90.09264 32.77818 lineto
90.37595 32.86685 lineto
90.65924 32.95595 lineto
90.94255 33.04419 lineto
91.22586 33.13242 lineto
91.50917 33.22023 lineto
91.79248 33.30803 lineto
92.07579 33.3954 lineto
92.3591 33.48235 lineto
92.64241 33.56927 lineto
92.92572 33.65579 lineto
93.20903 33.74187 lineto
93.49234 33.82794 lineto
93.77565 33.91357 lineto
94.05896 33.99922 lineto
94.34225 34.08443 lineto
94.62556 34.16963 lineto
94.90887 34.25441 lineto
95.19218 34.33876 lineto
95.4755 34.4231 lineto
95.7588 34.507 lineto
96.04211 34.59093 lineto
96.32542 34.67441 lineto
96.60873 34.75745 lineto
96.89204 34.8405 lineto
97.17535 34.92311 lineto
97.45866 35.00572 lineto
97.74197 35.0879 lineto
98.02527 35.17009 lineto
98.30858 35.25183 lineto
98.59189 35.33359 lineto
98.8752 35.4149 lineto
99.15851 35.49577 lineto
99.44182 35.57666 lineto
99.72513 35.65755 lineto
100.00844 35.73799 lineto
100.29175 35.81802 lineto
100.57506 35.89804 lineto
100.85837 35.97762 lineto
101.14168 36.0572 lineto
101.42499 36.13637 lineto
101.7083 36.21552 lineto
101.9916 36.29466 lineto
102.2749 36.37296 lineto
102.55821 36.45168 lineto
102.84152 36.52954 lineto
103.12483 36.60782 lineto
103.40814 36.68568 lineto
103.69145 36.7631 lineto
103.97476 36.84053 lineto
104.25807 36.91751 lineto
104.54138 36.9945 lineto
104.82469 37.07106 lineto
105.108 37.14763 lineto
105.39131 37.22375 lineto
105.6746 37.29988 lineto
105.95792 37.376 lineto
106.24123 37.45169 lineto
106.52454 37.52695 lineto
106.80785 37.60222 lineto
107.09116 37.67747 lineto
107.37447 37.7523 lineto
107.65778 37.82713 lineto
107.94109 37.90152 lineto
108.2244 37.97592 lineto
108.5077 38.04988 lineto
108.79102 38.12386 lineto
109.07433 38.19781 lineto
109.35764 38.27135 lineto
109.64093 38.34444 lineto
109.92424 38.41754 lineto
110.20755 38.49063 lineto
110.49086 38.56331 lineto
110.77417 38.63597 lineto
111.05748 38.7082 lineto
111.34079 38.78043 lineto
111.6241 38.85266 lineto
111.90741 38.92447 lineto
112.19072 38.99626 lineto
112.47403 39.06763 lineto
112.75734 39.139 lineto
113.04065 39.20993 lineto
113.32394 39.28087 lineto
113.60725 39.3518 lineto
113.89056 39.42232 lineto
114.17387 39.49281 lineto
114.45718 39.56332 lineto
114.7405 39.63339 lineto
115.0238 39.70302 lineto
115.30711 39.77266 lineto
115.59042 39.8423 lineto
115.87373 39.91194 lineto
116.15704 39.98114 lineto
116.44035 40.04991 lineto
116.72366 40.11913 lineto
117.00696 40.18745 lineto
117.29027 40.25624 lineto
117.57358 40.32457 lineto
117.85689 40.39291 lineto
118.1402 40.46082 lineto
118.42351 40.52873 lineto
118.70682 40.59663 lineto
118.99013 40.66411 lineto
119.27344 40.73158 lineto
119.55675 40.79863 lineto
119.84006 40.86568 lineto
120.12337 40.93271 lineto
120.40668 40.99976 lineto
120.68999 41.06636 lineto
120.97328 41.13254 lineto
121.25659 41.19872 lineto
121.5399 41.2649 lineto
121.82321 41.33107 lineto
122.10652 41.39682 lineto
122.38983 41.46257 lineto
122.67314 41.5283 lineto
122.95645 41.59363 lineto
123.23976 41.65894 lineto
123.52307 41.72382 lineto
123.80638 41.7887 lineto
124.08969 41.85358 lineto
124.373 41.91846 lineto
124.6563 41.98291 lineto
124.9396 42.04692 lineto
125.22292 42.11136 lineto
125.50623 42.17538 lineto
125.78954 42.2394 lineto
126.07285 42.30298 lineto
126.35616 42.36656 lineto
126.63947 42.43015 lineto
126.92278 42.49373 lineto
127.20609 42.55687 lineto
127.4894 42.6196 lineto
127.7727 42.68274 lineto
128.05602 42.74545 lineto
128.33931 42.80818 lineto
128.62262 42.87045 lineto
128.90593 42.93318 lineto
129.18924 42.99503 lineto
129.47255 43.05731 lineto
129.75586 43.11917 lineto
130.03917 43.18102 lineto
130.32248 43.24287 lineto
130.60579 43.30429 lineto
130.8891 43.3657 lineto
131.17241 43.42712 lineto
131.45572 43.48811 lineto
131.73903 43.5491 lineto
132.02234 43.61009 lineto
132.30563 43.67108 lineto
132.58894 43.73163 lineto
132.87225 43.79219 lineto
133.15556 43.85231 lineto
133.43887 43.91286 lineto
133.72218 43.97299 lineto
134.0055 44.03267 lineto
134.2888 44.0928 lineto
134.57211 44.15248 lineto
134.85542 44.21217 lineto
135.13873 44.27144 lineto
135.42204 44.33069 lineto
135.70535 44.38995 lineto
135.98865 44.4492 lineto
136.27196 44.50803 lineto
136.55527 44.56729 lineto
136.83858 44.62567 lineto
137.12189 44.6845 lineto
137.4052 44.74289 lineto
137.6885 44.80128 lineto
137.97182 44.85968 lineto
138.25513 44.91763 lineto
138.53844 44.9756 lineto
138.82175 45.03355 lineto
139.10506 45.0915 lineto
139.38837 45.14905 lineto
139.67168 45.20657 lineto
139.95497 45.2641 lineto
140.23828 45.32162 lineto
140.52159 45.37872 lineto
140.8049 45.4358 lineto
141.08821 45.4929 lineto
141.37152 45.54956 lineto
141.65483 45.60623 lineto
141.93814 45.66289 lineto
142.22145 45.71956 lineto
142.50476 45.77579 lineto
142.78807 45.83244 lineto
143.07138 45.88824 lineto
143.35469 45.94447 lineto
143.63799 46.00026 lineto
143.9213 46.05649 lineto
144.2046 46.11186 lineto
144.48792 46.16765 lineto
144.77122 46.22302 lineto
145.05453 46.27882 lineto
145.33784 46.33376 lineto
145.62115 46.38911 lineto
145.90446 46.44405 lineto
146.18777 46.4994 lineto
146.47108 46.55391 lineto
146.7544 46.60884 lineto
147.0377 46.66377 lineto
147.321 46.71826 lineto
147.60431 46.77277 lineto
147.88762 46.82683 lineto
148.17093 46.88133 lineto
148.45424 46.9354 lineto
148.73755 46.98947 lineto
149.02086 47.04353 lineto
149.30417 47.09717 lineto
149.58748 47.1508 lineto
149.87079 47.20444 lineto
150.1541 47.25807 lineto
150.43741 47.3117 lineto
150.72072 47.3649 lineto
151.00403 47.4181 lineto
151.28732 47.47131 lineto
151.57063 47.52408 lineto
151.85394 47.57729 lineto
152.13725 47.63005 lineto
152.42056 47.68282 lineto
152.70387 47.73558 lineto
152.98718 47.78792 lineto
153.2705 47.84026 lineto
153.5538 47.8926 lineto
153.83711 47.94493 lineto
154.12042 47.99727 lineto
154.40373 48.04918 lineto
154.68704 48.10107 lineto
154.97034 48.15298 lineto
155.25365 48.20488 lineto
155.53696 48.25635 lineto
155.82027 48.30826 lineto
156.10358 48.35973 lineto
156.38689 48.41077 lineto
156.6702 48.46223 lineto
156.9535 48.51328 lineto
157.23682 48.56474 lineto
157.52013 48.61578 lineto
157.80344 48.6664 lineto
158.08675 48.71744 lineto
158.37006 48.76804 lineto
158.65337 48.81865 lineto
158.93666 48.86925 lineto
159.21997 48.91986 lineto
159.50328 48.97046 lineto
159.78659 49.02065 lineto
160.0699 49.07082 lineto
160.35321 49.12099 lineto
160.63652 49.17116 lineto
160.91983 49.2209 lineto
161.20314 49.27065 lineto
161.48645 49.32039 lineto
161.76976 49.37013 lineto
162.05307 49.41986 lineto
162.33638 49.46918 lineto
162.61967 49.51892 lineto
162.90298 49.56822 lineto
163.1863 49.61754 lineto
163.4696 49.66641 lineto
163.75291 49.71571 lineto
164.03622 49.7646 lineto
164.31953 49.81348 lineto
164.60284 49.86235 lineto
164.88615 49.91122 lineto
165.16946 49.95967 lineto
165.45277 50.00854 lineto
165.73608 50.05699 lineto
166.0194 50.10544 lineto
166.30269 50.15344 lineto
166.586 50.20189 lineto
166.86931 50.2499 lineto
167.15262 50.29791 lineto
167.43593 50.34592 lineto
167.71924 50.39394 lineto
168.00255 50.44194 lineto
168.28586 50.48952 lineto
168.56917 50.5371 lineto
168.85248 50.58511 lineto
169.13579 50.63226 lineto
169.4191 50.67984 lineto
169.70241 50.72742 lineto
169.98572 50.77457 lineto
170.26901 50.8217 lineto
170.55232 50.86885 lineto
170.83563 50.916 lineto
171.11894 50.9627 lineto
171.40225 51.00986 lineto
171.68556 51.05656 lineto
171.96887 51.10329 lineto
172.25218 51.15 lineto
172.53549 51.19672 lineto
172.8188 51.243 lineto
173.10211 51.2897 lineto
173.38542 51.33598 lineto
173.66873 51.38226 lineto
173.95203 51.42854 lineto
174.23534 51.4744 lineto
174.51865 51.52068 lineto
174.80196 51.56653 lineto
175.08527 51.61238 lineto
175.36858 51.65822 lineto
175.65189 51.70407 lineto
175.9352 51.74948 lineto
176.2185 51.79533 lineto
176.50182 51.84076 lineto
176.78513 51.88617 lineto
177.06844 51.93158 lineto
177.35175 51.977 lineto
177.63504 52.02242 lineto
177.91835 52.0674 lineto
178.20166 52.11238 lineto
178.48497 52.15736 lineto
178.76828 52.20235 lineto
179.05159 52.24733 lineto
179.3349 52.29231 lineto
179.61821 52.33687 lineto
179.90152 52.38142 lineto
180.18483 52.4264 lineto
180.46814 52.47095 lineto
180.75145 52.51508 lineto
181.03476 52.55962 lineto
181.31807 52.60374 lineto
181.60136 52.64828 lineto
181.88467 52.69241 lineto
182.16798 52.73653 lineto
182.4513 52.78064 lineto
182.7346 52.82477 lineto
183.01791 52.86845 lineto
183.30122 52.91214 lineto
183.58453 52.95625 lineto
183.86784 52.99994 lineto
184.15115 53.04362 lineto
184.43446 53.08688 lineto
184.71777 53.13057 lineto
185.00108 53.17381 lineto
185.28438 53.2175 lineto
185.56769 53.26076 lineto
185.851 53.30402 lineto
186.13431 53.34726 lineto
186.41762 53.39009 lineto
186.70093 53.43333 lineto
186.98424 53.47615 lineto
187.26755 53.51898 lineto
187.55086 53.5618 lineto
187.83417 53.60461 lineto
188.11748 53.64745 lineto
188.40079 53.69026 lineto
188.6841 53.73265 lineto
188.9674 53.77547 lineto
189.2507 53.81786 lineto
189.53401 53.86024 lineto
189.81732 53.90263 lineto
190.10063 53.9446 lineto
190.38394 53.98698 lineto
190.66725 54.02893 lineto
190.95056 54.07132 lineto
191.23387 54.11328 lineto
191.51718 54.15523 lineto
191.80049 54.19719 lineto
192.0838 54.23915 lineto
192.36711 54.28067 lineto
192.65042 54.32262 lineto
192.93372 54.36415 lineto
193.21703 54.40567 lineto
193.50034 54.44719 lineto
193.78365 54.48871 lineto
194.06696 54.53024 lineto
194.35027 54.57133 lineto
194.63358 54.61285 lineto
194.91689 54.65395 lineto
195.2002 54.69504 lineto
195.4835 54.73613 lineto
195.76682 54.77722 lineto
196.05013 54.8183 lineto
196.33344 54.85939 lineto
196.61673 54.90005 lineto
196.90004 54.94115 lineto
197.18335 54.9818 lineto
197.46666 55.02246 lineto
197.74997 55.06313 lineto
198.03328 55.10378 lineto
198.31659 55.144 lineto
198.5999 55.18466 lineto
198.88321 55.22488 lineto
199.16652 55.26555 lineto
199.44983 55.30577 lineto
199.73314 55.346 lineto
200.01645 55.38622 lineto
200.29976 55.42601 lineto
200.58305 55.46623 lineto
200.86636 55.50647 lineto
201.14967 55.54626 lineto
201.43298 55.58604 lineto
201.7163 55.62584 lineto
201.9996 55.66563 lineto
202.28291 55.70543 lineto
202.56622 55.74522 lineto
202.84953 55.78458 lineto
203.13284 55.82437 lineto
203.41615 55.86374 lineto
203.69946 55.90309 lineto
203.98277 55.94289 lineto
204.26607 55.98181 lineto
204.54938 56.02118 lineto
204.83269 56.06053 lineto
205.116 56.0999 lineto
205.3993 56.13882 lineto
205.68262 56.17775 lineto
205.96593 56.21712 lineto
206.24924 56.25604 lineto
206.53255 56.29497 lineto
206.81586 56.33347 lineto
207.09917 56.37239 lineto
207.38248 56.41132 lineto
207.66579 56.44981 lineto
207.9491 56.48874 lineto
208.23239 56.52724 lineto
208.5157 56.56573 lineto
208.79901 56.60423 lineto
209.08232 56.64273 lineto
209.36563 56.68079 lineto
209.64894 56.71928 lineto
209.93225 56.75778 lineto
210.21556 56.79584 lineto
210.49887 56.83391 lineto
210.78218 56.87196 lineto
211.06549 56.91003 lineto
211.3488 56.94809 lineto
211.63211 56.98616 lineto
211.9154 57.02422 lineto
212.19872 57.06186 lineto
212.48203 57.09991 lineto
212.76534 57.13754 lineto
213.04865 57.17517 lineto
213.33195 57.2128 lineto
213.61526 57.25044 lineto
213.89857 57.28807 lineto
214.18188 57.3257 lineto
214.4652 57.36333 lineto
214.7485 57.40053 lineto
215.03181 57.43816 lineto
215.31512 57.47536 lineto
215.59842 57.51256 lineto
215.88173 57.54974 lineto
216.16504 57.58694 lineto
216.44835 57.62415 lineto
216.73166 57.66135 lineto
217.01497 57.6981 lineto
217.29828 57.7353 lineto
217.58159 57.77206 lineto
217.8649 57.80884 lineto
218.14821 57.84604 lineto
218.43152 57.8828 lineto
218.71483 57.91957 lineto
218.99814 57.9559 lineto
219.28145 57.99266 lineto
219.56474 58.02943 lineto
219.84805 58.06577 lineto
220.13136 58.10252 lineto
220.41467 58.13885 lineto
220.69798 58.17519 lineto
220.9813 58.21152 lineto
221.2646 58.24785 lineto
221.54791 58.2842 lineto
221.83122 58.32053 lineto
222.11453 58.35641 lineto
222.39784 58.39276 lineto
222.68115 58.42865 lineto
222.96446 58.46498 lineto
223.24776 58.50089 lineto
223.53107 58.53679 lineto
223.81438 58.5727 lineto
224.09769 58.60858 lineto
224.381 58.64449 lineto
224.6643 58.67996 lineto
224.94762 58.71585 lineto
225.23093 58.75175 lineto
225.51424 58.78723 lineto
225.79755 58.8227 lineto
226.08086 58.85815 lineto
226.36417 58.89363 lineto
226.64748 58.9291 lineto
226.93077 58.96457 lineto
227.21408 59.00003 lineto
227.49739 59.03549 lineto
227.7807 59.07053 lineto
228.06401 59.106 lineto
228.34732 59.14104 lineto
228.63063 59.17607 lineto
228.91394 59.21153 lineto
229.19725 59.24657 lineto
229.48056 59.28162 lineto
229.76387 59.31621 lineto
230.04718 59.35124 lineto
230.33049 59.38628 lineto
230.6138 59.42088 lineto
230.8971 59.45592 lineto
231.1804 59.49052 lineto
231.46371 59.52513 lineto
231.74702 59.56017 lineto
232.03033 59.59476 lineto
232.31364 59.62936 lineto
232.59695 59.66397 lineto
232.88026 59.69814 lineto
233.16357 59.73274 lineto
233.44688 59.76735 lineto
233.7302 59.80151 lineto
234.0135 59.83568 lineto
234.29681 59.87029 lineto
234.58011 59.90445 lineto
234.86342 59.93863 lineto
235.14673 59.9728 lineto
235.43004 60.00697 lineto
235.71335 60.04114 lineto
235.99666 60.07487 lineto
236.27997 60.10904 lineto
236.56328 60.14322 lineto
236.84659 60.17696 lineto
237.1299 60.2107 lineto
237.41321 60.24486 lineto
237.69652 60.2786 lineto
237.97983 60.31233 lineto
238.26314 60.34607 lineto
238.54643 60.3798 lineto
238.82974 60.41354 lineto
239.11305 60.44685 lineto
239.39636 60.48059 lineto
239.67967 60.5139 lineto
239.96298 60.54764 lineto
240.24629 60.58093 lineto
240.5296 60.61424 lineto
240.81291 60.64755 lineto
241.09622 60.68129 lineto
241.37953 60.71458 lineto
241.66284 60.74747 lineto
241.94615 60.78076 lineto
242.22945 60.81407 lineto
242.51276 60.84694 lineto
242.79607 60.88025 lineto
243.07938 60.91312 lineto
243.36269 60.94643 lineto
243.646 60.9793 lineto
243.9293 61.01218 lineto
244.21262 61.04504 lineto
244.49593 61.07791 lineto
244.77924 61.1108 lineto
245.06255 61.14366 lineto
245.34586 61.17653 lineto
245.62917 61.20897 lineto
245.91246 61.24185 lineto
246.19577 61.27429 lineto
246.47908 61.30716 lineto
246.76239 61.3396 lineto
247.0457 61.37204 lineto
247.32901 61.40448 lineto
247.61232 61.43692 lineto
247.89563 61.46936 lineto
248.17894 61.5018 lineto
248.46225 61.53424 lineto
248.74556 61.56668 lineto
249.02887 61.59868 lineto
249.31218 61.63112 lineto
249.59549 61.66313 lineto
249.87878 61.69514 lineto
250.1621 61.72758 lineto
250.4454 61.75958 lineto
250.72871 61.7916 lineto
251.01202 61.82361 lineto
251.29533 61.8556 lineto
251.57864 61.88762 lineto
251.86195 61.91919 lineto
252.14526 61.9512 lineto
252.42857 61.9832 lineto
252.71188 62.01479 lineto
252.9952 62.04678 lineto
253.2785 62.07837 lineto
253.5618 62.10994 lineto
253.84511 62.14151 lineto
254.12842 62.17352 lineto
254.41173 62.2051 lineto
254.69504 62.23666 lineto
254.97835 62.2678 lineto
255.26166 62.2994 lineto
255.54497 62.33096 lineto
255.82828 62.36253 lineto
256.11159 62.39368 lineto
256.3949 62.42482 lineto
256.6782 62.45639 lineto
256.96152 62.48753 lineto
257.24481 62.51868 lineto
257.52812 62.55026 lineto
257.81143 62.5814 lineto
258.09474 62.61255 lineto
258.37805 62.64325 lineto
258.66136 62.6744 lineto
258.94467 62.70554 lineto
259.22798 62.73668 lineto
259.51129 62.7674 lineto
259.7946 62.79852 lineto
260.07791 62.82924 lineto
260.36122 62.86038 lineto
260.64453 62.8911 lineto
260.92784 62.9218 lineto
261.21114 62.95251 lineto
261.49445 62.98322 lineto
261.77776 63.01393 lineto
262.06107 63.04465 lineto
262.34438 63.07535 lineto
262.62769 63.10606 lineto
262.911 63.13634 lineto
263.1943 63.16705 lineto
263.47762 63.19733 lineto
263.76093 63.22804 lineto
264.04424 63.25832 lineto
264.32755 63.28859 lineto
264.61086 63.3193 lineto
264.89415 63.34958 lineto
265.17746 63.37985 lineto
265.46077 63.41013 lineto
265.74408 63.44041 lineto
266.02739 63.47026 lineto
266.3107 63.50053 lineto
266.59401 63.5308 lineto
266.87732 63.56108 lineto
267.16063 63.59093 lineto
267.44394 63.6212 lineto
267.72725 63.65105 lineto
268.01056 63.6809 lineto
268.29387 63.71074 lineto
268.57718 63.74101 lineto
268.86047 63.77086 lineto
269.14378 63.8007 lineto
269.4271 63.83055 lineto
269.7104 63.8604 lineto
269.99371 63.88982 lineto
270.27702 63.91966 lineto
270.56033 63.9495 lineto
270.84364 63.97891 lineto
271.12695 64.00876 lineto
271.41026 64.03816 lineto
271.69357 64.06801 lineto
271.97688 64.09743 lineto
272.2602 64.12683 lineto
272.54349 64.15625 lineto
272.8268 64.18567 lineto
273.1101 64.2155 lineto
273.39342 64.24449 lineto
273.67673 64.2739 lineto
273.96004 64.30331 lineto
274.24335 64.33272 lineto
274.52666 64.36214 lineto
274.80997 64.39111 lineto
275.09328 64.42053 lineto
275.37659 64.44951 lineto
275.6599 64.47891 lineto
275.9432 64.5079 lineto
276.2265 64.53688 lineto
276.50981 64.56586 lineto
276.79312 64.59483 lineto
277.07643 64.62383 lineto
277.35974 64.6528 lineto
277.64305 64.68178 lineto
277.92636 64.71075 lineto
278.20967 64.73973 lineto
278.49298 64.76872 lineto
278.77629 64.79726 lineto
279.0596 64.82625 lineto
279.34291 64.8548 lineto
279.62622 64.88377 lineto
279.90953 64.91232 lineto
280.19283 64.94086 lineto
280.47614 64.96985 lineto
280.75945 64.9984 lineto
281.04276 65.02693 lineto
281.32607 65.05548 lineto
281.60938 65.08403 lineto
281.89268 65.11258 lineto
282.176 65.14113 lineto
282.4593 65.16924 lineto
282.74261 65.19778 lineto
283.02592 65.22633 lineto
283.30923 65.25446 lineto stroke
 0 0 0 setrgbcolor 0 1.1 dtransform truncate idtransform setlinewidth pop
newpath -5.6692 -34.01566 moveto
85.03935 56.6929 lineto stroke
 0.5 0 dtransform exch truncate exch idtransform pop setlinewidth
newpath 28.34645 -2.26776 moveto
28.34645 2.26776 lineto stroke
26.603 -10.32909 moveto
(1) cmr10 6.97382 fshow
newpath 56.6929 -2.26776 moveto
56.6929 2.26776 lineto stroke
54.94945 -10.32909 moveto
(2) cmr10 6.97382 fshow
newpath 85.03935 -2.26776 moveto
85.03935 2.26776 lineto stroke
83.2959 -10.32909 moveto
(3) cmr10 6.97382 fshow
newpath 113.3858 -2.26776 moveto
113.3858 2.26776 lineto stroke
111.64235 -10.32909 moveto
(4) cmr10 6.97382 fshow
newpath 141.73225 -2.26776 moveto
141.73225 2.26776 lineto stroke
139.9888 -10.32909 moveto
(5) cmr10 6.97382 fshow
newpath 170.0787 -2.26776 moveto
170.0787 2.26776 lineto stroke
168.33525 -10.32909 moveto
(6) cmr10 6.97382 fshow
newpath 198.42516 -2.26776 moveto
198.42516 2.26776 lineto stroke
196.6817 -10.32909 moveto
(7) cmr10 6.97382 fshow
newpath 226.7716 -2.26776 moveto
226.7716 2.26776 lineto stroke
225.02815 -10.32909 moveto
(8) cmr10 6.97382 fshow
newpath 255.11806 -2.26776 moveto
255.11806 2.26776 lineto stroke
253.3746 -10.32909 moveto
(9) cmr10 6.97382 fshow
newpath 283.46451 -2.26776 moveto
283.46451 2.26776 lineto stroke
279.97757 -10.32909 moveto
(10) cmr10 6.97382 fshow
 0 0.5 dtransform truncate idtransform setlinewidth pop
newpath -1.4174 28.34645 moveto
1.4174 28.34645 lineto stroke
-7.9043 26.09932 moveto
(1) cmr10 6.97382 fshow
newpath -1.4174 56.6929 moveto
1.4174 56.6929 lineto stroke
-7.9043 54.44577 moveto
(2) cmr10 6.97382 fshow
newpath -1.4174 85.03935 moveto
1.4174 85.03935 lineto stroke
-7.9043 82.79222 moveto
(3) cmr10 6.97382 fshow
newpath -1.4174 -113.3858 moveto
1.4174 -113.3858 lineto stroke
-13.32843 -115.34238 moveto
(\000) cmsy10 6.97382 fshow
-7.90436 -115.34238 moveto
(4) cmr10 6.97382 fshow
newpath -1.4174 -85.03935 moveto
1.4174 -85.03935 lineto stroke
-13.32843 -86.99593 moveto
(\000) cmsy10 6.97382 fshow
-7.90436 -86.99593 moveto
(3) cmr10 6.97382 fshow
newpath -1.4174 -56.6929 moveto
1.4174 -56.6929 lineto stroke
-13.32843 -58.64948 moveto
(\000) cmsy10 6.97382 fshow
-7.90436 -58.64948 moveto
(2) cmr10 6.97382 fshow
newpath -1.4174 -28.34645 moveto
1.4174 -28.34645 lineto stroke
-13.32843 -30.30302 moveto
(\000) cmsy10 6.97382 fshow
-7.90436 -30.30302 moveto
(1) cmr10 6.97382 fshow
-5.58688 -10.27943 moveto
(0) cmr10 6.97382 fshow
newpath -14.17323 0 moveto
297.63774 0 lineto stroke
newpath 293.941 -1.53128 moveto
297.63774 0 lineto
293.941 1.53128 lineto
 closepath
gsave fill grestore stroke
 0.5 0 dtransform exch truncate exch idtransform pop setlinewidth
newpath 0 -127.55904 moveto
0 99.21259 lineto stroke
 0 0.5 dtransform truncate idtransform setlinewidth pop
newpath 1.53079 95.51701 moveto
0 99.21259 lineto
-1.53079 95.51701 lineto
 closepath
gsave fill grestore stroke
 1 0 0 setrgbcolor
121.59715 54.20226 moveto
(y) cmmi10 9.96265 fshow
129.60645 54.20226 moveto
(=) cmr10 9.96265 fshow
140.12245 54.20226 moveto
(ln\() cmr10 9.96265 fshow
152.29906 54.20226 moveto
(x) cmmi10 9.96265 fshow
157.99306 54.20226 moveto
(\)) cmr10 9.96265 fshow
showpage
%%EOF
