input TEX;

verbatimtex
%&latex
 \documentclass[8cm]{article}
 \usepackage[latin1]{inputenc}
 \usepackage[frenchb]{babel}
 \usepackage{amsmath}
 \begin{document}
etex

outputtemplate := "courbe_exp.mps";
beginfig(1)
  u:=.8cm;
  v:=.8cm;

vardef exp(expr x) = (mexp(256)**x) enddef; 
vardef ln(expr x) = (mlog(x)/256) enddef;

   % Graphe de la fonction

  path graphexp; 

  graphexp=(-5u, (exp (-5))*v) for i=-4.99 step .01 until 2.08: ..(i*u, (exp(i))*v) endfor;

  draw graphexp withpen pencircle scaled 1.3bp withcolor red;
  
  % Tangente au point d'abscisse 1
  
  draw (-2u,-1v)--(3u,4v) withpen pencircle scaled 1.2bp;
  
    
  % Encadrement : axe, ...
  for i=1 upto 5: draw (i*u,-0.08v)--(i*u,0.08v); label.bot(TEX("$"& decimal(i) &"$") scaled .7, (i*u,-0.1v)); endfor;
  for i=-5 upto -1: draw (i*u,-0.08v)--(i*u,0.08v); label.bot(TEX("$"& decimal(i) &"$") scaled .7, (i*u,-0.1v)); endfor;
  for j=1 upto 8: draw (-0.05u,j*v)--(0.05u,j*v); label.lft(TEX("$"& decimal(j) &"$") scaled .7, (-0.05*u,j*v)); endfor;
  label.llft(btex $0$ etex scaled .7, (0,-0.13v));
  drawarrow (-5.5u,0)--(5.5u,0);
  drawarrow (0,-0.5v)--(0,8.5v);
  
  % Décoration : text
  draw thelabel(btex $y=\mathrm{e}^x$ etex, (2.5u, 6v)) withcolor red;
  

endfig;

end
