%!PS
%%BoundingBox: -8 -9 121 121 
%%HiResBoundingBox: -7.33662 -8.91167 120.72249 120.72249 
%%Creator: MetaPost 2.02
%%CreationDate: 2023.03.26:1733
%%Pages: 1
%*Font: cmr10 6.97382 9.96265 30:ff8
%%BeginProlog
%%EndProlog
%%Page: 1 1
 1 0 0 setrgbcolor 0 1.3 dtransform truncate idtransform setlinewidth pop
 [] 0 setdash 1 setlinecap 1 setlinejoin 10 setmiterlimit
newpath 0.14165 0.89383 moveto
0.18329 1.04942 0.23062 1.20343 0.28352 1.35556 curveto
0.32722 1.48122 0.37471 1.60553 0.42519 1.72862 curveto
0.47011 1.83817 0.51736 1.94675 0.56683 2.05432 curveto
0.7085 2.34843 lineto
0.85014 2.61986 lineto
0.99179 2.87354 lineto
1.13345 3.11337 lineto
1.2751 3.34131 lineto
1.41676 3.5591 lineto
1.55841 3.76866 lineto
1.70007 3.97066 lineto
1.84172 4.16594 lineto
1.98338 4.3554 lineto
2.12503 4.53943 lineto
2.2667 4.71872 lineto
2.40834 4.89346 lineto
2.55 5.06409 lineto
2.69165 5.23105 lineto
2.83331 5.39455 lineto
2.97496 5.5548 lineto
3.11661 5.71202 lineto
3.25827 5.86644 lineto
3.39992 6.01805 lineto
3.54158 6.16727 lineto
3.68323 6.31412 lineto
3.82489 6.4588 lineto
3.96654 6.60132 lineto
4.1082 6.74167 lineto
4.24985 6.8803 lineto
4.39151 7.01698 lineto
4.53316 7.15193 lineto
4.67482 7.28516 lineto
4.81647 7.41685 lineto
4.95813 7.54704 lineto
5.09978 7.6755 lineto
5.24142 7.80289 lineto
5.38309 7.92876 lineto
5.52473 8.05312 lineto
5.6664 8.17638 lineto
5.80804 8.29857 lineto
5.9497 8.41946 lineto
6.09135 8.53906 lineto
6.23302 8.65779 lineto
6.37466 8.77522 lineto
6.51633 8.89178 lineto
6.65797 9.00728 lineto
6.79964 9.12169 lineto
6.94128 9.23523 lineto
7.08295 9.3479 lineto
7.2246 9.45949 lineto
7.36624 9.57043 lineto
7.5079 9.68051 lineto
7.64955 9.78952 lineto
7.79121 9.89809 lineto
7.93286 10.00557 lineto
8.07452 10.1124 lineto
8.21617 10.21858 lineto
8.35783 10.32391 lineto
8.49948 10.42836 lineto
8.64114 10.5324 lineto
8.78279 10.63576 lineto
8.92445 10.73828 lineto
9.0661 10.84035 lineto
9.20776 10.94156 lineto
9.34941 11.04213 lineto
9.49107 11.14226 lineto
9.63272 11.24174 lineto
9.77437 11.34079 lineto
9.91603 11.43898 lineto
10.05768 11.53673 lineto
10.19934 11.63405 lineto
10.34099 11.73073 lineto
10.48265 11.82697 lineto
10.6243 11.92255 lineto
10.76596 12.0177 lineto
10.90761 12.11221 lineto
11.04927 12.20628 lineto
11.19092 12.29993 lineto
11.33258 12.39314 lineto
11.47423 12.48592 lineto
11.61589 12.57826 lineto
11.75754 12.66997 lineto
11.89919 12.76123 lineto
12.04085 12.85228 lineto
12.1825 12.94267 lineto
12.32416 13.03287 lineto
12.4658 13.1226 lineto
12.60747 13.21172 lineto
12.74911 13.3006 lineto
12.89078 13.38927 lineto
13.03242 13.4773 lineto
13.17409 13.56488 lineto
13.31573 13.65225 lineto
13.4574 13.73918 lineto
13.59904 13.82591 lineto
13.7407 13.91199 lineto
13.88235 13.99785 lineto
14.024 14.08348 lineto
14.16566 14.16869 lineto
14.30731 14.25346 lineto
14.44897 14.33803 lineto
14.59062 14.42215 lineto
14.73228 14.50607 lineto
14.87393 14.58954 lineto
15.0156 14.6728 lineto
15.15724 14.75565 lineto
15.2989 14.83826 lineto
15.44055 14.92044 lineto
15.58221 15.0024 lineto
15.72386 15.08415 lineto
15.86552 15.16568 lineto
16.00717 15.24678 lineto
16.14882 15.32745 lineto
16.29048 15.40811 lineto
16.43213 15.48834 lineto
16.57379 15.56837 lineto
16.71544 15.64795 lineto
16.8571 15.72733 lineto
16.99875 15.80647 lineto
17.14041 15.8854 lineto
17.28206 15.96414 lineto
17.42372 16.04242 lineto
17.56537 16.1205 lineto
17.70703 16.19835 lineto
17.84868 16.27621 lineto
17.99034 16.35341 lineto
18.13199 16.43062 lineto
18.27364 16.50761 lineto
18.4153 16.58417 lineto
18.55695 16.6605 lineto
18.69861 16.73686 lineto
18.84026 16.81276 lineto
18.98192 16.88846 lineto
19.12357 16.96393 lineto
19.26523 17.03941 lineto
19.40688 17.11424 lineto
19.54854 17.18929 lineto
19.69019 17.2639 lineto
19.83185 17.33829 lineto
19.9735 17.41248 lineto
20.11516 17.48643 lineto
20.2568 17.56018 lineto
20.39847 17.63371 lineto
20.54012 17.70724 lineto
20.68176 17.78033 lineto
20.82343 17.85344 lineto
20.96507 17.9261 lineto
21.10674 17.99876 lineto
21.24838 18.071 lineto
21.39005 18.14323 lineto
21.5317 18.21526 lineto
21.67336 18.28705 lineto
21.815 18.35864 lineto
21.95667 18.43022 lineto
22.09831 18.50137 lineto
22.23997 18.57231 lineto
22.38162 18.64325 lineto
22.52328 18.71396 lineto
22.66493 18.78447 lineto
22.80658 18.85497 lineto
22.94824 18.92503 lineto
23.08989 18.9951 lineto
23.23155 19.06496 lineto
23.3732 19.1346 lineto
23.51486 19.20403 lineto
23.65651 19.27344 lineto
23.79817 19.34265 lineto
23.93982 19.41164 lineto
24.08148 19.48041 lineto
24.22313 19.54897 lineto
24.36479 19.61752 lineto
24.50644 19.68587 lineto
24.6481 19.7542 lineto
24.78975 19.82211 lineto
24.9314 19.89001 lineto
25.07306 19.9577 lineto
25.2147 20.0254 lineto
25.35637 20.09288 lineto
25.49802 20.16014 lineto
25.63968 20.22717 lineto
25.78133 20.29422 lineto
25.92299 20.36105 lineto
26.06464 20.42766 lineto
26.2063 20.49426 lineto
26.34795 20.56065 lineto
26.48961 20.62683 lineto
26.63126 20.69301 lineto
26.77292 20.75897 lineto
26.91457 20.82472 lineto
27.05621 20.89047 lineto
27.19788 20.956 lineto
27.33952 21.02153 lineto
27.48119 21.08684 lineto
27.62283 21.15193 lineto
27.7645 21.21681 lineto
27.90614 21.2817 lineto
28.0478 21.34657 lineto
28.18945 21.41124 lineto
28.33112 21.47568 lineto
28.47276 21.54013 lineto
28.61443 21.60435 lineto
28.75607 21.66838 lineto
28.89774 21.73239 lineto
29.03938 21.79619 lineto
29.18105 21.85999 lineto
29.3227 21.92357 lineto
29.46434 21.98694 lineto
29.606 22.05052 lineto
29.74765 22.11366 lineto
29.88931 22.17682 lineto
30.03096 22.23975 lineto
30.17262 22.30269 lineto
30.31427 22.3654 lineto
30.45593 22.42812 lineto
30.59758 22.49062 lineto
30.73924 22.55312 lineto
30.88089 22.6154 lineto
31.02255 22.67747 lineto
31.1642 22.73955 lineto
31.30586 22.8016 lineto
31.44751 22.86346 lineto
31.58916 22.9251 lineto
31.73082 22.98674 lineto
31.87247 23.04837 lineto
32.01413 23.10979 lineto
32.15578 23.17099 lineto
32.29744 23.2322 lineto
32.43909 23.29318 lineto
32.58075 23.35417 lineto
32.7224 23.41516 lineto
32.86406 23.47594 lineto
33.0057 23.53648 lineto
33.14737 23.59705 lineto
33.28902 23.6576 lineto
33.43068 23.71793 lineto
33.57233 23.77806 lineto
33.71397 23.8384 lineto
33.85564 23.8983 lineto
33.99728 23.9582 lineto
34.13895 24.01811 lineto
34.2806 24.0778 lineto
34.42226 24.1375 lineto
34.5639 24.19717 lineto
34.70557 24.25644 lineto
34.84721 24.3159 lineto
34.98888 24.37517 lineto
35.13052 24.43442 lineto
35.27219 24.49326 lineto
35.41383 24.55229 lineto
35.5555 24.61111 lineto
35.69714 24.66994 lineto
35.83879 24.72876 lineto
35.98045 24.78737 lineto
36.1221 24.84576 lineto
36.26376 24.90416 lineto
36.40541 24.96254 lineto
36.54707 25.02072 lineto
36.68872 25.0789 lineto
36.83038 25.13707 lineto
36.97203 25.19504 lineto
37.1137 25.25278 lineto
37.25534 25.31052 lineto
37.397 25.36826 lineto
37.53865 25.42601 lineto
37.68031 25.48354 lineto
37.82196 25.54085 lineto
37.96361 25.59816 lineto
38.10527 25.65546 lineto
38.24692 25.71277 lineto
38.38858 25.76987 lineto
38.53023 25.82675 lineto
38.67189 25.88362 lineto
38.81354 25.9405 lineto
38.9552 25.99738 lineto
39.09685 26.05405 lineto
39.23851 26.11049 lineto
39.38016 26.16714 lineto
39.52182 26.2236 lineto
39.66347 26.27983 lineto
39.80513 26.33627 lineto
39.94678 26.39229 lineto
40.08844 26.44852 lineto
40.23009 26.50453 lineto
40.37173 26.56053 lineto
40.5134 26.61633 lineto
40.65504 26.67213 lineto
40.7967 26.72794 lineto
40.93835 26.78351 lineto
41.08002 26.8391 lineto
41.22166 26.89467 lineto
41.36333 26.95003 lineto
41.50497 27.0054 lineto
41.64664 27.06055 lineto
41.78828 27.1159 lineto
41.92995 27.17084 lineto
42.0716 27.22598 lineto
42.21326 27.28091 lineto
42.3549 27.33585 lineto
42.49655 27.39056 lineto
42.63821 27.44528 lineto
42.77986 27.5 lineto
42.92152 27.55472 lineto
43.06317 27.6092 lineto
43.20483 27.66371 lineto
43.34648 27.718 lineto
43.48814 27.77228 lineto
43.62979 27.82657 lineto
43.77145 27.88084 lineto
43.9131 27.9349 lineto
44.05476 27.98898 lineto
44.19641 28.04283 lineto
44.33807 28.09668 lineto
44.47972 28.15053 lineto
44.62137 28.20438 lineto
44.76303 28.25801 lineto
44.90468 28.31165 lineto
45.04634 28.36528 lineto
45.18799 28.4187 lineto
45.32965 28.47212 lineto
45.4713 28.52553 lineto
45.61296 28.57874 lineto
45.75461 28.63194 lineto
45.89627 28.68513 lineto
46.03792 28.73813 lineto
46.17958 28.7911 lineto
46.32123 28.8441 lineto
46.46289 28.89708 lineto
46.60454 28.94984 lineto
46.74619 29.00262 lineto
46.88785 29.05539 lineto
47.0295 29.10794 lineto
47.17116 29.16049 lineto
47.3128 29.21304 lineto
47.45447 29.2656 lineto
47.59612 29.31793 lineto
47.73778 29.37027 lineto
47.87943 29.4224 lineto
48.02109 29.47473 lineto
48.16273 29.52686 lineto
48.3044 29.57896 lineto
48.44604 29.63087 lineto
48.5877 29.68277 lineto
48.72935 29.73468 lineto
48.87102 29.78659 lineto
49.01266 29.83849 lineto
49.15431 29.89018 lineto
49.29597 29.94165 lineto
49.43762 29.99333 lineto
49.57928 30.0448 lineto
49.72093 30.09628 lineto
49.8626 30.14775 lineto
50.00424 30.19922 lineto
50.1459 30.25047 lineto
50.28755 30.30173 lineto
50.42921 30.35298 lineto
50.57086 30.40402 lineto
50.71252 30.45506 lineto
50.85417 30.5061 lineto
50.99583 30.55714 lineto
51.13748 30.60796 lineto
51.27913 30.65878 lineto
51.42079 30.70961 lineto
51.56244 30.76021 lineto
51.7041 30.81104 lineto
51.84575 30.86165 lineto
51.98741 30.91225 lineto
52.12906 30.96265 lineto
52.27072 31.01303 lineto
52.41237 31.06342 lineto
52.55403 31.11382 lineto
52.69568 31.1642 lineto
52.83734 31.21437 lineto
52.97899 31.26454 lineto
53.12065 31.31473 lineto
53.2623 31.3649 lineto
53.40395 31.41486 lineto
53.54561 31.46481 lineto
53.68726 31.51477 lineto
53.82892 31.56451 lineto
53.97057 31.61447 lineto
54.11223 31.66422 lineto
54.25388 31.71394 lineto
54.39554 31.76347 lineto
54.53719 31.81322 lineto
54.67885 31.86275 lineto
54.8205 31.91205 lineto
54.96216 31.96158 lineto
55.1038 32.0111 lineto
55.24547 32.06041 lineto
55.38712 32.10971 lineto
55.52876 32.15903 lineto
55.67043 32.20811 lineto
55.81207 32.25722 lineto
55.95374 32.3063 lineto
56.09538 32.3554 lineto
56.23705 32.4045 lineto
56.3787 32.45337 lineto
56.52036 32.50224 lineto
56.662 32.55112 lineto
56.80367 32.59999 lineto
56.94531 32.64865 lineto
57.08698 32.69731 lineto
57.22862 32.74597 lineto
57.37029 32.79463 lineto
57.51193 32.84329 lineto
57.6536 32.89174 lineto
57.79524 32.94019 lineto
57.93689 32.98862 lineto
58.07855 33.03706 lineto
58.2202 33.0853 lineto
58.36186 33.13353 lineto
58.50351 33.18175 lineto
58.64517 33.22998 lineto
58.78682 33.2782 lineto
58.92848 33.32622 lineto
59.07013 33.37422 lineto
59.21179 33.42224 lineto
59.35344 33.47025 lineto
59.4951 33.51805 lineto
59.63675 33.56606 lineto
59.77841 33.61385 lineto
59.92006 33.66165 lineto
60.0617 33.70923 lineto
60.20337 33.75702 lineto
60.34502 33.8046 lineto
60.48668 33.85217 lineto
60.62833 33.89975 lineto
60.76999 33.94733 lineto
60.91164 33.99469 lineto
61.0533 34.04205 lineto
61.19495 34.08942 lineto
61.33661 34.13678 lineto
61.47826 34.18414 lineto
61.61992 34.2313 lineto
61.76157 34.27844 lineto
61.90323 34.32558 lineto
62.04488 34.37273 lineto
62.18652 34.41988 lineto
62.32819 34.4668 lineto
62.46983 34.51373 lineto
62.6115 34.56088 lineto
62.75314 34.60759 lineto
62.8948 34.65453 lineto
63.03645 34.70145 lineto
63.17812 34.74817 lineto
63.31976 34.79488 lineto
63.46143 34.8416 lineto
63.60307 34.88809 lineto
63.74474 34.9348 lineto
63.88638 34.98131 lineto
64.02805 35.0278 lineto
64.1697 35.0743 lineto
64.31134 35.12079 lineto
64.453 35.16707 lineto
64.59465 35.21358 lineto
64.73631 35.25986 lineto
64.87796 35.30614 lineto
65.01962 35.3522 lineto
65.16127 35.39848 lineto
65.30293 35.44455 lineto
65.44458 35.49083 lineto
65.58624 35.5369 lineto
65.72789 35.58296 lineto
65.86955 35.6288 lineto
66.0112 35.67487 lineto
66.15286 35.72072 lineto
66.29451 35.76657 lineto
66.43616 35.81241 lineto
66.57782 35.85826 lineto
66.71947 35.90411 lineto
66.86113 35.94974 lineto
67.00278 35.99538 lineto
67.14444 36.041 lineto
67.28609 36.08664 lineto
67.42775 36.13228 lineto
67.5694 36.17769 lineto
67.71106 36.22331 lineto
67.8527 36.26874 lineto
67.99437 36.31415 lineto
68.13602 36.35934 lineto
68.27768 36.40477 lineto
68.41933 36.44997 lineto
68.56099 36.49538 lineto
68.70264 36.54059 lineto
68.84428 36.58578 lineto
68.98595 36.63098 lineto
69.1276 36.67596 lineto
69.26926 36.72116 lineto
69.4109 36.76614 lineto
69.55257 36.81113 lineto
69.69421 36.85611 lineto
69.83588 36.9011 lineto
69.97752 36.94586 lineto
70.11919 36.99084 lineto
70.26083 37.03561 lineto
70.4025 37.08038 lineto
70.54414 37.12515 lineto
70.6858 37.16992 lineto
70.82745 37.21446 lineto
70.9691 37.25902 lineto
71.11076 37.30379 lineto
71.25241 37.34834 lineto
71.39407 37.39288 lineto
71.53572 37.43744 lineto
71.67738 37.48178 lineto
71.81903 37.52632 lineto
71.9607 37.57066 lineto
72.10234 37.61499 lineto
72.244 37.65933 lineto
72.38565 37.70366 lineto
72.52731 37.74779 lineto
72.66896 37.79211 lineto
72.81062 37.83623 lineto
72.95227 37.88036 lineto
73.09392 37.92447 lineto
73.23558 37.96858 lineto
73.37723 38.01271 lineto
73.51889 38.05661 lineto
73.66054 38.10072 lineto
73.8022 38.14462 lineto
73.94385 38.18854 lineto
74.08551 38.23244 lineto
74.22716 38.27634 lineto
74.36882 38.32002 lineto
74.51047 38.36371 lineto
74.65213 38.40761 lineto
74.79378 38.4513 lineto
74.93544 38.49498 lineto
75.07709 38.53867 lineto
75.21873 38.58214 lineto
75.3604 38.62582 lineto
75.50204 38.6693 lineto
75.6437 38.71298 lineto
75.78535 38.75623 lineto
75.92702 38.7997 lineto
76.06866 38.84317 lineto
76.21033 38.88664 lineto
76.35197 38.9299 lineto
76.49364 38.97336 lineto
76.63528 39.01662 lineto
76.77695 39.05988 lineto
76.9186 39.10312 lineto
77.06026 39.14616 lineto
77.2019 39.1894 lineto
77.34357 39.23245 lineto
77.48521 39.27571 lineto
77.62686 39.31874 lineto
77.76852 39.36177 lineto
77.91017 39.40482 lineto
78.05183 39.44763 lineto
78.19348 39.49068 lineto
78.33514 39.5335 lineto
78.47679 39.57652 lineto
78.61845 39.61935 lineto
78.7601 39.66217 lineto
78.90176 39.70477 lineto
79.04341 39.74759 lineto
79.18507 39.79042 lineto
79.32672 39.83302 lineto
79.46838 39.87563 lineto
79.61003 39.91823 lineto
79.75168 39.96083 lineto
79.89334 40.00343 lineto
80.03499 40.04605 lineto
80.17665 40.08865 lineto
80.3183 40.13104 lineto
80.45996 40.17343 lineto
80.60161 40.21582 lineto
80.74327 40.25842 lineto
80.88492 40.30058 lineto
81.02658 40.34297 lineto
81.16823 40.38536 lineto
81.30989 40.42754 lineto
81.45154 40.46992 lineto
81.5932 40.5121 lineto
81.73485 40.55428 lineto
81.8765 40.59644 lineto
82.01816 40.63861 lineto
82.1598 40.68057 lineto
82.30147 40.72275 lineto
82.44312 40.7647 lineto
82.58478 40.80666 lineto
82.72643 40.84883 lineto
82.86809 40.89056 lineto
83.00974 40.93253 lineto
83.1514 40.97447 lineto
83.29305 41.01643 lineto
83.43471 41.05817 lineto
83.57635 41.10013 lineto
83.71802 41.14186 lineto
83.85966 41.18361 lineto
84.00131 41.22534 lineto
84.14297 41.26709 lineto
84.28462 41.30861 lineto
84.42628 41.35034 lineto
84.56793 41.39188 lineto
84.7096 41.4334 lineto
84.85124 41.47513 lineto
84.9929 41.51666 lineto
85.13455 41.55797 lineto
85.27621 41.59949 lineto
85.41786 41.641 lineto
85.55952 41.68231 lineto
85.70117 41.72385 lineto
85.84283 41.76515 lineto
85.98448 41.80646 lineto
86.12613 41.84776 lineto
86.26779 41.88907 lineto
86.40944 41.93037 lineto
86.5511 41.97168 lineto
86.69275 42.01277 lineto
86.83441 42.05408 lineto
86.97606 42.09517 lineto
87.11772 42.13626 lineto
87.25937 42.17735 lineto
87.40103 42.21844 lineto
87.54268 42.25954 lineto
87.68434 42.3004 lineto
87.82599 42.34149 lineto
87.96765 42.38237 lineto
88.1093 42.42325 lineto
88.25096 42.46434 lineto
88.39261 42.5052 lineto
88.53426 42.54608 lineto
88.67592 42.58696 lineto
88.81757 42.62761 lineto
88.95923 42.66849 lineto
89.10088 42.70915 lineto
89.24254 42.7498 lineto
89.38419 42.79068 lineto
89.52585 42.83134 lineto
89.6675 42.872 lineto
89.80916 42.91245 lineto
89.9508 42.9531 lineto
90.09247 42.99376 lineto
90.23412 43.0342 lineto
90.37578 43.07486 lineto
90.51743 43.1153 lineto
90.65907 43.15573 lineto
90.80074 43.19618 lineto
90.94238 43.23662 lineto
91.08405 43.27707 lineto
91.2257 43.31729 lineto
91.36736 43.35773 lineto
91.509 43.39818 lineto
91.65067 43.4384 lineto
91.79231 43.47862 lineto
91.93398 43.51884 lineto
92.07562 43.55908 lineto
92.21729 43.5993 lineto
92.35893 43.63953 lineto
92.5006 43.67953 lineto
92.64224 43.71976 lineto
92.78389 43.75977 lineto
92.92555 43.8 lineto
93.0672 43.84001 lineto
93.20886 43.88002 lineto
93.35051 43.92003 lineto
93.49217 43.96004 lineto
93.63382 43.99983 lineto
93.77548 44.03984 lineto
93.91713 44.07985 lineto
94.05879 44.11964 lineto
94.20044 44.15942 lineto
94.3421 44.19922 lineto
94.48375 44.23923 lineto
94.62541 44.27881 lineto
94.76706 44.3186 lineto
94.9087 44.3584 lineto
95.05037 44.3982 lineto
95.19202 44.43776 lineto
95.33368 44.47755 lineto
95.47533 44.51714 lineto
95.61699 44.55672 lineto
95.75864 44.59628 lineto
95.9003 44.63586 lineto
96.04195 44.67545 lineto
96.18361 44.71501 lineto
96.32526 44.75438 lineto
96.46692 44.79396 lineto
96.60857 44.83331 lineto
96.75023 44.8729 lineto
96.89188 44.91225 lineto
97.03354 44.95161 lineto
97.17519 44.99098 lineto
97.31683 45.03033 lineto
97.4585 45.0697 lineto
97.60014 45.10884 lineto
97.7418 45.1482 lineto
97.88345 45.18756 lineto
98.02512 45.2267 lineto
98.16676 45.26585 lineto
98.30843 45.305 lineto
98.45007 45.34413 lineto
98.59174 45.38329 lineto
98.73338 45.42242 lineto
98.87505 45.46156 lineto
99.0167 45.50072 lineto
99.15836 45.53964 lineto
99.3 45.57878 lineto
99.44165 45.61772 lineto
99.58331 45.65665 lineto
99.72496 45.69557 lineto
99.86662 45.7345 lineto
100.00827 45.77342 lineto
100.14993 45.81235 lineto
100.29158 45.85129 lineto
100.43324 45.89 lineto
100.57489 45.92892 lineto
100.71655 45.96764 lineto
100.8582 46.00656 lineto
100.99986 46.04527 lineto
101.14151 46.08398 lineto
101.28317 46.1227 lineto
101.42482 46.1614 lineto
101.56647 46.20012 lineto
101.70813 46.23862 lineto
101.84978 46.27733 lineto
101.99144 46.31604 lineto
102.13309 46.35454 lineto
102.27475 46.39304 lineto
102.4164 46.43175 lineto
102.55806 46.47023 lineto
102.6997 46.50873 lineto
102.84137 46.54723 lineto
102.98302 46.58572 lineto
103.12468 46.62401 lineto
103.26633 46.66249 lineto
103.40799 46.70078 lineto
103.54964 46.73927 lineto
103.69128 46.77756 lineto
103.83295 46.81583 lineto
103.9746 46.85432 lineto
104.11626 46.89261 lineto
104.2579 46.93088 lineto
104.39957 46.96895 lineto
104.54121 47.00723 lineto
104.68288 47.0455 lineto
104.82452 47.08357 lineto
104.96619 47.12184 lineto
105.10783 47.15991 lineto
105.2495 47.1982 lineto
105.39114 47.23625 lineto
105.5328 47.27432 lineto
105.67445 47.31238 lineto
105.8161 47.35045 lineto
105.95776 47.3885 lineto
106.09941 47.42635 lineto
106.24107 47.46442 lineto
106.38272 47.50247 lineto
106.52438 47.54033 lineto
106.66603 47.57817 lineto
106.8077 47.61623 lineto
106.94934 47.65408 lineto
107.091 47.69193 lineto
107.23265 47.72977 lineto
107.37431 47.76762 lineto
107.51596 47.80547 lineto
107.65762 47.8431 lineto
107.79927 47.88094 lineto
107.94093 47.91858 lineto
108.08258 47.95642 lineto
108.22423 47.99405 lineto
108.36589 48.03168 lineto
108.50754 48.0693 lineto
108.6492 48.10693 lineto
108.79085 48.14458 lineto
108.93251 48.1822 lineto
109.07416 48.21983 lineto
109.21582 48.25746 lineto
109.35747 48.29488 lineto
109.49913 48.3325 lineto
109.64078 48.36992 lineto
109.78244 48.40755 lineto
109.92409 48.44496 lineto
110.06575 48.48238 lineto
110.2074 48.51979 lineto
110.34904 48.5572 lineto
110.4907 48.59462 lineto
110.63235 48.63203 lineto
110.77402 48.66924 lineto
110.91566 48.70665 lineto
111.05733 48.74406 lineto
111.19897 48.78127 lineto
111.34064 48.81845 lineto
111.48228 48.85587 lineto
111.62395 48.89307 lineto
111.7656 48.93027 lineto
111.90726 48.96747 lineto
112.0489 49.00467 lineto
112.19057 49.04185 lineto
112.33221 49.07884 lineto
112.47386 49.11604 lineto
112.61552 49.15324 lineto
112.75717 49.19022 lineto
112.89883 49.22742 lineto
113.04048 49.2644 lineto
113.18214 49.30138 lineto
113.32379 49.33836 lineto stroke
 0 0 0 setrgbcolor 0.5 0 dtransform exch truncate exch idtransform pop setlinewidth
newpath 14.17323 -1.13388 moveto
14.17323 1.13388 lineto stroke
12.42978 -8.91167 moveto
(1) cmr10 6.97382 fshow
newpath 28.34647 -1.13388 moveto
28.34647 1.13388 lineto stroke
26.60301 -8.91167 moveto
(2) cmr10 6.97382 fshow
newpath 42.5197 -1.13388 moveto
42.5197 1.13388 lineto stroke
40.77625 -8.91167 moveto
(3) cmr10 6.97382 fshow
newpath 56.69293 -1.13388 moveto
56.69293 1.13388 lineto stroke
54.94948 -8.91167 moveto
(4) cmr10 6.97382 fshow
newpath 70.86617 -1.13388 moveto
70.86617 1.13388 lineto stroke
69.12271 -8.91167 moveto
(5) cmr10 6.97382 fshow
newpath 85.0394 -1.13388 moveto
85.0394 1.13388 lineto stroke
83.29594 -8.91167 moveto
(6) cmr10 6.97382 fshow
newpath 99.21263 -1.13388 moveto
99.21263 1.13388 lineto stroke
97.46918 -8.91167 moveto
(7) cmr10 6.97382 fshow
newpath 113.38586 -1.13388 moveto
113.38586 1.13388 lineto stroke
111.64241 -8.91167 moveto
(8) cmr10 6.97382 fshow
 0 0.5 dtransform truncate idtransform setlinewidth pop
newpath -0.70871 14.17323 moveto
0.70871 14.17323 lineto stroke
-7.1956 11.9261 moveto
(1) cmr10 6.97382 fshow
newpath -0.70871 28.34647 moveto
0.70871 28.34647 lineto stroke
-7.1956 26.09933 moveto
(2) cmr10 6.97382 fshow
newpath -0.70871 42.5197 moveto
0.70871 42.5197 lineto stroke
-7.1956 40.27257 moveto
(3) cmr10 6.97382 fshow
newpath -0.70871 56.69293 moveto
0.70871 56.69293 lineto stroke
-7.1956 54.4458 moveto
(4) cmr10 6.97382 fshow
newpath -0.70871 70.86617 moveto
0.70871 70.86617 lineto stroke
-7.1956 68.61903 moveto
(5) cmr10 6.97382 fshow
newpath -0.70871 85.0394 moveto
0.70871 85.0394 lineto stroke
-7.1956 82.79227 moveto
(6) cmr10 6.97382 fshow
newpath -0.70871 99.21263 moveto
0.70871 99.21263 lineto stroke
-7.1956 96.9655 moveto
(7) cmr10 6.97382 fshow
newpath -0.70871 113.38586 moveto
0.70871 113.38586 lineto stroke
-7.1956 111.13873 moveto
(8) cmr10 6.97382 fshow
-5.58688 -8.43684 moveto
(0) cmr10 6.97382 fshow
newpath -7.08662 0 moveto
120.47249 0 lineto stroke
newpath 116.77713 -1.5307 moveto
120.47249 0 lineto
116.77713 1.5307 lineto
 closepath
gsave fill grestore stroke
 0.5 0 dtransform exch truncate exch idtransform pop setlinewidth
newpath 0 -7.08662 moveto
0 120.47249 lineto stroke
 0 0.5 dtransform truncate idtransform setlinewidth pop
newpath 1.5307 116.77713 moveto
0 120.47249 lineto
-1.5307 116.77713 lineto
 closepath
gsave fill grestore stroke
showpage
%%EOF
