%!PS
%%BoundingBox: -8 -9 121 121 
%%HiResBoundingBox: -7.33662 -8.91167 120.72249 120.72249 
%%Creator: MetaPost 2.02
%%CreationDate: 2023.03.26:1733
%%Pages: 1
%*Font: cmr10 6.97382 9.96265 30:ff8
%%BeginProlog
%%EndProlog
%%Page: 1 1
 1 0 0 setrgbcolor 0 1.3 dtransform truncate idtransform setlinewidth pop
 [] 0 setdash 1 setlinecap 1 setlinejoin 10 setmiterlimit
newpath 0.14165 0.01405 moveto
0.28352 0.04001 lineto
0.42519 0.07353 lineto
0.56683 0.11333 lineto
0.7085 0.15831 lineto
0.85014 0.20827 lineto
0.99179 0.26233 lineto
1.13345 0.32051 lineto
1.2751 0.38235 lineto
1.41676 0.44789 lineto
1.55841 0.51666 lineto
1.70007 0.58868 lineto
1.84172 0.66373 lineto
1.98338 0.74179 lineto
2.12503 0.82268 lineto
2.2667 0.90637 lineto
2.40834 0.99266 lineto
2.55 1.08154 lineto
2.69165 1.1728 lineto
2.83331 1.26668 lineto
2.97496 1.36292 lineto
3.11661 1.46132 lineto
3.25827 1.56209 lineto
3.39992 1.66525 lineto
3.54158 1.77014 lineto
3.68323 1.87762 lineto
3.82489 1.98683 lineto
3.96654 2.09822 lineto
4.1082 2.21176 lineto
4.24985 2.32703 lineto
4.39151 2.44446 lineto
4.53316 2.56363 lineto
4.67482 2.68474 lineto
4.81647 2.80757 lineto
4.95813 2.93257 lineto
5.09978 3.05908 lineto
5.24142 3.18733 lineto
5.38309 3.31752 lineto
5.52473 3.44923 lineto
5.6664 3.58267 lineto
5.80804 3.71805 lineto
5.9497 3.85474 lineto
6.09135 3.99336 lineto
6.23302 4.1335 lineto
6.37466 4.27515 lineto
6.51633 4.41832 lineto
6.65797 4.56322 lineto
6.79964 4.70963 lineto
6.94128 4.85756 lineto
7.08295 5.007 lineto
7.2246 5.15796 lineto
7.36624 5.31042 lineto
7.5079 5.4644 lineto
7.64955 5.61967 lineto
7.79121 5.77647 lineto
7.93286 5.93478 lineto
8.07452 6.09439 lineto
8.21617 6.25551 lineto
8.35783 6.41814 lineto
8.49948 6.58185 lineto
8.64114 6.74709 lineto
8.78279 6.91382 lineto
8.92445 7.08165 lineto
9.0661 7.25098 lineto
9.20776 7.42162 lineto
9.34941 7.59355 lineto
9.49107 7.76677 lineto
9.63272 7.9413 lineto
9.77437 8.11713 lineto
9.91603 8.29404 lineto
10.05768 8.47246 lineto
10.19934 8.65218 lineto
10.34099 8.83296 lineto
10.48265 9.01506 lineto
10.6243 9.19846 lineto
10.76596 9.38293 lineto
10.90761 9.56892 lineto
11.04927 9.75578 lineto
11.19092 9.94392 lineto
11.33258 10.13338 lineto
11.47423 10.32413 lineto
11.61589 10.51573 lineto
11.75754 10.70865 lineto
11.89919 10.90285 lineto
12.04085 11.09814 lineto
12.1825 11.29451 lineto
12.32416 11.49217 lineto
12.4658 11.69093 lineto
12.60747 11.89076 lineto
12.74911 12.09167 lineto
12.89078 12.29366 lineto
13.03242 12.49695 lineto
13.17409 12.70111 lineto
13.31573 12.90656 lineto
13.4574 13.1131 lineto
13.59904 13.32071 lineto
13.7407 13.5294 lineto
13.88235 13.73918 lineto
14.024 13.95004 lineto
14.16566 14.16177 lineto
14.30731 14.37479 lineto
14.44897 14.5889 lineto
14.59062 14.80386 lineto
14.73228 15.01991 lineto
14.87393 15.23705 lineto
15.0156 15.45526 lineto
15.15724 15.67456 lineto
15.2989 15.89471 lineto
15.44055 16.11595 lineto
15.58221 16.33827 lineto
15.72386 16.56168 lineto
15.86552 16.78595 lineto
16.00717 17.01129 lineto
16.14882 17.23752 lineto
16.29048 17.46481 lineto
16.43213 17.69319 lineto
16.57379 17.92242 lineto
16.71544 18.15276 lineto
16.8571 18.38394 lineto
16.99875 18.61621 lineto
17.14041 18.84935 lineto
17.28206 19.08356 lineto
17.42372 19.31865 lineto
17.56537 19.5546 lineto
17.70703 19.79161 lineto
17.84868 20.02972 lineto
17.99034 20.26848 lineto
18.13199 20.50833 lineto
18.27364 20.74924 lineto
18.4153 20.99103 lineto
18.55695 21.23369 lineto
18.69861 21.4772 lineto
18.84026 21.7218 lineto
18.98192 21.96725 lineto
19.12357 22.21358 lineto
19.26523 22.46077 lineto
19.40688 22.70905 lineto
19.54854 22.95819 lineto
19.69019 23.20819 lineto
19.83185 23.45906 lineto
19.9735 23.7108 lineto
20.11516 23.9634 lineto
20.2568 24.21707 lineto
20.39847 24.4714 lineto
20.54012 24.72682 lineto
20.68176 24.9831 lineto
20.82343 25.24023 lineto
20.96507 25.49825 lineto
21.10674 25.75711 lineto
21.24838 26.01685 lineto
21.39005 26.27745 lineto
21.5317 26.53891 lineto
21.67336 26.80124 lineto
21.815 27.06444 lineto
21.95667 27.32828 lineto
22.09831 27.59322 lineto
22.23997 27.85901 lineto
22.38162 28.12566 lineto
22.52328 28.39317 lineto
22.66493 28.66135 lineto
22.80658 28.93039 lineto
22.94824 29.2005 lineto
23.08989 29.47127 lineto
23.23155 29.7429 lineto
23.3732 30.01518 lineto
23.51486 30.28854 lineto
23.65651 30.56276 lineto
23.79817 30.83763 lineto
23.93982 31.11337 lineto
24.08148 31.38998 lineto
24.22313 31.66724 lineto
24.36479 31.94536 lineto
24.50644 32.22455 lineto
24.6481 32.50418 lineto
24.78975 32.7849 lineto
24.9314 33.06627 lineto
25.07306 33.3485 lineto
25.2147 33.63158 lineto
25.35637 33.91533 lineto
25.49802 34.19994 lineto
25.63968 34.4854 lineto
25.78133 34.77153 lineto
25.92299 35.0585 lineto
26.06464 35.34615 lineto
26.2063 35.63486 lineto
26.34795 35.92401 lineto
26.48961 36.21423 lineto
26.63126 36.50511 lineto
26.77292 36.79665 lineto
26.91457 37.08904 lineto
27.05621 37.3823 lineto
27.19788 37.6762 lineto
27.33952 37.97096 lineto
27.48119 38.26639 lineto
27.62283 38.56267 lineto
27.7645 38.85982 lineto
27.90614 39.15741 lineto
28.0478 39.45607 lineto
28.18945 39.75539 lineto
28.33112 40.05534 lineto
28.47276 40.35617 lineto
28.61443 40.65764 lineto
28.75607 40.95999 lineto
28.89774 41.26297 lineto
29.03938 41.56683 lineto
29.18105 41.87134 lineto
29.3227 42.17648 lineto
29.46434 42.4825 lineto
29.606 42.78917 lineto
29.74765 43.0967 lineto
29.88931 43.40488 lineto
30.03096 43.71393 lineto
30.17262 44.02362 lineto
30.31427 44.33395 lineto
30.45593 44.64494 lineto
30.59758 44.9568 lineto
30.73924 45.26953 lineto
30.88089 45.58267 lineto
31.02255 45.8967 lineto
31.1642 46.21136 lineto
31.30586 46.5269 lineto
31.44751 46.84308 lineto
31.58916 47.15991 lineto
31.73082 47.47739 lineto
31.87247 47.79573 lineto
32.01413 48.11473 lineto
32.15578 48.43437 lineto
32.29744 48.75487 lineto
32.43909 49.07582 lineto
32.58075 49.39761 lineto
32.7224 49.72029 lineto
32.86406 50.0434 lineto
33.0057 50.36736 lineto
33.14737 50.69197 lineto
33.28902 51.01724 lineto
33.43068 51.34315 lineto
33.57233 51.66992 lineto
33.71397 51.99736 lineto
33.85564 52.32521 lineto
33.99728 52.65395 lineto
34.13895 52.98354 lineto
34.2806 53.31355 lineto
34.42226 53.64444 lineto
34.5639 53.97577 lineto
34.70557 54.30795 lineto
34.84721 54.64078 lineto
34.98888 54.97447 lineto
35.13052 55.30861 lineto
35.27219 55.64339 lineto
35.41383 55.97903 lineto
35.5555 56.31511 lineto
35.69714 56.65205 lineto
35.83879 56.98965 lineto
35.98045 57.3279 lineto
36.1221 57.66678 lineto
36.26376 58.00632 lineto
36.40541 58.34651 lineto
36.54707 58.68735 lineto
36.68872 59.02882 lineto
36.83038 59.37096 lineto
36.97203 59.71396 lineto
37.1137 60.05739 lineto
37.25534 60.40147 lineto
37.397 60.74641 lineto
37.53865 61.0918 lineto
37.68031 61.43803 lineto
37.82196 61.78471 lineto
37.96361 62.13225 lineto
38.10527 62.48022 lineto
38.24692 62.82906 lineto
38.38858 63.17833 lineto
38.53023 63.52846 lineto
38.67189 63.87903 lineto
38.81354 64.23026 lineto
38.9552 64.58234 lineto
39.09685 64.93484 lineto
39.23851 65.28801 lineto
39.38016 65.64203 lineto
39.52182 65.99649 lineto
39.66347 66.35161 lineto
39.80513 66.70737 lineto
39.94678 67.06377 lineto
40.08844 67.42082 lineto
40.23009 67.77853 lineto
40.37173 68.13689 lineto
40.5134 68.49567 lineto
40.65504 68.85532 lineto
40.7967 69.21541 lineto
40.93835 69.57635 lineto
41.08002 69.93773 lineto
41.22166 70.29976 lineto
41.36333 70.66245 lineto
41.50497 71.02577 lineto
41.64664 71.38953 lineto
41.78828 71.75415 lineto
41.92995 72.11943 lineto
42.0716 72.48514 lineto
42.21326 72.85149 lineto
42.3549 73.21849 lineto
42.49655 73.58615 lineto
42.63821 73.95445 lineto
42.77986 74.32318 lineto
42.92152 74.69257 lineto
43.06317 75.06282 lineto
43.20483 75.4335 lineto
43.34648 75.80461 lineto
43.48814 76.17659 lineto
43.62979 76.54921 lineto
43.77145 76.92227 lineto
43.9131 77.29597 lineto
44.05476 77.67012 lineto
44.19641 78.04512 lineto
44.33807 78.42056 lineto
44.47972 78.79688 lineto
44.62137 79.1736 lineto
44.76303 79.55078 lineto
44.90468 79.9288 lineto
45.04634 80.30727 lineto
45.18799 80.68639 lineto
45.32965 81.06593 lineto
45.4713 81.44635 lineto
45.61296 81.8272 lineto
45.75461 82.2087 lineto
45.89627 82.59084 lineto
46.03792 82.9734 lineto
46.17958 83.35663 lineto
46.32123 83.74051 lineto
46.46289 84.1248 lineto
46.60454 84.50998 lineto
46.74619 84.89558 lineto
46.88785 85.28162 lineto
47.0295 85.66852 lineto
47.17116 86.05585 lineto
47.3128 86.44383 lineto
47.45447 86.83224 lineto
47.59612 87.22131 lineto
47.73778 87.61102 lineto
47.87943 88.00116 lineto
48.02109 88.39195 lineto
48.16273 88.7834 lineto
48.3044 89.17549 lineto
48.44604 89.56801 lineto
48.5877 89.96118 lineto
48.72935 90.3548 lineto
48.87102 90.74905 lineto
49.01266 91.14395 lineto
49.15431 91.53929 lineto
49.29597 91.93527 lineto
49.43762 92.3319 lineto
49.57928 92.72896 lineto
49.72093 93.12668 lineto
49.8626 93.52504 lineto
50.00424 93.92384 lineto
50.1459 94.32329 lineto
50.28755 94.72316 lineto
50.42921 95.12369 lineto
50.57086 95.52486 lineto
50.71252 95.92647 lineto
50.85417 96.32872 lineto
50.99583 96.7314 lineto
51.13748 97.13475 lineto
51.27913 97.53851 lineto
51.42079 97.94293 lineto
51.56244 98.34799 lineto
51.7041 98.7535 lineto
51.84575 99.15965 lineto
51.98741 99.56644 lineto
52.12906 99.97368 lineto
52.27072 100.38133 lineto
52.41237 100.78964 lineto
52.55403 101.19861 lineto
52.69568 101.608 lineto
52.83734 102.01804 lineto
52.97899 102.42851 lineto
53.12065 102.83963 lineto
53.2623 103.25119 lineto
53.40395 103.66339 lineto
53.54561 104.07603 lineto
53.68726 104.48932 lineto
53.82892 104.90324 lineto
53.97057 105.31761 lineto
54.11223 105.7324 lineto
54.25388 106.14786 lineto
54.39554 106.56396 lineto
54.53719 106.98048 lineto
54.67885 107.39766 lineto
54.8205 107.81528 lineto
54.96216 108.23332 lineto
55.1038 108.65201 lineto
55.24547 109.07135 lineto
55.38712 109.49112 lineto
55.52876 109.91133 lineto
55.67043 110.33218 lineto
55.81207 110.7537 lineto
55.95374 111.1754 lineto
56.09538 111.59799 lineto
56.23705 112.02101 lineto
56.3787 112.44446 lineto
56.52036 112.86856 lineto
56.662 113.29309 lineto stroke
 0 0 0 setrgbcolor 0.5 0 dtransform exch truncate exch idtransform pop setlinewidth
newpath 14.17323 -1.13388 moveto
14.17323 1.13388 lineto stroke
12.42978 -8.91167 moveto
(1) cmr10 6.97382 fshow
newpath 28.34647 -1.13388 moveto
28.34647 1.13388 lineto stroke
26.60301 -8.91167 moveto
(2) cmr10 6.97382 fshow
newpath 42.5197 -1.13388 moveto
42.5197 1.13388 lineto stroke
40.77625 -8.91167 moveto
(3) cmr10 6.97382 fshow
newpath 56.69293 -1.13388 moveto
56.69293 1.13388 lineto stroke
54.94948 -8.91167 moveto
(4) cmr10 6.97382 fshow
newpath 70.86617 -1.13388 moveto
70.86617 1.13388 lineto stroke
69.12271 -8.91167 moveto
(5) cmr10 6.97382 fshow
newpath 85.0394 -1.13388 moveto
85.0394 1.13388 lineto stroke
83.29594 -8.91167 moveto
(6) cmr10 6.97382 fshow
newpath 99.21263 -1.13388 moveto
99.21263 1.13388 lineto stroke
97.46918 -8.91167 moveto
(7) cmr10 6.97382 fshow
newpath 113.38586 -1.13388 moveto
113.38586 1.13388 lineto stroke
111.64241 -8.91167 moveto
(8) cmr10 6.97382 fshow
 0 0.5 dtransform truncate idtransform setlinewidth pop
newpath -0.70871 14.17323 moveto
0.70871 14.17323 lineto stroke
-7.1956 11.9261 moveto
(1) cmr10 6.97382 fshow
newpath -0.70871 28.34647 moveto
0.70871 28.34647 lineto stroke
-7.1956 26.09933 moveto
(2) cmr10 6.97382 fshow
newpath -0.70871 42.5197 moveto
0.70871 42.5197 lineto stroke
-7.1956 40.27257 moveto
(3) cmr10 6.97382 fshow
newpath -0.70871 56.69293 moveto
0.70871 56.69293 lineto stroke
-7.1956 54.4458 moveto
(4) cmr10 6.97382 fshow
newpath -0.70871 70.86617 moveto
0.70871 70.86617 lineto stroke
-7.1956 68.61903 moveto
(5) cmr10 6.97382 fshow
newpath -0.70871 85.0394 moveto
0.70871 85.0394 lineto stroke
-7.1956 82.79227 moveto
(6) cmr10 6.97382 fshow
newpath -0.70871 99.21263 moveto
0.70871 99.21263 lineto stroke
-7.1956 96.9655 moveto
(7) cmr10 6.97382 fshow
newpath -0.70871 113.38586 moveto
0.70871 113.38586 lineto stroke
-7.1956 111.13873 moveto
(8) cmr10 6.97382 fshow
-5.58688 -8.43684 moveto
(0) cmr10 6.97382 fshow
newpath -7.08662 0 moveto
120.47249 0 lineto stroke
newpath 116.77713 -1.5307 moveto
120.47249 0 lineto
116.77713 1.5307 lineto
 closepath
gsave fill grestore stroke
 0.5 0 dtransform exch truncate exch idtransform pop setlinewidth
newpath 0 -7.08662 moveto
0 120.47249 lineto stroke
 0 0.5 dtransform truncate idtransform setlinewidth pop
newpath 1.5307 116.77713 moveto
0 120.47249 lineto
-1.5307 116.77713 lineto
 closepath
gsave fill grestore stroke
showpage
%%EOF
