%!PS
%%BoundingBox: -125 -24 125 194 
%%HiResBoundingBox: -124.97485 -23.27725 124.97485 193.00659 
%%Creator: MetaPost 2.02
%%CreationDate: 2023.03.26:1733
%%Pages: 1
%*Font: cmr10 6.97382 9.96265 30:ff8
%*Font: cmsy10 6.97382 9.96265 00:8
%*Font: cmmi10 9.96265 9.96265 79:8
%*Font: cmmi7 6.97385 6.97385 78:8
%*Font: cmr10 9.96265 9.96265 3d:80000000008
%%BeginProlog
%%EndProlog
%%Page: 1 1
 1 0 0 setrgbcolor 0 1.3 dtransform truncate idtransform setlinewidth pop
 [] 0 setdash 1 setlinecap 1 setlinejoin 10 setmiterlimit
newpath -113.38623 0.1526 moveto
-113.15958 0.15433 lineto
-112.93294 0.15572 lineto
-112.70628 0.15744 lineto
-112.47964 0.15883 lineto
-112.25299 0.16055 lineto
-112.02634 0.16194 lineto
-111.7997 0.16367 lineto
-111.57304 0.1654 lineto
-111.3464 0.16713 lineto
-111.11975 0.16852 lineto
-110.8931 0.1706 lineto
-110.66646 0.17198 lineto
-110.4398 0.1737 lineto
-110.21317 0.17578 lineto
-109.98651 0.1775 lineto
-109.75986 0.17924 lineto
-109.53322 0.18097 lineto
-109.30656 0.18271 lineto
-109.07993 0.18478 lineto
-108.85327 0.18651 lineto
-108.62662 0.18823 lineto
-108.39998 0.1903 lineto
-108.17332 0.19205 lineto
-107.94669 0.19412 lineto
-107.72003 0.1962 lineto
-107.49338 0.19792 lineto
-107.26674 0.2 lineto
-107.04008 0.20209 lineto
-106.81345 0.20416 lineto
-106.58679 0.20589 lineto
-106.36015 0.20831 lineto
-106.1335 0.21039 lineto
-105.90685 0.21246 lineto
-105.6802 0.21454 lineto
-105.45355 0.21661 lineto
-105.22691 0.21869 lineto
-105.00026 0.22112 lineto
-104.7736 0.22319 lineto
-104.54697 0.22562 lineto
-104.32031 0.22769 lineto
-104.09367 0.2301 lineto
-103.86702 0.23253 lineto
-103.64037 0.2346 lineto
-103.41373 0.23703 lineto
-103.18707 0.23946 lineto
-102.96043 0.24187 lineto
-102.73378 0.2443 lineto
-102.50713 0.24672 lineto
-102.28049 0.24915 lineto
-102.05383 0.25156 lineto
-101.8272 0.25433 lineto
-101.60054 0.25676 lineto
-101.37389 0.25952 lineto
-101.14725 0.26195 lineto
-100.9206 0.26471 lineto
-100.69395 0.26714 lineto
-100.4673 0.2699 lineto
-100.24065 0.27267 lineto
-100.014 0.27544 lineto
-99.78735 0.27821 lineto
-99.56071 0.28098 lineto
-99.33406 0.28374 lineto
-99.1074 0.28685 lineto
-98.88077 0.28963 lineto
-98.65411 0.29239 lineto
-98.42747 0.2955 lineto
-98.20082 0.29828 lineto
-97.97417 0.30139 lineto
-97.74753 0.3045 lineto
-97.52087 0.30727 lineto
-97.29424 0.31038 lineto
-97.06758 0.31384 lineto
-96.84093 0.31662 lineto
-96.61429 0.32007 lineto
-96.38763 0.3232 lineto
-96.161 0.32631 lineto
-95.93434 0.32976 lineto
-95.70769 0.33322 lineto
-95.48105 0.33633 lineto
-95.2544 0.3398 lineto
-95.02776 0.34326 lineto
-94.8011 0.34673 lineto
-94.57446 0.35017 lineto
-94.34781 0.35364 lineto
-94.12115 0.3571 lineto
-93.89452 0.3609 lineto
-93.66786 0.36436 lineto
-93.44122 0.36818 lineto
-93.21457 0.37198 lineto
-92.98792 0.37544 lineto
-92.76128 0.37924 lineto
-92.53462 0.38306 lineto
-92.30798 0.38686 lineto
-92.08133 0.39067 lineto
-91.85468 0.39482 lineto
-91.62804 0.39862 lineto
-91.40138 0.40277 lineto
-91.17474 0.40692 lineto
-90.94809 0.41109 lineto
-90.72144 0.41489 lineto
-90.4948 0.41904 lineto
-90.26814 0.42354 lineto
-90.0415 0.42769 lineto
-89.81485 0.43184 lineto
-89.5882 0.43634 lineto
-89.36156 0.44084 lineto
-89.1349 0.44499 lineto
-88.90826 0.4495 lineto
-88.68161 0.454 lineto
-88.45496 0.45883 lineto
-88.22832 0.46333 lineto
-88.00166 0.46783 lineto
-87.77502 0.47267 lineto
-87.54837 0.47752 lineto
-87.32172 0.48236 lineto
-87.09508 0.48686 lineto
-86.86842 0.4917 lineto
-86.64178 0.4969 lineto
-86.41513 0.50174 lineto
-86.18848 0.50693 lineto
-85.96184 0.51212 lineto
-85.73518 0.51697 lineto
-85.50854 0.52216 lineto
-85.28189 0.52734 lineto
-85.05524 0.53288 lineto
-84.8286 0.53807 lineto
-84.60194 0.54361 lineto
-84.3753 0.54915 lineto
-84.14865 0.55469 lineto
-83.922 0.56021 lineto
-83.69536 0.56575 lineto
-83.4687 0.57164 lineto
-83.24207 0.57718 lineto
-83.01541 0.58305 lineto
-82.78877 0.58894 lineto
-82.56212 0.59482 lineto
-82.33546 0.60071 lineto
-82.10883 0.60693 lineto
-81.88217 0.61281 lineto
-81.65553 0.61905 lineto
-81.42888 0.62527 lineto
-81.20222 0.6315 lineto
-80.97559 0.63808 lineto
-80.74893 0.6443 lineto
-80.5223 0.65088 lineto
-80.29564 0.65746 lineto
-80.06898 0.66403 lineto
-79.84235 0.67061 lineto
-79.61569 0.67717 lineto
-79.38905 0.6841 lineto
-79.1624 0.69101 lineto
-78.93575 0.69794 lineto
-78.7091 0.70486 lineto
-78.48245 0.71213 lineto
-78.25581 0.71904 lineto
-78.02916 0.72632 lineto
-77.8025 0.73392 lineto
-77.57587 0.7412 lineto
-77.34921 0.74846 lineto
-77.12257 0.75607 lineto
-76.89592 0.76369 lineto
-76.66927 0.7713 lineto
-76.44263 0.77925 lineto
-76.21597 0.78687 lineto
-75.98933 0.79483 lineto
-75.76268 0.80278 lineto
-75.53603 0.81075 lineto
-75.30939 0.81905 lineto
-75.08273 0.82735 lineto
-74.8561 0.83566 lineto
-74.62944 0.84396 lineto
-74.40279 0.85262 lineto
-74.17615 0.86092 lineto
-73.9495 0.86957 lineto
-73.72285 0.87822 lineto
-73.4962 0.8872 lineto
-73.26955 0.89621 lineto
-73.04291 0.90521 lineto
-72.81625 0.9142 lineto
-72.58961 0.9232 lineto
-72.36296 0.93254 lineto
-72.1363 0.94188 lineto
-71.90967 0.95157 lineto
-71.68301 0.96092 lineto
-71.45638 0.97061 lineto
-71.22972 0.9803 lineto
-71.00308 0.99033 lineto
-70.77643 1.00037 lineto
-70.54977 1.01006 lineto
-70.32314 1.02043 lineto
-70.09648 1.03047 lineto
-69.86984 1.04085 lineto
-69.64319 1.05157 lineto
-69.41653 1.06195 lineto
-69.1899 1.07268 lineto
-68.96324 1.0834 lineto
-68.7366 1.09448 lineto
-68.50995 1.10556 lineto
-68.2833 1.11629 lineto
-68.05666 1.1277 lineto
-67.83 1.13878 lineto
-67.60336 1.15054 lineto
-67.37671 1.16196 lineto
-67.15005 1.17372 lineto
-66.92342 1.18549 lineto
-66.69676 1.19725 lineto
-66.47012 1.20937 lineto
-66.24347 1.22148 lineto
-66.01682 1.23393 lineto
-65.79018 1.24638 lineto
-65.56352 1.25885 lineto
-65.33688 1.2713 lineto
-65.11023 1.2841 lineto
-64.88358 1.2969 lineto
-64.65694 1.31006 lineto
-64.43028 1.32321 lineto
-64.20364 1.3367 lineto
-63.97699 1.34985 lineto
-63.75034 1.36334 lineto
-63.5237 1.37718 lineto
-63.29704 1.39104 lineto
-63.0704 1.40488 lineto
-62.84375 1.41905 lineto
-62.6171 1.43324 lineto
-62.39046 1.44778 lineto
-62.1638 1.46231 lineto
-61.93716 1.47719 lineto
-61.71051 1.49207 lineto
-61.48386 1.50694 lineto
-61.25722 1.52184 lineto
-61.03056 1.5374 lineto
-60.80392 1.55263 lineto
-60.57727 1.56819 lineto
-60.35062 1.5841 lineto
-60.12398 1.60004 lineto
-59.89732 1.61595 lineto
-59.67068 1.63222 lineto
-59.44403 1.64882 lineto
-59.21739 1.66544 lineto
-58.99074 1.68204 lineto
-58.76408 1.69899 lineto
-58.53745 1.71594 lineto
-58.31079 1.73325 lineto
-58.08415 1.75055 lineto
-57.8575 1.7682 lineto
-57.63084 1.78584 lineto
-57.4042 1.80383 lineto
-57.17755 1.82217 lineto
-56.95091 1.84052 lineto
-56.72426 1.85886 lineto
-56.4976 1.87755 lineto
-56.27097 1.89622 lineto
-56.04431 1.91527 lineto
-55.81767 1.93463 lineto
-55.59102 1.95401 lineto
-55.36436 1.97374 lineto
-55.13773 1.99347 lineto
-54.91107 2.01353 lineto
-54.68443 2.03395 lineto
-54.45778 2.05437 lineto
-54.23112 2.07478 lineto
-54.00449 2.09554 lineto
-53.77783 2.11665 lineto
-53.5512 2.1381 lineto
-53.32454 2.15956 lineto
-53.09789 2.18102 lineto
-52.87125 2.20316 lineto
-52.64459 2.2253 lineto
-52.41795 2.24745 lineto
-52.1913 2.27028 lineto
-51.96465 2.29277 lineto
-51.738 2.31596 lineto
-51.51135 2.33914 lineto
-51.28471 2.36267 lineto
-51.05806 2.38655 lineto
-50.8314 2.41043 lineto
-50.60477 2.43465 lineto
-50.37811 2.45921 lineto
-50.15147 2.48378 lineto
-49.92482 2.5087 lineto
-49.69817 2.53395 lineto
-49.47153 2.55957 lineto
-49.24487 2.58517 lineto
-49.01823 2.61111 lineto
-48.79158 2.63742 lineto
-48.56493 2.66371 lineto
-48.33829 2.6907 lineto
-48.11163 2.7177 lineto
-47.885 2.74504 lineto
-47.65834 2.77237 lineto
-47.4317 2.8004 lineto
-47.20505 2.82843 lineto
-46.9784 2.8568 lineto
-46.75175 2.88553 lineto
-46.5251 2.91458 lineto
-46.29846 2.94365 lineto
-46.07181 2.97342 lineto
-45.84515 3.00317 lineto
-45.61852 3.03328 lineto
-45.39186 3.06407 lineto
-45.16522 3.09453 lineto
-44.93857 3.12567 lineto
-44.71191 3.15715 lineto
-44.48528 3.189 lineto
-44.25862 3.22083 lineto
-44.03198 3.25334 lineto
-43.80533 3.28587 lineto
-43.57867 3.31909 lineto
-43.35204 3.35231 lineto
-43.12538 3.38588 lineto
-42.89874 3.42014 lineto
-42.67209 3.45439 lineto
-42.44543 3.489 lineto
-42.2188 3.52394 lineto
-41.99214 3.55959 lineto
-41.7655 3.59523 lineto
-41.53885 3.63121 lineto
-41.3122 3.6679 lineto
-41.08556 3.70457 lineto
-40.8589 3.74194 lineto
-40.63226 3.77931 lineto
-40.40561 3.81737 lineto
-40.17896 3.85579 lineto
-39.95232 3.89453 lineto
-39.72566 3.93364 lineto
-39.49902 3.97308 lineto
-39.27237 4.01288 lineto
-39.04572 4.05336 lineto
-38.81908 4.0942 lineto
-38.59242 4.13503 lineto
-38.36578 4.17654 lineto
-38.13913 4.21877 lineto
-37.91248 4.26099 lineto
-37.68584 4.3039 lineto
-37.45918 4.34714 lineto
-37.23254 4.39075 lineto
-37.00589 4.4347 lineto
-36.77924 4.47932 lineto
-36.5526 4.5243 lineto
-36.32594 4.56998 lineto
-36.0993 4.61566 lineto
-35.87265 4.66203 lineto
-35.64601 4.70909 lineto
-35.41936 4.75615 lineto
-35.1927 4.8039 lineto
-34.96606 4.85234 lineto
-34.73941 4.90114 lineto
-34.51277 4.95027 lineto
-34.28612 5.00009 lineto
-34.05946 5.05026 lineto
-33.83282 5.10078 lineto
-33.60617 5.15234 lineto
-33.37953 5.2039 lineto
-33.15288 5.25615 lineto
-32.92622 5.3091 lineto
-32.69958 5.36238 lineto
-32.47293 5.41602 lineto
-32.24629 5.47069 lineto
-32.01964 5.52536 lineto
-31.79298 5.58107 lineto
-31.56635 5.63713 lineto
-31.33969 5.69388 lineto
-31.11305 5.75098 lineto
-30.8864 5.80876 lineto
-30.65974 5.8669 lineto
-30.4331 5.92607 lineto
-30.20645 5.98558 lineto
-29.97981 6.04544 lineto
-29.75316 6.10634 lineto
-29.5265 6.16759 lineto
-29.29987 6.22952 lineto
-29.07321 6.29216 lineto
-28.84657 6.35548 lineto
-28.61992 6.41916 lineto
-28.39326 6.48352 lineto
-28.16663 6.54892 lineto
-27.93997 6.61465 lineto
-27.71333 6.68109 lineto
-27.48668 6.74823 lineto
-27.26003 6.81604 lineto
-27.03339 6.88455 lineto
-26.80673 6.95341 lineto
-26.5801 7.02332 lineto
-26.35344 7.0939 lineto
-26.12679 7.16519 lineto
-25.90015 7.23717 lineto
-25.6735 7.30983 lineto
-25.44685 7.38318 lineto
-25.2202 7.45758 lineto
-24.99355 7.53232 lineto
-24.7669 7.60811 lineto
-24.54025 7.68457 lineto
-24.31361 7.76173 lineto
-24.08696 7.8396 lineto
-23.86032 7.91849 lineto
-23.63367 7.99808 lineto
-23.40701 8.07835 lineto
-23.18037 8.15932 lineto
-22.95372 8.24133 lineto
-22.72708 8.32404 lineto
-22.50043 8.40778 lineto
-22.27377 8.4922 lineto
-22.04713 8.57733 lineto
-21.82048 8.66383 lineto
-21.59384 8.75069 lineto
-21.36719 8.83858 lineto
-21.14053 8.9275 lineto
-20.9139 9.01712 lineto
-20.68724 9.10744 lineto
-20.4606 9.19914 lineto
-20.23395 9.29152 lineto
-20.0073 9.38495 lineto
-19.78065 9.47906 lineto
-19.554 9.57423 lineto
-19.32736 9.67043 lineto
-19.10071 9.76765 lineto
-18.87405 9.86559 lineto
-18.64742 9.96489 lineto
-18.42076 10.0649 lineto
-18.19412 10.16594 lineto
-17.96747 10.26802 lineto
-17.74081 10.37148 lineto
-17.51418 10.47528 lineto
-17.28752 10.58047 lineto
-17.06088 10.6867 lineto
-16.83423 10.79433 lineto
-16.60757 10.90263 lineto
-16.38094 11.01231 lineto
-16.15428 11.1227 lineto
-15.92764 11.23447 lineto
-15.70099 11.34727 lineto
-15.47433 11.46146 lineto
-15.2477 11.57634 lineto
-15.02104 11.69296 lineto
-14.7944 11.81026 lineto
-14.56775 11.92894 lineto
-14.3411 12.04868 lineto
-14.11446 12.16978 lineto
-13.8878 12.29193 lineto
-13.66116 12.41547 lineto
-13.43451 12.54002 lineto
-13.20786 12.66599 lineto
-12.98122 12.79332 lineto
-12.75456 12.92169 lineto
-12.52792 13.0518 lineto
-12.30127 13.1826 lineto
-12.07463 13.31512 lineto
-11.84798 13.44905 lineto
-11.62132 13.584 lineto
-11.39468 13.72032 lineto
-11.16803 13.8584 lineto
-10.94139 13.9975 lineto
-10.71474 14.13799 lineto
-10.48808 14.2802 lineto
-10.26144 14.42346 lineto
-10.03479 14.56844 lineto
-9.80815 14.71481 lineto
-9.5815 14.86256 lineto
-9.35484 15.0117 lineto
-9.1282 15.16257 lineto
-8.90155 15.31482 lineto
-8.67491 15.46881 lineto
-8.44826 15.62418 lineto
-8.2216 15.78091 lineto
-7.99496 15.9394 lineto
-7.76831 16.09961 lineto
-7.54167 16.26122 lineto
-7.31502 16.42453 lineto
-7.08836 16.58958 lineto
-6.86172 16.75638 lineto
-6.63507 16.92455 lineto
-6.40843 17.09479 lineto
-6.18178 17.26642 lineto
-5.95512 17.43977 lineto
-5.72849 17.61487 lineto
-5.50183 17.79204 lineto
-5.27519 17.97058 lineto
-5.04854 18.15121 lineto
-4.82188 18.33357 lineto
-4.59525 18.51765 lineto
-4.36859 18.70348 lineto
-4.14195 18.89136 lineto
-3.9153 19.08133 lineto
-3.68864 19.27303 lineto
-3.462 19.46646 lineto
-3.23535 19.66196 lineto
-3.00871 19.85954 lineto
-2.78206 20.05885 lineto
-2.5554 20.26059 lineto
-2.32877 20.46405 lineto
-2.10211 20.6696 lineto
-1.87547 20.87721 lineto
-1.64882 21.0869 lineto
-1.42216 21.29868 lineto
-1.19553 21.51251 lineto
-0.96887 21.72879 lineto
-0.74223 21.94713 lineto
-0.51558 22.16754 lineto
-0.28894 22.39005 lineto
-0.06229 22.61496 lineto
0.16437 22.8423 lineto
0.391 23.07137 lineto
0.61766 23.3032 lineto
0.8443 23.53748 lineto
1.07095 23.7738 lineto
1.2976 24.01256 lineto
1.52425 24.25375 lineto
1.7509 24.49734 lineto
1.97754 24.74338 lineto
2.2042 24.99217 lineto
2.43085 25.24304 lineto
2.65749 25.49667 lineto
2.88414 25.75273 lineto
3.11078 26.01157 lineto
3.33743 26.27281 lineto
3.56409 26.53648 lineto
3.79073 26.80327 lineto
4.01738 27.07248 lineto
4.24402 27.34412 lineto
4.47067 27.61887 lineto
4.69733 27.89638 lineto
4.92397 28.17665 lineto
5.15062 28.4597 lineto
5.37726 28.74553 lineto
5.60391 29.03412 lineto
5.83057 29.32582 lineto
6.0572 29.62029 lineto
6.28386 29.91786 lineto
6.5105 30.21857 lineto
6.73715 30.52203 lineto
6.9638 30.82861 lineto
7.19044 31.1383 lineto
7.4171 31.45111 lineto
7.64374 31.76704 lineto
7.87039 32.08607 lineto
8.09705 32.40823 lineto
8.32368 32.73384 lineto
8.55034 33.06256 lineto
8.77698 33.39474 lineto
9.00363 33.73006 lineto
9.23029 34.06882 lineto
9.45692 34.41103 lineto
9.68358 34.75671 lineto
9.91022 35.10585 lineto
10.13687 35.45845 lineto
10.36353 35.81487 lineto
10.59016 36.1744 lineto
10.81682 36.53772 lineto
11.04346 36.90485 lineto
11.27011 37.27545 lineto
11.49677 37.64984 lineto
11.7234 38.02806 lineto
11.95006 38.41006 lineto
12.1767 38.79588 lineto
12.40335 39.18552 lineto
12.62999 39.5793 lineto
12.85664 39.97688 lineto
13.0833 40.37828 lineto
13.30994 40.78381 lineto
13.53659 41.19351 lineto
13.76323 41.60736 lineto
13.98988 42.02536 lineto
14.21654 42.44751 lineto
14.44318 42.87383 lineto
14.66983 43.30428 lineto
14.89647 43.73958 lineto
15.12312 44.1787 lineto
15.34978 44.62265 lineto
15.57642 45.07076 lineto
15.80307 45.52335 lineto
16.02971 45.9808 lineto
16.25636 46.44275 lineto
16.48302 46.9092 lineto
16.70966 47.38014 lineto
16.93631 47.85626 lineto
17.16295 48.3369 lineto
17.3896 48.82237 lineto
17.61626 49.3127 lineto
17.8429 49.80821 lineto
18.06955 50.30856 lineto
18.29619 50.81377 lineto
18.52284 51.32416 lineto
18.7495 51.83974 lineto
18.97614 52.3605 lineto
19.20279 52.88647 lineto
19.42943 53.41762 lineto
19.65608 53.95432 lineto
19.88274 54.49619 lineto
20.10938 55.04361 lineto
20.33603 55.59656 lineto
20.56267 56.1547 lineto
20.78932 56.71872 lineto
21.01598 57.28864 lineto
21.24261 57.86407 lineto
21.46927 58.4454 lineto
21.6959 59.03226 lineto
21.92256 59.62535 lineto
22.14922 60.22432 lineto
22.37585 60.82918 lineto
22.60251 61.44026 lineto
22.82915 62.05724 lineto
23.0558 62.68077 lineto
23.28246 63.3102 lineto
23.5091 63.9462 lineto
23.73575 64.58842 lineto
23.96239 65.23723 lineto
24.18904 65.8926 lineto
24.41568 66.5542 lineto
24.64233 67.22273 lineto
24.86899 67.89818 lineto
25.09563 68.58018 lineto
25.32228 69.26913 lineto
25.54892 69.96465 lineto
25.77557 70.66743 lineto
26.00223 71.37747 lineto
26.22887 72.09445 lineto
26.45552 72.81833 lineto
26.68216 73.54984 lineto
26.90881 74.2886 lineto
27.13547 75.03499 lineto
27.3621 75.78864 lineto
27.58876 76.5499 lineto
27.8154 77.31877 lineto
28.04205 78.09525 lineto
28.2687 78.8797 lineto
28.49535 79.6721 lineto
28.722 80.47246 lineto
28.94864 81.28078 lineto
29.1753 82.09706 lineto
29.40195 82.92198 lineto
29.62859 83.75487 lineto
29.85524 84.59607 lineto
30.08188 85.4459 lineto
30.30853 86.30406 lineto
30.53519 87.17085 lineto
30.76183 88.04665 lineto
30.98848 88.93109 lineto
31.21512 89.82419 lineto
31.44177 90.72629 lineto
31.66843 91.63773 lineto
31.89507 92.55815 lineto
32.12172 93.48793 lineto
32.34836 94.42705 lineto
32.57501 95.3755 lineto
32.80167 96.33331 lineto
33.0283 97.30115 lineto
33.25496 98.27867 lineto
33.4816 99.26555 lineto
33.70825 100.2628 lineto
33.9349 101.26974 lineto
34.16154 102.28706 lineto
34.3882 103.3144 lineto
34.61484 104.35214 lineto
34.84149 105.40027 lineto
35.06815 106.4591 lineto
35.29478 107.52834 lineto
35.52144 108.60863 lineto
35.74808 109.69931 lineto
35.97473 110.8014 lineto
36.20137 111.91423 lineto
36.42802 113.03847 lineto
36.65468 114.17378 lineto
36.88132 115.32086 lineto
37.10797 116.47902 lineto
37.33461 117.64894 lineto
37.56126 118.83063 lineto
37.78792 120.02441 lineto
38.01456 121.22998 lineto
38.24121 122.44765 lineto
38.46785 123.67743 lineto
38.6945 124.92001 lineto
38.92116 126.17471 lineto
39.1478 127.4422 lineto
39.37445 128.72217 lineto
39.60109 130.01526 lineto
39.82774 131.32117 lineto
40.0544 132.64023 lineto
40.28104 133.97243 lineto
40.50769 135.31813 lineto
40.73433 136.67732 lineto
40.96098 138.05037 lineto
41.18764 139.43689 lineto
41.41428 140.83762 lineto
41.64093 142.25218 lineto
41.86757 143.68092 lineto
42.09422 145.1242 lineto
42.32088 146.58202 lineto
42.54752 148.05437 lineto
42.77417 149.54158 lineto
43.00081 151.04335 lineto
43.22746 152.56067 lineto
43.45412 154.09323 lineto
43.68076 155.641 lineto
43.90741 157.20436 lineto
44.13405 158.78328 lineto
44.3607 160.37813 lineto
44.58736 161.98923 lineto
44.814 163.61624 lineto
45.04065 165.25987 lineto
45.26729 166.91977 lineto
45.49394 168.59627 lineto
45.7206 170.28973 lineto
45.94724 172.00049 lineto
46.17389 173.72786 lineto
46.40053 175.47287 lineto
46.62718 177.23553 lineto
46.85384 179.01585 lineto
47.08047 180.81415 lineto stroke
 0 0 0 setrgbcolor 0 1.2 dtransform truncate idtransform setlinewidth pop
newpath -45.35449 -22.67725 moveto
68.03174 90.70898 lineto stroke
 0.5 0 dtransform exch truncate exch idtransform pop setlinewidth
newpath 22.67725 -1.81422 moveto
22.67725 1.81422 lineto stroke
20.93379 -9.76213 moveto
(1) cmr10 6.97382 fshow
newpath 45.35449 -1.81422 moveto
45.35449 1.81422 lineto stroke
43.61104 -9.76213 moveto
(2) cmr10 6.97382 fshow
newpath 68.03174 -1.81422 moveto
68.03174 1.81422 lineto stroke
66.28828 -9.76213 moveto
(3) cmr10 6.97382 fshow
newpath 90.70898 -1.81422 moveto
90.70898 1.81422 lineto stroke
88.96553 -9.76213 moveto
(4) cmr10 6.97382 fshow
newpath 113.38623 -1.81422 moveto
113.38623 1.81422 lineto stroke
111.64278 -9.76213 moveto
(5) cmr10 6.97382 fshow
newpath -113.38623 -1.81422 moveto
-113.38623 1.81422 lineto stroke
-117.84175 -9.76213 moveto
(\000) cmsy10 6.97382 fshow
-112.41768 -9.76213 moveto
(5) cmr10 6.97382 fshow
newpath -90.70898 -1.81422 moveto
-90.70898 1.81422 lineto stroke
-95.1645 -9.76213 moveto
(\000) cmsy10 6.97382 fshow
-89.74043 -9.76213 moveto
(4) cmr10 6.97382 fshow
newpath -68.03174 -1.81422 moveto
-68.03174 1.81422 lineto stroke
-72.48726 -9.76213 moveto
(\000) cmsy10 6.97382 fshow
-67.06319 -9.76213 moveto
(3) cmr10 6.97382 fshow
newpath -45.35449 -1.81422 moveto
-45.35449 1.81422 lineto stroke
-49.81001 -9.76213 moveto
(\000) cmsy10 6.97382 fshow
-44.38594 -9.76213 moveto
(2) cmr10 6.97382 fshow
newpath -22.67725 -1.81422 moveto
-22.67725 1.81422 lineto stroke
-27.13277 -9.76213 moveto
(\000) cmsy10 6.97382 fshow
-21.7087 -9.76213 moveto
(1) cmr10 6.97382 fshow
 0 0.5 dtransform truncate idtransform setlinewidth pop
newpath -1.13393 22.67725 moveto
1.13393 22.67725 lineto stroke
-7.62082 20.43011 moveto
(1) cmr10 6.97382 fshow
newpath -1.13393 45.35449 moveto
1.13393 45.35449 lineto stroke
-7.62082 43.10736 moveto
(2) cmr10 6.97382 fshow
newpath -1.13393 68.03174 moveto
1.13393 68.03174 lineto stroke
-7.62082 65.7846 moveto
(3) cmr10 6.97382 fshow
newpath -1.13393 90.70898 moveto
1.13393 90.70898 lineto stroke
-7.62082 88.46185 moveto
(4) cmr10 6.97382 fshow
newpath -1.13393 113.38623 moveto
1.13393 113.38623 lineto stroke
-7.62082 111.1391 moveto
(5) cmr10 6.97382 fshow
newpath -1.13393 136.06348 moveto
1.13393 136.06348 lineto stroke
-7.62082 133.81635 moveto
(6) cmr10 6.97382 fshow
newpath -1.13393 158.74072 moveto
1.13393 158.74072 lineto stroke
-7.62082 156.49359 moveto
(7) cmr10 6.97382 fshow
newpath -1.13393 181.41797 moveto
1.13393 181.41797 lineto stroke
-7.62082 179.17084 moveto
(8) cmr10 6.97382 fshow
-5.58688 -9.5424 moveto
(0) cmr10 6.97382 fshow
newpath -124.72485 0 moveto
124.72485 0 lineto stroke
newpath 121.02895 -1.53093 moveto
124.72485 0 lineto
121.02895 1.53093 lineto
 closepath
gsave fill grestore stroke
 0.5 0 dtransform exch truncate exch idtransform pop setlinewidth
newpath 0 -11.33862 moveto
0 192.75659 lineto stroke
 0 0.5 dtransform truncate idtransform setlinewidth pop
newpath 1.53026 189.0623 moveto
0 192.75659 lineto
-1.53026 189.0623 lineto
 closepath
gsave fill grestore stroke
 1 0 0 setrgbcolor
42.70856 133.72307 moveto
(y) cmmi10 9.96265 fshow
50.71785 133.72307 moveto
(=) cmr10 9.96265 fshow
61.23386 133.72307 moveto
(e) cmr10 9.96265 fshow
65.66176 137.33847 moveto
(x) cmmi7 6.97385 fshow
showpage
%%EOF
