input TEX;

verbatimtex
%&latex
 \documentclass[9pt]{article}
 \usepackage[latin1]{inputenc}
 \usepackage[frenchb]{babel}
 \usepackage{amsmath}
 \begin{document}
etex

outputtemplate := "courbe_puiss_g.mps";
beginfig(1)
  u:=.5cm;
  v:=.5cm;

vardef exp(expr x) = (mexp(256)**x) enddef; 
vardef ln(expr x) = (mlog(x)/256) enddef;
vardef func(expr x) = x**(1.5) enddef;

   % Graphe de la fonction

  path graphepuiss;  

  graphepuiss=(0.01u, (func (0.01)) *v) for i=0.02 step .01 until 4: ..(i*u, func(i) * v) endfor;

  draw graphepuiss withpen pencircle scaled 1.3bp withcolor red;
    
  % Encadrement : axe, ...
  for i=1 upto 8: draw (i*u,-0.08v)--(i*u,0.08v); label.bot(TEX("$"& decimal(i) &"$") scaled .7, (i*u,-0.1v)); endfor;
  for j=1 upto 8: draw (-0.05u,j*v)--(0.05u,j*v); label.lft(TEX("$"& decimal(j) &"$") scaled .7, (-0.05*u,j*v)); endfor;
  label.llft(btex $0$ etex scaled .7, (0,-0.13v));
  drawarrow (-.5u,0)--(8.5u,0);
  drawarrow (0,-0.5v)--(0,8.5v);
  
  % Décoration : text
%  draw thelabel(btex Cas $\alpha>1$ etex scaled .7, (5u, 1.5*v));  

endfig;

end
