%!PS
%%BoundingBox: -8 -9 121 121 
%%HiResBoundingBox: -7.33662 -8.91167 120.72249 120.72249 
%%Creator: MetaPost 2.02
%%CreationDate: 2023.03.26:1733
%%Pages: 1
%*Font: cmr10 6.97382 9.96265 30:ff8
%%BeginProlog
%%EndProlog
%%Page: 1 1
 1 0 0 setrgbcolor 0 1.3 dtransform truncate idtransform setlinewidth pop
 [] 0 setdash 1 setlinecap 1 setlinejoin 10 setmiterlimit
newpath 2.1259 114.23341 moveto
2.1698 111.62135 2.2171 109.00937 2.26778 106.39743 curveto
2.31215 104.11057 2.35913 101.82376 2.40942 99.53703 curveto
2.45387 97.5161 2.50093 95.49524 2.55107 93.47444 curveto
2.59569 91.6762 2.64276 89.87799 2.69273 88.07988 curveto
2.73747 86.46985 2.78455 84.8599 2.83438 83.25002 curveto
2.87924 81.80045 2.92635 80.35095 2.97604 78.90154 curveto
3.02101 77.59001 3.06812 76.27858 3.11769 74.96722 curveto
3.16277 73.77507 3.20988 72.58301 3.25935 71.39104 curveto
3.30452 70.30298 3.35164 69.21503 3.401 68.12715 curveto
3.44624 67.13022 3.49338 66.13338 3.54266 65.13663 curveto
3.58798 64.22006 3.63512 63.30359 3.68431 62.38722 curveto
3.82597 59.85107 lineto
3.96762 57.50479 lineto
4.10928 55.32808 lineto
4.25093 53.30339 lineto
4.3926 51.4156 lineto
4.53424 49.65152 lineto
4.67589 47.99945 lineto
4.81755 46.44926 lineto
4.9592 44.99184 lineto
5.10086 43.61942 lineto
5.24251 42.32463 lineto
5.38417 41.10143 lineto
5.52582 39.94397 lineto
5.66748 38.84706 lineto
5.80913 37.80617 lineto
5.95079 36.81763 lineto
6.09244 35.87708 lineto
6.2341 34.98131 lineto
6.37575 34.12727 lineto
6.51741 33.31216 lineto
6.65906 32.5336 lineto
6.8007 31.789 lineto
6.94237 31.07619 lineto
7.08401 30.3932 lineto
7.22568 29.73857 lineto
7.36732 29.1101 lineto
7.50899 28.50671 lineto
7.65063 27.9267 lineto
7.7923 27.36873 lineto
7.93394 26.83153 lineto
8.0756 26.31442 lineto
8.21725 25.81593 lineto
8.35892 25.33496 lineto
8.50056 24.87106 lineto
8.64223 24.42296 lineto
8.78387 23.98999 lineto
8.92554 23.57152 lineto
9.06718 23.16667 lineto
9.20883 22.77501 lineto
9.3505 22.39589 lineto
9.49214 22.02846 lineto
9.6338 21.67249 lineto
9.77545 21.3271 lineto
9.91711 20.99232 lineto
10.05876 20.6675 lineto
10.20042 20.35196 lineto
10.34207 20.04552 lineto
10.48373 19.74771 lineto
10.62538 19.45834 lineto
10.76704 19.17699 lineto
10.90869 18.9032 lineto
11.05035 18.63675 lineto
11.192 18.37746 lineto
11.33365 18.12506 lineto
11.47531 17.87895 lineto
11.61696 17.63933 lineto
11.75862 17.40576 lineto
11.90027 17.17804 lineto
12.04193 16.95572 lineto
12.18358 16.73901 lineto
12.32524 16.52751 lineto
12.46689 16.3212 lineto
12.60855 16.11963 lineto
12.7502 15.9226 lineto
12.89186 15.73035 lineto
13.03351 15.54242 lineto
13.17517 15.35858 lineto
13.31682 15.1791 lineto
13.45847 15.00327 lineto
13.60013 14.83154 lineto
13.74178 14.66351 lineto
13.88344 14.49893 lineto
14.02509 14.33803 lineto
14.16675 14.18037 lineto
14.3084 14.02596 lineto
14.45006 13.87479 lineto
14.5917 13.72664 lineto
14.73337 13.58153 lineto
14.87502 13.43944 lineto
15.01668 13.29994 lineto
15.15833 13.16327 lineto
15.29999 13.0294 lineto
15.44164 12.8979 lineto
15.58328 12.76901 lineto
15.72495 12.6425 lineto
15.8666 12.51836 lineto
16.00826 12.3966 lineto
16.1499 12.27701 lineto
16.29156 12.15979 lineto
16.43321 12.04453 lineto
16.57487 11.9312 lineto
16.71652 11.82004 lineto
16.85818 11.71083 lineto
16.99983 11.60356 lineto
17.1415 11.49823 lineto
17.28314 11.39464 lineto
17.4248 11.29279 lineto
17.56645 11.19266 lineto
17.7081 11.09404 lineto
17.84976 10.99736 lineto
17.99141 10.9022 lineto
18.13307 10.80856 lineto
18.27472 10.71643 lineto
18.41638 10.62581 lineto
18.55803 10.5365 lineto
18.69969 10.4487 lineto
18.84134 10.3624 lineto
18.983 10.2774 lineto
19.12465 10.19371 lineto
19.26631 10.11131 lineto
19.40796 10.03 lineto
19.54962 9.9502 lineto
19.69127 9.87148 lineto
19.83293 9.79405 lineto
19.97458 9.7175 lineto
20.11623 9.64224 lineto
20.25789 9.56805 lineto
20.39954 9.49518 lineto
20.5412 9.42316 lineto
20.68285 9.35222 lineto
20.82451 9.28215 lineto
20.96616 9.21317 lineto
21.10782 9.14526 lineto
21.24947 9.07822 lineto
21.39113 9.01204 lineto
21.53278 8.94695 lineto
21.67444 8.8827 lineto
21.81609 8.81912 lineto
21.95775 8.75662 lineto
22.0994 8.69478 lineto
22.24104 8.634 lineto
22.3827 8.57388 lineto
22.52435 8.51462 lineto
22.66602 8.45601 lineto
22.80766 8.39827 lineto
22.94933 8.3414 lineto
23.09097 8.28517 lineto
23.23264 8.22958 lineto
23.37428 8.17465 lineto
23.51595 8.12059 lineto
23.6576 8.06696 lineto
23.79926 8.01418 lineto
23.9409 7.96207 lineto
24.08257 7.9106 lineto
24.22421 7.85977 lineto
24.36586 7.80937 lineto
24.50752 7.75986 lineto
24.64917 7.71075 lineto
24.79083 7.66232 lineto
24.93248 7.61452 lineto
25.07414 7.56715 lineto
25.21579 7.52045 lineto
25.35745 7.47417 lineto
25.4991 7.42853 lineto
25.64076 7.38333 lineto
25.78241 7.33878 lineto
25.92407 7.29466 lineto
26.06572 7.25098 lineto
26.20738 7.20795 lineto
26.34903 7.16534 lineto
26.49068 7.12317 lineto
26.63234 7.08165 lineto
26.77399 7.04033 lineto
26.91565 6.99968 lineto
27.0573 6.95923 lineto
27.19896 6.91945 lineto
27.3406 6.88008 lineto
27.48227 6.84116 lineto
27.62392 6.80244 lineto
27.76558 6.76437 lineto
27.90723 6.72653 lineto
28.04889 6.68912 lineto
28.19054 6.65213 lineto
28.3322 6.61559 lineto
28.47385 6.57947 lineto
28.61551 6.54358 lineto
28.75716 6.5081 lineto
28.8988 6.47307 lineto
29.04047 6.43846 lineto
29.18211 6.40408 lineto
29.32378 6.3699 lineto
29.46542 6.3364 lineto
29.60709 6.30287 lineto
29.74873 6.26999 lineto
29.8904 6.23734 lineto
30.03204 6.2049 lineto
30.1737 6.1729 lineto
30.31535 6.1411 lineto
30.45702 6.10974 lineto
30.59866 6.0786 lineto
30.74033 6.04788 lineto
30.88197 6.0174 lineto
31.02362 5.98712 lineto
31.16528 5.95728 lineto
31.30693 5.92764 lineto
31.4486 5.89824 lineto
31.59024 5.86903 lineto
31.7319 5.84027 lineto
31.87355 5.81172 lineto
32.01521 5.7834 lineto
32.15686 5.7555 lineto
32.29852 5.7276 lineto
32.44017 5.70013 lineto
32.58183 5.67288 lineto
32.72348 5.64584 lineto
32.86514 5.61925 lineto
33.00679 5.59265 lineto
33.14844 5.56627 lineto
33.2901 5.54031 lineto
33.43175 5.51436 lineto
33.57341 5.48885 lineto
33.71506 5.46353 lineto
33.85672 5.43845 lineto
33.99837 5.41336 lineto
34.14003 5.3887 lineto
34.28168 5.36427 lineto
34.42334 5.34004 lineto
34.56499 5.31583 lineto
34.70665 5.29204 lineto
34.8483 5.26846 lineto
34.98996 5.24489 lineto
35.1316 5.22176 lineto
35.27325 5.19861 lineto
35.41492 5.17569 lineto
35.55656 5.1532 lineto
35.69823 5.1305 lineto
35.83987 5.10822 lineto
35.98154 5.08615 lineto
36.12318 5.06432 lineto
36.26485 5.04247 lineto
36.4065 5.02084 lineto
36.54816 4.99944 lineto
36.6898 4.97824 lineto
36.83147 4.95726 lineto
36.97311 4.93628 lineto
37.11478 4.91551 lineto
37.25642 4.89497 lineto
37.39807 4.87465 lineto
37.53973 4.85431 lineto
37.68138 4.83441 lineto
37.82304 4.81453 lineto
37.96469 4.79463 lineto
38.10635 4.77516 lineto
38.248 4.75569 lineto
38.38966 4.73624 lineto
38.53131 4.71721 lineto
38.67297 4.69817 lineto
38.81462 4.67935 lineto
38.95628 4.66054 lineto
39.09793 4.64194 lineto
39.2396 4.62357 lineto
39.38124 4.6054 lineto
39.5229 4.58722 lineto
39.66455 4.56906 lineto
39.8062 4.55133 lineto
39.94786 4.53337 lineto
40.08951 4.51585 lineto
40.23117 4.49834 lineto
40.37282 4.48103 lineto
40.51448 4.46375 lineto
40.65613 4.44666 lineto
40.79779 4.42978 lineto
40.93944 4.41292 lineto
41.0811 4.39626 lineto
41.22275 4.37961 lineto
41.36441 4.36296 lineto
41.50606 4.34674 lineto
41.64772 4.3303 lineto
41.78937 4.3143 lineto
41.93102 4.2983 lineto
42.07268 4.28229 lineto
42.21432 4.26651 lineto
42.35599 4.25072 lineto
42.49763 4.23514 lineto
42.6393 4.21979 lineto
42.78094 4.20444 lineto
42.9226 4.18909 lineto
43.06425 4.17393 lineto
43.20592 4.15901 lineto
43.34756 4.14388 lineto
43.48923 4.12918 lineto
43.63087 4.11426 lineto
43.77254 4.09976 lineto
43.91418 4.08527 lineto
44.05583 4.07079 lineto
44.1975 4.0565 lineto
44.33914 4.04202 lineto
44.4808 4.02795 lineto
44.62245 4.0139 lineto
44.76411 3.99985 lineto
44.90576 3.98601 lineto
45.04742 3.97238 lineto
45.18907 3.95854 lineto
45.33073 3.94492 lineto
45.47238 3.9315 lineto
45.61404 3.91809 lineto
45.75569 3.9047 lineto
45.89735 3.8915 lineto
46.039 3.87831 lineto
46.18065 3.86511 lineto
46.32231 3.85214 lineto
46.46396 3.83916 lineto
46.60562 3.8264 lineto
46.74727 3.81364 lineto
46.88893 3.8011 lineto
47.03058 3.78856 lineto
47.17224 3.77579 lineto
47.31389 3.76347 lineto
47.45555 3.75114 lineto
47.5972 3.73882 lineto
47.73886 3.7267 lineto
47.88051 3.71458 lineto
48.02217 3.70248 lineto
48.16382 3.69058 lineto
48.30548 3.6787 lineto
48.44713 3.6668 lineto
48.58878 3.6549 lineto
48.73044 3.64322 lineto
48.87209 3.63176 lineto
49.01375 3.62009 lineto
49.1554 3.60863 lineto
49.29706 3.59738 lineto
49.4387 3.5859 lineto
49.58037 3.57466 lineto
49.72202 3.56342 lineto
49.86368 3.5524 lineto
50.00533 3.54137 lineto
50.14699 3.53033 lineto
50.28864 3.5193 lineto
50.4303 3.50848 lineto
50.57195 3.49768 lineto
50.7136 3.48686 lineto
50.85526 3.47627 lineto
50.9969 3.46567 lineto
51.13857 3.45508 lineto
51.28021 3.44447 lineto
51.42188 3.4341 lineto
51.56352 3.4237 lineto
51.70518 3.41333 lineto
51.84683 3.40317 lineto
51.9885 3.393 lineto
52.13014 3.38284 lineto
52.2718 3.37268 lineto
52.41345 3.36273 lineto
52.55511 3.35278 lineto
52.69676 3.34283 lineto
52.83841 3.33289 lineto
52.98007 3.32315 lineto
53.12172 3.31342 lineto
53.26338 3.30368 lineto
53.40503 3.29417 lineto
53.54669 3.28444 lineto
53.68834 3.27492 lineto
53.83 3.26541 lineto
53.97165 3.2561 lineto
54.11331 3.2466 lineto
54.25496 3.23729 lineto
54.39662 3.22821 lineto
54.53827 3.2189 lineto
54.67993 3.20961 lineto
54.82158 3.20053 lineto
54.96323 3.19144 lineto
55.10489 3.18257 lineto
55.24654 3.1735 lineto
55.3882 3.16463 lineto
55.52985 3.15576 lineto
55.67151 3.1469 lineto
55.81316 3.13803 lineto
55.95482 3.12938 lineto
56.09647 3.12073 lineto
56.23813 3.11208 lineto
56.37978 3.10342 lineto
56.52144 3.09477 lineto
56.66309 3.08633 lineto
56.80475 3.0779 lineto
56.9464 3.06947 lineto
57.08804 3.06104 lineto
57.2297 3.05281 lineto
57.37135 3.04439 lineto
57.51302 3.03616 lineto
57.65466 3.02794 lineto
57.79633 3.01994 lineto
57.93797 3.01172 lineto
58.07964 3.00372 lineto
58.22128 2.99573 lineto
58.36295 2.98772 lineto
58.5046 2.97972 lineto
58.64626 2.97171 lineto
58.7879 2.96393 lineto
58.92957 2.95593 lineto
59.07121 2.94815 lineto
59.21288 2.94035 lineto
59.35452 2.93279 lineto
59.49617 2.925 lineto
59.63783 2.91743 lineto
59.77948 2.90987 lineto
59.92114 2.9023 lineto
60.06279 2.89473 lineto
60.20445 2.88716 lineto
60.3461 2.8798 lineto
60.48776 2.87245 lineto
60.62941 2.86488 lineto
60.77107 2.85774 lineto
60.91272 2.85039 lineto
61.05438 2.84303 lineto
61.19603 2.8359 lineto
61.33769 2.82855 lineto
61.47934 2.82141 lineto
61.62099 2.81427 lineto
61.76265 2.80714 lineto
61.9043 2.80022 lineto
62.04596 2.79308 lineto
62.1876 2.78616 lineto
62.32927 2.77924 lineto
62.47092 2.77211 lineto
62.61258 2.7654 lineto
62.75423 2.75848 lineto
62.89589 2.75156 lineto
63.03754 2.74486 lineto
63.1792 2.73793 lineto
63.32085 2.73123 lineto
63.46251 2.72452 lineto
63.60416 2.71803 lineto
63.7458 2.71133 lineto
63.88747 2.70462 lineto
64.02911 2.69814 lineto
64.17078 2.69144 lineto
64.31242 2.68495 lineto
64.45409 2.67845 lineto
64.59573 2.67218 lineto
64.7374 2.66548 lineto
64.87904 2.65921 lineto
65.0207 2.65294 lineto
65.16235 2.64667 lineto
65.30402 2.64018 lineto
65.44566 2.63391 lineto
65.58733 2.62764 lineto
65.72897 2.62137 lineto
65.87062 2.61531 lineto
66.01228 2.60904 lineto
66.15393 2.60298 lineto
66.2956 2.59671 lineto
66.43724 2.59065 lineto
66.5789 2.5846 lineto
66.72055 2.57854 lineto
66.86221 2.5725 lineto
67.00386 2.56665 lineto
67.14552 2.5608 lineto
67.28717 2.55475 lineto
67.42883 2.54892 lineto
67.57048 2.54308 lineto
67.71214 2.53702 lineto
67.85379 2.53119 lineto
67.99545 2.52556 lineto
68.1371 2.51971 lineto
68.27875 2.51389 lineto
68.42041 2.50826 lineto
68.56206 2.50264 lineto
68.70372 2.4968 lineto
68.84537 2.49117 lineto
68.98703 2.48555 lineto
69.12868 2.47992 lineto
69.27034 2.4743 lineto
69.41199 2.4689 lineto
69.55365 2.46327 lineto
69.6953 2.45787 lineto
69.83696 2.45224 lineto
69.9786 2.44684 lineto
70.12027 2.44144 lineto
70.26192 2.43602 lineto
70.40356 2.43062 lineto
70.54523 2.42522 lineto
70.68687 2.42001 lineto
70.82854 2.41461 lineto
70.97018 2.40921 lineto
71.11185 2.40402 lineto
71.2535 2.39883 lineto
71.39516 2.39342 lineto
71.5368 2.38823 lineto
71.67847 2.38304 lineto
71.82011 2.37785 lineto
71.96178 2.37288 lineto
72.10342 2.36769 lineto
72.24509 2.36249 lineto
72.38673 2.35751 lineto
72.52838 2.35254 lineto
72.67004 2.34735 lineto
72.81169 2.34238 lineto
72.95335 2.3374 lineto
73.095 2.33243 lineto
73.23666 2.32745 lineto
73.37831 2.32248 lineto
73.51997 2.3175 lineto
73.66162 2.31253 lineto
73.80328 2.30779 lineto
73.94493 2.30281 lineto
74.0866 2.29805 lineto
74.22824 2.29329 lineto
74.3699 2.28853 lineto
74.51155 2.28355 lineto
74.6532 2.2788 lineto
74.79486 2.27405 lineto
74.93651 2.26929 lineto
75.07817 2.26474 lineto
75.21982 2.25998 lineto
75.36148 2.25522 lineto
75.50313 2.25069 lineto
75.64479 2.24593 lineto
75.78644 2.24138 lineto
75.9281 2.23685 lineto
76.06975 2.2323 lineto
76.21141 2.22754 lineto
76.35306 2.223 lineto
76.49472 2.21867 lineto
76.63637 2.21414 lineto
76.77802 2.2096 lineto
76.91968 2.20505 lineto
77.06133 2.20052 lineto
77.20299 2.19618 lineto
77.34464 2.19186 lineto
77.4863 2.18732 lineto
77.62794 2.183 lineto
77.7696 2.17867 lineto
77.91125 2.17435 lineto
78.05292 2.17001 lineto
78.19456 2.16548 lineto
78.33623 2.16136 lineto
78.47787 2.15704 lineto
78.61954 2.15271 lineto
78.76118 2.14839 lineto
78.90285 2.14429 lineto
79.0445 2.13995 lineto
79.18614 2.13585 lineto
79.3278 2.13152 lineto
79.46945 2.12741 lineto
79.61111 2.1233 lineto
79.75276 2.11897 lineto
79.89442 2.11487 lineto
80.03607 2.11076 lineto
80.17773 2.10664 lineto
80.31938 2.10275 lineto
80.46104 2.09865 lineto
80.60269 2.09454 lineto
80.74435 2.09042 lineto
80.886 2.08632 lineto
81.02766 2.08243 lineto
81.16931 2.07854 lineto
81.31096 2.07443 lineto
81.45262 2.07054 lineto
81.59427 2.06664 lineto
81.73593 2.06253 lineto
81.87758 2.05864 lineto
82.01924 2.05475 lineto
82.16089 2.05086 lineto
82.30255 2.04697 lineto
82.4442 2.04308 lineto
82.58586 2.0394 lineto
82.72751 2.03549 lineto
82.86917 2.0316 lineto
83.01082 2.02771 lineto
83.15248 2.02403 lineto
83.29413 2.02014 lineto
83.43578 2.01646 lineto
83.57744 2.01257 lineto
83.71909 2.0089 lineto
83.86075 2.00522 lineto
84.0024 2.00154 lineto
84.14406 1.99765 lineto
84.2857 1.99419 lineto
84.42737 1.99051 lineto
84.56902 1.98683 lineto
84.71068 1.98317 lineto
84.85233 1.97949 lineto
84.99399 1.97581 lineto
85.13564 1.97214 lineto
85.2773 1.96867 lineto
85.41895 1.965 lineto
85.5606 1.96132 lineto
85.70226 1.95786 lineto
85.8439 1.95418 lineto
85.98557 1.95073 lineto
86.12721 1.94727 lineto
86.26888 1.9438 lineto
86.41052 1.94012 lineto
86.55219 1.93666 lineto
86.69383 1.93321 lineto
86.8355 1.92975 lineto
86.97714 1.92628 lineto
87.1188 1.92282 lineto
87.26045 1.91936 lineto
87.40211 1.91591 lineto
87.54376 1.91266 lineto
87.68542 1.9092 lineto
87.82707 1.90575 lineto
87.96872 1.9025 lineto
88.11038 1.89903 lineto
88.25203 1.8958 lineto
88.39369 1.89233 lineto
88.53534 1.88908 lineto
88.677 1.88562 lineto
88.81865 1.88239 lineto
88.96031 1.87914 lineto
89.10196 1.8759 lineto
89.24362 1.87265 lineto
89.38527 1.86919 lineto
89.52693 1.86595 lineto
89.66858 1.8627 lineto
89.81024 1.85945 lineto
89.95189 1.85643 lineto
90.09354 1.85318 lineto
90.2352 1.84995 lineto
90.37685 1.8467 lineto
90.51851 1.84367 lineto
90.66016 1.84042 lineto
90.80182 1.83719 lineto
90.94347 1.83415 lineto
91.08513 1.83092 lineto
91.22678 1.82788 lineto
91.36844 1.82465 lineto
91.51009 1.82161 lineto
91.65175 1.81859 lineto
91.7934 1.81534 lineto
91.93506 1.81232 lineto
92.0767 1.80928 lineto
92.21835 1.80626 lineto
92.36002 1.80322 lineto
92.50166 1.8002 lineto
92.64333 1.79718 lineto
92.78497 1.79414 lineto
92.92664 1.79112 lineto
93.06828 1.78809 lineto
93.20995 1.78506 lineto
93.3516 1.78203 lineto
93.49326 1.77922 lineto
93.6349 1.7762 lineto
93.77657 1.77316 lineto
93.91821 1.77036 lineto
94.05988 1.76733 lineto
94.20152 1.76451 lineto
94.34317 1.76149 lineto
94.48483 1.75868 lineto
94.62648 1.75565 lineto
94.76814 1.75284 lineto
94.90979 1.75003 lineto
95.05145 1.747 lineto
95.1931 1.74419 lineto
95.33476 1.74138 lineto
95.47641 1.73857 lineto
95.61807 1.73575 lineto
95.75972 1.73294 lineto
95.90138 1.73013 lineto
96.04303 1.72733 lineto
96.1847 1.7245 lineto
96.32634 1.7217 lineto
96.46799 1.71889 lineto
96.60965 1.71608 lineto
96.7513 1.71326 lineto
96.89296 1.71045 lineto
97.0346 1.70786 lineto
97.17627 1.70505 lineto
97.31792 1.70245 lineto
97.45958 1.69963 lineto
97.60123 1.69704 lineto
97.74289 1.69423 lineto
97.88454 1.69164 lineto
98.0262 1.68883 lineto
98.16785 1.68623 lineto
98.30951 1.68341 lineto
98.45116 1.68082 lineto
98.59282 1.67822 lineto
98.73447 1.67542 lineto
98.87611 1.67282 lineto
99.01778 1.67023 lineto
99.15942 1.66763 lineto
99.30109 1.66504 lineto
99.44273 1.66245 lineto
99.5844 1.65985 lineto
99.72604 1.65724 lineto
99.8677 1.65465 lineto
100.00935 1.65205 lineto
100.15102 1.64946 lineto
100.29266 1.64687 lineto
100.43433 1.64427 lineto
100.57597 1.64168 lineto
100.71764 1.6393 lineto
100.85928 1.6367 lineto
101.00093 1.63432 lineto
101.1426 1.63173 lineto
101.28424 1.62914 lineto
101.4259 1.62675 lineto
101.56755 1.62416 lineto
101.70921 1.62178 lineto
101.85086 1.61919 lineto
101.99252 1.6168 lineto
102.13417 1.61421 lineto
102.27583 1.61183 lineto
102.41748 1.60945 lineto
102.55914 1.60686 lineto
102.70079 1.60448 lineto
102.84245 1.6021 lineto
102.9841 1.5995 lineto
103.12575 1.59712 lineto
103.26741 1.59474 lineto
103.40906 1.59238 lineto
103.55072 1.59 lineto
103.69237 1.58762 lineto
103.83403 1.58524 lineto
103.97568 1.58286 lineto
104.11734 1.58047 lineto
104.25899 1.5781 lineto
104.40065 1.57571 lineto
104.5423 1.57333 lineto
104.68396 1.57118 lineto
104.8256 1.5688 lineto
104.96727 1.56642 lineto
105.10892 1.56404 lineto
105.25056 1.56187 lineto
105.39223 1.5595 lineto
105.53387 1.55711 lineto
105.67554 1.55473 lineto
105.81718 1.55258 lineto
105.95885 1.5502 lineto
106.1005 1.54803 lineto
106.24216 1.54565 lineto
106.3838 1.54349 lineto
106.52547 1.54134 lineto
106.66711 1.53896 lineto
106.80878 1.53679 lineto
106.95042 1.53441 lineto
107.09209 1.53224 lineto
107.23373 1.53009 lineto
107.3754 1.52771 lineto
107.51704 1.52554 lineto
107.65869 1.52338 lineto
107.80035 1.52122 lineto
107.942 1.51884 lineto
108.08366 1.51668 lineto
108.22531 1.51451 lineto
108.36697 1.51234 lineto
108.50862 1.5102 lineto
108.65028 1.50803 lineto
108.79193 1.50586 lineto
108.9336 1.5037 lineto
109.07524 1.50154 lineto
109.2169 1.49959 lineto
109.35855 1.49742 lineto
109.50021 1.49527 lineto
109.64186 1.4931 lineto
109.78351 1.49094 lineto
109.92517 1.489 lineto
110.06682 1.48683 lineto
110.20848 1.48466 lineto
110.35013 1.48251 lineto
110.49179 1.48056 lineto
110.63344 1.4784 lineto
110.7751 1.47623 lineto
110.91675 1.47429 lineto
111.05841 1.47212 lineto
111.20006 1.47018 lineto
111.34172 1.46802 lineto
111.48337 1.46606 lineto
111.62503 1.46391 lineto
111.76668 1.46196 lineto
111.90833 1.4598 lineto
112.04999 1.45786 lineto
112.19164 1.4559 lineto
112.3333 1.45374 lineto
112.47495 1.4518 lineto
112.61661 1.44984 lineto
112.75826 1.4477 lineto
112.89992 1.44574 lineto
113.04156 1.4438 lineto
113.18323 1.44185 lineto
113.32487 1.4399 lineto stroke
 0 0 0 setrgbcolor 0.5 0 dtransform exch truncate exch idtransform pop setlinewidth
newpath 14.17323 -1.13388 moveto
14.17323 1.13388 lineto stroke
12.42978 -8.91167 moveto
(1) cmr10 6.97382 fshow
newpath 28.34647 -1.13388 moveto
28.34647 1.13388 lineto stroke
26.60301 -8.91167 moveto
(2) cmr10 6.97382 fshow
newpath 42.5197 -1.13388 moveto
42.5197 1.13388 lineto stroke
40.77625 -8.91167 moveto
(3) cmr10 6.97382 fshow
newpath 56.69293 -1.13388 moveto
56.69293 1.13388 lineto stroke
54.94948 -8.91167 moveto
(4) cmr10 6.97382 fshow
newpath 70.86617 -1.13388 moveto
70.86617 1.13388 lineto stroke
69.12271 -8.91167 moveto
(5) cmr10 6.97382 fshow
newpath 85.0394 -1.13388 moveto
85.0394 1.13388 lineto stroke
83.29594 -8.91167 moveto
(6) cmr10 6.97382 fshow
newpath 99.21263 -1.13388 moveto
99.21263 1.13388 lineto stroke
97.46918 -8.91167 moveto
(7) cmr10 6.97382 fshow
newpath 113.38586 -1.13388 moveto
113.38586 1.13388 lineto stroke
111.64241 -8.91167 moveto
(8) cmr10 6.97382 fshow
 0 0.5 dtransform truncate idtransform setlinewidth pop
newpath -0.70871 14.17323 moveto
0.70871 14.17323 lineto stroke
-7.1956 11.9261 moveto
(1) cmr10 6.97382 fshow
newpath -0.70871 28.34647 moveto
0.70871 28.34647 lineto stroke
-7.1956 26.09933 moveto
(2) cmr10 6.97382 fshow
newpath -0.70871 42.5197 moveto
0.70871 42.5197 lineto stroke
-7.1956 40.27257 moveto
(3) cmr10 6.97382 fshow
newpath -0.70871 56.69293 moveto
0.70871 56.69293 lineto stroke
-7.1956 54.4458 moveto
(4) cmr10 6.97382 fshow
newpath -0.70871 70.86617 moveto
0.70871 70.86617 lineto stroke
-7.1956 68.61903 moveto
(5) cmr10 6.97382 fshow
newpath -0.70871 85.0394 moveto
0.70871 85.0394 lineto stroke
-7.1956 82.79227 moveto
(6) cmr10 6.97382 fshow
newpath -0.70871 99.21263 moveto
0.70871 99.21263 lineto stroke
-7.1956 96.9655 moveto
(7) cmr10 6.97382 fshow
newpath -0.70871 113.38586 moveto
0.70871 113.38586 lineto stroke
-7.1956 111.13873 moveto
(8) cmr10 6.97382 fshow
-5.58688 -8.43684 moveto
(0) cmr10 6.97382 fshow
newpath -7.08662 0 moveto
120.47249 0 lineto stroke
newpath 116.77713 -1.5307 moveto
120.47249 0 lineto
116.77713 1.5307 lineto
 closepath
gsave fill grestore stroke
 0.5 0 dtransform exch truncate exch idtransform pop setlinewidth
newpath 0 -7.08662 moveto
0 120.47249 lineto stroke
 0 0.5 dtransform truncate idtransform setlinewidth pop
newpath 1.5307 116.77713 moveto
0 120.47249 lineto
-1.5307 116.77713 lineto
 closepath
gsave fill grestore stroke
showpage
%%EOF
