%!PS
%%BoundingBox: -57 39 100 171 
%%HiResBoundingBox: -56.9429 39.43486 99.46259 170.3287 
%%Creator: MetaPost 2.02
%%CreationDate: 2023.03.26:1733
%%Pages: 1
%*Font: cmmi10 6.97382 9.96265 66:80018
%*Font: cmr10 6.97382 9.96265 28:c
%*Font: cmsy10 6.97382 9.96265 43:8
%*Font: cmmi7 4.88167 6.97385 66:8
%%BeginProlog
%%EndProlog
%%Page: 1 1
 1 0 0 setrgbcolor 0 1.5 dtransform truncate idtransform setlinewidth pop
 [] 0 setdash 1 setlinecap 1 setlinejoin 10 setmiterlimit
newpath -28.34645 151.18222 moveto
-27.40787 150.18082 -26.4629 149.1854 -25.51163 148.19601 curveto
-24.57289 147.21968 -23.62804 146.24925 -22.67682 145.28508 curveto
-21.73814 144.3336 -20.79329 143.38824 -19.842 142.44939 curveto
-18.90338 141.52306 -17.95851 140.60309 -17.00717 139.68983 curveto
-16.06837 138.7886 -15.1233 137.89394 -14.17236 137.00554 curveto
-13.23392 136.12881 -12.28978 135.25821 -11.33754 134.3965 curveto
-10.39937 133.54752 -9.45337 132.70723 -8.50273 131.87224 curveto
-7.5631 131.04692 -6.61891 130.22678 -5.66791 129.4146 curveto
-4.72942 128.6131 -3.78432 127.8194 -2.83308 127.03307 curveto
-1.89418 126.25693 -0.94934 125.48799 0.00172 124.7268 curveto
0.94057 123.97542 1.88544 123.2316 2.83655 122.4958 curveto
3.77538 121.7695 4.72026 121.05106 5.67137 120.34093 curveto
6.61032 119.63988 7.55531 118.94698 8.50618 118.26218 curveto
9.4453 117.58585 10.39009 116.91747 11.341 116.25781 curveto
12.28003 115.6064 13.22495 114.96356 14.17583 114.32959 curveto
15.11499 113.70343 16.05992 113.08595 17.01064 112.47748 curveto
17.94997 111.87628 18.8949 111.2839 19.84546 110.70064 curveto
20.78484 110.12424 21.72966 109.55675 22.68027 108.99905 curveto
23.6198 108.44785 24.56493 107.90623 25.51509 107.3736 curveto
26.45457 106.84695 27.39897 106.32909 28.34991 105.82341 curveto
29.28937 105.32384 30.2351 104.8362 31.18472 104.35625 curveto
32.12529 103.88087 33.06966 103.41302 34.01955 102.95657 curveto
34.95943 102.50493 35.90465 102.06447 36.85437 101.6339 curveto
37.79477 101.20755 38.73953 100.79091 39.68918 100.3856 curveto
40.62958 99.98425 41.57468 99.59404 42.524 99.21431 curveto
43.46478 98.838 44.40965 98.47197 45.35883 98.1174 curveto
46.29968 97.76593 47.2447 97.42572 48.19363 97.09663 curveto
49.1348 96.77023 50.07973 96.4548 51.02846 96.15111 curveto
51.96982 95.84978 52.91486 95.56001 53.86328 95.28172 curveto
54.80493 95.00542 55.74988 94.74043 56.69809 94.4876 curveto
57.64 94.23645 58.58507 93.9973 59.53291 93.76959 curveto
60.47513 93.54323 61.42003 93.32817 62.36772 93.12598 curveto
63.31018 92.9249 64.25531 92.73654 65.20255 92.55936 curveto
66.14531 92.383 67.09013 92.21771 68.03737 92.06714 curveto
68.98035 91.91725 69.92557 91.78195 70.87218 91.6571 curveto
71.81575 91.53267 72.76068 91.4186 73.707 91.31712 curveto
74.65071 91.21593 75.59573 91.12727 76.54182 91.05156 curveto
77.48587 90.97601 78.43091 90.91336 79.37663 90.86298 curveto
80.32104 90.81267 81.26607 90.7746 82.21146 90.74878 curveto stroke
 0 0 1 setrgbcolor 0 0.5 dtransform truncate idtransform setlinewidth pop
 [3 3 ] 0 setdash
newpath -19.84242 56.6929 moveto
-19.84242 142.44939 lineto
0 142.44939 lineto stroke
newpath 36.85048 56.6929 moveto
36.85048 101.6313 lineto
0 101.6313 lineto stroke
-21.83853 50.69026 moveto
(u) cmmi10 6.97382 fshow
 0 3 dtransform truncate idtransform setlinewidth pop [] 0 setdash
newpath -19.84242 56.6929 moveto 0 0 rlineto stroke
3 140.70595 moveto
(f) cmmi10 6.97382 fshow
7.16492 140.70595 moveto
(\() cmr10 6.97382 fshow
9.87698 140.70595 moveto
(u) cmmi10 6.97382 fshow
13.8692 140.70595 moveto
(\)) cmr10 6.97382 fshow
newpath 0 142.44939 moveto 0 0 rlineto stroke
35.03517 50.69026 moveto
(v) cmmi10 6.97382 fshow
newpath 36.85048 56.6929 moveto 0 0 rlineto stroke
-16.21965 99.88785 moveto
(f) cmmi10 6.97382 fshow
-12.05473 99.88785 moveto
(\() cmr10 6.97382 fshow
-9.34267 99.88785 moveto
(v) cmmi10 6.97382 fshow
-5.71207 99.88785 moveto
(\)) cmr10 6.97382 fshow
newpath 0 101.6313 moveto 0 0 rlineto stroke
 1 0 0 setrgbcolor
67.22255 83.65427 moveto
(C) cmsy10 6.97382 fshow
70.89445 82.60818 moveto
(f) cmmi7 4.88167 fshow
 0 0 0 setrgbcolor 0.5 0 dtransform exch truncate exch idtransform pop setlinewidth
newpath -28.34645 53.85808 moveto
-28.34645 59.52773 lineto stroke
newpath 0 53.85808 moveto
0 59.52773 lineto stroke
newpath 28.34645 53.85808 moveto
28.34645 59.52773 lineto stroke
newpath 56.6929 53.85808 moveto
56.6929 59.52773 lineto stroke
newpath 85.03935 53.85808 moveto
85.03935 59.52773 lineto stroke
 0 0.5 dtransform truncate idtransform setlinewidth pop
newpath -2.83482 85.03935 moveto
2.83482 85.03935 lineto stroke
newpath -2.83482 113.3858 moveto
2.83482 113.3858 lineto stroke
newpath -2.83482 141.73225 moveto
2.83482 141.73225 lineto stroke
newpath -56.6929 56.6929 moveto
99.21259 56.6929 lineto stroke
newpath 95.51804 55.16254 moveto
99.21259 56.6929 lineto
95.51804 58.22327 lineto
 closepath
gsave fill grestore stroke
 0.5 0 dtransform exch truncate exch idtransform pop setlinewidth
newpath 0 39.68486 moveto
0 170.0787 lineto stroke
 0 0.5 dtransform truncate idtransform setlinewidth pop
newpath 1.53046 166.38394 moveto
0 170.0787 lineto
-1.53046 166.38394 lineto
 closepath
gsave fill grestore stroke
showpage
%%EOF
