%!PS
%%BoundingBox: -57 39 100 171 
%%HiResBoundingBox: -56.9429 39.43486 99.46259 170.3287 
%%Creator: MetaPost 2.02
%%CreationDate: 2023.03.26:1733
%%Pages: 1
%*Font: cmmi10 6.97382 9.96265 66:80018
%*Font: cmr10 6.97382 9.96265 28:c
%*Font: cmsy10 6.97382 9.96265 43:8
%*Font: cmmi7 4.88167 6.97385 66:8
%%BeginProlog
%%EndProlog
%%Page: 1 1
 1 0 0 setrgbcolor 0 1.5 dtransform truncate idtransform setlinewidth pop
 [] 0 setdash 1 setlinecap 1 setlinejoin 10 setmiterlimit
newpath -28.34645 75.58939 moveto
-27.40787 76.59079 -26.4629 77.58621 -25.51163 78.57559 curveto
-24.57289 79.55193 -23.62804 80.52235 -22.67682 81.48653 curveto
-21.73814 82.438 -20.79329 83.38336 -19.842 84.32222 curveto
-18.90338 85.24855 -17.95851 86.16852 -17.00717 87.08177 curveto
-16.06837 87.983 -15.1233 88.87767 -14.17236 89.76607 curveto
-13.23392 90.64279 -12.28978 91.5134 -11.33754 92.3751 curveto
-10.39937 93.22409 -9.45337 94.06438 -8.50273 94.89937 curveto
-7.5631 95.72469 -6.61891 96.54483 -5.66791 97.35701 curveto
-4.72942 98.15851 -3.78432 98.95221 -2.83308 99.73854 curveto
-1.89418 100.51468 -0.94934 101.28362 0.00172 102.0448 curveto
0.94057 102.79619 1.88544 103.54001 2.83655 104.2758 curveto
3.77538 105.0021 4.72026 105.72055 5.67137 106.43068 curveto
6.61032 107.13173 7.55531 107.82463 8.50618 108.50943 curveto
9.4453 109.18576 10.39009 109.85414 11.341 110.5138 curveto
12.28003 111.1652 13.22495 111.80804 14.17583 112.44202 curveto
15.11499 113.06818 16.05992 113.68565 17.01064 114.29413 curveto
17.94997 114.89532 18.8949 115.4877 19.84546 116.07097 curveto
20.78484 116.64737 21.72966 117.21486 22.68027 117.77255 curveto
23.6198 118.32376 24.56493 118.86537 25.51509 119.39801 curveto
26.45457 119.92465 27.39897 120.44252 28.34991 120.9482 curveto
29.28937 121.44777 30.2351 121.93541 31.18472 122.41536 curveto
32.12529 122.89073 33.06966 123.35858 34.01955 123.81503 curveto
34.95943 124.26668 35.90465 124.70714 36.85437 125.13771 curveto
37.79477 125.56406 38.73953 125.9807 39.68918 126.386 curveto
40.62958 126.78735 41.57468 127.17757 42.524 127.5573 curveto
43.46478 127.93361 44.40965 128.29964 45.35883 128.6542 curveto
46.29968 129.00568 47.2447 129.34589 48.19363 129.67497 curveto
49.1348 130.00137 50.07973 130.3168 51.02846 130.6205 curveto
51.96982 130.92183 52.91486 131.2116 53.86328 131.48988 curveto
54.80493 131.76619 55.74988 132.03117 56.69809 132.28401 curveto
57.64 132.53516 58.58507 132.7743 59.53291 133.00201 curveto
60.47513 133.22838 61.42003 133.44344 62.36772 133.64563 curveto
63.31018 133.84671 64.25531 134.03506 65.20255 134.21225 curveto
66.14531 134.38861 67.09013 134.5539 68.03737 134.70447 curveto
68.98035 134.85435 69.92557 134.98965 70.87218 135.1145 curveto
71.81575 135.23894 72.76068 135.35301 73.707 135.45448 curveto
74.65071 135.55568 75.59573 135.64433 76.54182 135.72005 curveto
77.48587 135.7956 78.43091 135.85825 79.37663 135.90863 curveto
80.32104 135.95894 81.26607 135.99701 82.21146 136.02283 curveto stroke
 0 0 1 setrgbcolor 0 0.5 dtransform truncate idtransform setlinewidth pop
 [3 3 ] 0 setdash
newpath -19.84242 56.6929 moveto
-19.84242 84.32222 lineto
0 84.32222 lineto stroke
newpath 36.85048 56.6929 moveto
36.85048 125.1403 lineto
0 125.1403 lineto stroke
-21.83853 50.69026 moveto
(u) cmmi10 6.97382 fshow
 0 3 dtransform truncate idtransform setlinewidth pop [] 0 setdash
newpath -19.84242 56.6929 moveto 0 0 rlineto stroke
3 82.57878 moveto
(f) cmmi10 6.97382 fshow
7.16492 82.57878 moveto
(\() cmr10 6.97382 fshow
9.87698 82.57878 moveto
(u) cmmi10 6.97382 fshow
13.8692 82.57878 moveto
(\)) cmr10 6.97382 fshow
newpath 0 84.32222 moveto 0 0 rlineto stroke
35.03517 50.69026 moveto
(v) cmmi10 6.97382 fshow
newpath 36.85048 56.6929 moveto 0 0 rlineto stroke
-16.21965 123.39685 moveto
(f) cmmi10 6.97382 fshow
-12.05473 123.39685 moveto
(\() cmr10 6.97382 fshow
-9.34267 123.39685 moveto
(v) cmmi10 6.97382 fshow
-5.71207 123.39685 moveto
(\)) cmr10 6.97382 fshow
newpath 0 125.1403 moveto 0 0 rlineto stroke
 1 0 0 setrgbcolor
67.22255 140.34717 moveto
(C) cmsy10 6.97382 fshow
70.89445 139.30109 moveto
(f) cmmi7 4.88167 fshow
 0 0 0 setrgbcolor 0.5 0 dtransform exch truncate exch idtransform pop setlinewidth
newpath -28.34645 53.85808 moveto
-28.34645 59.52773 lineto stroke
newpath 0 53.85808 moveto
0 59.52773 lineto stroke
newpath 28.34645 53.85808 moveto
28.34645 59.52773 lineto stroke
newpath 56.6929 53.85808 moveto
56.6929 59.52773 lineto stroke
newpath 85.03935 53.85808 moveto
85.03935 59.52773 lineto stroke
 0 0.5 dtransform truncate idtransform setlinewidth pop
newpath -2.83482 85.03935 moveto
2.83482 85.03935 lineto stroke
newpath -2.83482 113.3858 moveto
2.83482 113.3858 lineto stroke
newpath -2.83482 141.73225 moveto
2.83482 141.73225 lineto stroke
newpath -56.6929 56.6929 moveto
99.21259 56.6929 lineto stroke
newpath 95.51804 55.16254 moveto
99.21259 56.6929 lineto
95.51804 58.22327 lineto
 closepath
gsave fill grestore stroke
 0.5 0 dtransform exch truncate exch idtransform pop setlinewidth
newpath 0 39.68486 moveto
0 170.0787 lineto stroke
 0 0.5 dtransform truncate idtransform setlinewidth pop
newpath 1.53046 166.38394 moveto
0 170.0787 lineto
-1.53046 166.38394 lineto
 closepath
gsave fill grestore stroke
showpage
%%EOF
