%!PS
%%BoundingBox: -100 -100 100 157 
%%HiResBoundingBox: -99.46259 -99.46259 99.46259 156.15549 
%%Creator: MetaPost 2.02
%%CreationDate: 2023.03.26:1733
%%Pages: 1
%*Font: cmr10 6.97382 9.96265 30:fc00000400004046048
%*Font: cmsy10 6.97382 9.96265 00:8
%%BeginProlog
%%EndProlog
%%Page: 1 1
 1 0 0 setrgbcolor 0 1.5 dtransform truncate idtransform setlinewidth pop
 [] 0 setdash 1 setlinecap 1 setlinejoin 10 setmiterlimit
newpath -85.03935 124.72421 moveto
-84.0536 122.51266 -83.10896 120.2834 -82.20453 118.03726 curveto
-81.22182 115.59648 -80.28798 113.13623 -79.36972 110.67036 curveto
-78.41122 108.09636 -77.47046 105.51587 -76.5349 102.93365 curveto
-75.58852 100.32072 -74.6482 97.70563 -73.70007 95.09357 curveto
-72.76624 92.52 -71.82506 89.9486 -70.86526 87.38454 curveto
-69.9418 84.91695 -69.00105 82.4554 -68.03044 80.00554 curveto
-67.11693 77.69928 -66.1766 75.4034 -65.19563 73.12482 curveto
-64.2912 71.02443 -63.35217 68.93877 -62.36081 66.87817 curveto
-61.4659 65.01785 -60.52817 63.1783 -59.52599 61.37334 curveto
-58.64017 59.7773 -57.70374 58.20937 -56.69118 56.6903 curveto
-55.81313 55.37282 -54.87799 54.09338 -53.85635 52.88402 curveto
-52.98306 51.85027 -52.0475 50.86885 -51.02153 49.98605 curveto
-50.14522 49.23172 -49.20534 48.5522 -48.18672 48.00462 curveto
-47.29224 47.52408 -46.34326 47.14864 -45.3519 46.92848 curveto
-44.42195 46.72173 -43.46692 46.65382 -42.51707 46.72778 curveto
-41.54778 46.80348 -40.59708 47.02536 -39.68227 47.35452 curveto
-38.68874 47.71179 -37.74538 48.19234 -36.84744 48.74684 curveto
-35.84872 49.36363 -34.90883 50.07039 -34.01263 50.82863 curveto
-33.01866 51.66946 -32.07964 52.57216 -31.17781 53.5112 curveto
-30.19293 54.53673 -29.25304 55.60464 -28.34299 56.69722 curveto
-27.36806 57.86723 -26.42773 59.06534 -25.50818 60.27902 curveto
-24.54362 61.55284 -23.602 62.84395 -22.67336 64.1437 curveto
-21.71875 65.4798 -20.77713 66.82498 -19.83853 68.17232 curveto
-18.89345 69.52917 -17.95183 70.88818 -17.00372 72.24287 curveto
-16.06859 73.57896 -15.12695 74.91118 -14.1689 76.23126 curveto
-13.24329 77.5068 -12.30252 78.77109 -11.33408 80.01462 curveto
-10.41841 81.19025 -9.47852 82.34683 -8.49927 83.47012 curveto
-7.59311 84.5095 -6.65451 85.51947 -5.66444 86.47925 curveto
-4.76694 87.3495 -3.82834 88.17651 -2.82962 88.92825 curveto
-1.93602 89.60085 -0.9957 90.21158 0.00519 90.71115 curveto
0.90703 91.16142 1.85384 91.51956 2.84001 91.72934 curveto
3.77126 91.92743 4.72714 91.99059 5.67482 91.89456 curveto
6.65451 91.79507 7.60825 91.52777 8.50964 91.13113 curveto
9.53128 90.68173 10.47292 90.07317 11.34447 89.37593 curveto
12.38298 88.54503 13.31682 87.59431 14.17928 86.58263 curveto
15.21649 85.36592 16.1486 84.06442 17.0141 82.72011 curveto
18.04266 81.12234 18.97606 79.46574 19.84892 77.778 curveto
20.8671 75.80911 21.80223 73.79826 22.68373 71.7645 curveto
23.69153 69.43921 24.6284 67.08406 25.51855 64.71075 curveto
26.5164 62.05025 27.455 59.36812 28.35338 56.67213 curveto
29.34215 53.70497 30.28203 50.72179 31.18819 47.72867 curveto
32.1683 44.49202 33.10863 41.24414 34.02301 37.98846 curveto
34.99448 34.52864 35.93567 31.0606 36.85782 27.58736 curveto
37.82065 23.96057 38.76227 20.32816 39.69264 16.69316 curveto
40.64638 12.96603 41.588 9.23587 42.52747 5.50528 curveto
43.47168 1.75565 44.41287 -1.9944 45.36227 -5.7423 curveto
46.29526 -9.42532 47.23558 -13.10617 48.1971 -16.7814 curveto
49.11667 -20.29573 50.0557 -23.80486 51.03192 -27.30405 curveto
51.93375 -30.53679 52.86758 -33.7609 53.86673 -36.96509 curveto
54.7478 -39.79039 55.67947 -42.60013 56.70155 -45.37785 curveto
57.54326 -47.66551 58.4464 -49.93199 59.53638 -52.11238 curveto
60.34175 -53.72357 61.2492 -55.2863 62.37119 -56.69637 curveto
63.11557 -57.63193 64.01958 -58.51862 65.20601 -58.60945 curveto
66.29556 -58.69293 67.27264 -58.07095 68.04082 -57.28503 curveto
69.43445 -55.85855 70.20392 -53.98048 70.87564 -52.10632 curveto
72.01277 -48.93283 72.92801 -45.68538 73.71046 -42.40636 curveto
74.88737 -37.47331 75.76154 -32.4754 76.54527 -27.46495 curveto
77.63525 -20.49945 78.55093 -13.508 79.3801 -6.50702 curveto
80.47614 2.74529 81.42122 12.0149 82.21492 21.2979 curveto stroke
 0 0 1 setrgbcolor 0 0.5 dtransform truncate idtransform setlinewidth pop
 [3 3 ] 0 setdash
newpath -85.03935 124.72421 moveto
85.03935 124.72421 lineto stroke
newpath -85.03935 -58.63324 moveto
85.03935 -58.63324 lineto stroke
-72.09348 127.72421 moveto
(Maxim) cmr10 6.97382 fshow
-50.97827 127.72421 moveto
(um) cmr10 6.97382 fshow
-71.41545 -66.39868 moveto
(Minim) cmr10 6.97382 fshow
-51.65622 -66.39868 moveto
(um) cmr10 6.97382 fshow
 0 3 dtransform truncate idtransform setlinewidth pop [] 0 setdash
newpath 65.54555 -58.63324 moveto 0 0 rlineto stroke
newpath -85.03935 124.72421 moveto 0 0 rlineto stroke
 0 0 0 setrgbcolor 0.5 0 dtransform exch truncate exch idtransform pop setlinewidth
newpath -85.03935 -2.83482 moveto
-85.03935 2.83482 lineto stroke
-89.49487 -10.32909 moveto
(\000) cmsy10 6.97382 fshow
-84.0708 -10.32909 moveto
(3) cmr10 6.97382 fshow
newpath -56.6929 -2.83482 moveto
-56.6929 2.83482 lineto stroke
-61.14842 -10.32909 moveto
(\000) cmsy10 6.97382 fshow
-55.72435 -10.32909 moveto
(2) cmr10 6.97382 fshow
newpath -28.34645 -2.83482 moveto
-28.34645 2.83482 lineto stroke
-32.80197 -10.32909 moveto
(\000) cmsy10 6.97382 fshow
-27.3779 -10.32909 moveto
(1) cmr10 6.97382 fshow
newpath 28.34645 -2.83482 moveto
28.34645 2.83482 lineto stroke
26.603 -10.32909 moveto
(1) cmr10 6.97382 fshow
newpath 56.6929 -2.83482 moveto
56.6929 2.83482 lineto stroke
54.94945 -10.32909 moveto
(2) cmr10 6.97382 fshow
newpath 85.03935 -2.83482 moveto
85.03935 2.83482 lineto stroke
83.2959 -10.32909 moveto
(3) cmr10 6.97382 fshow
 0 0.5 dtransform truncate idtransform setlinewidth pop
newpath -2.83482 -56.6929 moveto
2.83482 -56.6929 lineto stroke
-14.74585 -58.64948 moveto
(\000) cmsy10 6.97382 fshow
-9.32178 -58.64948 moveto
(2) cmr10 6.97382 fshow
newpath -2.83482 -28.34645 moveto
2.83482 -28.34645 lineto stroke
-14.74585 -30.30302 moveto
(\000) cmsy10 6.97382 fshow
-9.32178 -30.30302 moveto
(1) cmr10 6.97382 fshow
newpath -2.83482 28.34645 moveto
2.83482 28.34645 lineto stroke
-9.32172 26.09932 moveto
(1) cmr10 6.97382 fshow
newpath -2.83482 56.6929 moveto
2.83482 56.6929 lineto stroke
-9.32172 54.44577 moveto
(2) cmr10 6.97382 fshow
newpath -2.83482 85.03935 moveto
2.83482 85.03935 lineto stroke
-9.32172 82.79222 moveto
(3) cmr10 6.97382 fshow
newpath -2.83482 113.3858 moveto
2.83482 113.3858 lineto stroke
-9.32172 111.13867 moveto
(4) cmr10 6.97382 fshow
newpath -2.83482 141.73225 moveto
2.83482 141.73225 lineto stroke
-9.32172 139.48512 moveto
(5) cmr10 6.97382 fshow
2.09999 -6.59425 moveto
(0) cmr10 6.97382 fshow
newpath -99.21259 0 moveto
99.21259 0 lineto stroke
newpath 95.51744 -1.53061 moveto
99.21259 0 lineto
95.51744 1.53061 lineto
 closepath
gsave fill grestore stroke
 0.5 0 dtransform exch truncate exch idtransform pop setlinewidth
newpath 0 -99.21259 moveto
0 155.90549 lineto stroke
 0 0.5 dtransform truncate idtransform setlinewidth pop
newpath 1.53143 152.20836 moveto
0 155.90549 lineto
-1.53143 152.20836 lineto
 closepath
gsave fill grestore stroke
showpage
%%EOF
