%!PS
%%BoundingBox: -115 -29 115 57 
%%HiResBoundingBox: -114.3858 -28.59645 114.26123 56.9429 
%%Creator: MetaPost 2.02
%%CreationDate: 2023.03.26:1733
%%Pages: 1
%*Font: cmsy10 6.97382 9.96265 00:8
%*Font: cmr10 6.97382 9.96265 30:f
%%BeginProlog
%%EndProlog
%%Page: 1 1
 0 0 0 setrgbcolor 0 2 dtransform truncate idtransform setlinewidth pop
 [] 0 setdash 1 setlinecap 1 setlinejoin 10 setmiterlimit
newpath -113.3858 0 moveto
-113.1025 0.28331 lineto
-112.81918 0.56662 lineto
-112.53587 0.84993 lineto
-112.25256 1.13324 lineto
-111.96925 1.41655 lineto
-111.68594 1.69986 lineto
-111.40265 1.98315 lineto
-111.11934 2.26646 lineto
-110.83603 2.54977 lineto
-110.55272 2.83308 lineto
-110.26941 3.1164 lineto
-109.9861 3.3997 lineto
-109.70279 3.68301 lineto
-109.41948 3.96632 lineto
-109.13617 4.24963 lineto
-108.85286 4.53294 lineto
-108.56955 4.81625 lineto
-108.28624 5.09956 lineto
-108.00293 5.38287 lineto
-107.71962 5.66618 lineto
-107.43633 5.94948 lineto
-107.15302 6.23279 lineto
-106.8697 6.5161 lineto
-106.5864 6.79941 lineto
-106.30309 7.08272 lineto
-106.01978 7.36603 lineto
-105.73647 7.64934 lineto
-105.45316 7.93265 lineto
-105.16985 8.21596 lineto
-104.88654 8.49927 lineto
-104.60323 8.78258 lineto
-104.31992 9.06589 lineto
-104.0366 9.3492 lineto
-103.75331 9.63249 lineto
-103.47 9.9158 lineto
-103.18669 10.19911 lineto
-102.90338 10.48242 lineto
-102.62007 10.76573 lineto
-102.33676 11.04904 lineto
-102.05345 11.33235 lineto
-101.77014 11.61566 lineto
-101.48683 11.89897 lineto
-101.20352 12.18228 lineto
-100.92021 12.46559 lineto
-100.6369 12.7489 lineto
-100.35359 13.03221 lineto
-100.0703 13.3155 lineto
-99.78699 13.59882 lineto
-99.50368 13.88213 lineto
-99.22037 14.16544 lineto
-98.93706 14.44875 lineto
-98.65375 14.73206 lineto
-98.37044 15.01537 lineto
-98.08713 15.29868 lineto
-97.80382 15.58199 lineto
-97.52051 15.8653 lineto
-97.2372 16.1486 lineto
-96.95389 16.43192 lineto
-96.67058 16.71523 lineto
-96.38727 16.99854 lineto
-96.10397 17.28183 lineto
-95.82066 17.56514 lineto
-95.53735 17.84845 lineto
-95.25404 18.13176 lineto
-94.97073 18.41507 lineto
-94.68742 18.69838 lineto
-94.40411 18.98169 lineto
-94.1208 19.265 lineto
-93.8375 19.54831 lineto
-93.55418 19.83162 lineto
-93.27087 20.11493 lineto
-92.98756 20.39824 lineto
-92.70425 20.68155 lineto
-92.42096 20.96484 lineto
-92.13765 21.24815 lineto
-91.85434 21.53146 lineto
-91.57103 21.81477 lineto
-91.28772 22.09808 lineto
-91.00441 22.3814 lineto
-90.7211 22.6647 lineto
-90.43779 22.94801 lineto
-90.15448 23.23132 lineto
-89.87117 23.51463 lineto
-89.58786 23.79794 lineto
-89.30455 24.08125 lineto
-89.02124 24.36456 lineto
-88.73795 24.64786 lineto
-88.45464 24.93117 lineto
-88.17133 25.21448 lineto
-87.88802 25.49779 lineto
-87.6047 25.7811 lineto
-87.3214 26.0644 lineto
-87.03809 26.34772 lineto
-86.75478 26.63103 lineto
-86.47147 26.91434 lineto
-86.18816 27.19765 lineto
-86.09343 27.2915 -85.99785 27.38493 -85.90485 27.48096 curveto
-85.81186 27.57698 -85.72102 27.67516 -85.62154 27.76427 curveto
-85.52162 27.85379 -85.41176 27.93512 -85.33823 28.04758 curveto
-85.25908 28.16869 -85.19896 28.32828 -85.05492 28.33089 curveto
-84.91954 28.33304 -84.85077 28.19118 -84.77162 28.07872 curveto
-84.6942 27.96886 -84.58736 27.8858 -84.48831 27.79541 curveto
-84.3897 27.70544 -84.29843 27.60768 -84.205 27.5121 curveto
-84.11157 27.4165 -84.01642 27.32307 -83.92169 27.22879 curveto
-83.63838 26.94548 lineto
-83.35507 26.66217 lineto
-83.07176 26.37886 lineto
-82.78845 26.09555 lineto
-82.50514 25.81224 lineto
-82.22183 25.52893 lineto
-81.93852 25.24562 lineto
-81.65521 24.96231 lineto
-81.3719 24.679 lineto
-81.08861 24.3957 lineto
-80.8053 24.1124 lineto
-80.52199 23.82909 lineto
-80.23868 23.54578 lineto
-79.95537 23.26247 lineto
-79.67206 22.97916 lineto
-79.38875 22.69585 lineto
-79.10544 22.41254 lineto
-78.82213 22.12923 lineto
-78.53882 21.84592 lineto
-78.25551 21.5626 lineto
-77.9722 21.2793 lineto
-77.68889 20.99599 lineto
-77.40558 20.71268 lineto
-77.12228 20.42938 lineto
-76.83897 20.14607 lineto
-76.55566 19.86276 lineto
-76.27235 19.57945 lineto
-75.98904 19.29614 lineto
-75.70573 19.01283 lineto
-75.42242 18.72952 lineto
-75.13911 18.44621 lineto
-74.8558 18.1629 lineto
-74.5725 17.8796 lineto
-74.28918 17.59628 lineto
-74.00587 17.31297 lineto
-73.72256 17.02966 lineto
-73.43927 16.74637 lineto
-73.15596 16.46306 lineto
-72.87265 16.17975 lineto
-72.58934 15.89644 lineto
-72.30603 15.61313 lineto
-72.02272 15.32982 lineto
-71.73941 15.04651 lineto
-71.4561 14.7632 lineto
-71.17279 14.47989 lineto
-70.88948 14.19658 lineto
-70.60617 13.91327 lineto
-70.32286 13.62996 lineto
-70.03955 13.34665 lineto
-69.75626 13.06335 lineto
-69.47295 12.78004 lineto
-69.18964 12.49673 lineto
-68.90633 12.21342 lineto
-68.62302 11.93011 lineto
-68.3397 11.6468 lineto
-68.0564 11.3635 lineto
-67.77309 11.08018 lineto
-67.48978 10.79688 lineto
-67.20647 10.51357 lineto
-66.92316 10.23026 lineto
-66.63985 9.94695 lineto
-66.35654 9.66364 lineto
-66.07323 9.38033 lineto
-65.78993 9.09703 lineto
-65.50662 8.81372 lineto
-65.22331 8.53041 lineto
-64.94 8.2471 lineto
-64.6567 7.96379 lineto
-64.37338 7.68048 lineto
-64.09007 7.39717 lineto
-63.80676 7.11386 lineto
-63.52345 6.83055 lineto
-63.24014 6.54724 lineto
-62.95683 6.26393 lineto
-62.67352 5.98062 lineto
-62.39021 5.69731 lineto
-62.10692 5.41402 lineto
-61.82361 5.1307 lineto
-61.5403 4.8474 lineto
-61.25699 4.56409 lineto
-60.97368 4.28078 lineto
-60.69037 3.99747 lineto
-60.40706 3.71416 lineto
-60.12375 3.43085 lineto
-59.84044 3.14754 lineto
-59.55713 2.86423 lineto
-59.27382 2.58092 lineto
-58.99051 2.2976 lineto
-58.7072 2.0143 lineto
-58.42389 1.73099 lineto
-58.1406 1.4477 lineto
-57.85728 1.16438 lineto
-57.76256 1.07051 -57.66696 0.97665 -57.57397 0.88107 curveto
-57.48097 0.78548 -57.39014 0.68686 -57.29066 0.59776 curveto
-57.19075 0.50822 -57.08174 0.42648 -57.00735 0.31445 curveto
-56.92776 0.19421 -56.86722 0.0372 -56.72404 0.03114 curveto
-56.59645 0.02596 -56.51945 0.14966 -56.44073 0.25217 curveto
-56.359 0.35814 -56.25517 0.44421 -56.15742 0.53548 curveto
-56.05968 0.62674 -55.96754 0.72363 -55.87411 0.81879 curveto
-55.5908 1.1021 lineto
-55.3075 1.3854 lineto
-55.02419 1.66872 lineto
-54.74088 1.95203 lineto
-54.45758 2.23532 lineto
-54.17427 2.51863 lineto
-53.89096 2.80194 lineto
-53.60765 3.08525 lineto
-53.32434 3.36856 lineto
-53.04103 3.65187 lineto
-52.75772 3.93518 lineto
-52.47441 4.21849 lineto
-52.1911 4.5018 lineto
-51.90779 4.78511 lineto
-51.62448 5.06842 lineto
-51.34117 5.35173 lineto
-51.05786 5.63504 lineto
-50.77457 5.91833 lineto
-50.49126 6.20164 lineto
-50.20795 6.48495 lineto
-49.92464 6.76826 lineto
-49.64133 7.05157 lineto
-49.35802 7.33488 lineto
-49.0747 7.6182 lineto
-48.7914 7.9015 lineto
-48.50809 8.18481 lineto
-48.22478 8.46812 lineto
-47.94147 8.75143 lineto
-47.65816 9.03474 lineto
-47.37485 9.31805 lineto
-47.09154 9.60136 lineto
-46.80824 9.88466 lineto
-46.52493 10.16797 lineto
-46.24162 10.45128 lineto
-45.95831 10.73459 lineto
-45.675 11.0179 lineto
-45.3917 11.30121 lineto
-45.10838 11.58452 lineto
-44.82507 11.86783 lineto
-44.54176 12.15114 lineto
-44.25845 12.43445 lineto
-43.97514 12.71776 lineto
-43.69183 13.00107 lineto
-43.40852 13.28438 lineto
-43.12523 13.56767 lineto
-42.84192 13.85098 lineto
-42.55861 14.1343 lineto
-42.2753 14.4176 lineto
-41.99199 14.70091 lineto
-41.70868 14.98422 lineto
-41.42537 15.26753 lineto
-41.14206 15.55084 lineto
-40.85875 15.83415 lineto
-40.57544 16.11746 lineto
-40.29213 16.40077 lineto
-40.00882 16.68408 lineto
-39.72551 16.96739 lineto
-39.44221 17.25069 lineto
-39.1589 17.534 lineto
-38.8756 17.8173 lineto
-38.59229 18.10062 lineto
-38.30898 18.38393 lineto
-38.02567 18.66724 lineto
-37.74236 18.95055 lineto
-37.45905 19.23386 lineto
-37.17574 19.51717 lineto
-36.89243 19.80048 lineto
-36.60912 20.08379 lineto
-36.3258 20.3671 lineto
-36.0425 20.6504 lineto
-35.75919 20.93372 lineto
-35.47589 21.21701 lineto
-35.19258 21.50032 lineto
-34.90927 21.78363 lineto
-34.62596 22.06694 lineto
-34.34265 22.35025 lineto
-34.05934 22.63356 lineto
-33.77603 22.91687 lineto
-33.49272 23.20018 lineto
-33.20941 23.48349 lineto
-32.9261 23.7668 lineto
-32.64279 24.05011 lineto
-32.35948 24.33342 lineto
-32.07617 24.61673 lineto
-31.79288 24.90002 lineto
-31.50957 25.18333 lineto
-31.22626 25.46664 lineto
-30.94295 25.74995 lineto
-30.65964 26.03326 lineto
-30.37633 26.31657 lineto
-30.09302 26.59988 lineto
-29.80971 26.8832 lineto
-29.5264 27.1665 lineto
-29.43167 27.26079 -29.33609 27.35422 -29.24309 27.44981 curveto
-29.1501 27.5454 -29.05884 27.64359 -28.95978 27.73312 curveto
-28.8603 27.82265 -28.75174 27.90527 -28.67647 28.01643 curveto
-28.59645 28.13495 -28.53546 28.28935 -28.39316 28.29974 curveto
-28.27292 28.3084 -28.18901 28.20285 -28.10985 28.10985 curveto
-28.02292 28.00821 -27.923 27.91911 -27.82655 27.82655 curveto
-27.73009 27.73398 -27.6371 27.6384 -27.54324 27.54324 curveto
-27.25993 27.25993 lineto
-26.97662 26.97662 lineto
-26.69331 26.69331 lineto
-26.41 26.41 lineto
-26.1267 26.1267 lineto
-25.84338 25.84338 lineto
-25.56007 25.56007 lineto
-25.27676 25.27676 lineto
-24.99345 24.99345 lineto
-24.71014 24.71014 lineto
-24.42683 24.42683 lineto
-24.14354 24.14354 lineto
-23.86023 23.86023 lineto
-23.57692 23.57692 lineto
-23.29361 23.29361 lineto
-23.0103 23.0103 lineto
-22.72699 22.72699 lineto
-22.44368 22.44368 lineto
-22.16037 22.16037 lineto
-21.87706 21.87706 lineto
-21.59375 21.59375 lineto
-21.31044 21.31044 lineto
-21.02713 21.02713 lineto
-20.74382 20.74382 lineto
-20.46053 20.46053 lineto
-20.17722 20.17722 lineto
-19.8939 19.8939 lineto
-19.6106 19.6106 lineto
-19.32729 19.32729 lineto
-19.04398 19.04398 lineto
-18.76067 18.76067 lineto
-18.47736 18.47736 lineto
-18.19405 18.19405 lineto
-17.91074 17.91074 lineto
-17.62743 17.62743 lineto
-17.34412 17.34412 lineto
-17.0608 17.0608 lineto
-16.7775 16.7775 lineto
-16.4942 16.4942 lineto
-16.21089 16.21089 lineto
-15.92758 15.92758 lineto
-15.64427 15.64427 lineto
-15.36096 15.36096 lineto
-15.07765 15.07765 lineto
-14.79434 14.79434 lineto
-14.51103 14.51103 lineto
-14.22772 14.22772 lineto
-13.94441 13.94441 lineto
-13.6611 13.6611 lineto
-13.37779 13.37779 lineto
-13.09448 13.09448 lineto
-12.81119 12.81119 lineto
-12.52788 12.52788 lineto
-12.24457 12.24457 lineto
-11.96126 11.96126 lineto
-11.67795 11.67795 lineto
-11.39464 11.39464 lineto
-11.11133 11.11133 lineto
-10.82802 10.82802 lineto
-10.54471 10.54471 lineto
-10.2614 10.2614 lineto
-9.97809 9.97809 lineto
-9.69478 9.69478 lineto
-9.41147 9.41147 lineto
-9.12816 9.12816 lineto
-8.84486 8.84486 lineto
-8.56155 8.56155 lineto
-8.27824 8.27824 lineto
-7.99493 7.99493 lineto
-7.71162 7.71162 lineto
-7.42831 7.42831 lineto
-7.145 7.145 lineto
-6.8617 6.8617 lineto
-6.57838 6.57838 lineto
-6.29507 6.29507 lineto
-6.01176 6.01176 lineto
-5.72845 5.72845 lineto
-5.44514 5.44514 lineto
-5.16185 5.16185 lineto
-4.87854 4.87854 lineto
-4.59523 4.59523 lineto
-4.31192 4.31192 lineto
-4.02861 4.02861 lineto
-3.7453 3.7453 lineto
-3.46199 3.46199 lineto
-3.17868 3.17868 lineto
-2.89537 2.89537 lineto
-2.61206 2.61206 lineto
-2.32875 2.32875 lineto
-2.04544 2.04544 lineto
-1.76213 1.76213 lineto
-1.47884 1.47884 lineto
-1.19553 1.19553 lineto
-1.1008 1.10123 -1.0052 1.0078 -0.91222 0.91222 curveto
-0.81921 0.81662 -0.72795 0.71843 -0.6289 0.6289 curveto
-0.52985 0.53894 -0.42172 0.45589 -0.3456 0.3456 curveto
-0.26514 0.2288 -0.2033 0.07785 -0.06229 0.06229 curveto
0.05104 0.04974 0.141 0.13754 0.22102 0.22102 curveto
0.31358 0.31747 0.40918 0.41048 0.50433 0.50433 curveto
0.78764 0.78764 lineto
1.07095 1.07095 lineto
1.35426 1.35426 lineto
1.63757 1.63757 lineto
1.92088 1.92088 lineto
2.2042 2.2042 lineto
2.48749 2.48749 lineto
2.7708 2.7708 lineto
3.05411 3.05411 lineto
3.33742 3.33742 lineto
3.62073 3.62073 lineto
3.90404 3.90404 lineto
4.18735 4.18735 lineto
4.47066 4.47066 lineto
4.75397 4.75397 lineto
5.03728 5.03728 lineto
5.32059 5.32059 lineto
5.6039 5.6039 lineto
5.8872 5.8872 lineto
6.1705 6.1705 lineto
6.45381 6.45381 lineto
6.73712 6.73712 lineto
7.02043 7.02043 lineto
7.30374 7.30374 lineto
7.58705 7.58705 lineto
7.87036 7.87036 lineto
8.15367 8.15367 lineto
8.43698 8.43698 lineto
8.72029 8.72029 lineto
9.0036 9.0036 lineto
9.28691 9.28691 lineto
9.57022 9.57022 lineto
9.85352 9.85352 lineto
10.13683 10.13683 lineto
10.42014 10.42014 lineto
10.70345 10.70345 lineto
10.98676 10.98676 lineto
11.27007 11.27007 lineto
11.55338 11.55338 lineto
11.83669 11.83669 lineto
12.12 12.12 lineto
12.4033 12.4033 lineto
12.68661 12.68661 lineto
12.96992 12.96992 lineto
13.25323 13.25323 lineto
13.53654 13.53654 lineto
13.81984 13.81984 lineto
14.10315 14.10315 lineto
14.38646 14.38646 lineto
14.66977 14.66977 lineto
14.95308 14.95308 lineto
15.23639 15.23639 lineto
15.5197 15.5197 lineto
15.80301 15.80301 lineto
16.08632 16.08632 lineto
16.36963 16.36963 lineto
16.65294 16.65294 lineto
16.93625 16.93625 lineto
17.21956 17.21956 lineto
17.50285 17.50285 lineto
17.78616 17.78616 lineto
18.06947 18.06947 lineto
18.35278 18.35278 lineto
18.6361 18.6361 lineto
18.9194 18.9194 lineto
19.20271 19.20271 lineto
19.48602 19.48602 lineto
19.76933 19.76933 lineto
20.05264 20.05264 lineto
20.33595 20.33595 lineto
20.61926 20.61926 lineto
20.90257 20.90257 lineto
21.18588 21.18588 lineto
21.46918 21.46918 lineto
21.75249 21.75249 lineto
22.0358 22.0358 lineto
22.3191 22.3191 lineto
22.60242 22.60242 lineto
22.88573 22.88573 lineto
23.16904 23.16904 lineto
23.45235 23.45235 lineto
23.73566 23.73566 lineto
24.01897 24.01897 lineto
24.30228 24.30228 lineto
24.58559 24.58559 lineto
24.8689 24.8689 lineto
25.15219 25.15219 lineto
25.4355 25.4355 lineto
25.71881 25.71881 lineto
26.00212 26.00212 lineto
26.28543 26.28543 lineto
26.56874 26.56874 lineto
26.85205 26.85205 lineto
27.13536 27.13536 lineto
27.23009 27.22964 27.32524 27.32307 27.41867 27.41867 curveto
27.5121 27.51425 27.60336 27.61201 27.70198 27.70198 curveto
27.80103 27.79237 27.90787 27.87585 27.98529 27.98529 curveto
28.0666 28.09991 28.12932 28.24654 28.2686 28.2686 curveto
28.3763 28.28589 28.47102 28.2154 28.55191 28.14099 curveto
28.65009 28.0506 28.74179 27.95328 28.8352 27.8577 curveto
28.92863 27.7621 29.0238 27.66867 29.11852 27.57439 curveto
29.40182 27.29108 lineto
29.68513 27.00777 lineto
29.96844 26.72446 lineto
30.25175 26.44115 lineto
30.53506 26.15784 lineto
30.81837 25.87453 lineto
31.10168 25.59122 lineto
31.385 25.3079 lineto
31.6683 25.0246 lineto
31.95161 24.74129 lineto
32.23492 24.45798 lineto
32.51823 24.17467 lineto
32.80153 23.89137 lineto
33.08484 23.60806 lineto
33.36815 23.32475 lineto
33.65146 23.04144 lineto
33.93477 22.75813 lineto
34.21808 22.47482 lineto
34.50139 22.19151 lineto
34.7847 21.9082 lineto
35.06801 21.6249 lineto
35.35132 21.34158 lineto
35.63463 21.05827 lineto
35.91794 20.77496 lineto
36.20125 20.49165 lineto
36.48454 20.20836 lineto
36.76785 19.92505 lineto
37.05116 19.64174 lineto
37.33447 19.35843 lineto
37.61778 19.07512 lineto
37.9011 18.79181 lineto
38.1844 18.5085 lineto
38.46771 18.22519 lineto
38.75102 17.94188 lineto
39.03433 17.65857 lineto
39.31764 17.37526 lineto
39.60095 17.09195 lineto
39.88426 16.80864 lineto
40.16757 16.52533 lineto
40.45087 16.24203 lineto
40.73418 15.95872 lineto
41.01749 15.67542 lineto
41.3008 15.3921 lineto
41.5841 15.1088 lineto
41.86742 14.82549 lineto
42.15073 14.54218 lineto
42.43404 14.25887 lineto
42.71735 13.97556 lineto
43.00066 13.69225 lineto
43.28397 13.40894 lineto
43.56728 13.12563 lineto
43.85059 12.84232 lineto
44.13388 12.55902 lineto
44.41719 12.27571 lineto
44.7005 11.9924 lineto
44.98381 11.70909 lineto
45.26712 11.42578 lineto
45.55043 11.14247 lineto
45.83374 10.85916 lineto
46.11705 10.57585 lineto
46.40036 10.29254 lineto
46.68367 10.00923 lineto
46.96698 9.72592 lineto
47.25029 9.44261 lineto
47.5336 9.1593 lineto
47.8169 8.876 lineto
48.1002 8.5927 lineto
48.38351 8.30939 lineto
48.66682 8.02608 lineto
48.95013 7.74277 lineto
49.23344 7.45946 lineto
49.51675 7.17615 lineto
49.80006 6.89284 lineto
50.08337 6.60953 lineto
50.36668 6.32622 lineto
50.65 6.04291 lineto
50.9333 5.7596 lineto
51.21661 5.47629 lineto
51.49992 5.19298 lineto
51.78322 4.90968 lineto
52.06653 4.62637 lineto
52.34984 4.34306 lineto
52.63315 4.05975 lineto
52.91646 3.77644 lineto
53.19977 3.49313 lineto
53.48308 3.20982 lineto
53.76639 2.92651 lineto
54.0497 2.6432 lineto
54.33301 2.3599 lineto
54.61632 2.07658 lineto
54.89963 1.79327 lineto
55.18294 1.50996 lineto
55.46623 1.22667 lineto
55.56096 1.13237 55.65613 1.03894 55.74954 0.94336 curveto
55.84297 0.84776 55.93468 0.75044 56.03285 0.66005 curveto
56.13147 0.56921 56.23701 0.48486 56.31616 0.37674 curveto
56.39835 0.26471 56.4628 0.12328 56.59947 0.09343 curveto
56.70155 0.07137 56.80017 0.12413 56.88278 0.18988 curveto
56.98746 0.27336 57.0744 0.37587 57.16609 0.47319 curveto
57.25778 0.57051 57.35425 0.66264 57.4494 0.7565 curveto
57.73271 1.03981 lineto
58.01602 1.32312 lineto
58.29933 1.60643 lineto
58.58264 1.88974 lineto
58.86595 2.17305 lineto
59.14925 2.45634 lineto
59.43256 2.73965 lineto
59.71587 3.02296 lineto
59.99918 3.30627 lineto
60.28249 3.58958 lineto
60.5658 3.8729 lineto
60.8491 4.1562 lineto
61.13242 4.43951 lineto
61.41573 4.72282 lineto
61.69904 5.00613 lineto
61.98235 5.28944 lineto
62.26566 5.57275 lineto
62.54897 5.85606 lineto
62.83228 6.13937 lineto
63.11557 6.42267 lineto
63.39888 6.70598 lineto
63.68219 6.98929 lineto
63.9655 7.2726 lineto
64.24881 7.55591 lineto
64.53212 7.83922 lineto
64.81543 8.12253 lineto
65.09874 8.40584 lineto
65.38205 8.68915 lineto
65.66536 8.97246 lineto
65.94867 9.25577 lineto
66.23198 9.53908 lineto
66.51529 9.82239 lineto
66.79858 10.10568 lineto
67.0819 10.38899 lineto
67.3652 10.6723 lineto
67.64851 10.95561 lineto
67.93182 11.23892 lineto
68.21513 11.52223 lineto
68.49844 11.80554 lineto
68.78175 12.08885 lineto
69.06506 12.37216 lineto
69.34837 12.65547 lineto
69.63168 12.93878 lineto
69.915 13.22209 lineto
70.1983 13.5054 lineto
70.48161 13.78871 lineto
70.76491 14.072 lineto
71.04822 14.35532 lineto
71.33153 14.63863 lineto
71.61484 14.92194 lineto
71.89815 15.20525 lineto
72.18146 15.48856 lineto
72.46477 15.77187 lineto
72.74808 16.05518 lineto
73.03139 16.33849 lineto
73.3147 16.6218 lineto
73.598 16.9051 lineto
73.88132 17.18842 lineto
74.16463 17.47173 lineto
74.44792 17.75502 lineto
74.73123 18.03833 lineto
75.01454 18.32164 lineto
75.29785 18.60495 lineto
75.58116 18.88826 lineto
75.86447 19.17157 lineto
76.14778 19.45488 lineto
76.43109 19.73819 lineto
76.7144 20.0215 lineto
76.99771 20.30481 lineto
77.28102 20.58812 lineto
77.56433 20.87143 lineto
77.84764 21.15474 lineto
78.13094 21.43803 lineto
78.41425 21.72134 lineto
78.69756 22.00465 lineto
78.98087 22.28796 lineto
79.26418 22.57127 lineto
79.54749 22.85458 lineto
79.8308 23.1379 lineto
80.1141 23.4212 lineto
80.39742 23.70451 lineto
80.68073 23.98782 lineto
80.96404 24.27113 lineto
81.24734 24.55444 lineto
81.53065 24.83775 lineto
81.81396 25.12106 lineto
82.09726 25.40436 lineto
82.38057 25.68767 lineto
82.66388 25.97098 lineto
82.94719 26.25429 lineto
83.2305 26.5376 lineto
83.51381 26.8209 lineto
83.79712 27.10422 lineto
84.08043 27.38753 lineto
84.17386 27.48268 84.26599 27.58 84.36374 27.67084 curveto
84.46191 27.7621 84.56616 27.8473 84.64705 27.95415 curveto
84.73053 28.06401 84.79713 28.19939 84.93036 28.23746 curveto
85.0281 28.26556 85.12932 28.22966 85.21367 28.17213 curveto
85.32483 28.09688 85.407 27.98831 85.49698 27.88882 curveto
85.5865 27.78978 85.6847 27.69852 85.78027 27.60553 curveto
85.87587 27.51253 85.9693 27.41693 86.06358 27.32222 curveto
86.3469 27.03891 lineto
86.6302 26.7556 lineto
86.91351 26.47229 lineto
87.19682 26.18898 lineto
87.48013 25.90567 lineto
87.76344 25.62236 lineto
88.04675 25.33905 lineto
88.33006 25.05574 lineto
88.61337 24.77243 lineto
88.89668 24.48912 lineto
89.18 24.20581 lineto
89.46329 23.92252 lineto
89.7466 23.6392 lineto
90.0299 23.3559 lineto
90.31322 23.07259 lineto
90.59653 22.78928 lineto
90.87984 22.50597 lineto
91.16315 22.22266 lineto
91.44646 21.93935 lineto
91.72977 21.65604 lineto
92.01308 21.37273 lineto
92.29639 21.08942 lineto
92.5797 20.8061 lineto
92.863 20.5228 lineto
93.14632 20.23949 lineto
93.42961 19.95619 lineto
93.71292 19.67288 lineto
93.99623 19.38957 lineto
94.27954 19.10626 lineto
94.56285 18.82295 lineto
94.84616 18.53964 lineto
95.12947 18.25633 lineto
95.41278 17.97302 lineto
95.69609 17.68971 lineto
95.9794 17.4064 lineto
96.26271 17.1231 lineto
96.54602 16.83978 lineto
96.82933 16.55647 lineto
97.11263 16.27318 lineto
97.39594 15.98987 lineto
97.67924 15.70656 lineto
97.96255 15.42325 lineto
98.24586 15.13994 lineto
98.52917 14.85663 lineto
98.81248 14.57332 lineto
99.0958 14.29001 lineto
99.3791 14.0067 lineto
99.66241 13.72339 lineto
99.94572 13.44008 lineto
100.22903 13.15677 lineto
100.51234 12.87346 lineto
100.79565 12.59015 lineto
101.07895 12.30685 lineto
101.36226 12.02354 lineto
101.64557 11.74023 lineto
101.92888 11.45692 lineto
102.21219 11.17361 lineto
102.4955 10.8903 lineto
102.77881 10.607 lineto
103.06212 10.32368 lineto
103.34543 10.04037 lineto
103.62874 9.75706 lineto
103.91205 9.47375 lineto
104.19536 9.19044 lineto
104.47867 8.90714 lineto
104.76196 8.62384 lineto
105.04527 8.34053 lineto
105.32858 8.05722 lineto
105.6119 7.77391 lineto
105.8952 7.4906 lineto
106.17851 7.20729 lineto
106.46182 6.92398 lineto
106.74513 6.64067 lineto
107.02844 6.35736 lineto
107.31175 6.07405 lineto
107.59506 5.79074 lineto
107.87837 5.50743 lineto
108.16168 5.22412 lineto
108.44498 4.94083 lineto
108.72829 4.65752 lineto
109.0116 4.3742 lineto
109.2949 4.0909 lineto
109.57822 3.80759 lineto
109.86153 3.52428 lineto
110.14484 3.24097 lineto
110.42815 2.95766 lineto
110.71146 2.67435 lineto
110.99477 2.39104 lineto
111.27808 2.10773 lineto
111.56139 1.82442 lineto
111.8447 1.5411 lineto
112.128 1.2578 lineto
112.4113 0.9745 lineto
112.69461 0.6912 lineto
112.97792 0.40788 lineto
113.26123 0.12457 lineto stroke
 0.5 0 dtransform exch truncate exch idtransform pop setlinewidth
newpath -85.03935 -2.83482 moveto
-85.03935 2.83482 lineto stroke
newpath -56.6929 -2.83482 moveto
-56.6929 2.83482 lineto stroke
newpath -28.34645 -2.83482 moveto
-28.34645 2.83482 lineto stroke
newpath 0 -2.83482 moveto
0 2.83482 lineto stroke
newpath 28.34645 -2.83482 moveto
28.34645 2.83482 lineto stroke
newpath 56.6929 -2.83482 moveto
56.6929 2.83482 lineto stroke
newpath 85.03935 -2.83482 moveto
85.03935 2.83482 lineto stroke
-82.93936 -9.42908 moveto
(\000) cmsy10 6.97382 fshow
-77.51529 -9.42908 moveto
(3) cmr10 6.97382 fshow
-54.59291 -9.42908 moveto
(\000) cmsy10 6.97382 fshow
-49.16884 -9.42908 moveto
(2) cmr10 6.97382 fshow
-26.24646 -9.42908 moveto
(\000) cmsy10 6.97382 fshow
-20.82239 -9.42908 moveto
(1) cmr10 6.97382 fshow
2.09999 -9.42908 moveto
(0) cmr10 6.97382 fshow
30.44644 -9.42908 moveto
(1) cmr10 6.97382 fshow
58.7929 -9.42908 moveto
(2) cmr10 6.97382 fshow
87.13934 -9.42908 moveto
(3) cmr10 6.97382 fshow
 0 0.5 dtransform truncate idtransform setlinewidth pop
newpath -2.83482 0 moveto
2.83482 0 lineto stroke
newpath -2.83482 28.34645 moveto
2.83482 28.34645 lineto stroke
5.83482 26.09932 moveto
(1) cmr10 6.97382 fshow
newpath -113.3858 0 moveto
113.3858 0 lineto stroke
newpath 109.69023 -1.53079 moveto
113.3858 0 lineto
109.69023 1.53079 lineto
 closepath
gsave fill grestore stroke
 0.5 0 dtransform exch truncate exch idtransform pop setlinewidth
newpath 0 -28.34645 moveto
0 56.6929 lineto stroke
 0 0.5 dtransform truncate idtransform setlinewidth pop
newpath 1.53094 52.99695 moveto
0 56.6929 lineto
-1.53094 52.99695 lineto
 closepath
gsave fill grestore stroke
showpage
%%EOF
