%!PS
%%BoundingBox: -91 -10 91 199 
%%HiResBoundingBox: -90.95856 -9.6417 90.95856 198.67516 
%%Creator: MetaPost 2.02
%%CreationDate: 2023.03.26:1733
%%Pages: 1
%*Font: cmmi10 9.96265 9.96265 66:80002
%*Font: cmsy10 9.96265 9.96265 00:8
%*Font: cmr10 9.96265 9.96265 28:c
%%BeginProlog
%%EndProlog
%%Page: 1 1
 1 0 0 setrgbcolor 0 2 dtransform truncate idtransform setlinewidth pop
 [] 0 setdash 1 setlinecap 1 setlinejoin 10 setmiterlimit
newpath -68.03131 191.62099 moveto
-67.10655 187.17628 -66.16147 182.7359 -65.19693 178.29942 curveto
-64.2713 174.04286 -63.32751 169.79063 -62.3621 165.54274 curveto
-61.43779 161.47476 -60.49356 157.41156 -59.52728 153.3531 curveto
-58.6034 149.47372 -57.6596 145.59909 -56.69247 141.73053 curveto
-55.76988 138.03972 -54.8261 134.35411 -53.85765 130.67499 curveto
-52.93593 127.17235 -51.99214 123.67575 -51.02283 120.18608 curveto
-50.1024 116.87201 -49.15862 113.56444 -48.18802 110.26465 curveto
-47.26845 107.13873 -46.3251 104.01974 -45.3532 100.90984 curveto
-44.43494 97.97208 -43.49158 95.0421 -42.51837 92.12207 curveto
-41.60184 89.37202 -40.6585 86.63107 -39.68356 83.90135 curveto
-38.76833 81.33904 -37.8254 78.7871 -36.84874 76.2477 curveto
-35.93523 73.8731 -34.99231 71.50974 -34.01393 69.16109 curveto
-33.10258 66.97333 -32.15965 64.79855 -31.17911 62.64108 curveto
-30.26949 60.6402 -29.32744 58.65443 -28.34428 56.68858 curveto
-27.43683 54.8741 -26.49478 53.07649 -25.50948 51.30269 curveto
-24.60419 49.67332 -23.66255 48.06474 -22.67465 46.48427 curveto
-21.77153 45.03961 -20.83034 43.61874 -19.83983 42.23247 curveto
-18.93887 40.9712 -17.99768 39.7385 -17.00502 38.54773 curveto
-16.10535 37.46812 -15.16415 36.42357 -14.1702 35.43004 curveto
-13.27052 34.53036 -12.3289 33.67395 -11.33537 32.8794 curveto
-10.43355 32.15836 -9.49063 31.48967 -8.50056 30.8958 curveto
-7.59311 30.35167 -6.64845 29.87157 -5.66574 29.47882 curveto
-4.74791 29.11203 -3.80023 28.82266 -2.83093 28.62933 curveto
-1.89752 28.4429 -0.9481 28.34645 0.00389 28.34645 curveto
0.9559 28.34645 1.9053 28.44377 2.83871 28.63063 curveto
3.80801 28.82483 4.75569 29.11462 5.67352 29.48184 curveto
6.65625 29.87502 7.60089 30.35556 8.50835 30.90012 curveto
9.49884 31.49442 10.44133 32.16354 11.34317 32.88545 curveto
12.33669 33.68044 13.27832 34.53772 14.17798 35.43782 curveto
15.17194 36.43222 16.11313 37.47722 17.0128 38.55725 curveto
18.00504 39.74887 18.94666 40.98116 19.84763 42.24329 curveto
20.83812 43.63042 21.77931 45.05128 22.68243 46.49681 curveto
23.67035 48.07771 24.61197 49.68718 25.51726 51.31696 curveto
26.50256 53.0912 27.44463 54.88881 28.35208 56.70415 curveto
29.33522 58.67044 30.27728 60.65706 31.18689 62.65839 curveto
32.16745 64.8163 33.11037 66.9915 34.02171 69.17969 curveto
35.00009 71.52876 35.94302 73.89256 36.85652 76.26802 curveto
37.83319 78.80786 38.77611 81.36023 39.69135 83.92299 curveto
40.66628 86.65356 41.60963 89.39496 42.52617 92.14543 curveto
43.49936 95.06589 44.44272 97.99629 45.36098 100.9345 curveto
46.33289 104.04483 47.27623 107.16469 48.1958 110.29103 curveto
49.1664 113.59126 50.11018 116.8997 51.03062 120.21419 curveto
51.99992 123.7043 52.94371 127.20132 53.86543 130.7044 curveto
54.83388 134.38396 55.77766 138.07043 56.70026 141.76167 curveto
57.6674 145.6311 58.61119 149.50616 59.53508 153.38597 curveto
60.50134 157.44487 61.44513 161.50894 62.36989 165.57733 curveto
63.3353 169.82567 64.27908 174.07834 65.20471 178.33531 curveto
66.1697 182.7731 67.11478 187.21478 68.03952 191.66078 curveto stroke
 0 0 0 setrgbcolor 0.5 0 dtransform exch truncate exch idtransform pop setlinewidth
newpath -85.03935 -2.83482 moveto
-85.03935 2.83482 lineto stroke
newpath -56.6929 -2.83482 moveto
-56.6929 2.83482 lineto stroke
newpath -28.34645 -2.83482 moveto
-28.34645 2.83482 lineto stroke
newpath 0 -2.83482 moveto
0 2.83482 lineto stroke
newpath 28.34645 -2.83482 moveto
28.34645 2.83482 lineto stroke
newpath 56.6929 -2.83482 moveto
56.6929 2.83482 lineto stroke
newpath 85.03935 -2.83482 moveto
85.03935 2.83482 lineto stroke
 0 0.5 dtransform truncate idtransform setlinewidth pop
newpath -2.83482 0 moveto
2.83482 0 lineto stroke
newpath -2.83482 28.34645 moveto
2.83482 28.34645 lineto stroke
newpath -2.83482 56.6929 moveto
2.83482 56.6929 lineto stroke
newpath -2.83482 85.03935 moveto
2.83482 85.03935 lineto stroke
newpath -2.83482 113.3858 moveto
2.83482 113.3858 lineto stroke
newpath -2.83482 141.73225 moveto
2.83482 141.73225 lineto stroke
newpath -2.83482 170.0787 moveto
2.83482 170.0787 lineto stroke
newpath -90.70856 0 moveto
90.70856 0 lineto stroke
newpath 87.01299 -1.53079 moveto
90.70856 0 lineto
87.01299 1.53079 lineto
 closepath
gsave fill grestore stroke
 0.5 0 dtransform exch truncate exch idtransform pop setlinewidth
newpath 0 -5.6692 moveto
0 198.42516 lineto stroke
 0 0.5 dtransform truncate idtransform setlinewidth pop
newpath 1.53024 194.7309 moveto
0 198.42516 lineto
-1.53024 194.7309 lineto
 closepath
gsave fill grestore stroke
 [3 3 ] 0 setdash
newpath 42.51968 0 moveto
42.51968 92.12596 lineto
-42.51968 92.12596 lineto
-42.51968 0 lineto stroke
39.67273 -7.2895 moveto
(x) cmmi10 9.96265 fshow
-49.24104 -8.8115 moveto
(\000) cmsy10 9.96265 fshow
-41.49234 -8.8115 moveto
(x) cmmi10 9.96265 fshow
2.09999 96.71666 moveto
(f) cmmi10 9.96265 fshow
8.0499 96.71666 moveto
(\() cmr10 9.96265 fshow
11.92429 96.71666 moveto
(x) cmmi10 9.96265 fshow
17.6182 96.71666 moveto
(\)) cmr10 9.96265 fshow
showpage
%%EOF
