%!PS
%%BoundingBox: -100 -114 128 114 
%%HiResBoundingBox: -99.46259 -113.6358 127.80904 113.6358 
%%Creator: MetaPost 2.02
%%CreationDate: 2023.03.26:1733
%%Pages: 1
%*Font: cmsy10 6.97382 9.96265 00:8
%*Font: cmr10 6.97382 9.96265 30:f
%%BeginProlog
%%EndProlog
%%Page: 1 1
 1 0 0 setrgbcolor 0 2 dtransform truncate idtransform setlinewidth pop
 [] 0 setdash 1 setlinecap 1 setlinejoin 10 setmiterlimit
newpath -85.03935 -85.03935 moveto
-85.03935 -85.03935 lineto
-84.75604 -85.03935 lineto
-84.47273 -85.03935 lineto
-84.18942 -85.03935 lineto
-83.90611 -85.03935 lineto
-83.6228 -85.03935 lineto
-83.3395 -85.03935 lineto
-83.0562 -85.03935 lineto
-82.77289 -85.03935 lineto
-82.48958 -85.03935 lineto
-82.20627 -85.03935 lineto
-81.92296 -85.03935 lineto
-81.63965 -85.03935 lineto
-81.35634 -85.03935 lineto
-81.07303 -85.03935 lineto
-80.78972 -85.03935 lineto
-80.50641 -85.03935 lineto
-80.2231 -85.03935 lineto
-79.93979 -85.03935 lineto
-79.65648 -85.03935 lineto
-79.37317 -85.03935 lineto
-79.08987 -85.03935 lineto
-78.80656 -85.03935 lineto
-78.52325 -85.03935 lineto
-78.23994 -85.03935 lineto
-77.95663 -85.03935 lineto
-77.67332 -85.03935 lineto
-77.39001 -85.03935 lineto
-77.1067 -85.03935 lineto
-76.8234 -85.03935 lineto
-76.54008 -85.03935 lineto
-76.25677 -85.03935 lineto
-75.97346 -85.03935 lineto
-75.69016 -85.03935 lineto
-75.40686 -85.03935 lineto
-75.12355 -85.03935 lineto
-74.84024 -85.03935 lineto
-74.55693 -85.03935 lineto
-74.27362 -85.03935 lineto
-73.99031 -85.03935 lineto
-73.707 -85.03935 lineto
-73.42369 -85.03935 lineto
-73.14038 -85.03935 lineto
-72.85707 -85.03935 lineto
-72.57376 -85.03935 lineto
-72.29045 -85.03935 lineto
-72.00714 -85.03935 lineto
-71.72385 -85.03935 lineto
-71.44054 -85.03935 lineto
-71.15723 -85.03935 lineto
-70.87392 -85.03935 lineto
-70.5906 -85.03935 lineto
-70.3073 -85.03935 lineto
-70.02399 -85.03935 lineto
-69.74068 -85.03935 lineto
-69.45737 -85.03935 lineto
-69.17406 -85.03935 lineto
-68.89075 -85.03935 lineto
-68.60744 -85.03935 lineto
-68.32413 -85.03935 lineto
-68.04082 -85.03935 lineto
-67.75752 -85.03935 lineto
-67.47421 -85.03935 lineto
-67.1909 -85.03935 lineto
-66.9076 -85.03935 lineto
-66.62428 -85.03935 lineto
-66.34097 -85.03935 lineto
-66.05766 -85.03935 lineto
-65.77435 -85.03935 lineto
-65.49104 -85.03935 lineto
-65.20773 -85.03935 lineto
-64.92442 -85.03935 lineto
-64.64111 -85.03935 lineto
-64.3578 -85.03935 lineto
-64.07451 -85.03935 lineto
-63.7912 -85.03935 lineto
-63.50789 -85.03935 lineto
-63.22458 -85.03935 lineto
-62.94127 -85.03935 lineto
-62.65796 -85.03935 lineto
-62.37465 -85.03935 lineto
-62.09134 -85.03935 lineto
-61.80803 -85.03935 lineto
-61.52472 -85.03935 lineto
-61.24141 -85.03935 lineto
-60.9581 -85.03935 lineto
-60.67479 -85.03935 lineto
-60.3915 -85.03935 lineto
-60.10818 -85.03935 lineto
-59.82487 -85.03935 lineto
-59.54156 -85.03935 lineto
-59.25826 -85.03935 lineto
-58.97495 -85.03935 lineto
-58.69164 -85.03935 lineto
-58.40833 -85.03935 lineto
-58.12502 -85.03935 lineto
-57.8417 -85.03935 lineto
-57.5584 -85.03935 lineto
-57.27509 -85.03935 lineto
-56.99178 -85.03935 lineto
-56.70847 -85.03935 lineto stroke
newpath -56.6929 -56.6929 moveto
-56.6929 -56.6929 lineto
-56.40959 -56.6929 lineto
-56.12628 -56.6929 lineto
-55.84297 -56.6929 lineto
-55.55966 -56.6929 lineto
-55.27635 -56.6929 lineto
-54.99304 -56.6929 lineto
-54.70975 -56.6929 lineto
-54.42644 -56.6929 lineto
-54.14313 -56.6929 lineto
-53.85982 -56.6929 lineto
-53.5765 -56.6929 lineto
-53.2932 -56.6929 lineto
-53.00989 -56.6929 lineto
-52.72658 -56.6929 lineto
-52.44327 -56.6929 lineto
-52.15996 -56.6929 lineto
-51.87665 -56.6929 lineto
-51.59334 -56.6929 lineto
-51.31003 -56.6929 lineto
-51.02672 -56.6929 lineto
-50.74342 -56.6929 lineto
-50.46011 -56.6929 lineto
-50.1768 -56.6929 lineto
-49.8935 -56.6929 lineto
-49.61018 -56.6929 lineto
-49.32687 -56.6929 lineto
-49.04356 -56.6929 lineto
-48.76025 -56.6929 lineto
-48.47694 -56.6929 lineto
-48.19363 -56.6929 lineto
-47.91032 -56.6929 lineto
-47.62701 -56.6929 lineto
-47.3437 -56.6929 lineto
-47.06041 -56.6929 lineto
-46.7771 -56.6929 lineto
-46.49379 -56.6929 lineto
-46.21048 -56.6929 lineto
-45.92717 -56.6929 lineto
-45.64386 -56.6929 lineto
-45.36055 -56.6929 lineto
-45.07724 -56.6929 lineto
-44.79393 -56.6929 lineto
-44.51062 -56.6929 lineto
-44.22731 -56.6929 lineto
-43.944 -56.6929 lineto
-43.66069 -56.6929 lineto
-43.3774 -56.6929 lineto
-43.09409 -56.6929 lineto
-42.81078 -56.6929 lineto
-42.52747 -56.6929 lineto
-42.24416 -56.6929 lineto
-41.96085 -56.6929 lineto
-41.67754 -56.6929 lineto
-41.39423 -56.6929 lineto
-41.11092 -56.6929 lineto
-40.8276 -56.6929 lineto
-40.5443 -56.6929 lineto
-40.26099 -56.6929 lineto
-39.97768 -56.6929 lineto
-39.69437 -56.6929 lineto
-39.41107 -56.6929 lineto
-39.12776 -56.6929 lineto
-38.84445 -56.6929 lineto
-38.56114 -56.6929 lineto
-38.27783 -56.6929 lineto
-37.99452 -56.6929 lineto
-37.71121 -56.6929 lineto
-37.4279 -56.6929 lineto
-37.14459 -56.6929 lineto
-36.86128 -56.6929 lineto
-36.57797 -56.6929 lineto
-36.29466 -56.6929 lineto
-36.01135 -56.6929 lineto
-35.72806 -56.6929 lineto
-35.44475 -56.6929 lineto
-35.16144 -56.6929 lineto
-34.87813 -56.6929 lineto
-34.59482 -56.6929 lineto
-34.31151 -56.6929 lineto
-34.0282 -56.6929 lineto
-33.74489 -56.6929 lineto
-33.46158 -56.6929 lineto
-33.17827 -56.6929 lineto
-32.89496 -56.6929 lineto
-32.61165 -56.6929 lineto
-32.32834 -56.6929 lineto
-32.04504 -56.6929 lineto
-31.76173 -56.6929 lineto
-31.47842 -56.6929 lineto
-31.19511 -56.6929 lineto
-30.9118 -56.6929 lineto
-30.6285 -56.6929 lineto
-30.34518 -56.6929 lineto
-30.06187 -56.6929 lineto
-29.77856 -56.6929 lineto
-29.49525 -56.6929 lineto
-29.21194 -56.6929 lineto
-28.92863 -56.6929 lineto
-28.64532 -56.6929 lineto
-28.36201 -56.6929 lineto stroke
newpath -28.34645 -28.34645 moveto
-28.34645 -28.34645 lineto
-28.06314 -28.34645 lineto
-27.77983 -28.34645 lineto
-27.49652 -28.34645 lineto
-27.21321 -28.34645 lineto
-26.9299 -28.34645 lineto
-26.64659 -28.34645 lineto
-26.3633 -28.34645 lineto
-26.07999 -28.34645 lineto
-25.79668 -28.34645 lineto
-25.51337 -28.34645 lineto
-25.23006 -28.34645 lineto
-24.94675 -28.34645 lineto
-24.66344 -28.34645 lineto
-24.38013 -28.34645 lineto
-24.09682 -28.34645 lineto
-23.8135 -28.34645 lineto
-23.5302 -28.34645 lineto
-23.24689 -28.34645 lineto
-22.96358 -28.34645 lineto
-22.68027 -28.34645 lineto
-22.39697 -28.34645 lineto
-22.11366 -28.34645 lineto
-21.83035 -28.34645 lineto
-21.54704 -28.34645 lineto
-21.26373 -28.34645 lineto
-20.98042 -28.34645 lineto
-20.69711 -28.34645 lineto
-20.4138 -28.34645 lineto
-20.1305 -28.34645 lineto
-19.84718 -28.34645 lineto
-19.56387 -28.34645 lineto
-19.28056 -28.34645 lineto
-18.99725 -28.34645 lineto
-18.71396 -28.34645 lineto
-18.43065 -28.34645 lineto
-18.14734 -28.34645 lineto
-17.86403 -28.34645 lineto
-17.58072 -28.34645 lineto
-17.29741 -28.34645 lineto
-17.0141 -28.34645 lineto
-16.73079 -28.34645 lineto
-16.44748 -28.34645 lineto
-16.16417 -28.34645 lineto
-15.88086 -28.34645 lineto
-15.59755 -28.34645 lineto
-15.31424 -28.34645 lineto
-15.03094 -28.34645 lineto
-14.74763 -28.34645 lineto
-14.46432 -28.34645 lineto
-14.18102 -28.34645 lineto
-13.8977 -28.34645 lineto
-13.6144 -28.34645 lineto
-13.33109 -28.34645 lineto
-13.04778 -28.34645 lineto
-12.76447 -28.34645 lineto
-12.48116 -28.34645 lineto
-12.19785 -28.34645 lineto
-11.91454 -28.34645 lineto
-11.63123 -28.34645 lineto
-11.34792 -28.34645 lineto
-11.06462 -28.34645 lineto
-10.78131 -28.34645 lineto
-10.498 -28.34645 lineto
-10.21469 -28.34645 lineto
-9.93138 -28.34645 lineto
-9.64807 -28.34645 lineto
-9.36476 -28.34645 lineto
-9.08145 -28.34645 lineto
-8.79814 -28.34645 lineto
-8.51483 -28.34645 lineto
-8.23152 -28.34645 lineto
-7.94821 -28.34645 lineto
-7.6649 -28.34645 lineto
-7.3816 -28.34645 lineto
-7.0983 -28.34645 lineto
-6.81499 -28.34645 lineto
-6.53168 -28.34645 lineto
-6.24837 -28.34645 lineto
-5.96506 -28.34645 lineto
-5.68175 -28.34645 lineto
-5.39844 -28.34645 lineto
-5.11513 -28.34645 lineto
-4.83182 -28.34645 lineto
-4.54851 -28.34645 lineto
-4.2652 -28.34645 lineto
-3.98189 -28.34645 lineto
-3.6986 -28.34645 lineto
-3.41528 -28.34645 lineto
-3.13197 -28.34645 lineto
-2.84866 -28.34645 lineto
-2.56535 -28.34645 lineto
-2.28204 -28.34645 lineto
-1.99873 -28.34645 lineto
-1.71542 -28.34645 lineto
-1.43211 -28.34645 lineto
-1.1488 -28.34645 lineto
-0.8655 -28.34645 lineto
-0.58218 -28.34645 lineto
-0.29887 -28.34645 lineto
-0.01556 -28.34645 lineto stroke
newpath 0 0 moveto
0 0 lineto
0.28331 0 lineto
0.56662 0 lineto
0.84993 0 lineto
1.13324 0 lineto
1.41655 0 lineto
1.69986 0 lineto
1.98315 0 lineto
2.26646 0 lineto
2.54977 0 lineto
2.83308 0 lineto
3.1164 0 lineto
3.3997 0 lineto
3.68301 0 lineto
3.96632 0 lineto
4.24963 0 lineto
4.53294 0 lineto
4.81625 0 lineto
5.09956 0 lineto
5.38287 0 lineto
5.66618 0 lineto
5.94948 0 lineto
6.23279 0 lineto
6.5161 0 lineto
6.79941 0 lineto
7.08272 0 lineto
7.36603 0 lineto
7.64934 0 lineto
7.93265 0 lineto
8.21596 0 lineto
8.49927 0 lineto
8.78258 0 lineto
9.06589 0 lineto
9.3492 0 lineto
9.63249 0 lineto
9.9158 0 lineto
10.19911 0 lineto
10.48242 0 lineto
10.76573 0 lineto
11.04904 0 lineto
11.33235 0 lineto
11.61566 0 lineto
11.89897 0 lineto
12.18228 0 lineto
12.46559 0 lineto
12.7489 0 lineto
13.03221 0 lineto
13.3155 0 lineto
13.59882 0 lineto
13.88213 0 lineto
14.16544 0 lineto
14.44875 0 lineto
14.73206 0 lineto
15.01537 0 lineto
15.29868 0 lineto
15.58199 0 lineto
15.8653 0 lineto
16.1486 0 lineto
16.43192 0 lineto
16.71523 0 lineto
16.99854 0 lineto
17.28183 0 lineto
17.56514 0 lineto
17.84845 0 lineto
18.13176 0 lineto
18.41507 0 lineto
18.69838 0 lineto
18.98169 0 lineto
19.265 0 lineto
19.54831 0 lineto
19.83162 0 lineto
20.11493 0 lineto
20.39824 0 lineto
20.68155 0 lineto
20.96484 0 lineto
21.24815 0 lineto
21.53146 0 lineto
21.81477 0 lineto
22.09808 0 lineto
22.3814 0 lineto
22.6647 0 lineto
22.94801 0 lineto
23.23132 0 lineto
23.51463 0 lineto
23.79794 0 lineto
24.08125 0 lineto
24.36456 0 lineto
24.64786 0 lineto
24.93117 0 lineto
25.21448 0 lineto
25.49779 0 lineto
25.7811 0 lineto
26.0644 0 lineto
26.34772 0 lineto
26.63103 0 lineto
26.91434 0 lineto
27.19765 0 lineto
27.48096 0 lineto
27.76427 0 lineto
28.04758 0 lineto
28.33089 0 lineto stroke
newpath 28.34645 28.34645 moveto
28.34645 28.34645 lineto
28.62976 28.34645 lineto
28.91307 28.34645 lineto
29.19638 28.34645 lineto
29.47969 28.34645 lineto
29.763 28.34645 lineto
30.04631 28.34645 lineto
30.3296 28.34645 lineto
30.61292 28.34645 lineto
30.89622 28.34645 lineto
31.17953 28.34645 lineto
31.46284 28.34645 lineto
31.74615 28.34645 lineto
32.02946 28.34645 lineto
32.31277 28.34645 lineto
32.59608 28.34645 lineto
32.8794 28.34645 lineto
33.1627 28.34645 lineto
33.44601 28.34645 lineto
33.72932 28.34645 lineto
34.01263 28.34645 lineto
34.29593 28.34645 lineto
34.57924 28.34645 lineto
34.86255 28.34645 lineto
35.14586 28.34645 lineto
35.42917 28.34645 lineto
35.71248 28.34645 lineto
35.99579 28.34645 lineto
36.2791 28.34645 lineto
36.56241 28.34645 lineto
36.84572 28.34645 lineto
37.12903 28.34645 lineto
37.41234 28.34645 lineto
37.69565 28.34645 lineto
37.97894 28.34645 lineto
38.26225 28.34645 lineto
38.54556 28.34645 lineto
38.82887 28.34645 lineto
39.11218 28.34645 lineto
39.3955 28.34645 lineto
39.6788 28.34645 lineto
39.96211 28.34645 lineto
40.24542 28.34645 lineto
40.52873 28.34645 lineto
40.81204 28.34645 lineto
41.09535 28.34645 lineto
41.37866 28.34645 lineto
41.66196 28.34645 lineto
41.94527 28.34645 lineto
42.22858 28.34645 lineto
42.51189 28.34645 lineto
42.7952 28.34645 lineto
43.0785 28.34645 lineto
43.36182 28.34645 lineto
43.64513 28.34645 lineto
43.92844 28.34645 lineto
44.21175 28.34645 lineto
44.49506 28.34645 lineto
44.77837 28.34645 lineto
45.06168 28.34645 lineto
45.34499 28.34645 lineto
45.62828 28.34645 lineto
45.91159 28.34645 lineto
46.1949 28.34645 lineto
46.47821 28.34645 lineto
46.76152 28.34645 lineto
47.04483 28.34645 lineto
47.32814 28.34645 lineto
47.61145 28.34645 lineto
47.89476 28.34645 lineto
48.17807 28.34645 lineto
48.46138 28.34645 lineto
48.74469 28.34645 lineto
49.028 28.34645 lineto
49.3113 28.34645 lineto
49.5946 28.34645 lineto
49.87791 28.34645 lineto
50.16122 28.34645 lineto
50.44453 28.34645 lineto
50.72784 28.34645 lineto
51.01115 28.34645 lineto
51.29446 28.34645 lineto
51.57777 28.34645 lineto
51.86108 28.34645 lineto
52.1444 28.34645 lineto
52.4277 28.34645 lineto
52.71101 28.34645 lineto
52.99431 28.34645 lineto
53.27762 28.34645 lineto
53.56093 28.34645 lineto
53.84424 28.34645 lineto
54.12755 28.34645 lineto
54.41086 28.34645 lineto
54.69417 28.34645 lineto
54.97748 28.34645 lineto
55.26079 28.34645 lineto
55.5441 28.34645 lineto
55.82741 28.34645 lineto
56.11072 28.34645 lineto
56.39403 28.34645 lineto
56.67734 28.34645 lineto stroke
newpath 56.6929 56.6929 moveto
56.6929 56.6929 lineto
56.97621 56.6929 lineto
57.25952 56.6929 lineto
57.54283 56.6929 lineto
57.82614 56.6929 lineto
58.10945 56.6929 lineto
58.39276 56.6929 lineto
58.67606 56.6929 lineto
58.95937 56.6929 lineto
59.24268 56.6929 lineto
59.52599 56.6929 lineto
59.8093 56.6929 lineto
60.0926 56.6929 lineto
60.37592 56.6929 lineto
60.65923 56.6929 lineto
60.94254 56.6929 lineto
61.22585 56.6929 lineto
61.50916 56.6929 lineto
61.79247 56.6929 lineto
62.07578 56.6929 lineto
62.35909 56.6929 lineto
62.64238 56.6929 lineto
62.92569 56.6929 lineto
63.209 56.6929 lineto
63.49231 56.6929 lineto
63.77562 56.6929 lineto
64.05893 56.6929 lineto
64.34224 56.6929 lineto
64.62555 56.6929 lineto
64.90886 56.6929 lineto
65.19217 56.6929 lineto
65.47548 56.6929 lineto
65.75879 56.6929 lineto
66.0421 56.6929 lineto
66.3254 56.6929 lineto
66.6087 56.6929 lineto
66.89201 56.6929 lineto
67.17532 56.6929 lineto
67.45863 56.6929 lineto
67.74194 56.6929 lineto
68.02525 56.6929 lineto
68.30856 56.6929 lineto
68.59187 56.6929 lineto
68.87518 56.6929 lineto
69.1585 56.6929 lineto
69.4418 56.6929 lineto
69.72511 56.6929 lineto
70.0084 56.6929 lineto
70.29172 56.6929 lineto
70.57503 56.6929 lineto
70.85834 56.6929 lineto
71.14165 56.6929 lineto
71.42496 56.6929 lineto
71.70827 56.6929 lineto
71.99158 56.6929 lineto
72.27489 56.6929 lineto
72.5582 56.6929 lineto
72.8415 56.6929 lineto
73.12482 56.6929 lineto
73.40813 56.6929 lineto
73.69144 56.6929 lineto
73.97473 56.6929 lineto
74.25804 56.6929 lineto
74.54135 56.6929 lineto
74.82466 56.6929 lineto
75.10797 56.6929 lineto
75.39128 56.6929 lineto
75.67459 56.6929 lineto
75.9579 56.6929 lineto
76.24121 56.6929 lineto
76.52452 56.6929 lineto
76.80783 56.6929 lineto
77.09114 56.6929 lineto
77.37445 56.6929 lineto
77.65775 56.6929 lineto
77.94106 56.6929 lineto
78.22437 56.6929 lineto
78.50768 56.6929 lineto
78.79099 56.6929 lineto
79.0743 56.6929 lineto
79.3576 56.6929 lineto
79.64091 56.6929 lineto
79.92422 56.6929 lineto
80.20753 56.6929 lineto
80.49084 56.6929 lineto
80.77415 56.6929 lineto
81.05746 56.6929 lineto
81.34076 56.6929 lineto
81.62407 56.6929 lineto
81.90738 56.6929 lineto
82.19069 56.6929 lineto
82.474 56.6929 lineto
82.75731 56.6929 lineto
83.04062 56.6929 lineto
83.32393 56.6929 lineto
83.60724 56.6929 lineto
83.89055 56.6929 lineto
84.17386 56.6929 lineto
84.45717 56.6929 lineto
84.74048 56.6929 lineto
85.02379 56.6929 lineto stroke
newpath 85.03935 85.03935 moveto
85.03935 85.03935 lineto
85.32266 85.03935 lineto
85.60597 85.03935 lineto
85.88928 85.03935 lineto
86.17259 85.03935 lineto
86.4559 85.03935 lineto
86.73921 85.03935 lineto
87.0225 85.03935 lineto
87.30582 85.03935 lineto
87.58913 85.03935 lineto
87.87244 85.03935 lineto
88.15575 85.03935 lineto
88.43906 85.03935 lineto
88.72237 85.03935 lineto
89.00568 85.03935 lineto
89.28899 85.03935 lineto
89.5723 85.03935 lineto
89.8556 85.03935 lineto
90.13892 85.03935 lineto
90.42223 85.03935 lineto
90.70554 85.03935 lineto
90.98883 85.03935 lineto
91.27214 85.03935 lineto
91.55545 85.03935 lineto
91.83876 85.03935 lineto
92.12207 85.03935 lineto
92.40538 85.03935 lineto
92.68869 85.03935 lineto
92.972 85.03935 lineto
93.25531 85.03935 lineto
93.53862 85.03935 lineto
93.82193 85.03935 lineto
94.10524 85.03935 lineto
94.38855 85.03935 lineto
94.67184 85.03935 lineto
94.95515 85.03935 lineto
95.23846 85.03935 lineto
95.52177 85.03935 lineto
95.80508 85.03935 lineto
96.0884 85.03935 lineto
96.3717 85.03935 lineto
96.65501 85.03935 lineto
96.93832 85.03935 lineto
97.22163 85.03935 lineto
97.50494 85.03935 lineto
97.78825 85.03935 lineto
98.07156 85.03935 lineto
98.35486 85.03935 lineto
98.63817 85.03935 lineto
98.92148 85.03935 lineto
99.20479 85.03935 lineto
99.4881 85.03935 lineto
99.77141 85.03935 lineto
100.05472 85.03935 lineto
100.33803 85.03935 lineto
100.62134 85.03935 lineto
100.90465 85.03935 lineto
101.18796 85.03935 lineto
101.47127 85.03935 lineto
101.75458 85.03935 lineto
102.03789 85.03935 lineto
102.32118 85.03935 lineto
102.60449 85.03935 lineto
102.8878 85.03935 lineto
103.17111 85.03935 lineto
103.45442 85.03935 lineto
103.73773 85.03935 lineto
104.02104 85.03935 lineto
104.30435 85.03935 lineto
104.58766 85.03935 lineto
104.87097 85.03935 lineto
105.15428 85.03935 lineto
105.43759 85.03935 lineto
105.7209 85.03935 lineto
106.0042 85.03935 lineto
106.2875 85.03935 lineto
106.57082 85.03935 lineto
106.85413 85.03935 lineto
107.13744 85.03935 lineto
107.42075 85.03935 lineto
107.70406 85.03935 lineto
107.98737 85.03935 lineto
108.27068 85.03935 lineto
108.55399 85.03935 lineto
108.8373 85.03935 lineto
109.1206 85.03935 lineto
109.40392 85.03935 lineto
109.68721 85.03935 lineto
109.97052 85.03935 lineto
110.25383 85.03935 lineto
110.53714 85.03935 lineto
110.82045 85.03935 lineto
111.10376 85.03935 lineto
111.38707 85.03935 lineto
111.67038 85.03935 lineto
111.95369 85.03935 lineto
112.237 85.03935 lineto
112.52031 85.03935 lineto
112.80362 85.03935 lineto
113.08693 85.03935 lineto
113.37024 85.03935 lineto stroke
 0 0 0 setrgbcolor 0.5 0 dtransform exch truncate exch idtransform pop setlinewidth
newpath -85.03935 -2.83482 moveto
-85.03935 2.83482 lineto stroke
newpath -56.6929 -2.83482 moveto
-56.6929 2.83482 lineto stroke
newpath -28.34645 -2.83482 moveto
-28.34645 2.83482 lineto stroke
newpath 0 -2.83482 moveto
0 2.83482 lineto stroke
newpath 28.34645 -2.83482 moveto
28.34645 2.83482 lineto stroke
newpath 56.6929 -2.83482 moveto
56.6929 2.83482 lineto stroke
newpath 85.03935 -2.83482 moveto
85.03935 2.83482 lineto stroke
-82.93936 -9.42908 moveto
(\000) cmsy10 6.97382 fshow
-77.51529 -9.42908 moveto
(3) cmr10 6.97382 fshow
-54.59291 -9.42908 moveto
(\000) cmsy10 6.97382 fshow
-49.16884 -9.42908 moveto
(2) cmr10 6.97382 fshow
-26.24646 -9.42908 moveto
(\000) cmsy10 6.97382 fshow
-20.82239 -9.42908 moveto
(1) cmr10 6.97382 fshow
2.09999 -9.42908 moveto
(0) cmr10 6.97382 fshow
30.44644 -9.42908 moveto
(1) cmr10 6.97382 fshow
58.7929 -9.42908 moveto
(2) cmr10 6.97382 fshow
87.13934 -9.42908 moveto
(3) cmr10 6.97382 fshow
 0 0.5 dtransform truncate idtransform setlinewidth pop
newpath -2.83482 -85.03935 moveto
2.83482 -85.03935 lineto stroke
newpath -2.83482 -56.6929 moveto
2.83482 -56.6929 lineto stroke
newpath -2.83482 -28.34645 moveto
2.83482 -28.34645 lineto stroke
newpath -2.83482 0 moveto
2.83482 0 lineto stroke
newpath -2.83482 28.34645 moveto
2.83482 28.34645 lineto stroke
newpath -2.83482 56.6929 moveto
2.83482 56.6929 lineto stroke
newpath -2.83482 85.03935 moveto
2.83482 85.03935 lineto stroke
5.83482 26.09932 moveto
(1) cmr10 6.97382 fshow
5.83482 54.44577 moveto
(2) cmr10 6.97382 fshow
5.83482 82.79222 moveto
(3) cmr10 6.97382 fshow
5.83482 -86.99591 moveto
(\000) cmsy10 6.97382 fshow
11.2589 -86.99591 moveto
(3) cmr10 6.97382 fshow
5.83482 -58.64946 moveto
(\000) cmsy10 6.97382 fshow
11.2589 -58.64946 moveto
(2) cmr10 6.97382 fshow
5.83482 -30.30301 moveto
(\000) cmsy10 6.97382 fshow
11.2589 -30.30301 moveto
(1) cmr10 6.97382 fshow
newpath -99.21259 0 moveto
127.55904 0 lineto stroke
newpath 123.86346 -1.53079 moveto
127.55904 0 lineto
123.86346 1.53079 lineto
 closepath
gsave fill grestore stroke
 0.5 0 dtransform exch truncate exch idtransform pop setlinewidth
newpath 0 -113.3858 moveto
0 113.3858 lineto stroke
 0 0.5 dtransform truncate idtransform setlinewidth pop
newpath 1.53079 109.69023 moveto
0 113.3858 lineto
-1.53079 109.69023 lineto
 closepath
gsave fill grestore stroke
showpage
%%EOF
