%!PS
%%BoundingBox: -157 -94 157 94 
%%HiResBoundingBox: -156.15634 -93.79381 156.15634 93.79381 
%%Creator: MetaPost 2.02
%%CreationDate: 2023.03.26:1733
%%Pages: 1
%%BeginProlog
%%EndProlog
%%Page: 1 1
 1 0 0 setrgbcolor 0 1.4 dtransform truncate idtransform setlinewidth pop
 [] 0 setdash 1 setlinecap 1 setlinejoin 10 setmiterlimit
newpath -141.73225 -71.55861 moveto
-141.58952 -71.60403 lineto
-141.44678 -71.65074 lineto
-141.30405 -71.69745 lineto
-141.16132 -71.74287 lineto
-141.01857 -71.78958 lineto
-140.87584 -71.8363 lineto
-140.73311 -71.88301 lineto
-140.59036 -71.92972 lineto
-140.44763 -71.97514 lineto
-140.3049 -72.02185 lineto
-140.16216 -72.06857 lineto
-140.01942 -72.11528 lineto
-139.8767 -72.16069 lineto
-139.73395 -72.20741 lineto
-139.59122 -72.25412 lineto
-139.44849 -72.30084 lineto
-139.30574 -72.34755 lineto
-139.16301 -72.39427 lineto
-139.02028 -72.44098 lineto
-138.87753 -72.48769 lineto
-138.7348 -72.53441 lineto
-138.59207 -72.58112 lineto
-138.44933 -72.62784 lineto
-138.3066 -72.67455 lineto
-138.16386 -72.72125 lineto
-138.02112 -72.76797 lineto
-137.87839 -72.81468 lineto
-137.73566 -72.8614 lineto
-137.59291 -72.90811 lineto
-137.45018 -72.95483 lineto
-137.30745 -73.00154 lineto
-137.1647 -73.04825 lineto
-137.02197 -73.09497 lineto
-136.87924 -73.14168 lineto
-136.7365 -73.1884 lineto
-136.59377 -73.2351 lineto
-136.45103 -73.28311 lineto
-136.3083 -73.32983 lineto
-136.16556 -73.37654 lineto
-136.02283 -73.42326 lineto
-135.8801 -73.46997 lineto
-135.73735 -73.5167 lineto
-135.59462 -73.5634 lineto
-135.45189 -73.6114 lineto
-135.30914 -73.65813 lineto
-135.16641 -73.70483 lineto
-135.02368 -73.75156 lineto
-134.88094 -73.79956 lineto
-134.7382 -73.84628 lineto
-134.59547 -73.89299 lineto
-134.45273 -73.9397 lineto
-134.31 -73.98642 lineto
-134.16727 -74.03442 lineto
-134.02452 -74.08115 lineto
-133.88179 -74.12785 lineto
-133.73906 -74.17458 lineto
-133.59631 -74.22258 lineto
-133.45358 -74.26929 lineto
-133.31085 -74.31601 lineto
-133.1681 -74.36272 lineto
-133.02538 -74.41074 lineto
-132.88264 -74.45744 lineto
-132.7399 -74.50415 lineto
-132.59717 -74.55087 lineto
-132.45444 -74.59888 lineto
-132.31169 -74.6456 lineto
-132.16896 -74.6923 lineto
-132.02623 -74.73903 lineto
-131.88348 -74.78703 lineto
-131.74075 -74.83374 lineto
-131.59802 -74.88046 lineto
-131.45528 -74.92847 lineto
-131.31255 -74.97519 lineto
-131.16982 -75.0219 lineto
-131.02707 -75.06992 lineto
-130.88434 -75.11662 lineto
-130.74161 -75.16333 lineto
-130.59886 -75.21005 lineto
-130.45613 -75.25806 lineto
-130.3134 -75.30478 lineto
-130.17065 -75.35149 lineto
-130.02792 -75.39821 lineto
-129.8852 -75.44621 lineto
-129.74245 -75.49292 lineto
-129.59972 -75.53964 lineto
-129.45699 -75.58765 lineto
-129.31424 -75.63437 lineto
-129.17151 -75.68108 lineto
-129.02878 -75.7278 lineto
-128.88603 -75.7745 lineto
-128.7433 -75.82251 lineto
-128.60057 -75.86923 lineto
-128.45782 -75.91594 lineto
-128.3151 -75.96266 lineto
-128.17236 -76.01067 lineto
-128.02962 -76.05739 lineto
-127.88689 -76.1041 lineto
-127.74416 -76.1508 lineto
-127.60141 -76.19753 lineto
-127.45868 -76.24423 lineto
-127.31595 -76.29225 lineto
-127.1732 -76.33896 lineto
-127.03047 -76.38568 lineto
-126.88774 -76.43239 lineto
-126.745 -76.4791 lineto
-126.60226 -76.52582 lineto
-126.45953 -76.57253 lineto
-126.31679 -76.61925 lineto
-126.17406 -76.66595 lineto
-126.03133 -76.71266 lineto
-125.8886 -76.75938 lineto
-125.74585 -76.80609 lineto
-125.60312 -76.85281 lineto
-125.46039 -76.89952 lineto
-125.31764 -76.94624 lineto
-125.17491 -76.99295 lineto
-125.03218 -77.03966 lineto
-124.88943 -77.08638 lineto
-124.7467 -77.13309 lineto
-124.60397 -77.17981 lineto
-124.46123 -77.22652 lineto
-124.3185 -77.27193 lineto
-124.17577 -77.31865 lineto
-124.03302 -77.36536 lineto
-123.89029 -77.41208 lineto
-123.74756 -77.45749 lineto
-123.60481 -77.5042 lineto
-123.46208 -77.55092 lineto
-123.31935 -77.59633 lineto
-123.1766 -77.64305 lineto
-123.03387 -77.68976 lineto
-122.89114 -77.73517 lineto
-122.7484 -77.78189 lineto
-122.60567 -77.8273 lineto
-122.46294 -77.87402 lineto
-122.32019 -77.92073 lineto
-122.17746 -77.96614 lineto
-122.03473 -78.01286 lineto
-121.89198 -78.05827 lineto
-121.74925 -78.1037 lineto
-121.60652 -78.1504 lineto
-121.46378 -78.19582 lineto
-121.32104 -78.24124 lineto
-121.17831 -78.28795 lineto
-121.03557 -78.33337 lineto
-120.89284 -78.37878 lineto
-120.7501 -78.4242 lineto
-120.60736 -78.46962 lineto
-120.46463 -78.51503 lineto
-120.3219 -78.56175 lineto
-120.17915 -78.60716 lineto
-120.03642 -78.65257 lineto
-119.89369 -78.698 lineto
-119.75095 -78.74211 lineto
-119.60822 -78.78752 lineto
-119.46548 -78.83295 lineto
-119.32274 -78.87836 lineto
-119.18001 -78.92378 lineto
-119.03728 -78.9692 lineto
-118.89453 -79.0133 lineto
-118.7518 -79.05873 lineto
-118.60907 -79.10414 lineto
-118.46632 -79.14825 lineto
-118.3236 -79.19368 lineto
-118.18086 -79.2378 lineto
-118.03812 -79.2832 lineto
-117.89539 -79.32733 lineto
-117.75266 -79.37144 lineto
-117.60991 -79.41685 lineto
-117.46718 -79.46098 lineto
-117.32445 -79.5051 lineto
-117.1817 -79.54921 lineto
-117.03897 -79.59334 lineto
-116.89624 -79.63745 lineto
-116.7535 -79.68158 lineto
-116.61076 -79.7257 lineto
-116.46803 -79.7698 lineto
-116.32529 -79.81393 lineto
-116.18256 -79.85805 lineto
-116.03983 -79.90216 lineto
-115.89708 -79.94499 lineto
-115.75435 -79.9891 lineto
-115.61162 -80.03192 lineto
-115.46889 -80.07603 lineto
-115.32614 -80.11887 lineto
-115.18341 -80.16298 lineto
-115.04068 -80.2058 lineto
-114.89793 -80.24863 lineto
-114.7552 -80.29274 lineto
-114.61247 -80.33556 lineto
-114.46973 -80.37839 lineto
-114.327 -80.4212 lineto
-114.18427 -80.46402 lineto
-114.04152 -80.50685 lineto
-113.89879 -80.54837 lineto
-113.75606 -80.59119 lineto
-113.61331 -80.634 lineto
-113.47058 -80.67554 lineto
-113.32785 -80.71835 lineto
-113.1851 -80.75987 lineto
-113.04237 -80.8027 lineto
-112.89964 -80.84422 lineto
-112.7569 -80.88574 lineto
-112.61417 -80.92726 lineto
-112.47144 -80.9701 lineto
-112.32869 -81.01031 lineto
-112.18596 -81.05183 lineto
-112.04323 -81.09335 lineto
-111.90048 -81.13489 lineto
-111.75775 -81.1764 lineto
-111.61502 -81.21663 lineto
-111.47227 -81.25815 lineto
-111.32954 -81.29839 lineto
-111.18681 -81.3399 lineto
-111.04407 -81.38013 lineto
-110.90134 -81.42035 lineto
-110.7586 -81.46057 lineto
-110.61586 -81.50081 lineto
-110.47313 -81.54103 lineto
-110.3304 -81.58125 lineto
-110.18765 -81.62018 lineto
-110.04492 -81.66042 lineto
-109.90219 -81.69934 lineto
-109.75945 -81.73956 lineto
-109.61671 -81.77849 lineto
-109.47398 -81.81741 lineto
-109.33124 -81.85634 lineto
-109.1885 -81.89658 lineto
-109.04578 -81.9342 lineto
-108.90303 -81.97313 lineto
-108.7603 -82.01205 lineto
-108.61757 -82.04968 lineto
-108.47482 -82.08862 lineto
-108.33209 -82.12625 lineto
-108.18936 -82.16518 lineto
-108.04662 -82.2028 lineto
-107.90388 -82.24043 lineto
-107.76115 -82.27806 lineto
-107.61841 -82.31439 lineto
-107.47568 -82.35204 lineto
-107.33295 -82.38966 lineto
-107.1902 -82.426 lineto
-107.04747 -82.46362 lineto
-106.90474 -82.49995 lineto
-106.762 -82.53629 lineto
-106.61926 -82.57262 lineto
-106.47653 -82.60895 lineto
-106.33379 -82.64398 lineto
-106.19106 -82.68031 lineto
-106.04832 -82.71536 lineto
-105.90558 -82.7517 lineto
-105.76285 -82.78673 lineto
-105.62012 -82.82176 lineto
-105.47737 -82.8568 lineto
-105.33464 -82.89053 lineto
-105.19191 -82.92557 lineto
-105.04918 -82.9606 lineto
-104.90643 -82.99434 lineto
-104.7637 -83.02808 lineto
-104.62097 -83.06181 lineto
-104.47823 -83.09555 lineto
-104.3355 -83.12929 lineto
-104.19276 -83.16173 lineto
-104.05002 -83.19547 lineto
-103.90729 -83.2279 lineto
-103.76456 -83.26035 lineto
-103.62181 -83.29279 lineto
-103.47908 -83.32523 lineto
-103.33635 -83.35767 lineto
-103.1936 -83.38881 lineto
-103.05087 -83.41995 lineto
-102.90814 -83.4524 lineto
-102.7654 -83.48354 lineto
-102.62267 -83.51338 lineto
-102.47993 -83.54453 lineto
-102.33719 -83.57567 lineto
-102.19446 -83.60551 lineto
-102.05173 -83.63535 lineto
-101.90898 -83.66519 lineto
-101.76625 -83.69504 lineto
-101.62352 -83.72359 lineto
-101.48077 -83.75343 lineto
-101.33804 -83.78198 lineto
-101.19531 -83.81053 lineto
-101.05257 -83.83908 lineto
-100.90984 -83.86632 lineto
-100.7671 -83.89487 lineto
-100.62436 -83.92212 lineto
-100.48163 -83.94937 lineto
-100.3389 -83.97662 lineto
-100.19615 -84.00388 lineto
-100.05342 -84.02982 lineto
-99.91069 -84.05577 lineto
-99.76794 -84.08173 lineto
-99.62521 -84.10768 lineto
-99.48248 -84.13364 lineto
-99.33974 -84.15828 lineto
-99.197 -84.18294 lineto
-99.05428 -84.2076 lineto
-98.91153 -84.23225 lineto
-98.7688 -84.2569 lineto
-98.62607 -84.28026 lineto
-98.48332 -84.30362 lineto
-98.34059 -84.32697 lineto
-98.19786 -84.34903 lineto
-98.05511 -84.37239 lineto
-97.91238 -84.39444 lineto
-97.76965 -84.4165 lineto
-97.6269 -84.43727 lineto
-97.48418 -84.45932 lineto
-97.34145 -84.48009 lineto
-97.1987 -84.50085 lineto
-97.05597 -84.52031 lineto
-96.91324 -84.54108 lineto
-96.7705 -84.56053 lineto
-96.62776 -84.58 lineto
-96.48503 -84.59818 lineto
-96.34229 -84.61763 lineto
-96.19955 -84.6358 lineto
-96.05682 -84.65396 lineto
-95.91408 -84.67084 lineto
-95.77135 -84.6877 lineto
-95.62862 -84.70457 lineto
-95.48587 -84.72144 lineto
-95.34314 -84.73831 lineto
-95.20041 -84.75388 lineto
-95.05766 -84.76945 lineto
-94.91493 -84.78372 lineto
-94.7722 -84.798 lineto
-94.62947 -84.81227 lineto
-94.48672 -84.82655 lineto
-94.344 -84.83952 lineto
-94.20126 -84.8525 lineto
-94.05852 -84.86548 lineto
-93.91579 -84.87715 lineto
-93.77306 -84.89012 lineto
-93.63031 -84.90051 lineto
-93.48758 -84.91219 lineto
-93.34485 -84.92256 lineto
-93.2021 -84.93295 lineto
-93.05937 -84.94203 lineto
-92.91664 -84.95111 lineto
-92.7739 -84.9602 lineto
-92.63116 -84.96928 lineto
-92.48843 -84.97707 lineto
-92.34569 -84.98485 lineto
-92.20296 -84.99135 lineto
-92.06023 -84.99783 lineto
-91.91748 -85.00432 lineto
-91.77475 -85.0095 lineto
-91.63202 -85.0147 lineto
-91.48927 -85.01988 lineto
-91.34654 -85.02379 lineto
-91.20381 -85.02768 lineto
-91.06107 -85.03027 lineto
-90.91833 -85.03287 lineto
-90.7756 -85.03546 lineto
-90.63286 -85.03676 lineto
-90.49013 -85.03806 lineto
-90.3474 -85.03935 lineto
-90.20465 -85.03935 lineto
-90.06192 -85.03935 lineto
-89.91919 -85.03806 lineto
-89.77644 -85.03676 lineto
-89.63371 -85.03416 lineto
-89.49098 -85.03157 lineto
-89.34824 -85.02898 lineto
-89.2055 -85.02509 lineto
-89.06277 -85.02118 lineto
-88.92003 -85.01599 lineto
-88.7773 -85.0108 lineto
-88.63457 -85.00562 lineto
-88.49182 -84.99913 lineto
-88.34909 -84.99135 lineto
-88.20636 -84.98355 lineto
-88.06361 -84.97577 lineto
-87.92088 -84.96669 lineto
-87.77815 -84.95761 lineto
-87.6354 -84.94722 lineto
-87.49268 -84.93684 lineto
-87.34995 -84.92517 lineto
-87.2072 -84.91348 lineto
-87.06447 -84.90051 lineto
-86.92174 -84.88753 lineto
-86.77899 -84.87326 lineto
-86.63626 -84.859 lineto
-86.49353 -84.84341 lineto
-86.35078 -84.82785 lineto
-86.20805 -84.81097 lineto
-86.06532 -84.79411 lineto
-85.92258 -84.77594 lineto
-85.77985 -84.75777 lineto
-85.63712 -84.73831 lineto
-85.49437 -84.71754 lineto
-85.35164 -84.6968 lineto
-85.20891 -84.67603 lineto
-85.06616 -84.65266 lineto
-84.92343 -84.63062 lineto
-84.7807 -84.60596 lineto
-84.63795 -84.5813 lineto
-84.49522 -84.55664 lineto
-84.3525 -84.5307 lineto
-84.20976 -84.50345 lineto
-84.06702 -84.4762 lineto
-83.92429 -84.44765 lineto
-83.78156 -84.4191 lineto
-83.63881 -84.38925 lineto
-83.49608 -84.35811 lineto
-83.35335 -84.32697 lineto
-83.2106 -84.29453 lineto
-83.06787 -84.26079 lineto
-82.92514 -84.22705 lineto
-82.7824 -84.19202 lineto
-82.63966 -84.15569 lineto
-82.49693 -84.11935 lineto
-82.35419 -84.08173 lineto
-82.21146 -84.0428 lineto
-82.06873 -84.00388 lineto
-81.92598 -83.96364 lineto
-81.78325 -83.92212 lineto
-81.64052 -83.8806 lineto
-81.49777 -83.83778 lineto
-81.35504 -83.79366 lineto
-81.21231 -83.74954 lineto
-81.06956 -83.70413 lineto
-80.92683 -83.65611 lineto
-80.7841 -83.6094 lineto
-80.64136 -83.56009 lineto
-80.49863 -83.51079 lineto
-80.3559 -83.46017 lineto
-80.21315 -83.40828 lineto
-80.07042 -83.35637 lineto
-79.92769 -83.30186 lineto
-79.78494 -83.24738 lineto
-79.64221 -83.19157 lineto
-79.49948 -83.13577 lineto
-79.35674 -83.07738 lineto
-79.214 -83.019 lineto
-79.07127 -82.9593 lineto
-78.92853 -82.89702 lineto
-78.7858 -82.83603 lineto
-78.64307 -82.77245 lineto
-78.50032 -82.70757 lineto
-78.35759 -82.64268 lineto
-78.21486 -82.57521 lineto
-78.07211 -82.50774 lineto
-77.92938 -82.43896 lineto
-77.78665 -82.3689 lineto
-77.6439 -82.29753 lineto
-77.50117 -82.22487 lineto
-77.35844 -82.15219 lineto
-77.2157 -82.07693 lineto
-77.07297 -82.00038 lineto
-76.93024 -81.92383 lineto
-76.78749 -81.84467 lineto
-76.64476 -81.76422 lineto
-76.50203 -81.68376 lineto
-76.35928 -81.60072 lineto
-76.21655 -81.51767 lineto
-76.07382 -81.43204 lineto
-75.93108 -81.34639 lineto
-75.78835 -81.25815 lineto
-75.64561 -81.16862 lineto
-75.50287 -81.07909 lineto
-75.36014 -80.98695 lineto
-75.2174 -80.89352 lineto
-75.07466 -80.8001 lineto
-74.93193 -80.70409 lineto
-74.7892 -80.60677 lineto
-74.64645 -80.50815 lineto
-74.50372 -80.40823 lineto
-74.361 -80.30571 lineto
-74.21825 -80.2032 lineto
-74.07552 -80.0981 lineto
-73.93279 -79.9917 lineto
-73.79005 -79.8853 lineto
-73.64731 -79.77629 lineto
-73.50458 -79.6647 lineto
-73.36185 -79.55312 lineto
-73.2191 -79.43892 lineto
-73.07637 -79.32344 lineto
-72.93364 -79.20665 lineto
-72.7909 -79.08858 lineto
-72.64816 -78.9679 lineto
-72.50543 -78.84721 lineto
-72.36269 -78.72264 lineto
-72.21996 -78.59808 lineto
-72.07722 -78.47092 lineto
-71.93448 -78.34245 lineto
-71.79175 -78.21269 lineto
-71.64902 -78.08034 lineto
-71.50627 -77.94669 lineto
-71.36354 -77.81174 lineto
-71.22081 -77.6742 lineto
-71.07806 -77.53534 lineto
-70.93533 -77.3952 lineto
-70.7926 -77.25247 lineto
-70.64986 -77.10713 lineto
-70.50713 -76.9618 lineto
-70.3644 -76.81389 lineto
-70.22165 -76.66336 lineto
-70.07892 -76.51154 lineto
-69.93619 -76.35843 lineto
-69.79344 -76.20142 lineto
-69.65071 -76.0444 lineto
-69.50798 -75.8848 lineto
-69.36523 -75.7226 lineto
-69.2225 -75.5591 lineto
-69.07977 -75.393 lineto
-68.93703 -75.22562 lineto
-68.7943 -75.05563 lineto
-68.65157 -74.88435 lineto
-68.50882 -74.70918 lineto
-68.36609 -74.534 lineto
-68.22336 -74.35493 lineto
-68.08061 -74.17458 lineto
-67.93788 -73.99161 lineto
-67.79515 -73.80605 lineto
-67.6524 -73.6205 lineto
-67.50967 -73.43105 lineto
-67.36694 -73.239 lineto
-67.2242 -73.04565 lineto
-67.08147 -72.84972 lineto
-66.93874 -72.65118 lineto
-66.79599 -72.45006 lineto
-66.65326 -72.24763 lineto
-66.51053 -72.04132 lineto
-66.36778 -71.83371 lineto
-66.22505 -71.62349 lineto
-66.08232 -71.41069 lineto
-65.93958 -71.19528 lineto
-65.79684 -70.97859 lineto
-65.65411 -70.758 lineto
-65.51137 -70.5361 lineto
-65.36864 -70.31032 lineto
-65.2259 -70.08194 lineto
-65.08316 -69.85226 lineto
-64.94043 -69.62 lineto
-64.7977 -69.38383 lineto
-64.65495 -69.14508 lineto
-64.51222 -68.90503 lineto
-64.36949 -68.66107 lineto
-64.22675 -68.41454 lineto
-64.08401 -68.16539 lineto
-63.94128 -67.91367 lineto
-63.79854 -67.65933 lineto
-63.6558 -67.40111 lineto
-63.51308 -67.14159 lineto
-63.37035 -66.87817 lineto
-63.2276 -66.61087 lineto
-63.08487 -66.34227 lineto
-62.94214 -66.07108 lineto
-62.7994 -65.79597 lineto
-62.65666 -65.5183 lineto
-62.51393 -65.238 lineto
-62.37119 -64.95255 lineto
-62.22845 -64.66707 lineto
-62.08572 -64.3764 lineto
-61.94298 -64.08315 lineto
-61.80025 -63.7873 lineto
-61.65752 -63.48755 lineto
-61.51477 -63.18391 lineto
-61.37204 -62.87898 lineto
-61.22931 -62.57016 lineto
-61.08656 -62.25743 lineto
-60.94383 -61.94212 lineto
-60.8011 -61.62291 lineto
-60.65836 -61.2998 lineto
-60.51563 -60.9741 lineto
-60.3729 -60.64581 lineto
-60.23015 -60.31233 lineto
-60.08742 -59.97755 lineto
-59.94469 -59.63629 lineto
-59.80194 -59.29372 lineto
-59.65921 -58.94727 lineto
-59.51648 -58.59691 lineto
-59.37373 -58.24396 lineto
-59.231 -57.88713 lineto
-59.08827 -57.5238 lineto
-58.94553 -57.16048 lineto
-58.8028 -56.79195 lineto
-58.66006 -56.41954 lineto
-58.51732 -56.04324 lineto
-58.37459 -55.66434 lineto
-58.23186 -55.28024 lineto
-58.08911 -54.89227 lineto
-57.94638 -54.5017 lineto
-57.80365 -54.10593 lineto
-57.6609 -53.70757 lineto
-57.51817 -53.30402 lineto
-57.37544 -52.89656 lineto
-57.2327 -52.48523 lineto
-57.08997 -52.07129 lineto
-56.94724 -51.65086 lineto
-56.80449 -51.22786 lineto
-56.66176 -50.80095 lineto
-56.51903 -50.36755 lineto
-56.37628 -49.93155 lineto
-56.23355 -49.49297 lineto
-56.09082 -49.04659 lineto
-55.94807 -48.59892 lineto
-55.80534 -48.14346 lineto
-55.66261 -47.6867 lineto
-55.51987 -47.22606 lineto
-55.37714 -46.75763 lineto
-55.2344 -46.2879 lineto
-55.09166 -45.81297 lineto
-54.94893 -45.33157 lineto
-54.8062 -44.84886 lineto
-54.66345 -44.36096 lineto
-54.52072 -43.86528 lineto
-54.37799 -43.3683 lineto
-54.23524 -42.86613 lineto
-54.09251 -42.35748 lineto
-53.94978 -41.84622 lineto
-53.80704 -41.32977 lineto
-53.6643 -40.80685 lineto
-53.52158 -40.28133 lineto
-53.37883 -39.75061 lineto
-53.2361 -39.2121 lineto
-53.09337 -38.6723 lineto
-52.95064 -38.1273 lineto
-52.80789 -37.57454 lineto
-52.66516 -37.01917 lineto
-52.52243 -36.4599 lineto
-52.37968 -35.89154 lineto
-52.23695 -35.3219 lineto
-52.09422 -34.74707 lineto
-51.95148 -34.16315 lineto
-51.80875 -33.57793 lineto
-51.66602 -32.98492 lineto
-51.52327 -32.38933 lineto
-51.38054 -31.78854 lineto
-51.23781 -31.17998 lineto
-51.09506 -30.5688 lineto
-50.95233 -29.95114 lineto
-50.8096 -29.327 lineto
-50.66685 -28.70026 lineto
-50.52412 -28.06703 lineto
-50.3814 -27.42603 lineto
-50.23865 -26.7837 lineto
-50.09592 -26.13492 lineto
-49.95319 -25.47704 lineto
-49.81044 -24.81786 lineto
-49.66771 -24.15349 lineto
-49.52498 -23.48003 lineto
-49.38223 -22.80399 lineto
-49.2395 -22.12274 lineto
-49.09677 -21.43242 lineto
-48.95403 -20.7408 lineto
-48.8113 -20.0427 lineto
-48.66856 -19.3355 lineto
-48.52582 -18.62701 lineto
-48.38309 -17.91203 lineto
-48.24036 -17.18927 lineto
-48.09761 -16.46391 lineto
-47.95488 -15.73207 lineto
-47.81215 -14.99245 lineto
-47.6694 -14.25021 lineto
-47.52667 -13.5015 lineto
-47.38394 -12.74501 lineto
-47.2412 -11.9859 lineto
-47.09846 -11.21773 lineto
-46.95573 -10.44696 lineto
-46.81299 -9.67099 lineto
-46.67026 -8.88594 lineto
-46.52753 -8.09831 lineto
-46.38478 -7.30678 lineto
-46.24205 -6.50485 lineto
-46.09932 -5.70035 lineto
-45.95657 -4.89194 lineto
-45.81384 -4.07317 lineto
-45.67111 -3.25308 lineto
-45.52837 -2.42781 lineto
-45.38564 -1.59215 lineto
-45.2429 -0.7565 lineto
-45.10016 0.08565 lineto
-44.95743 0.93686 lineto
-44.8147 1.78938 lineto
-44.67195 2.6471 lineto
-44.52922 3.5139 lineto
-44.38649 4.38199 lineto
-44.24374 5.25526 lineto
-44.10101 6.13763 lineto
-43.95828 7.0213 lineto
-43.81554 7.90886 lineto
-43.6728 8.8068 lineto
-43.53008 9.70473 lineto
-43.38733 10.60786 lineto
-43.2446 11.52007 lineto
-43.10187 12.43228 lineto
-42.95912 13.35358 lineto
-42.81639 14.27487 lineto
-42.67366 15.20006 lineto
-42.53093 16.13432 lineto
-42.38818 17.0686 lineto
-42.24545 18.00806 lineto
-42.10272 18.9553 lineto
-41.95998 19.90126 lineto
-41.81725 20.85109 lineto
-41.67451 21.81001 lineto
-41.53177 22.76764 lineto
-41.38904 23.72917 lineto
-41.2463 24.69847 lineto
-41.10356 25.66518 lineto
-40.96083 26.63579 lineto
-40.8181 27.61417 lineto
-40.67535 28.59126 lineto
-40.53262 29.56966 lineto
-40.3899 30.55583 lineto
-40.24715 31.5394 lineto
-40.10442 32.52557 lineto
-39.96169 33.51694 lineto
-39.81894 34.507 lineto
-39.67621 35.49709 lineto
-39.53348 36.49493 lineto
-39.39073 37.4876 lineto
-39.248 38.48155 lineto
-39.10527 39.4807 lineto
-38.96252 40.47597 lineto
-38.8198 41.47511 lineto
-38.67706 42.47037 lineto
-38.53432 43.46432 lineto
-38.39159 44.46347 lineto
-38.24886 45.45615 lineto
-38.10611 46.44751 lineto
-37.96338 47.44276 lineto
-37.82065 48.43024 lineto
-37.6779 49.41641 lineto
-37.53517 50.40388 lineto
-37.39244 51.38486 lineto
-37.2497 52.36195 lineto
-37.10696 53.34035 lineto
-36.96423 54.30965 lineto
-36.82149 55.27376 lineto
-36.67876 56.23918 lineto
-36.53603 57.19421 lineto
-36.39328 58.14275 lineto
-36.25055 59.0913 lineto
-36.10782 60.02686 lineto
-35.96507 60.95724 lineto
-35.82234 61.88373 lineto
-35.67961 62.79723 lineto
-35.53687 63.70296 lineto
-35.39413 64.60349 lineto
-35.2514 65.48975 lineto
-35.10866 66.36693 lineto
-34.96593 67.23631 lineto
-34.8232 68.09013 lineto
-34.68045 68.93747 lineto
-34.53772 69.76663 lineto
-34.39499 70.58282 lineto
-34.25224 71.38992 lineto
-34.10951 72.17757 lineto
-33.96678 72.95093 lineto
-33.82404 73.71132 lineto
-33.6813 74.45096 lineto
-33.53857 75.17372 lineto
-33.39583 75.8822 lineto
-33.2531 76.56734 lineto
-33.11037 77.2343 lineto
-32.96762 77.8818 lineto
-32.82489 78.50595 lineto
-32.68216 79.10674 lineto
-32.53941 79.68806 lineto
-32.39668 80.24214 lineto
-32.25395 80.77156 lineto
-32.11122 81.27762 lineto
-31.96848 81.75383 lineto
-31.82574 82.2028 lineto
-31.68301 82.62453 lineto
-31.54027 83.01381 lineto
-31.39754 83.37323 lineto
-31.2548 83.70152 lineto
-31.11206 83.99478 lineto
-30.96933 84.2556 lineto
-30.8266 84.48138 lineto
-30.68385 84.66954 lineto
-30.54112 84.82135 lineto
-30.39839 84.93425 lineto
-30.25565 85.00562 lineto
-30.11292 85.03806 lineto
-29.97018 85.02768 lineto
-29.82744 84.97318 lineto
-29.68471 84.87456 lineto
-29.54198 84.73053 lineto
-29.39923 84.53848 lineto
-29.2565 84.29843 lineto
-29.11377 84.00906 lineto
-28.97102 83.66908 lineto
-28.8283 83.27461 lineto
-28.68556 82.82825 lineto
-28.54282 82.32867 lineto
-28.40009 81.76941 lineto
-28.25735 81.15564 lineto
-28.11461 80.48349 lineto
-27.97188 79.74776 lineto
-27.82915 78.95491 lineto
-27.6864 78.1011 lineto
-27.54367 77.17722 lineto
-27.40094 76.19493 lineto
-27.2582 75.14517 lineto
-27.11546 74.02405 lineto
-26.97273 72.84064 lineto
-26.82999 71.58716 lineto
-26.68726 70.25713 lineto
-26.54453 68.8635 lineto
-26.40178 67.38943 lineto
-26.25905 65.85048 lineto
-26.11632 64.23756 lineto
-25.97357 62.54161 lineto
-25.83084 60.77946 lineto
-25.68811 58.94078 lineto
-25.54536 57.01773 lineto
-25.40263 55.02592 lineto
-25.2599 52.95885 lineto
-25.11716 50.80354 lineto
-24.97443 48.58205 lineto
-24.8317 46.28401 lineto
-24.68895 43.89642 lineto
-24.54622 41.44527 lineto
-24.40349 38.91884 lineto
-24.26074 36.30418 lineto
-24.11801 33.62984 lineto
-23.97528 30.88153 lineto
-23.83253 28.04887 lineto
-23.6898 25.15912 lineto
-23.54707 22.20189 lineto
-23.40433 19.16422 lineto
-23.2616 16.07854 lineto
-23.11887 12.93185 lineto
-22.97612 9.71252 lineto
-22.83339 6.45296 lineto
-22.69066 3.14407 lineto
-22.54791 -0.22838 lineto
-22.40518 -3.62679 lineto
-22.26245 -7.0797 lineto
-22.1197 -10.54817 lineto
-21.97697 -14.0439 lineto
-21.83424 -17.57855 lineto
-21.69151 -21.10931 lineto
-21.54877 -24.64786 lineto
-21.40604 -28.20328 lineto
-21.2633 -31.73404 lineto
-21.12056 -35.24924 lineto
-20.97783 -38.75534 lineto
-20.8351 -42.21085 lineto
-20.69235 -45.62224 lineto
-20.54962 -48.9934 lineto
-20.40689 -52.2828 lineto
-20.26414 -55.49565 lineto
-20.12141 -58.63194 lineto
-19.97868 -61.65146 lineto
-19.83594 -64.55548 lineto
-19.6932 -67.34271 lineto
-19.55048 -69.97295 lineto
-19.40773 -72.44487 lineto
-19.265 -74.7546 lineto
-19.12227 -76.86319 lineto
-18.97952 -78.76807 lineto
-18.83679 -80.46013 lineto
-18.69406 -81.90565 lineto
-18.55132 -83.09814 lineto
-18.40858 -84.02463 lineto
-18.26585 -84.65915 lineto
-18.12311 -84.99265 lineto
-17.98038 -85.00432 lineto
-17.83765 -84.68251 lineto
-17.6949 -84.00777 lineto
-17.55217 -82.97098 lineto
-17.40944 -81.55919 lineto
-17.2667 -79.74905 lineto
-17.12396 -77.54703 lineto
-16.98123 -74.93886 lineto
-16.83849 -71.89989 lineto
-16.69576 -68.45476 lineto
-16.55302 -64.58792 lineto
-16.41028 -60.2786 lineto
-16.26755 -55.5722 lineto
-16.12482 -50.45578 lineto
-15.98207 -44.91504 lineto
-15.83934 -39.01616 lineto
-15.69661 -32.75655 lineto
-15.55386 -26.12842 lineto
-15.41113 -19.2252 lineto
-15.2684 -12.0521 lineto
-15.12566 -4.61815 lineto
-14.98293 2.95723 lineto
-14.8402 10.65457 lineto
-14.69745 18.44664 lineto
-14.55472 26.1907 lineto
-14.41199 33.84784 lineto
-14.26924 41.36871 lineto
-14.12651 48.59244 lineto
-13.98378 55.49435 lineto
-13.84103 61.90448 lineto
-13.6983 67.75276 lineto
-13.55557 72.95352 lineto
-13.41283 77.3485 lineto
-13.2701 80.852 lineto
-13.12737 83.36804 lineto
-12.98462 84.76686 lineto
-12.84189 84.96799 lineto
-12.69916 83.878 lineto
-12.55641 81.43723 lineto
-12.41368 77.58984 lineto
-12.27095 72.27878 lineto
-12.1282 65.55203 lineto
-11.98547 57.41869 lineto
-11.84274 47.89432 lineto
-11.7 37.18007 lineto
-11.55727 25.3862 lineto
-11.41454 12.64899 lineto
-11.2718 -0.6527 lineto
-11.12906 -14.27617 lineto
-10.98633 -27.93079 lineto
-10.8436 -41.08194 lineto
-10.70085 -53.35591 lineto
-10.55812 -64.3271 lineto
-10.41539 -73.4038 lineto
-10.27264 -80.1565 lineto
-10.12991 -84.14142 lineto
-9.98718 -84.91478 lineto
-9.84444 -82.19113 lineto
-9.7017 -75.73947 lineto
-9.55898 -65.59615 lineto
-9.41623 -51.83772 lineto
-9.2735 -35.0027 lineto
-9.13077 -15.70093 lineto
-8.98802 5.23451 lineto
-8.84529 26.39963 lineto
-8.70256 46.46307 lineto
-8.55981 63.91446 lineto
-8.41708 76.93974 lineto
-8.27435 84.08432 lineto
-8.1316 84.06355 lineto
-7.98888 76.1054 lineto
-7.84615 60.1735 lineto
-7.7034 37.01398 lineto
-7.56067 8.78993 lineto
-7.41794 -21.57904 lineto
-7.27519 -50.27931 lineto
-7.13246 -72.54349 lineto
-6.98973 -84.16087 lineto
-6.84698 -81.72398 lineto
-6.70425 -63.92485 lineto
-6.56152 -32.45291 lineto
-6.41878 7.66881 lineto
-6.27605 47.42978 lineto
-6.13332 76.40643 lineto
-5.99057 84.63321 lineto
-5.84784 66.42531 lineto
-5.70511 24.4078 lineto
-5.56236 -29.02985 lineto
-5.41963 -72.38907 lineto
-5.2769 -83.99089 lineto
-5.13416 -52.67987 lineto
-4.99142 10.18095 lineto
-4.8487 69.59406 lineto
-4.70595 81.89008 lineto
-4.56322 29.74483 lineto
-4.42049 -51.38097 lineto
-4.27774 -84.13364 lineto
-4.13501 -23.74084 lineto
-3.99228 68.99585 lineto
-3.84953 65.59225 lineto
-3.7068 -43.31252 lineto
-3.56407 -74.64041 lineto
-3.42133 46.98212 lineto
-3.2786 58.3309 lineto
-3.13586 -79.80225 lineto
-2.99312 19.24857 lineto
-2.85039 44.17542 lineto
-2.70766 -74.11748 lineto
-2.56491 81.74864 lineto
-2.42218 -78.72134 lineto
-2.27945 51.39655 lineto
-2.1367 29.65918 lineto
-1.99397 -78.86668 lineto
-1.85124 -78.24384 lineto
-1.7085 -81.24129 lineto
-1.56577 -48.45229 lineto
-1.42303 67.86694 lineto stroke
newpath 1.41655 -39.9089 moveto
1.55928 17.45009 lineto
1.70201 84.98615 lineto
1.84476 84.14272 lineto
1.98749 68.73894 lineto
2.13022 -45.93625 lineto
2.27296 -39.23286 lineto
2.4157 72.29175 lineto
2.55843 -77.37575 lineto
2.70117 68.5897 lineto
2.8439 -35.13115 lineto
2.98663 -27.27809 lineto
3.12938 82.10808 lineto
3.27211 -52.46965 lineto
3.41484 -52.1712 lineto
3.55759 71.64166 lineto
3.70032 48.40428 lineto
3.84305 -62.26651 lineto
3.9858 -71.63257 lineto
4.12852 19.03835 lineto
4.27126 83.44202 lineto
4.414 54.37842 lineto
4.55673 -25.97531 lineto
4.69946 -80.91559 lineto
4.84221 -71.37306 lineto
4.98494 -13.48334 lineto
5.12767 50.42464 lineto
5.27042 83.52895 lineto
5.41315 73.832 lineto
5.55588 31.28897 lineto
5.69861 -21.95276 lineto
5.84135 -64.88118 lineto
5.98409 -84.40353 lineto
6.12682 -77.3498 lineto
6.26956 -49.16467 lineto
6.4123 -9.47375 lineto
6.55502 30.66093 lineto
6.69777 62.69083 lineto
6.8405 81.26854 lineto
6.98323 84.38795 lineto
7.12598 73.29999 lineto
7.2687 51.41081 lineto
7.41144 23.03496 lineto
7.55418 -7.48843 lineto
7.69691 -35.87598 lineto
7.83965 -59.21327 lineto
7.98239 -75.57468 lineto
8.12512 -83.88579 lineto
8.26785 -84.2569 lineto
8.4106 -77.38223 lineto
8.55333 -64.58273 lineto
8.69606 -47.37659 lineto
8.8388 -27.30534 lineto
8.98154 -6.1584 lineto
9.12427 14.72124 lineto
9.26701 34.20856 lineto
9.40974 51.16687 lineto
9.55247 65.01483 lineto
9.69522 75.37614 lineto
9.83795 81.96664 lineto
9.98068 84.86548 lineto
10.12343 84.24393 lineto
10.26616 80.41602 lineto
10.40889 73.78659 lineto
10.55164 64.76439 lineto
10.69437 53.91777 lineto
10.8371 41.6983 lineto
10.97984 28.51471 lineto
11.12257 14.93665 lineto
11.2653 1.24051 lineto
11.40805 -12.08192 lineto
11.55078 -24.7919 lineto
11.69351 -36.68828 lineto
11.83626 -47.45314 lineto
11.97899 -56.99048 lineto
12.12172 -65.22763 lineto
12.26447 -72.01666 lineto
12.4072 -77.36795 lineto
12.54993 -81.29968 lineto
12.69267 -83.80014 lineto
12.8354 -84.94592 lineto
12.97813 -84.8006 lineto
13.12088 -83.4524 lineto
13.26361 -80.99733 lineto
13.40634 -77.51978 lineto
13.54909 -73.16245 lineto
13.69182 -68.01877 lineto
13.83455 -62.17049 lineto
13.9773 -55.78242 lineto
14.12003 -48.9337 lineto
14.26276 -41.68921 lineto
14.4055 -34.21376 lineto
14.54823 -26.56313 lineto
14.69096 -18.78403 lineto
14.83371 -11.02827 lineto
14.97644 -3.32704 lineto
15.11917 4.29245 lineto
15.26192 11.70044 lineto
15.40465 18.91768 lineto
15.54738 25.83386 lineto
15.69012 32.44513 lineto
15.83286 38.75145 lineto
15.97559 44.66591 lineto
16.11832 50.19885 lineto
16.26106 55.35811 lineto
16.4038 60.08266 lineto
16.54652 64.39069 lineto
16.68927 68.29515 lineto
16.832 71.75844 lineto
16.97473 74.80261 lineto
17.11748 77.44322 lineto
17.26021 79.66211 lineto
17.40294 81.48134 lineto
17.54568 82.91779 lineto
17.68842 83.97014 lineto
17.83115 84.65785 lineto
17.97389 84.99783 lineto
18.11662 84.99913 lineto
18.25935 84.68251 lineto
18.4021 84.05836 lineto
18.54483 83.14876 lineto
18.68756 81.96924 lineto
18.8303 80.5276 lineto
18.97304 78.855 lineto
19.11577 76.96051 lineto
19.25851 74.85062 lineto
19.40125 72.56036 lineto
19.54398 70.08324 lineto
19.68672 67.4595 lineto
19.82945 64.69173 lineto
19.97218 61.77992 lineto
20.11493 58.7656 lineto
20.25766 55.64748 lineto
20.40039 52.42424 lineto
20.54314 49.13872 lineto
20.68587 45.78574 lineto
20.8286 42.36008 lineto
20.97134 38.90717 lineto
21.11407 35.41792 lineto
21.2568 31.88716 lineto
21.39955 28.3577 lineto
21.54228 24.81915 lineto
21.68501 21.26244 lineto
21.82776 17.73167 lineto
21.97049 14.21388 lineto
22.11322 10.7 lineto
22.25597 7.23021 lineto
22.3987 3.79158 lineto
22.54143 0.375 lineto
22.68417 -2.98317 lineto
22.8269 -6.29465 lineto
22.96964 -9.57108 lineto
23.11238 -12.77875 lineto
23.25511 -15.92801 lineto
23.39784 -19.03186 lineto
23.54059 -22.05786 lineto
23.68332 -25.03195 lineto
23.82605 -27.9243 lineto
23.9688 -30.74657 lineto
24.11153 -33.51175 lineto
24.25426 -36.19 lineto
24.397 -38.79558 lineto
24.53973 -41.33757 lineto
24.68246 -43.79132 lineto
24.82521 -46.17111 lineto
24.96794 -48.48343 lineto
25.11067 -50.70882 lineto
25.25342 -52.85634 lineto
25.39615 -54.93768 lineto
25.53888 -56.9321 lineto
25.68163 -58.84995 lineto
25.82436 -60.70032 lineto
25.96709 -62.46634 lineto
26.10983 -64.15712 lineto
26.25256 -65.78171 lineto
26.3953 -67.32455 lineto
26.53802 -68.79472 lineto
26.68077 -70.19873 lineto
26.8235 -71.52487 lineto
26.96623 -72.78094 lineto
27.10898 -73.97473 lineto
27.25171 -75.09326 lineto
27.39444 -76.14561 lineto
27.53719 -77.13568 lineto
27.67992 -78.05698 lineto
27.82265 -78.91988 lineto
27.9654 -79.71532 lineto
28.10812 -80.44975 lineto
28.25085 -81.12709 lineto
28.3936 -81.74345 lineto
28.53633 -82.30272 lineto
28.67906 -82.80748 lineto
28.82181 -83.25645 lineto
28.96454 -83.65092 lineto
29.10727 -83.99478 lineto
29.25002 -84.28674 lineto
29.39275 -84.52809 lineto
29.53548 -84.72273 lineto
29.67822 -84.86937 lineto
29.82095 -84.96928 lineto
29.96368 -85.02638 lineto
30.10643 -85.03806 lineto
30.24916 -85.00821 lineto
30.39189 -84.93814 lineto
30.53464 -84.82655 lineto
30.67737 -84.67732 lineto
30.8201 -84.49046 lineto
30.96284 -84.26729 lineto
31.10558 -84.00906 lineto
31.2483 -83.71451 lineto
31.39105 -83.38881 lineto
31.53378 -83.03197 lineto
31.67651 -82.64139 lineto
31.81926 -82.22357 lineto
31.96199 -81.7733 lineto
32.10472 -81.29839 lineto
32.24747 -80.7962 lineto
32.3902 -80.26549 lineto
32.53293 -79.7127 lineto
32.67567 -79.13528 lineto
32.8184 -78.5319 lineto
32.96114 -77.90906 lineto
33.10388 -77.26544 lineto
33.24661 -76.59718 lineto
33.38934 -75.91205 lineto
33.53209 -75.20876 lineto
33.67482 -74.4834 lineto
33.81755 -73.74376 lineto
33.9603 -72.98726 lineto
34.10303 -72.2113 lineto
34.24576 -71.42496 lineto
34.3885 -70.62305 lineto
34.53123 -69.80296 lineto
34.67397 -68.9738 lineto
34.81671 -68.13165 lineto
34.95944 -67.27394 lineto
35.10217 -66.40845 lineto
35.24492 -65.53256 lineto
35.38765 -64.64241 lineto
35.53038 -63.74577 lineto
35.67313 -62.84135 lineto
35.81586 -61.92265 lineto
35.95859 -61.00136 lineto
36.10133 -60.06839 lineto
36.24406 -59.13152 lineto
36.3868 -58.18947 lineto
36.52954 -57.23573 lineto
36.67227 -56.2807 lineto
36.815 -55.32048 lineto
36.95773 -54.35117 lineto
37.10048 -53.38187 lineto
37.24321 -52.40866 lineto
37.38594 -51.42639 lineto
37.52869 -50.4467 lineto
37.67142 -49.46312 lineto
37.81415 -48.47305 lineto
37.9569 -47.48558 lineto
38.09962 -46.49551 lineto
38.24236 -45.49896 lineto
38.3851 -44.5063 lineto
38.52783 -43.51234 lineto
38.67056 -42.51318 lineto
38.81331 -41.51923 lineto
38.95604 -40.52397 lineto
39.09877 -39.52353 lineto
39.24152 -38.52956 lineto
39.38425 -37.5356 lineto
39.52698 -36.53775 lineto
39.66972 -35.54509 lineto
39.81245 -34.55502 lineto
39.95518 -33.56107 lineto
40.09793 -32.5723 lineto
40.24066 -31.58742 lineto
40.38339 -30.59865 lineto
40.52614 -29.61766 lineto
40.66887 -28.63278 lineto
40.8116 -27.657 lineto
40.95435 -26.68379 lineto
41.09708 -25.70801 lineto
41.2398 -24.73999 lineto
41.38255 -23.77588 lineto
41.52528 -22.80917 lineto
41.66801 -21.85155 lineto
41.81076 -20.89781 lineto
41.95349 -19.94278 lineto
42.09622 -18.99553 lineto
42.23897 -18.05348 lineto
42.3817 -17.11012 lineto
42.52443 -16.17586 lineto
42.66718 -15.24547 lineto
42.8099 -14.3151 lineto
42.95264 -13.3925 lineto
43.09538 -12.4764 lineto
43.23811 -11.559 lineto
43.38084 -10.65068 lineto
43.52359 -9.74756 lineto
43.66632 -8.84572 lineto
43.80905 -7.95168 lineto
43.9518 -7.06412 lineto
44.09453 -6.17526 lineto
44.23726 -5.2968 lineto
44.38 -4.42351 lineto
44.52274 -3.55153 lineto
44.66547 -2.68863 lineto
44.80821 -1.82571 lineto
44.95094 -0.9732 lineto
45.09367 -0.12587 lineto
45.23642 0.72017 lineto
45.37915 1.55582 lineto
45.52188 2.38757 lineto
45.66463 3.21675 lineto
45.80736 4.03682 lineto
45.95009 4.85172 lineto
46.09283 5.66531 lineto
46.23557 6.46982 lineto
46.3783 7.26784 lineto
46.52104 8.06458 lineto
46.66377 8.8522 lineto
46.8065 9.63336 lineto
46.94925 10.41322 lineto
47.09198 11.18399 lineto
47.23471 11.94827 lineto
47.37744 12.71126 lineto
47.52019 13.46516 lineto
47.66292 14.21388 lineto
47.80565 14.96 lineto
47.9484 15.69704 lineto
48.09113 16.42888 lineto
48.23386 17.15813 lineto
48.3766 17.8783 lineto
48.51933 18.59328 lineto
48.66206 19.30565 lineto
48.80481 20.00896 lineto
48.94754 20.70966 lineto
49.09027 21.40257 lineto
49.23302 22.0903 lineto
49.37575 22.77414 lineto
49.51848 23.45018 lineto
49.66122 24.12105 lineto
49.80396 24.7893 lineto
49.94669 25.44849 lineto
50.08943 26.10378 lineto
50.23216 26.75516 lineto
50.3749 27.39877 lineto
50.51764 28.03719 lineto
50.66037 28.67302 lineto
50.8031 29.29976 lineto
50.94585 29.9213 lineto
51.08858 30.54155 lineto
51.23131 31.15273 lineto
51.37405 31.76 lineto
51.51678 32.36337 lineto
51.65952 32.95898 lineto
51.80226 33.54938 lineto
51.94499 34.13849 lineto
52.08772 34.71852 lineto
52.23047 35.29465 lineto
52.3732 35.8669 lineto
52.51593 36.43265 lineto
52.65868 36.99191 lineto
52.8014 37.54988 lineto
52.94414 38.10005 lineto
53.08688 38.64894 lineto
53.22961 39.18874 lineto
53.37234 39.72466 lineto
53.51509 40.25797 lineto
53.65782 40.7835 lineto
53.80055 41.30513 lineto
53.9433 41.82286 lineto
54.08603 42.33542 lineto
54.22876 42.84148 lineto
54.3715 43.34625 lineto
54.51424 43.84453 lineto
54.65697 44.33632 lineto
54.79971 44.82811 lineto
54.94244 45.3108 lineto
55.08517 45.79092 lineto
55.22792 46.26714 lineto
55.37065 46.73816 lineto
55.51338 47.20401 lineto
55.65613 47.66725 lineto
55.79886 48.124 lineto
55.94159 48.57686 lineto
56.08434 49.02713 lineto
56.22707 49.4709 lineto
56.3698 49.9108 lineto
56.51254 50.34808 lineto
56.65527 50.78018 lineto
56.798 51.20709 lineto
56.94075 51.63141 lineto
57.08348 52.05054 lineto
57.22621 52.46706 lineto
57.36896 52.8784 lineto
57.51169 53.28455 lineto
57.65442 53.68939 lineto
57.79715 54.08775 lineto
57.9399 54.48352 lineto
58.08263 54.8754 lineto
58.22536 55.26338 lineto
58.3681 55.64618 lineto
58.51083 56.02766 lineto
58.65356 56.40268 lineto
58.79631 56.77509 lineto
58.93904 57.1449 lineto
59.08177 57.50822 lineto
59.22452 57.86896 lineto
59.36725 58.2284 lineto
59.50998 58.58134 lineto
59.65273 58.93039 lineto
59.79546 59.27945 lineto
59.93819 59.62201 lineto
60.08093 59.96068 lineto
60.22366 60.29807 lineto
60.3664 60.63025 lineto
60.50914 60.95854 lineto
60.65187 61.28554 lineto
60.7946 61.60733 lineto
60.93735 61.92654 lineto
61.08008 62.24316 lineto
61.22281 62.55588 lineto
61.36555 62.86601 lineto
61.50829 63.17094 lineto
61.65102 63.47328 lineto
61.79376 63.77432 lineto
61.9365 64.07018 lineto
62.07922 64.36343 lineto
62.22197 64.6541 lineto
62.3647 64.94086 lineto
62.50743 65.22374 lineto
62.65018 65.50662 lineto
62.79291 65.7843 lineto
62.93564 66.05809 lineto
63.07838 66.3306 lineto
63.22112 66.5992 lineto
63.36385 66.8652 lineto
63.50659 67.12991 lineto
63.64932 67.38943 lineto
63.79205 67.64636 lineto
63.9348 67.90198 lineto
64.07753 68.15372 lineto
64.22026 68.40285 lineto
64.363 68.6494 lineto
64.50574 68.89334 lineto
64.64847 69.1334 lineto
64.79121 69.37346 lineto
64.93394 69.60832 lineto
65.07668 69.84059 lineto
65.21942 70.07286 lineto
65.36215 70.29994 lineto
65.50488 70.52573 lineto
65.64763 70.74762 lineto
65.79036 70.9682 lineto
65.93309 71.1862 lineto
66.07584 71.4016 lineto
66.21857 71.61441 lineto
66.3613 71.82462 lineto
66.50404 72.03224 lineto
66.64677 72.23726 lineto
66.7895 72.44098 lineto
66.93225 72.6421 lineto
67.07498 72.84064 lineto
67.21771 73.03658 lineto
67.36046 73.22992 lineto
67.50319 73.42197 lineto
67.64592 73.6114 lineto
67.78867 73.79826 lineto
67.9314 73.98383 lineto
68.07413 74.16678 lineto
68.21686 74.34715 lineto
68.3596 74.52492 lineto
68.50233 74.70139 lineto
68.64507 74.87527 lineto
68.78781 75.04785 lineto
68.93054 75.21783 lineto
69.07327 75.38522 lineto
69.21602 75.55132 lineto
69.35875 75.71481 lineto
69.50148 75.87701 lineto
69.64423 76.03662 lineto
69.78696 76.19493 lineto
69.92969 76.35063 lineto
70.07243 76.50505 lineto
70.21516 76.65688 lineto
70.3579 76.80609 lineto
70.50064 76.95532 lineto
70.64337 77.10065 lineto
70.7861 77.24599 lineto
70.92885 77.38872 lineto
71.07158 77.52885 lineto
71.21431 77.6677 lineto
71.35706 77.80525 lineto
71.49979 77.9415 lineto
71.64252 78.07515 lineto
71.78526 78.2075 lineto
71.928 78.33727 lineto
72.07072 78.46573 lineto
72.21347 78.59288 lineto
72.3562 78.71745 lineto
72.49893 78.84073 lineto
72.64168 78.9627 lineto
72.78441 79.08337 lineto
72.92714 79.20146 lineto
73.06989 79.31824 lineto
73.21262 79.43373 lineto
73.35535 79.54791 lineto
73.4981 79.66081 lineto
73.64082 79.7711 lineto
73.78355 79.88011 lineto
73.9263 79.98781 lineto
74.06903 80.09421 lineto
74.21176 80.19801 lineto
74.3545 80.30182 lineto
74.49724 80.40303 lineto
74.63997 80.50424 lineto
74.78271 80.60286 lineto
74.92545 80.69888 lineto
75.06818 80.7962 lineto
75.21092 80.88963 lineto
75.35365 80.98306 lineto
75.49638 81.0752 lineto
75.63913 81.16472 lineto
75.78186 81.25426 lineto
75.92459 81.3425 lineto
76.06734 81.42813 lineto
76.21007 81.51378 lineto
76.3528 81.59683 lineto
76.49554 81.67987 lineto
76.63828 81.76033 lineto
76.781 81.84077 lineto
76.92375 81.91992 lineto
77.06648 81.99649 lineto
77.20921 82.07304 lineto
77.35196 82.1483 lineto
77.49469 82.22227 lineto
77.63742 82.29494 lineto
77.78017 82.365 lineto
77.9229 82.43507 lineto
78.06563 82.50514 lineto
78.20837 82.57262 lineto
78.3511 82.64009 lineto
78.49384 82.70497 lineto
78.63657 82.76855 lineto
78.77931 82.83214 lineto
78.92204 82.89442 lineto
79.06477 82.95541 lineto
79.20752 83.0164 lineto
79.35025 83.07478 lineto
79.49298 83.13318 lineto
79.63573 83.18898 lineto
79.77846 83.24478 lineto
79.92119 83.29927 lineto
80.06393 83.35378 lineto
80.20667 83.40567 lineto
80.3494 83.45758 lineto
80.49214 83.5082 lineto
80.63487 83.55879 lineto
80.7776 83.60681 lineto
80.92035 83.65482 lineto
81.06308 83.70152 lineto
81.20581 83.74695 lineto
81.34856 83.79236 lineto
81.49129 83.83517 lineto
81.63402 83.8793 lineto
81.77676 83.92082 lineto
81.9195 83.96234 lineto
82.06223 84.00258 lineto
82.20497 84.0415 lineto
82.3477 84.08043 lineto
82.49043 84.11806 lineto
82.63318 84.15439 lineto
82.77591 84.18942 lineto
82.91864 84.22446 lineto
83.06139 84.25949 lineto
83.20412 84.29193 lineto
83.34685 84.32437 lineto
83.4896 84.35681 lineto
83.63232 84.38666 lineto
83.77505 84.4178 lineto
83.9178 84.44635 lineto
84.06053 84.4749 lineto
84.20326 84.50215 lineto
84.34601 84.5294 lineto
84.48874 84.55534 lineto
84.63147 84.5813 lineto
84.77422 84.60466 lineto
84.91695 84.62932 lineto
85.05968 84.65266 lineto
85.20242 84.67473 lineto
85.34515 84.6955 lineto
85.48788 84.71625 lineto
85.63063 84.73701 lineto
85.77336 84.75647 lineto
85.91609 84.77464 lineto
86.05884 84.79282 lineto
86.20157 84.80968 lineto
86.3443 84.82655 lineto
86.48705 84.84341 lineto
86.62978 84.85768 lineto
86.7725 84.87326 lineto
86.91525 84.88623 lineto
87.05798 84.90051 lineto
87.20071 84.91219 lineto
87.34346 84.92517 lineto
87.48619 84.93684 lineto
87.62892 84.94722 lineto
87.77167 84.95761 lineto
87.9144 84.96669 lineto
88.05713 84.97577 lineto
88.19987 84.98355 lineto
88.3426 84.99135 lineto
88.48534 84.99913 lineto
88.62808 85.00562 lineto
88.77081 85.0108 lineto
88.91354 85.01599 lineto
89.05627 85.02118 lineto
89.19902 85.02509 lineto
89.34175 85.02898 lineto
89.48448 85.03157 lineto
89.62723 85.03416 lineto
89.76996 85.03676 lineto
89.91269 85.03806 lineto
90.05544 85.03935 lineto
90.19817 85.03935 lineto
90.3409 85.03935 lineto
90.48364 85.03806 lineto
90.62637 85.03676 lineto
90.7691 85.03546 lineto
90.91185 85.03287 lineto
91.05458 85.03027 lineto
91.19731 85.02768 lineto
91.34006 85.02379 lineto
91.48279 85.01988 lineto
91.62552 85.0147 lineto
91.76826 85.0095 lineto
91.911 85.00432 lineto
92.05373 84.99783 lineto
92.19647 84.99135 lineto
92.3392 84.98485 lineto
92.48193 84.97707 lineto
92.62468 84.96928 lineto
92.76741 84.9615 lineto
92.91014 84.95241 lineto
93.05289 84.94333 lineto
93.19562 84.93295 lineto
93.33835 84.92256 lineto
93.4811 84.91219 lineto
93.62383 84.90181 lineto
93.76656 84.89012 lineto
93.9093 84.87845 lineto
94.05203 84.86678 lineto
94.19476 84.85379 lineto
94.33751 84.84082 lineto
94.48024 84.82655 lineto
94.62297 84.81357 lineto
94.76572 84.7993 lineto
94.90845 84.78502 lineto
95.05118 84.76945 lineto
95.19392 84.75388 lineto
95.33665 84.73831 lineto
95.47939 84.72273 lineto
95.62213 84.70587 lineto
95.76486 84.689 lineto
95.9076 84.67213 lineto
96.05034 84.65396 lineto
96.19307 84.6358 lineto
96.3358 84.61763 lineto
96.47855 84.59947 lineto
96.62128 84.58 lineto
96.764 84.56184 lineto
96.90675 84.54237 lineto
97.04948 84.5216 lineto
97.19221 84.50215 lineto
97.33496 84.48138 lineto
97.47769 84.45932 lineto
97.62042 84.43857 lineto
97.76317 84.4178 lineto
97.9059 84.39574 lineto
98.04863 84.37369 lineto
98.19138 84.35033 lineto
98.3341 84.32826 lineto
98.47684 84.30492 lineto
98.61958 84.28156 lineto
98.76231 84.2569 lineto
98.90504 84.23355 lineto
99.04779 84.2089 lineto
99.19052 84.18423 lineto
99.33325 84.15958 lineto
99.47598 84.13493 lineto
99.61873 84.10898 lineto
99.76146 84.08302 lineto
99.90419 84.05707 lineto
100.04694 84.03111 lineto
100.18967 84.00517 lineto
100.3324 83.97792 lineto
100.47514 83.95067 lineto
100.61787 83.92342 lineto
100.7606 83.89616 lineto
100.90335 83.86761 lineto
101.04608 83.84038 lineto
101.18881 83.81183 lineto
101.33156 83.78328 lineto
101.47429 83.75473 lineto
101.61702 83.72488 lineto
101.75977 83.69633 lineto
101.9025 83.66649 lineto
102.04523 83.63664 lineto
102.18797 83.60681 lineto
102.3307 83.57697 lineto
102.47343 83.54582 lineto
102.61618 83.51598 lineto
102.75891 83.48483 lineto
102.90164 83.45369 lineto
103.04439 83.42255 lineto
103.18712 83.3901 lineto
103.32985 83.35896 lineto
103.4726 83.32652 lineto
103.61533 83.29408 lineto
103.75806 83.26164 lineto
103.9008 83.2292 lineto
104.04353 83.19676 lineto
104.18626 83.16302 lineto
104.32901 83.13058 lineto
104.47174 83.09685 lineto
104.61447 83.06311 lineto
104.75722 83.02937 lineto
104.89995 82.99564 lineto
105.04268 82.9619 lineto
105.18542 82.92686 lineto
105.32816 82.89313 lineto
105.47089 82.8581 lineto
105.61363 82.82306 lineto
105.75636 82.78802 lineto
105.8991 82.75299 lineto
106.04184 82.71796 lineto
106.18457 82.68161 lineto
106.3273 82.64658 lineto
106.47005 82.61024 lineto
106.61278 82.57391 lineto
106.75551 82.53758 lineto
106.89825 82.50125 lineto
107.04099 82.46492 lineto
107.18372 82.42859 lineto
107.32646 82.39096 lineto
107.4692 82.35333 lineto
107.61192 82.31699 lineto
107.75467 82.27936 lineto
107.8974 82.24173 lineto
108.04013 82.2041 lineto
108.18288 82.16647 lineto
108.3256 82.12885 lineto
108.46834 82.08992 lineto
108.61108 82.05228 lineto
108.75381 82.01335 lineto
108.89655 81.97572 lineto
109.03929 81.9368 lineto
109.18202 81.89787 lineto
109.32475 81.85895 lineto
109.4675 81.82 lineto
109.61023 81.78108 lineto
109.75296 81.74086 lineto
109.89569 81.70193 lineto
110.03844 81.66171 lineto
110.18117 81.62277 lineto
110.3239 81.58255 lineto
110.46664 81.54233 lineto
110.60938 81.5021 lineto
110.7521 81.46188 lineto
110.89485 81.42165 lineto
111.03758 81.38142 lineto
111.18031 81.3412 lineto
111.32306 81.30098 lineto
111.46579 81.25945 lineto
111.60852 81.21922 lineto
111.75127 81.1777 lineto
111.894 81.13618 lineto
112.03673 81.09595 lineto
112.17947 81.05443 lineto
112.3222 81.01291 lineto
112.46494 80.97139 lineto
112.60768 80.92986 lineto
112.75041 80.88834 lineto
112.89314 80.84552 lineto
113.03589 80.804 lineto
113.17862 80.76247 lineto
113.32135 80.71965 lineto
113.4641 80.67813 lineto
113.60683 80.6353 lineto
113.74956 80.59378 lineto
113.8923 80.55096 lineto
114.03503 80.50815 lineto
114.17776 80.46532 lineto
114.32051 80.4225 lineto
114.46324 80.37968 lineto
114.60597 80.33685 lineto
114.74872 80.29404 lineto
114.89145 80.25122 lineto
115.03418 80.20839 lineto
115.17693 80.16428 lineto
115.31966 80.12146 lineto
115.46239 80.07735 lineto
115.60513 80.03452 lineto
115.74786 79.9904 lineto
115.8906 79.94759 lineto
116.03334 79.90346 lineto
116.17607 79.85934 lineto
116.3188 79.81653 lineto
116.46155 79.7724 lineto
116.60428 79.72829 lineto
116.74701 79.68417 lineto
116.88976 79.64005 lineto
117.03249 79.59593 lineto
117.17522 79.55182 lineto
117.31796 79.50769 lineto
117.4607 79.46228 lineto
117.60342 79.41817 lineto
117.74617 79.37404 lineto
117.8889 79.32993 lineto
118.03163 79.2845 lineto
118.17438 79.24039 lineto
118.31711 79.19498 lineto
118.45984 79.15085 lineto
118.60258 79.10544 lineto
118.74532 79.06133 lineto
118.88805 79.0159 lineto
119.03079 78.97049 lineto
119.17352 78.92508 lineto
119.31625 78.88095 lineto
119.459 78.83554 lineto
119.60173 78.79012 lineto
119.74446 78.7447 lineto
119.8872 78.6993 lineto
120.02994 78.65387 lineto
120.17267 78.60846 lineto
120.3154 78.56305 lineto
120.45815 78.51762 lineto
120.60088 78.47221 lineto
120.7436 78.42679 lineto
120.88635 78.38138 lineto
121.02908 78.33467 lineto
121.17181 78.28925 lineto
121.31456 78.24384 lineto
121.45729 78.19843 lineto
121.60002 78.1517 lineto
121.74277 78.1063 lineto
121.8855 78.05957 lineto
122.02823 78.01416 lineto
122.17097 77.96875 lineto
122.3137 77.92203 lineto
122.45644 77.87662 lineto
122.59918 77.8299 lineto
122.74191 77.78448 lineto
122.88464 77.73778 lineto
123.02739 77.69106 lineto
123.17012 77.64565 lineto
123.31285 77.59892 lineto
123.4556 77.55351 lineto
123.59833 77.5068 lineto
123.74106 77.46008 lineto
123.8838 77.41338 lineto
124.02654 77.36665 lineto
124.16927 77.32124 lineto
124.31201 77.27454 lineto
124.45474 77.22781 lineto
124.59747 77.1811 lineto
124.74022 77.13438 lineto
124.88295 77.08768 lineto
125.02568 77.04225 lineto
125.16843 76.99554 lineto
125.31116 76.94884 lineto
125.45389 76.90211 lineto
125.59663 76.85541 lineto
125.73936 76.80869 lineto
125.8821 76.76198 lineto
126.02484 76.71527 lineto
126.16757 76.66855 lineto
126.3103 76.62184 lineto
126.45305 76.57512 lineto
126.59578 76.52841 lineto
126.73851 76.48169 lineto
126.88126 76.43369 lineto
127.02399 76.38698 lineto
127.16672 76.34026 lineto
127.30946 76.29355 lineto
127.4522 76.24683 lineto
127.59492 76.20012 lineto
127.73767 76.15341 lineto
127.8804 76.10669 lineto
128.02313 76.05869 lineto
128.16588 76.01196 lineto
128.30861 75.96526 lineto
128.45134 75.91853 lineto
128.59409 75.87183 lineto
128.73682 75.82382 lineto
128.87955 75.7771 lineto
129.0223 75.7304 lineto
129.16502 75.68367 lineto
129.30775 75.63567 lineto
129.4505 75.58894 lineto
129.59323 75.54224 lineto
129.73596 75.49553 lineto
129.87871 75.44751 lineto
130.02144 75.4008 lineto
130.16417 75.35408 lineto
130.30692 75.30737 lineto
130.44965 75.25935 lineto
130.59238 75.21265 lineto
130.7351 75.16594 lineto
130.87785 75.11922 lineto
131.02058 75.07121 lineto
131.16331 75.02449 lineto
131.30606 74.97778 lineto
131.44879 74.92976 lineto
131.59152 74.88306 lineto
131.73427 74.83635 lineto
131.877 74.78833 lineto
132.01973 74.74162 lineto
132.16248 74.6949 lineto
132.3052 74.6482 lineto
132.44794 74.60017 lineto
132.59068 74.55347 lineto
132.73341 74.50676 lineto
132.87614 74.46004 lineto
133.01889 74.41203 lineto
133.16162 74.36531 lineto
133.30435 74.3186 lineto
133.4471 74.27058 lineto
133.58983 74.22388 lineto
133.73256 74.17717 lineto
133.8753 74.13045 lineto
134.01804 74.08244 lineto
134.16077 74.03572 lineto
134.30351 73.98901 lineto
134.44624 73.94229 lineto
134.58897 73.89558 lineto
134.73172 73.84758 lineto
134.87445 73.80086 lineto
135.01718 73.75415 lineto
135.15993 73.70743 lineto
135.30266 73.65942 lineto
135.44539 73.6127 lineto
135.58813 73.566 lineto
135.73087 73.51929 lineto
135.8736 73.47256 lineto
136.01634 73.42586 lineto
136.15907 73.37784 lineto
136.3018 73.33113 lineto
136.44455 73.28442 lineto
136.58728 73.2377 lineto
136.73001 73.191 lineto
136.87276 73.14427 lineto
137.01549 73.09756 lineto
137.15822 73.05084 lineto
137.30096 73.00414 lineto
137.4437 72.95743 lineto
137.58643 72.90941 lineto
137.72917 72.8627 lineto
137.8719 72.81598 lineto
138.01463 72.76927 lineto
138.15738 72.72255 lineto
138.30011 72.67584 lineto
138.44284 72.62914 lineto
138.58559 72.58241 lineto
138.72832 72.537 lineto
138.87105 72.48898 lineto
139.0138 72.44357 lineto
139.15652 72.39687 lineto
139.29926 72.35014 lineto
139.442 72.30344 lineto
139.58473 72.25671 lineto
139.72746 72.21 lineto
139.87021 72.1633 lineto
140.01294 72.11658 lineto
140.15567 72.06987 lineto
140.29842 72.02444 lineto
140.44115 71.97774 lineto
140.58388 71.93102 lineto
140.72662 71.88431 lineto
140.86935 71.8376 lineto
141.01208 71.79218 lineto
141.15482 71.74547 lineto
141.29756 71.69875 lineto
141.44029 71.65334 lineto
141.58302 71.60663 lineto
141.72577 71.5599 lineto stroke
 0 0 0 setrgbcolor 0 0.5 dtransform truncate idtransform setlinewidth pop
newpath -155.90634 0 moveto
155.90634 0 lineto stroke
newpath 152.2096 -1.53128 moveto
155.90634 0 lineto
152.2096 1.53128 lineto
 closepath
gsave fill grestore stroke
 0.5 0 dtransform exch truncate exch idtransform pop setlinewidth
newpath 0 -93.54381 moveto
0 93.54381 lineto stroke
 0 0.5 dtransform truncate idtransform setlinewidth pop
newpath 1.53056 89.84879 moveto
0 93.54381 lineto
-1.53056 89.84879 lineto
 closepath
gsave fill grestore stroke
showpage
%%EOF
