%!PS
%%BoundingBox: -29 -22 256 150 
%%HiResBoundingBox: -28.59645 -21.50984 255.36806 149.0689 
%%Creator: MetaPost 2.02
%%CreationDate: 2023.03.26:1733
%%Pages: 1
%*Font: cmr10 9.96265 9.96265 30:f8
%*Font: cmmi10 6.97382 9.96265 78:c
%*Font: cmsy10 6.97382 9.96265 70:8
%*Font: cmr10 6.97382 9.96265 30:8004
%%BeginProlog
%%EndProlog
%%Page: 1 1
 1 0 0 setrgbcolor 0 1.5 dtransform truncate idtransform setlinewidth pop
 [] 0 setdash 1 setlinecap 1 setlinejoin 10 setmiterlimit
newpath 0 0 moveto
0.00836 1.43524 0.19875 2.86362 0.56662 4.25093 curveto
0.72476 4.8473 0.91536 5.43454 1.13324 6.01176 curveto
1.30573 6.46873 1.49518 6.91908 1.69986 7.36256 curveto
1.87764 7.74774 2.06682 8.12755 2.26646 8.50186 curveto
2.4472 8.84073 2.63646 9.17499 2.83308 9.5049 curveto
3.0157 9.81131 3.20465 10.1139 3.3997 10.41257 curveto
3.58345 10.69392 3.7726 10.97171 3.96632 11.24628 curveto
4.15108 11.50812 4.34001 11.76701 4.53294 12.02289 curveto
4.71829 12.26869 4.90733 12.51169 5.09956 12.75214 curveto
5.28546 12.98466 5.47433 13.21481 5.66618 13.44246 curveto
5.85237 13.6634 6.04135 13.88199 6.23279 14.0984 curveto
6.41939 14.30936 6.60832 14.51823 6.79941 14.72514 curveto
6.98628 14.92749 7.1752 15.12794 7.36603 15.32657 curveto
7.93265 15.9053 lineto
8.49927 16.46327 lineto
9.06589 17.00307 lineto
9.63249 17.52666 lineto
10.19911 18.03467 lineto
10.76573 18.52905 lineto
11.33235 19.01045 lineto
11.89897 19.47954 lineto
12.46559 19.93823 lineto
13.03221 20.38591 lineto
13.59882 20.8245 lineto
14.16544 21.254 lineto
14.73206 21.67508 lineto
15.29868 22.0877 lineto
15.8653 22.49321 lineto
16.43192 22.89157 lineto
16.99854 23.28279 lineto
17.56514 23.66754 lineto
18.13176 24.04643 lineto
18.69838 24.41884 lineto
19.265 24.78606 lineto
19.83162 25.14809 lineto
20.39824 25.50493 lineto
20.96484 25.85658 lineto
21.53146 26.20369 lineto
22.09808 26.54625 lineto
22.6647 26.88428 lineto
23.23132 27.21841 lineto
23.79794 27.54865 lineto
24.36456 27.87434 lineto
24.93117 28.1968 lineto
25.49779 28.51537 lineto
26.0644 28.83003 lineto
26.63103 29.1421 lineto
27.19765 29.45027 lineto
27.76427 29.75586 lineto
28.33089 30.05756 lineto
28.89749 30.35664 lineto
29.46411 30.65315 lineto
30.03073 30.94641 lineto
30.59735 31.23708 lineto
31.16397 31.52449 lineto
31.73059 31.80997 lineto
32.2972 32.09283 lineto
32.86382 32.37312 lineto
33.43044 32.6508 lineto
33.99706 32.92654 lineto
34.56367 33.19969 lineto
35.1303 33.47089 lineto
35.69691 33.73949 lineto
36.26352 34.00615 lineto
36.83014 34.27086 lineto
37.39676 34.53362 lineto
37.96338 34.79443 lineto
38.53 35.0533 lineto
39.09662 35.30959 lineto
39.66324 35.56456 lineto
40.22984 35.8176 lineto
40.79646 36.06932 lineto
41.36308 36.3191 lineto
41.9297 36.56696 lineto
42.49632 36.81285 lineto
43.06294 37.05745 lineto
43.62955 37.30075 lineto
44.19617 37.5421 lineto
44.76279 37.78215 lineto
45.3294 38.02026 lineto
45.89603 38.25708 lineto
46.46265 38.49258 lineto
47.02927 38.7268 lineto
47.59587 38.95908 lineto
48.16249 39.1907 lineto
48.72911 39.42036 lineto
49.29573 39.64874 lineto
49.86235 39.87582 lineto
50.42897 40.10226 lineto
50.99559 40.32674 lineto
51.5622 40.54993 lineto
52.12881 40.77246 lineto
52.69543 40.99306 lineto
53.26205 41.213 lineto
53.82867 41.43164 lineto
54.3953 41.649 lineto
54.96191 41.86569 lineto
55.52852 42.0811 lineto
56.09514 42.2952 lineto
56.66176 42.50801 lineto
57.22838 42.72017 lineto
57.795 42.93102 lineto
58.36162 43.14124 lineto
58.92822 43.35014 lineto
59.49484 43.55775 lineto
60.06146 43.76472 lineto
60.62808 43.9704 lineto
61.1947 44.17542 lineto
61.76132 44.37979 lineto
62.32794 44.58287 lineto
62.89455 44.78464 lineto
63.46117 44.98642 lineto
64.02779 45.18689 lineto
64.5944 45.38608 lineto
65.16103 45.58461 lineto
65.72765 45.78249 lineto
66.29427 45.97972 lineto
66.86087 46.17566 lineto
67.42749 46.37096 lineto
67.99411 46.56494 lineto
68.56073 46.75894 lineto
69.12735 46.95163 lineto
69.69397 47.14368 lineto
70.26057 47.33507 lineto
70.8272 47.52516 lineto
71.39381 47.71527 lineto
71.96043 47.90407 lineto
72.52705 48.09222 lineto
73.09367 48.27972 lineto
73.6603 48.46657 lineto
74.2269 48.65279 lineto
74.79352 48.83769 lineto
75.36014 49.0226 lineto
75.92676 49.20685 lineto
76.49338 49.38982 lineto
77.06 49.57213 lineto
77.62662 49.75444 lineto
78.19322 49.93546 lineto
78.75984 50.11647 lineto
79.32646 50.29619 lineto
79.89308 50.47525 lineto
80.4597 50.65433 lineto
81.02632 50.83209 lineto
81.59293 51.00987 lineto
82.15955 51.18634 lineto
82.72617 51.36281 lineto
83.29279 51.538 lineto
83.8594 51.71317 lineto
84.42603 51.8877 lineto
84.99265 52.06157 lineto
85.55925 52.2348 lineto
86.12587 52.40738 lineto
86.69249 52.57932 lineto
87.25911 52.75124 lineto
87.82573 52.92188 lineto
88.39235 53.09251 lineto
88.95897 53.2625 lineto
89.52557 53.43184 lineto
90.0922 53.60052 lineto
90.65881 53.76855 lineto
91.22543 53.9366 lineto
91.79205 54.10399 lineto
92.35867 54.27074 lineto
92.92528 54.43683 lineto
93.4919 54.60226 lineto
94.05852 54.76772 lineto
94.62514 54.93251 lineto
95.19176 55.09665 lineto
95.75838 55.26015 lineto
96.325 55.42365 lineto
96.8916 55.58649 lineto
97.45822 55.74869 lineto
98.02484 55.91025 lineto
98.59146 56.0718 lineto
99.15808 56.2327 lineto
99.7247 56.39294 lineto
100.29132 56.5532 lineto
100.85793 56.71281 lineto
101.42455 56.87177 lineto
101.99117 57.03072 lineto
102.55779 57.18839 lineto
103.1244 57.34668 lineto
103.69102 57.5037 lineto
104.25764 57.6607 lineto
104.82425 57.81706 lineto
105.39087 57.97342 lineto
105.95749 58.12914 lineto
106.52411 58.2842 lineto
107.09073 58.43861 lineto
107.65735 58.59303 lineto
108.22395 58.74744 lineto
108.79057 58.90056 lineto
109.3572 59.05432 lineto
109.92381 59.20679 lineto
110.49043 59.35925 lineto
111.05705 59.51108 lineto
111.62367 59.6629 lineto
112.19028 59.81407 lineto
112.7569 59.96524 lineto
113.32352 60.11511 lineto
113.89014 60.26563 lineto
114.45676 60.4155 lineto
115.02338 60.56473 lineto
115.59 60.7133 lineto
116.1566 60.86188 lineto
116.72322 61.01045 lineto
117.28984 61.15837 lineto
117.85646 61.30565 lineto
118.42308 61.45293 lineto
118.9897 61.6002 lineto
119.5563 61.74619 lineto
120.12292 61.89282 lineto
120.68954 62.03815 lineto
121.25616 62.18413 lineto
121.82278 62.32881 lineto
122.3894 62.4735 lineto
122.95602 62.61818 lineto
123.52263 62.7622 lineto
124.08925 62.90625 lineto
124.65587 63.04962 lineto
125.22249 63.19301 lineto
125.78911 63.33575 lineto
126.35573 63.47783 lineto
126.92235 63.61992 lineto
127.48895 63.76201 lineto
128.05557 63.90344 lineto
128.6222 64.04489 lineto
129.18881 64.18567 lineto
129.75543 64.32646 lineto
130.32205 64.4666 lineto
130.88866 64.60675 lineto
131.45528 64.74623 lineto
132.0219 64.88573 lineto
132.58852 65.02457 lineto
133.15514 65.1634 lineto
133.72176 65.30226 lineto
134.28838 65.44044 lineto
134.85498 65.578 lineto
135.4216 65.71555 lineto
135.98822 65.85309 lineto
136.55484 65.98999 lineto
137.12146 66.12688 lineto
137.68808 66.26312 lineto
138.2547 66.39937 lineto
138.8213 66.53563 lineto
139.38792 66.67122 lineto
139.95454 66.80682 lineto
140.52116 66.94177 lineto
141.08778 67.07672 lineto
141.6544 67.21103 lineto
142.22101 67.34532 lineto
142.78763 67.47963 lineto
143.35425 67.61328 lineto
143.92087 67.74693 lineto
144.48749 67.87993 lineto
145.05411 68.01294 lineto
145.62073 68.1453 lineto
146.18733 68.27765 lineto
146.75395 68.41 lineto
147.32057 68.54236 lineto
147.88719 68.67406 lineto
148.45381 68.80511 lineto
149.02043 68.93617 lineto
149.58705 69.06723 lineto
150.15366 69.19829 lineto
150.72028 69.3287 lineto
151.2869 69.45847 lineto
151.85352 69.58887 lineto
152.42014 69.71863 lineto
152.98676 69.84775 lineto
153.55338 69.97685 lineto
154.11998 70.10596 lineto
154.6866 70.23442 lineto
155.25322 70.36354 lineto
155.81984 70.49135 lineto
156.38646 70.61981 lineto
156.95308 70.74762 lineto
157.51968 70.87479 lineto
158.0863 71.00261 lineto
158.65292 71.12976 lineto
159.21954 71.25629 lineto
159.78616 71.3828 lineto
160.35278 71.50932 lineto
160.9194 71.63583 lineto
161.48601 71.7617 lineto
162.05263 71.88756 lineto
162.61925 72.01343 lineto
163.18587 72.13866 lineto
163.75249 72.26387 lineto
164.3191 72.38844 lineto
164.88573 72.513 lineto
165.45233 72.63757 lineto
166.01895 72.76215 lineto
166.58557 72.88606 lineto
167.15219 73.01 lineto
167.71881 73.13326 lineto
168.28543 73.25719 lineto
168.85204 73.38045 lineto
169.41866 73.50308 lineto
169.98528 73.62634 lineto
170.5519 73.74832 lineto
171.11852 73.87094 lineto
171.68513 73.99292 lineto
172.25175 74.11554 lineto
172.81836 74.23686 lineto
173.38498 74.35884 lineto
173.9516 74.48016 lineto
174.51822 74.60149 lineto
175.08484 74.72217 lineto
175.65146 74.84285 lineto
176.21808 74.96352 lineto
176.78468 75.0842 lineto
177.3513 75.20422 lineto
177.91792 75.32425 lineto
178.48454 75.44427 lineto
179.05116 75.56366 lineto
179.61778 75.68304 lineto
180.18439 75.80241 lineto
180.751 75.9218 lineto
181.31763 76.04053 lineto
181.88425 76.15926 lineto
182.45087 76.27798 lineto
183.01749 76.39607 lineto
183.5841 76.51414 lineto
184.15071 76.63223 lineto
184.71733 76.75032 lineto
185.28395 76.86775 lineto
185.85057 76.98518 lineto
186.41719 77.10262 lineto
186.98381 77.21939 lineto
187.55043 77.33682 lineto
188.11703 77.45296 lineto
188.68365 77.56975 lineto
189.25027 77.68652 lineto
189.8169 77.80266 lineto
190.38351 77.91815 lineto
190.95013 78.03429 lineto
191.51674 78.14977 lineto
192.08336 78.26526 lineto
192.64998 78.38074 lineto
193.2166 78.49623 lineto
193.78322 78.61107 lineto
194.34984 78.7259 lineto
194.91646 78.84074 lineto
195.48306 78.95493 lineto
196.04968 79.06976 lineto
196.6163 79.18396 lineto
197.18292 79.2975 lineto
197.74954 79.41168 lineto
198.31616 79.52522 lineto
198.88278 79.63876 lineto
199.44939 79.7523 lineto
200.016 79.8652 lineto
200.58263 79.97809 lineto
201.14925 80.09097 lineto
201.71587 80.20387 lineto
202.28249 80.31676 lineto
202.84909 80.429 lineto
203.41571 80.54124 lineto
203.98233 80.65349 lineto
204.54895 80.76508 lineto
205.11557 80.87668 lineto
205.68219 80.98892 lineto
206.24881 81.09985 lineto
206.81541 81.21146 lineto
207.38203 81.3224 lineto
207.94865 81.43335 lineto
208.51527 81.54428 lineto
209.0819 81.65523 lineto
209.64851 81.76553 lineto
210.21513 81.87648 lineto
210.78174 81.98677 lineto
211.34836 82.09642 lineto
211.91498 82.20671 lineto
212.4816 82.31636 lineto
213.04822 82.42601 lineto
213.61484 82.53566 lineto
214.18146 82.6453 lineto
214.74806 82.7543 lineto
215.31468 82.8633 lineto
215.8813 82.97229 lineto
216.44792 83.0813 lineto
217.01454 83.18964 lineto
217.58116 83.29865 lineto
218.14777 83.40698 lineto
218.71439 83.5147 lineto
219.281 83.62305 lineto
219.84763 83.73074 lineto
220.41425 83.8391 lineto
220.98087 83.9468 lineto
221.54749 84.05385 lineto
222.11409 84.16154 lineto
222.68071 84.2686 lineto
223.24733 84.3763 lineto
223.81395 84.4827 lineto
224.38057 84.58975 lineto
224.94719 84.69681 lineto
225.51381 84.8032 lineto
226.08041 84.9096 lineto
226.64703 85.016 lineto stroke
 0 0 1 setrgbcolor 1.5 0 dtransform exch truncate exch idtransform pop setlinewidth
newpath 0 0 moveto
0 42.51968 lineto stroke
 0 0 0 setrgbcolor 0.5 0 dtransform exch truncate exch idtransform pop setlinewidth
newpath 56.6929 -3.40166 moveto
56.6929 3.40166 lineto stroke
54.20226 -13.67262 moveto
(1) cmr10 9.96265 fshow
newpath 113.3858 -3.40166 moveto
113.3858 3.40166 lineto stroke
110.89516 -13.67262 moveto
(2) cmr10 9.96265 fshow
newpath 170.0787 -3.40166 moveto
170.0787 3.40166 lineto stroke
167.58806 -13.67262 moveto
(3) cmr10 9.96265 fshow
newpath 226.7716 -3.40166 moveto
226.7716 3.40166 lineto stroke
224.28096 -13.67262 moveto
(4) cmr10 9.96265 fshow
 0 0.5 dtransform truncate idtransform setlinewidth pop
newpath -2.83482 42.51968 moveto
2.83482 42.51968 lineto stroke
-10.81612 39.30948 moveto
(1) cmr10 9.96265 fshow
newpath -2.83482 85.03937 moveto
2.83482 85.03937 lineto stroke
-10.81612 81.82916 moveto
(2) cmr10 9.96265 fshow
newpath -2.83482 127.55905 moveto
2.83482 127.55905 lineto stroke
-10.81612 124.34885 moveto
(3) cmr10 9.96265 fshow
-7.08128 -14.04816 moveto
(0) cmr10 9.96265 fshow
newpath -28.34645 0 moveto
255.11806 0 lineto stroke
newpath 251.42169 -1.53113 moveto
255.11806 0 lineto
251.42169 1.53113 lineto
 closepath
gsave fill grestore stroke
 0.5 0 dtransform exch truncate exch idtransform pop setlinewidth
newpath 0 -21.25984 moveto
0 148.8189 lineto stroke
 0 0.5 dtransform truncate idtransform setlinewidth pop
newpath 1.53046 145.12413 moveto
0 148.8189 lineto
-1.53046 145.12413 lineto
 closepath
gsave fill grestore stroke
 0 0 1 setrgbcolor
-19.77101 19.01271 moveto
(x) cmmi10 6.97382 fshow
-13.84813 19.01271 moveto
(=) cmr10 6.97382 fshow
-6.48697 19.01271 moveto
(0) cmr10 6.97382 fshow
 1 0 0 setrgbcolor
158.69623 61.82497 moveto
(y) cmmi10 6.97382 fshow
164.3027 61.82497 moveto
(=) cmr10 6.97382 fshow
171.66388 66.848 moveto
(p) cmsy10 6.97382 fshow
 0 0.27895 dtransform truncate idtransform setlinewidth pop 0 setlinecap
newpath 177.47546 66.98752 moveto
181.46118 66.98752 lineto stroke
177.47546 61.82497 moveto
(x) cmmi10 6.97382 fshow
showpage
%%EOF
