%!PS
%%BoundingBox: -62 -79 144 157 
%%HiResBoundingBox: -61.14842 -78.70274 143.4757 156.15549 
%%Creator: MetaPost 2.02
%%CreationDate: 2023.03.26:1733
%%Pages: 1
%*Font: cmsy10 6.97382 9.96265 00:8
%*Font: cmr10 6.97382 9.96265 30:fc
%*Font: cmmi10 6.97382 9.96265 4d:8
%*Font: cmr7 4.88167 6.97385 30:8
%%BeginProlog
%%EndProlog
%%Page: 1 1
 1 0 0 setrgbcolor 0 1.5 dtransform truncate idtransform setlinewidth pop
 [] 0 setdash 1 setlinecap 1 setlinejoin 10 setmiterlimit
newpath -56.6929 -77.95274 moveto
-55.78587 -74.12872 -54.84079 -70.31378 -53.85808 -66.50836 curveto
-52.94803 -62.98495 -52.00598 -59.4702 -51.02327 -55.96667 curveto
-50.11539 -52.73047 -49.1729 -49.50464 -48.18845 -46.29092 curveto
-47.28186 -43.33154 -46.33937 -40.38297 -45.35362 -37.4491 curveto
-44.44833 -34.75485 -43.50584 -32.07272 -42.51881 -29.40746 curveto
-41.61482 -26.96623 -40.67276 -24.53886 -39.68399 -22.13052 curveto
-38.78087 -19.93109 -37.83925 -17.74768 -36.84918 -15.58545 curveto
-35.94734 -13.61526 -35.00572 -11.66367 -34.01436 -9.73717 curveto
-33.11339 -7.98541 -32.17134 -6.25485 -31.17953 -4.55284 curveto
-30.279 -3.0074 -29.33694 -1.48575 -28.34473 0.0026 curveto
-27.44376 1.35382 -26.50214 2.67694 -25.5099 3.96243 curveto
-24.6085 5.1307 -23.66602 6.2674 -22.67508 7.36127 curveto
-21.77153 8.35826 -20.8286 9.31935 -19.84027 10.23242 curveto
-18.93369 11.06981 -17.9899 11.8661 -17.00545 12.61005 curveto
-16.09453 13.29865 -15.14989 13.94182 -14.17062 14.5292 curveto
-13.25409 15.07895 -12.30815 15.57939 -11.33582 16.02274 curveto
-10.41278 16.44359 -9.4664 16.81255 -8.50099 17.12526 curveto
-7.57062 17.4263 -6.62424 17.675 -5.66618 17.87009 curveto
-4.72931 18.06126 -3.78293 18.20097 -2.83136 18.29224 curveto
-1.8893 18.38263 -0.94292 18.42545 0.00346 18.42545 curveto
0.94984 18.42545 1.89536 18.3822 2.83827 18.30304 curveto
3.78726 18.22302 4.73235 18.10667 5.6731 17.95961 curveto
6.62294 17.81125 7.56802 17.63219 8.50792 17.42934 curveto
9.45819 17.2243 10.40283 16.99463 11.34273 16.74637 curveto
12.29214 16.4955 13.23679 16.22603 14.17755 15.94359 curveto
15.1261 15.65898 16.07031 15.36139 17.01237 15.05603 curveto
17.95918 14.74936 18.90384 14.4349 19.84718 14.11786 curveto
20.79227 13.80038 21.73692 13.4803 22.682 13.1624 curveto
23.62535 12.84535 24.57 12.53047 25.51683 12.2238 curveto
26.45888 11.91887 27.40309 11.62128 28.35164 11.33711 curveto
29.2924 11.0551 30.23705 10.78563 31.18646 10.53476 curveto
32.12636 10.28648 33.071 10.05681 34.02127 9.85179 curveto
34.96117 9.64894 35.90625 9.46986 36.8561 9.32195 curveto
37.79686 9.17531 38.74194 9.05896 39.69092 8.97937 curveto
40.63383 8.90022 41.57935 8.85783 42.52573 8.85783 curveto
43.47255 8.85783 44.41849 8.9011 45.36055 8.99149 curveto
46.31212 9.08318 47.2585 9.22289 48.19537 9.4145 curveto
49.15343 9.61 50.09981 9.85915 51.03018 10.16106 curveto
51.9956 10.47421 52.94199 10.84315 53.865 11.26445 curveto
54.83777 11.70822 55.78328 12.20909 56.69983 12.75928 curveto
57.67908 13.34709 58.62373 13.99069 59.53464 14.67972 curveto
60.51909 15.42455 61.46288 16.22127 62.36946 17.05908 curveto
63.35779 17.9726 64.30072 18.93411 65.20427 19.93196 curveto
66.1952 21.02628 67.1377 22.16383 68.0391 23.33253 curveto
69.0309 24.61845 69.97337 25.942 70.87392 27.29367 curveto
71.86658 28.78288 72.8082 30.30496 73.70872 31.85126 curveto
74.70053 33.55414 75.64215 35.28557 76.54355 37.03777 curveto
77.53448 38.96512 78.47653 40.91714 79.37837 42.88776 curveto
80.36844 45.05043 81.31006 47.23515 82.21318 49.43544 curveto
83.20195 51.84465 84.14401 54.27245 85.048 56.71452 curveto
86.03505 59.38109 86.97752 62.06366 87.88283 64.7592 curveto
88.86856 67.69394 89.81105 70.64294 90.71764 73.6032 curveto
91.70209 76.81734 92.64458 80.04446 93.55246 83.28111 curveto
94.5356 86.78592 95.47809 90.30197 96.38727 93.82668 curveto
97.36913 97.63297 98.31204 101.4492 99.22209 105.27322 curveto
100.20265 109.39267 101.1447 113.52075 102.05692 117.65576 curveto
103.03703 122.09917 103.98167 126.55037 104.89172 131.00847 curveto stroke
 0 0 0 setrgbcolor 0 1.3 dtransform truncate idtransform setlinewidth pop
newpath 14.17323 -12.75668 moveto
17.00804 -11.05597 lineto
19.84286 -9.35481 lineto
22.67767 -7.6541 lineto
25.5125 -5.95294 lineto
28.34732 -4.25223 lineto
31.18213 -2.55107 lineto
34.01695 -0.85036 lineto
36.85178 0.85078 lineto
39.68658 2.55151 lineto
42.52141 4.25223 lineto
45.35623 5.95338 lineto
48.19104 7.6541 lineto
51.02586 9.35524 lineto
53.86067 11.05597 lineto
56.6955 12.75711 lineto
59.53032 14.45782 lineto
62.36513 16.15855 lineto
65.19995 17.8597 lineto
68.03477 19.56042 lineto
70.86958 21.26157 lineto
73.7044 22.96228 lineto
76.53923 24.66344 lineto
79.37404 26.36415 lineto
82.20886 28.0653 lineto
85.04367 29.76602 lineto
87.8785 31.46674 lineto
90.71332 33.1679 lineto
93.54813 34.8686 lineto
96.38295 36.56976 lineto stroke
 0.5 0 dtransform exch truncate exch idtransform pop setlinewidth
newpath -56.6929 -2.83482 moveto
-56.6929 2.83482 lineto stroke
-61.14842 -10.32909 moveto
(\000) cmsy10 6.97382 fshow
-55.72435 -10.32909 moveto
(2) cmr10 6.97382 fshow
newpath -28.34645 -2.83482 moveto
-28.34645 2.83482 lineto stroke
-32.80197 -10.32909 moveto
(\000) cmsy10 6.97382 fshow
-27.3779 -10.32909 moveto
(1) cmr10 6.97382 fshow
newpath 0 -2.83482 moveto
0 2.83482 lineto stroke
-1.74345 -10.32909 moveto
(0) cmr10 6.97382 fshow
newpath 28.34645 -2.83482 moveto
28.34645 2.83482 lineto stroke
26.603 -10.32909 moveto
(1) cmr10 6.97382 fshow
newpath 56.6929 -2.83482 moveto
56.6929 2.83482 lineto stroke
54.94945 -10.32909 moveto
(2) cmr10 6.97382 fshow
newpath 85.03935 -2.83482 moveto
85.03935 2.83482 lineto stroke
83.2959 -10.32909 moveto
(3) cmr10 6.97382 fshow
newpath 113.3858 -2.83482 moveto
113.3858 2.83482 lineto stroke
111.64235 -10.32909 moveto
(4) cmr10 6.97382 fshow
newpath 141.73225 -2.83482 moveto
141.73225 2.83482 lineto stroke
139.9888 -10.32909 moveto
(5) cmr10 6.97382 fshow
 0 0.5 dtransform truncate idtransform setlinewidth pop
newpath -2.83482 -28.34645 moveto
2.83482 -28.34645 lineto stroke
-14.74585 -30.30302 moveto
(\000) cmsy10 6.97382 fshow
-9.32178 -30.30302 moveto
(1) cmr10 6.97382 fshow
newpath -2.83482 0 moveto
2.83482 0 lineto stroke
-9.32172 -2.24713 moveto
(0) cmr10 6.97382 fshow
newpath -2.83482 28.34645 moveto
2.83482 28.34645 lineto stroke
-9.32172 26.09932 moveto
(1) cmr10 6.97382 fshow
newpath -2.83482 56.6929 moveto
2.83482 56.6929 lineto stroke
-9.32172 54.44577 moveto
(2) cmr10 6.97382 fshow
newpath -2.83482 85.03935 moveto
2.83482 85.03935 lineto stroke
-9.32172 82.79222 moveto
(3) cmr10 6.97382 fshow
newpath -2.83482 113.3858 moveto
2.83482 113.3858 lineto stroke
-9.32172 111.13867 moveto
(4) cmr10 6.97382 fshow
newpath -2.83482 141.73225 moveto
2.83482 141.73225 lineto stroke
-9.32172 139.48512 moveto
(5) cmr10 6.97382 fshow
2.09999 -6.59425 moveto
(0) cmr10 6.97382 fshow
58.7929 5.88995 moveto
(M) cmmi10 6.97382 fshow
65.5585 4.84387 moveto
(0) cmr7 4.88167 fshow
 0 3 dtransform truncate idtransform setlinewidth pop
newpath 56.6929 12.75539 moveto 0 0 rlineto stroke
 0 0.5 dtransform truncate idtransform setlinewidth pop
newpath -56.6929 0 moveto
141.73225 0 lineto stroke
newpath 138.03711 -1.53061 moveto
141.73225 0 lineto
138.03711 1.53061 lineto
 closepath
gsave fill grestore stroke
 0.5 0 dtransform exch truncate exch idtransform pop setlinewidth
newpath 0 -56.6929 moveto
0 155.90549 lineto stroke
 0 0.5 dtransform truncate idtransform setlinewidth pop
newpath 1.5307 152.21013 moveto
0 155.90549 lineto
-1.5307 152.21013 lineto
 closepath
gsave fill grestore stroke
showpage
%%EOF
