%!PS-Adobe-3.0 EPSF-3.0
%%Creator: EpsGraphics 1.0.0 by Thomas Abeel, http://www.sourceforge.net/epsgraphics/
%%Title: GeoGebra, http://www.geogebra.org/
%%CreationDate: Thu Aug 21 14:23:40 CEST 2014
%%BoundingBox: 0 0 356 108
%%DocumentData: Clean7Bit
%%LanguageLevel: 2
%%DocumentProcessColors: Black
%%ColorUsage: Color
%%Origin: 0 0
%%Pages: 1
%%Page: 1 1
%%EndComments

gsave
0.0 108.0 translate
0.0 0.0 0.0 setrgbcolor
0.0 0.0 0.0 setrgbcolor
gsave
newpath
0.0 -0.0 moveto
356.27002556648563 -0.0 lineto
356.27002556648563 -108.41413687832605 lineto
0.0 -108.41413687832605 lineto
0.0 -0.0 lineto
closepath
clip
newpath
1.0 1.0 1.0 setrgbcolor
newpath
0.0 -0.0 moveto
356.27002556648563 -0.0 lineto
356.27002556648563 -108.41413687832605 lineto
0.0 -108.41413687832605 lineto
0.0 -0.0 lineto
closepath
fill
newpath
0.0 0.0 0.0 setrgbcolor
1.0 setlinewidth
10.0 setmiterlimit
0 setlinejoin
0 setlinecap
[ ] 0 setdash
newpath
16.46998083497476 -0.7300615278001754 moveto
16.46998083497476 -108.41413687832605 lineto
stroke
newpath
1.0 setlinewidth
10.0 setmiterlimit
0 setlinejoin
0 setlinecap
[ ] 0 setdash
newpath
16.652496216924803 -0.3650307639000877 moveto
15.374888543274496 -1.4601230556003508 lineto
stroke
newpath
1.0 setlinewidth
10.0 setmiterlimit
0 setlinejoin
0 setlinecap
[ ] 0 setdash
newpath
16.287465453024716 -0.3650307639000877 moveto
17.565073126675024 -1.4601230556003508 lineto
stroke
newpath
1.0 setlinewidth
10.0 setmiterlimit
0 setlinejoin
0 setlinecap
[ ] 0 setdash
newpath
0.0 -98.18928538170807 moveto
355.5399640386854 -98.18928538170807 lineto
stroke
newpath
1.0 setlinewidth
10.0 setmiterlimit
0 setlinejoin
0 setlinecap
[ ] 0 setdash
newpath
355.9049948025855 -98.37180076365813 moveto
354.80990251088525 -97.09419309000782 lineto
stroke
newpath
1.0 setlinewidth
10.0 setmiterlimit
0 setlinejoin
0 setlinecap
[ ] 0 setdash
newpath
355.9049948025855 -98.00676999975803 moveto
354.80990251088525 -99.28437767340834 lineto
stroke
newpath
1.0 setlinewidth
10.0 setmiterlimit
0 setlinejoin
0 setlinecap
[ ] 0 setdash
newpath
16.46998083497476 -98.18928538170807 moveto
16.46998083497476 -99.64940843730844 lineto
stroke
newpath
1.0 setlinewidth
10.0 setmiterlimit
0 setlinejoin
0 setlinecap
[ ] 0 setdash
newpath
44.81643752788814 -98.18928538170807 moveto
44.81643752788814 -99.64940843730844 lineto
stroke
newpath
1.0 setlinewidth
10.0 setmiterlimit
0 setlinejoin
0 setlinecap
[ ] 0 setdash
newpath
73.16289422080152 -98.18928538170807 moveto
73.16289422080152 -99.64940843730844 lineto
stroke
newpath
1.0 setlinewidth
10.0 setmiterlimit
0 setlinejoin
0 setlinecap
[ ] 0 setdash
newpath
101.50935091371491 -98.18928538170807 moveto
101.50935091371491 -99.64940843730844 lineto
stroke
newpath
1.0 setlinewidth
10.0 setmiterlimit
0 setlinejoin
0 setlinecap
[ ] 0 setdash
newpath
129.8558076066283 -98.18928538170807 moveto
129.8558076066283 -99.64940843730844 lineto
stroke
newpath
1.0 setlinewidth
10.0 setmiterlimit
0 setlinejoin
0 setlinecap
[ ] 0 setdash
newpath
158.20226429954167 -98.18928538170807 moveto
158.20226429954167 -99.64940843730844 lineto
stroke
newpath
1.0 setlinewidth
10.0 setmiterlimit
0 setlinejoin
0 setlinecap
[ ] 0 setdash
newpath
186.54872099245506 -98.18928538170807 moveto
186.54872099245506 -99.64940843730844 lineto
stroke
newpath
1.0 setlinewidth
10.0 setmiterlimit
0 setlinejoin
0 setlinecap
[ ] 0 setdash
newpath
214.89517768536842 -98.18928538170807 moveto
214.89517768536842 -99.64940843730844 lineto
stroke
newpath
1.0 setlinewidth
10.0 setmiterlimit
0 setlinejoin
0 setlinecap
[ ] 0 setdash
newpath
243.24163437828182 -98.18928538170807 moveto
243.24163437828182 -99.64940843730844 lineto
stroke
newpath
1.0 setlinewidth
10.0 setmiterlimit
0 setlinejoin
0 setlinecap
[ ] 0 setdash
newpath
271.5880910711952 -98.18928538170807 moveto
271.5880910711952 -99.64940843730844 lineto
stroke
newpath
1.0 setlinewidth
10.0 setmiterlimit
0 setlinejoin
0 setlinecap
[ ] 0 setdash
newpath
299.9345477641086 -98.18928538170807 moveto
299.9345477641086 -99.64940843730844 lineto
stroke
newpath
1.0 setlinewidth
10.0 setmiterlimit
0 setlinejoin
0 setlinecap
[ ] 0 setdash
newpath
328.28100445702194 -98.18928538170807 moveto
328.28100445702194 -99.64940843730844 lineto
stroke
newpath
1.0 setlinewidth
10.0 setmiterlimit
0 setlinejoin
0 setlinecap
[ ] 0 setdash
newpath
15.009857779374409 -98.18928538170807 moveto
16.46998083497476 -98.18928538170807 lineto
stroke
newpath
1.0 setlinewidth
10.0 setmiterlimit
0 setlinejoin
0 setlinecap
[ ] 0 setdash
newpath
15.009857779374409 -69.84282868879475 moveto
16.46998083497476 -69.84282868879475 lineto
stroke
newpath
1.0 setlinewidth
10.0 setmiterlimit
0 setlinejoin
0 setlinecap
[ ] 0 setdash
newpath
15.009857779374409 -41.49637199588144 moveto
16.46998083497476 -41.49637199588144 lineto
stroke
newpath
1.0 setlinewidth
10.0 setmiterlimit
0 setlinejoin
0 setlinecap
[ ] 0 setdash
newpath
15.009857779374409 -13.149915302968116 moveto
16.46998083497476 -13.149915302968116 lineto
stroke
newpath
0.8784314 0.8784314 0.8784314 setrgbcolor
1.0 setlinewidth
10.0 setmiterlimit
0 setlinejoin
0 setlinecap
[ ] 0 setdash
newpath
129.85580644811168 -32.99243468125684 moveto
129.726093978176 -50.00030834035516 lineto
356.58791246463784 -50.00030834035516 lineto
356.58791246463784 -32.99243468125684 lineto
closepath
fill
newpath
1.0 0.0 0.0 setrgbcolor
2.0 setlinewidth
10.0 setmiterlimit
1 setlinejoin
1 setlinecap
[ ] 0 setdash
newpath
-1.8251538195004384 -41.49637199588144 moveto
358.09517938598606 -41.49637199588144 lineto
stroke
newpath
0.0 0.0 1.0 setrgbcolor
2.0 setlinewidth
10.0 setmiterlimit
1 setlinejoin
0 setlinecap
[ 2.0 3.0 ] 0 setdash
newpath
-1.8251538195004384 -32.99243498800745 moveto
358.09517938598606 -32.99243498800745 lineto
stroke
newpath
0.0 0.0 1.0 setrgbcolor
2.0 setlinewidth
10.0 setmiterlimit
1 setlinejoin
0 setlinecap
[ 2.0 3.0 ] 0 setdash
newpath
-1.8251538195004384 -50.00030900375543 moveto
358.09517938598606 -50.00030900375543 lineto
stroke
newpath
0.0 0.0 0.0 setrgbcolor
1.5 setlinewidth
10.0 setmiterlimit
0 setlinejoin
2 setlinecap
[ ] 0 setdash
newpath
43.72134523618788 -12.054823011267853 moveto
45.9115298195884 -14.24500759466838 lineto
stroke
newpath
1.5 setlinewidth
10.0 setmiterlimit
0 setlinejoin
2 setlinecap
[ ] 0 setdash
newpath
43.72134523618788 -14.24500759466838 moveto
45.9115298195884 -12.054823011267853 lineto
stroke
newpath
0.0 0.0 0.0 setrgbcolor
1.5 setlinewidth
10.0 setmiterlimit
0 setlinejoin
2 setlinecap
[ ] 0 setdash
newpath
72.06780192910126 -54.57450805063784 moveto
74.25798651250179 -56.76469263403836 lineto
stroke
newpath
1.5 setlinewidth
10.0 setmiterlimit
0 setlinejoin
2 setlinecap
[ ] 0 setdash
newpath
72.06780192910126 -56.76469263403836 moveto
74.25798651250179 -54.57450805063784 lineto
stroke
newpath
0.0 0.0 0.0 setrgbcolor
1.5 setlinewidth
10.0 setmiterlimit
0 setlinejoin
2 setlinecap
[ ] 0 setdash
newpath
100.41425862201464 -49.85009860181895 moveto
102.60444320541517 -52.04028318521947 lineto
stroke
newpath
1.5 setlinewidth
10.0 setmiterlimit
0 setlinejoin
2 setlinecap
[ ] 0 setdash
newpath
100.41425862201464 -52.04028318521947 moveto
102.60444320541517 -49.85009860181895 lineto
stroke
newpath
0.0 0.0 0.0 setrgbcolor
1.5 setlinewidth
10.0 setmiterlimit
0 setlinejoin
2 setlinecap
[ ] 0 setdash
newpath
128.76071531492804 -33.31466553095284 moveto
130.95089989832854 -35.50485011435337 lineto
stroke
newpath
1.5 setlinewidth
10.0 setmiterlimit
0 setlinejoin
2 setlinecap
[ ] 0 setdash
newpath
128.76071531492804 -35.50485011435337 moveto
130.95089989832854 -33.31466553095284 lineto
stroke
newpath
0.0 0.0 0.0 setrgbcolor
1.5 setlinewidth
10.0 setmiterlimit
0 setlinejoin
2 setlinecap
[ ] 0 setdash
newpath
157.1071720078414 -46.07057104276384 moveto
159.29735659124194 -48.26075562616436 lineto
stroke
newpath
1.5 setlinewidth
10.0 setmiterlimit
0 setlinejoin
2 setlinecap
[ ] 0 setdash
newpath
157.1071720078414 -48.26075562616436 moveto
159.29735659124194 -46.07057104276384 lineto
stroke
newpath
0.0 0.0 0.0 setrgbcolor
1.5 setlinewidth
10.0 setmiterlimit
0 setlinejoin
2 setlinecap
[ ] 0 setdash
newpath
185.4536287007548 -35.67687025536229 moveto
187.64381328415533 -37.86705483876281 lineto
stroke
newpath
1.5 setlinewidth
10.0 setmiterlimit
0 setlinejoin
2 setlinecap
[ ] 0 setdash
newpath
185.4536287007548 -37.86705483876281 moveto
187.64381328415533 -35.67687025536229 lineto
stroke
newpath
0.0 0.0 0.0 setrgbcolor
1.5 setlinewidth
10.0 setmiterlimit
0 setlinejoin
2 setlinecap
[ ] 0 setdash
newpath
213.8000853936682 -36.35178589090785 moveto
215.99026997706872 -38.54197047430837 lineto
stroke
newpath
1.5 setlinewidth
10.0 setmiterlimit
0 setlinejoin
2 setlinecap
[ ] 0 setdash
newpath
213.8000853936682 -38.54197047430837 moveto
215.99026997706872 -36.35178589090785 lineto
stroke
newpath
0.0 0.0 0.0 setrgbcolor
1.5 setlinewidth
10.0 setmiterlimit
0 setlinejoin
2 setlinecap
[ ] 0 setdash
newpath
242.14654208658158 -43.94458679079534 moveto
244.3367266699821 -46.13477137419587 lineto
stroke
newpath
1.5 setlinewidth
10.0 setmiterlimit
0 setlinejoin
2 setlinecap
[ ] 0 setdash
newpath
242.14654208658158 -46.13477137419587 moveto
244.3367266699821 -43.94458679079534 lineto
stroke
newpath
0.0 0.0 0.0 setrgbcolor
1.5 setlinewidth
10.0 setmiterlimit
0 setlinejoin
2 setlinecap
[ ] 0 setdash
newpath
270.49299877949494 -43.55088600339377 moveto
272.6831833628955 -45.741070586794294 lineto
stroke
newpath
1.5 setlinewidth
10.0 setmiterlimit
0 setlinejoin
2 setlinecap
[ ] 0 setdash
newpath
270.49299877949494 -45.741070586794294 moveto
272.6831833628955 -43.55088600339377 lineto
stroke
newpath
0.0 0.0 0.0 setrgbcolor
1.5 setlinewidth
10.0 setmiterlimit
0 setlinejoin
2 setlinecap
[ ] 0 setdash
newpath
298.83945547240836 -43.23592537347251 moveto
301.0296400558089 -45.426109956873034 lineto
stroke
newpath
1.5 setlinewidth
10.0 setmiterlimit
0 setlinejoin
2 setlinecap
[ ] 0 setdash
newpath
298.83945547240836 -45.426109956873034 moveto
301.0296400558089 -43.23592537347251 lineto
stroke
newpath
0.0 0.0 0.0 setrgbcolor
1.5 setlinewidth
10.0 setmiterlimit
0 setlinejoin
2 setlinecap
[ ] 0 setdash
newpath
327.1859121653217 -37.824329095734505 moveto
329.37609674872226 -40.014513679135035 lineto
stroke
newpath
1.5 setlinewidth
10.0 setmiterlimit
0 setlinejoin
2 setlinecap
[ ] 0 setdash
newpath
327.1859121653217 -40.014513679135035 moveto
329.37609674872226 -37.824329095734505 lineto
stroke
newpath
grestore
grestore
showpage

%%EOF