%!PS-Adobe-3.0 EPSF-3.0
%%Creator: EpsGraphics 1.0.0 by Thomas Abeel, http://www.sourceforge.net/epsgraphics/
%%Title: GeoGebra, http://www.geogebra.org/
%%CreationDate: Thu Aug 21 14:27:33 CEST 2014
%%BoundingBox: 0 0 236 72
%%DocumentData: Clean7Bit
%%LanguageLevel: 2
%%DocumentProcessColors: Black
%%ColorUsage: Color
%%Origin: 0 0
%%Pages: 1
%%Page: 1 1
%%EndComments

gsave
0.0 72.0 translate
0.0 0.0 0.0 setrgbcolor
0.0 0.0 0.0 setrgbcolor
gsave
newpath
0.0 -0.0 moveto
236.97637795275614 -0.0 lineto
236.97637795275614 -72.00000000000007 lineto
0.0 -72.00000000000007 lineto
0.0 -0.0 lineto
closepath
clip
newpath
1.0 1.0 1.0 setrgbcolor
newpath
0.0 -0.0 moveto
236.97637795275614 -0.0 lineto
236.97637795275614 -72.00000000000007 lineto
0.0 -72.00000000000007 lineto
0.0 -0.0 lineto
closepath
fill
newpath
0.0 0.0 0.0 setrgbcolor
2.0 setlinewidth
10.0 setmiterlimit
1 setlinejoin
1 setlinecap
[ ] 0 setdash
newpath
25.51181102362209 -26.078740157480357 moveto
82.20472440944887 -26.078740157480357 lineto
stroke
newpath
0.0 0.0 0.0 setrgbcolor
2.0 setlinewidth
10.0 setmiterlimit
1 setlinejoin
1 setlinecap
[ ] 0 setdash
newpath
138.8976377952756 -26.078740157480357 moveto
195.5905511811024 -26.078740157480357 lineto
stroke
newpath
0.0 0.0 0.0 setrgbcolor
1.0 setlinewidth
10.0 setmiterlimit
1 setlinejoin
1 setlinecap
[ ] 0 setdash
newpath
53.85826771653548 -54.42519685039377 moveto
167.244094488189 -54.42519685039377 lineto
stroke
newpath
0.0 0.0 0.0 setrgbcolor
0.0 0.0 0.0 setrgbcolor
1.0 setlinewidth
10.0 setmiterlimit
1 setlinejoin
1 setlinecap
[ ] 0 setdash
newpath
113.80216643566231 -43.71260320107772 moveto
112.60630029393003 -48.62894178375489 lineto
112.5177176141247 -48.80610714336554 112.473426278182 -48.93898115515362 112.473426278182 -49.027563830998986 curveto
112.473426278182 -49.29331187041496 112.56200895798733 -49.42618587824308 112.73917430967806 -49.42618587824308 curveto
113.00492234909404 -49.42618587824308 113.18208769682482 -49.20472917872977 113.2706703726702 -48.76181579950292 curveto
113.35925305247552 -48.6732331196976 113.40354438841823 -48.54035910394957 113.40354438841823 -48.36319375225883 curveto
113.49212706822355 -48.2746110724535 113.53641840416626 -48.23031973651079 113.53641840416626 -48.23031973651079 curveto
113.62500108397158 -48.23031973651079 113.66929241991429 -48.27461107641346 113.66929241991429 -48.36319375225883 curveto
113.66929241991429 -48.45177643206415 113.62500108001163 -48.628941787714844 113.53641840416626 -48.894689815250956 curveto
113.44783572436093 -48.983272495056276 113.40354438841823 -49.07185517090165 113.40354438841823 -49.160437846747016 curveto
113.22637902880759 -49.51476856596831 113.00492233721418 -49.69193390973914 112.73917430967806 -49.69193390973914 curveto
112.4734262702621 -49.69193390973914 112.25196958262865 -49.55905989003116 112.07480423093791 -49.293311862495045 curveto
112.07480423093791 -49.204729182689725 112.03051289103526 -49.11614650684435 111.94193021518988 -49.027563830998986 curveto
111.58759949596859 -49.4704772300256 111.2332687925871 -49.69193390973914 110.87893808920562 -49.69193390973914 curveto
110.43602469017901 -49.69193390973914 110.12598533066014 -49.47047721022583 109.94881997896941 -49.027563830998986 curveto
109.86023729916408 -48.85039847138834 109.81594596322137 -48.58465043989227 109.81594596322137 -48.23031973651079 curveto
109.81594596322137 -47.69882365767885 109.99311132283202 -47.16732760260663 110.3474420262135 -46.635831547534416 curveto
110.79035542524012 -46.10433546870247 111.23326880446697 -45.83858745304622 111.67618218369381 -45.83858745304622 curveto
111.76476486349914 -45.83858745304622 111.80905619944184 -45.83858745304622 111.80905619944184 -45.83858745304622 curveto
112.16338691866314 -45.83858745304622 112.4291349422393 -46.01575281265687 112.60630029393003 -46.37008351603835 curveto
113.13779635692217 -44.376973279817875 lineto
113.13779635692217 -44.111225248321816 lineto
113.13779635692217 -44.111225248321816 113.09350501701951 -44.06693390841915 113.00492234117414 -43.978351232573786 curveto
112.91633966136881 -43.978351232573786 112.82775698552344 -43.978351232573786 112.73917430967806 -43.978351232573786 curveto
112.56200895006742 -43.978351232573786 112.473426278182 -43.978351232573786 112.473426278182 -43.978351232573786 curveto
112.473426278182 -43.80118587296314 112.51771761808466 -43.71260320107772 112.60630029393003 -43.71260320107772 curveto
113.13779637276198 -43.71260320107772 113.49212706822355 -43.71260320107772 113.66929241991429 -43.71260320107772 curveto
113.75787509971961 -43.71260320107772 113.80216643566231 -43.71260320107772 113.80216643566231 -43.71260320107772 curveto
closepath
112.07480423093791 -48.49606776800686 moveto
112.07480423093791 -48.49606776800686 lineto
112.473426278182 -46.90157957903048 lineto
112.473426278182 -46.812996899225155 112.473426278182 -46.768705563282445 112.473426278182 -46.768705563282445 curveto
112.473426278182 -46.5915402036718 112.42913493827935 -46.41437485198106 112.34055226243397 -46.23720950029032 curveto
112.25196958262865 -46.06004414067967 112.07480422697796 -45.97146146879426 111.80905619944184 -45.97146146879426 curveto
111.54330816002587 -45.97146146879426 111.27756013248977 -46.14862682840491 111.01181210495366 -46.502957531786386 curveto
110.92322942514834 -46.591540211591706 110.87893808920562 -46.68012288743708 110.87893808920562 -46.768705563282445 curveto
110.70177272959498 -47.12303628250374 110.52460737790423 -47.6102410055932 110.3474420262135 -48.23031973651079 curveto
110.3474420262135 -48.40748509612144 110.3474420262135 -48.540359107909524 110.3474420262135 -48.62894178375489 curveto
110.3474420262135 -49.071855182781505 110.48031604592148 -49.33760320239771 110.74606407345759 -49.42618587824308 curveto
110.74606407345759 -49.42618587824308 110.79035541336025 -49.42618587824308 110.87893808920562 -49.42618587824308 curveto
111.23326880842691 -49.42618587824308 111.54330817190574 -49.249020518632435 111.80905619944184 -48.894689815250956 curveto
111.89763887924717 -48.80610713544563 111.98622155509254 -48.717524459600256 112.07480423093791 -48.62894178375489 curveto
112.07480423093791 -48.62894178375489 lineto
112.07480423093791 -48.54035910394957 112.07480423093791 -48.49606776800686 112.07480423093791 -48.49606776800686 curveto
closepath
fill
newpath
0.0 0.0 0.0 setrgbcolor
1.0 0.0 0.0 setrgbcolor
1.0 setlinewidth
10.0 setmiterlimit
1 setlinejoin
1 setlinecap
[ ] 0 setdash
newpath
55.55905511811028 -26.078740157480357 moveto
55.55905511811028 -27.018059102074464 54.797586661129586 -27.77952755905516 53.85826771653548 -27.77952755905516 curveto
52.918948771941366 -27.77952755905516 52.15748031496067 -27.018059102074464 52.15748031496067 -26.078740157480357 curveto
52.15748031496067 -25.139421212886248 52.918948771941366 -24.37795275590555 53.85826771653548 -24.37795275590555 curveto
54.797586661129586 -24.37795275590555 55.55905511811028 -25.139421212886248 55.55905511811028 -26.078740157480357 curveto
closepath
fill
newpath
0.0 0.0 0.0 setrgbcolor
1.0 setlinewidth
10.0 setmiterlimit
1 setlinejoin
1 setlinecap
[ ] 0 setdash
newpath
55.55905511811028 -26.078740157480357 moveto
55.55905511811028 -27.018059102074464 54.797586661129586 -27.77952755905516 53.85826771653548 -27.77952755905516 curveto
52.918948771941366 -27.77952755905516 52.15748031496067 -27.018059102074464 52.15748031496067 -26.078740157480357 curveto
52.15748031496067 -25.139421212886248 52.918948771941366 -24.37795275590555 53.85826771653548 -24.37795275590555 curveto
54.797586661129586 -24.37795275590555 55.55905511811028 -25.139421212886248 55.55905511811028 -26.078740157480357 curveto
closepath
stroke
newpath
1.0 0.0 0.0 setrgbcolor
1.0 0.0 0.0 setrgbcolor
1.0 setlinewidth
10.0 setmiterlimit
1 setlinejoin
1 setlinecap
[ ] 0 setdash
newpath
53.28248031496069 -13.098430783729864 moveto
51.95374015748037 -18.014769366407034 lineto
51.95374015748037 -18.19193472601768 51.95374015748037 -18.32480873780576 51.95374015748037 -18.41339141365113 curveto
51.95374015748037 -18.6791394530671 52.04232283728569 -18.812013460895223 52.21948818897643 -18.812013460895223 curveto
52.396653548587075 -18.812013460895223 52.57381890027782 -18.590556761381915 52.75098425196856 -18.147643382155067 curveto
52.75098425196856 -18.059060702349743 52.795275591871224 -17.92618668660171 52.88385826771659 -17.74902133491097 curveto
52.88385826771659 -17.660438655105647 52.928149607619254 -17.61614731916294 53.01673228346462 -17.61614731916294 curveto
53.01673228346462 -17.61614731916294 53.01673228346462 -17.6604386590656 53.01673228346462 -17.74902133491097 curveto
53.01673228346462 -17.837604014716295 52.972440943561956 -18.014769370366988 52.88385826771659 -18.280517397903097 curveto
52.88385826771659 -18.36910007770842 52.83956692781393 -18.45768275355379 52.75098425196856 -18.54626542939916 curveto
52.66240157216323 -18.90059614862046 52.48523621651254 -19.07776149239129 52.21948818897643 -19.07776149239129 curveto
51.86515746975513 -19.07776149239129 51.64370078608164 -18.944887472683302 51.55511811023627 -18.679139445147193 curveto
51.46653543043095 -18.59055676534187 51.42224409448824 -18.457682749593836 51.42224409448824 -18.280517397903097 curveto
51.42224409448824 -18.191934718097773 51.42224409448824 -18.103352042252403 51.42224409448824 -18.014769366407034 curveto
52.485236220472494 -13.762800862470023 lineto
52.485236220472494 -13.49705283097396 lineto
52.485236220472494 -13.49705283097396 52.44094488056983 -13.452761491071298 52.352362204724464 -13.364178815225927 curveto
52.352362204724464 -13.364178815225927 52.26377952491914 -13.364178815225927 52.0866141732284 -13.364178815225927 curveto
51.99803149342308 -13.364178815225927 51.95374015748037 -13.364178815225927 51.95374015748037 -13.364178815225927 curveto
51.95374015748037 -13.18701345561528 51.99803149738303 -13.098430783729864 52.0866141732284 -13.098430783729864 curveto
53.14960629921265 -13.098430783729864 lineto
53.23818897901798 -13.098430783729864 53.28248031496069 -13.098430783729864 53.28248031496069 -13.098430783729864 curveto
closepath
fill
newpath
1.0 0.0 0.0 setrgbcolor
1.0 0.0 0.0 setrgbcolor
1.0 setlinewidth
10.0 setmiterlimit
1 setlinejoin
1 setlinecap
[ ] 0 setdash
newpath
168.94488188976382 -26.078740157480357 moveto
168.94488188976382 -27.018059102074464 168.1834134327831 -27.77952755905516 167.244094488189 -27.77952755905516 curveto
166.3047755435949 -27.77952755905516 165.5433070866142 -27.018059102074464 165.5433070866142 -26.078740157480357 curveto
165.5433070866142 -25.139421212886248 166.3047755435949 -24.37795275590555 167.244094488189 -24.37795275590555 curveto
168.1834134327831 -24.37795275590555 168.94488188976382 -25.139421212886248 168.94488188976382 -26.078740157480357 curveto
closepath
fill
newpath
0.0 0.0 0.0 setrgbcolor
1.0 setlinewidth
10.0 setmiterlimit
1 setlinejoin
1 setlinecap
[ ] 0 setdash
newpath
168.94488188976382 -26.078740157480357 moveto
168.94488188976382 -27.018059102074464 168.1834134327831 -27.77952755905516 167.244094488189 -27.77952755905516 curveto
166.3047755435949 -27.77952755905516 165.5433070866142 -27.018059102074464 165.5433070866142 -26.078740157480357 curveto
165.5433070866142 -25.139421212886248 166.3047755435949 -24.37795275590555 167.244094488189 -24.37795275590555 curveto
168.1834134327831 -24.37795275590555 168.94488188976382 -25.139421212886248 168.94488188976382 -26.078740157480357 curveto
closepath
stroke
newpath
1.0 0.0 0.0 setrgbcolor
1.0 0.0 0.0 setrgbcolor
1.0 0.0 0.0 setrgbcolor
1.0 setlinewidth
10.0 setmiterlimit
1 setlinejoin
1 setlinecap
[ ] 0 setdash
newpath
166.10137579009304 -12.310428018645048 moveto
164.77263563261272 -17.22676660132222 lineto
164.77263563261272 -17.403931960932866 164.77263563261272 -17.536805972720945 164.77263563261272 -17.625388648566314 curveto
164.77263563261272 -17.891136687982286 164.86121831241806 -18.024010695810407 165.0383836641088 -18.024010695810407 curveto
165.21554902371946 -18.024010695810407 165.39271437541018 -17.8025539962971 165.56987972710093 -17.35964061707025 curveto
165.56987972710093 -17.271057937264928 165.61417106700358 -17.138183921516895 165.70275374284896 -16.961018569826155 curveto
165.70275374284896 -16.87243589002083 165.7470450827516 -16.828144554078126 165.83562775859698 -16.828144554078126 curveto
165.83562775859698 -16.828144554078126 165.83562775859698 -16.872435893980786 165.83562775859698 -16.961018569826155 curveto
165.83562775859698 -17.04960124963148 165.79133641869433 -17.226766605282172 165.70275374284896 -17.49251463281828 curveto
165.70275374284896 -17.581097312623605 165.6584624029463 -17.669679988468975 165.56987972710093 -17.758262664314344 curveto
165.4812970472956 -18.112593383535643 165.3041316916449 -18.289758727306474 165.0383836641088 -18.289758727306474 curveto
164.6840529448875 -18.289758727306474 164.462596261214 -18.156884707598486 164.37401358536863 -17.891136680062377 curveto
164.28543090556332 -17.802554000257054 164.2411395696206 -17.66967998450902 164.2411395696206 -17.49251463281828 curveto
164.2411395696206 -17.403931953012957 164.2411395696206 -17.315349277167588 164.2411395696206 -17.22676660132222 curveto
165.30413169560487 -12.974798097385207 lineto
165.30413169560487 -12.709050065889144 lineto
165.30413169560487 -12.709050065889144 165.2598403557022 -12.664758725986482 165.17125767985684 -12.576176050141111 curveto
165.17125767985684 -12.576176050141111 165.08267500005152 -12.576176050141111 164.90550964836078 -12.576176050141111 curveto
164.81692696855544 -12.576176050141111 164.77263563261272 -12.576176050141111 164.77263563261272 -12.576176050141111 curveto
164.77263563261272 -12.399010690530464 164.8169269725154 -12.310428018645048 164.90550964836078 -12.310428018645048 curveto
165.96850177434501 -12.310428018645048 lineto
166.05708445415033 -12.310428018645048 166.10137579009304 -12.310428018645048 166.10137579009304 -12.310428018645048 curveto
closepath
fill
newpath
1.0 0.0 0.0 setrgbcolor
1.0 0.0 0.0 setrgbcolor
1.0 setlinewidth
10.0 setmiterlimit
1 setlinejoin
1 setlinecap
[ ] 0 setdash
newpath
168.03545178860207 -11.762311196057357 moveto
167.012321884766 -14.273630050927649 lineto
166.95031400995828 -14.335637925735387 166.91931007532636 -14.366641860367288 166.91931007532636 -14.366641860367288 curveto
166.85730220051863 -14.366641860367288 166.79529432848287 -14.33563792296342 166.7332864564471 -14.273630050927649 curveto
166.7332864564471 -14.273630050927649 166.7332864564471 -14.273630050927649 166.7332864564471 -14.273630050927649 curveto
166.7332864564471 -14.273630050927649 166.7332864564471 -14.242626113523778 166.7332864564471 -14.180618241488007 curveto
167.4773809319642 -11.576287577178075 lineto
167.53938880677194 -11.452271827562598 167.63240061621158 -11.359260020894926 167.75641636028314 -11.297252148859155 curveto
167.75641636028314 -11.297252148859155 167.75641636028314 -11.297252148859155 167.75641636028314 -11.297252148859155 curveto
167.88043210989863 -11.297252148859155 167.9734439165663 -11.359260023666893 168.03545178860207 -11.483275767738435 curveto
168.0974596634098 -11.545283642546174 168.1284635980417 -11.607291514581945 168.1284635980417 -11.669299386617716 curveto
168.1284635980417 -11.669299386617716 168.09745966063784 -11.700303324021586 168.03545178860207 -11.762311196057357 curveto
closepath
fill
newpath
1.0 0.0 0.0 setrgbcolor
1.0 0.0 0.0 setrgbcolor
1.0 0.0 0.0 setrgbcolor
1.0 0.0 0.0 setrgbcolor
1.0 0.0 0.0 setrgbcolor
1.0 0.0 0.0 setrgbcolor
1.0 0.0 0.0 setrgbcolor
1.0 0.0 0.0 setrgbcolor
grestore
grestore
showpage

%%EOF