%!PS-Adobe-3.0 EPSF-3.0
%%Creator: EpsGraphics 1.0.0 by Thomas Abeel, http://www.sourceforge.net/epsgraphics/
%%Title: GeoGebra, http://www.geogebra.org/
%%CreationDate: Mon Dec 15 13:30:30 CET 2014
%%BoundingBox: 0 0 324 316
%%DocumentData: Clean7Bit
%%LanguageLevel: 2
%%DocumentProcessColors: Black
%%ColorUsage: Color
%%Origin: 0 0
%%Pages: 1
%%Page: 1 1
%%EndComments

gsave
0.0 316.0 translate
0.0 0.0 0.0 setrgbcolor
0.0 0.0 0.0 setrgbcolor
gsave
newpath
0.0 -0.0 moveto
324.4971435637477 -0.0 lineto
324.4971435637477 -316.19798388181044 lineto
0.0 -316.19798388181044 lineto
0.0 -0.0 lineto
closepath
clip
newpath
1.0 1.0 1.0 setrgbcolor
newpath
0.0 -0.0 moveto
324.4971435637477 -0.0 lineto
324.4971435637477 -316.19798388181044 lineto
0.0 -316.19798388181044 lineto
0.0 -0.0 lineto
closepath
fill
newpath
0.0 0.0 0.0 setrgbcolor
1.0 setlinewidth
10.0 setmiterlimit
0 setlinejoin
0 setlinecap
[ ] 0 setdash
newpath
17.83361379777663 -1.6598319363874563 moveto
17.83361379777663 -316.19798388181044 lineto
stroke
newpath
1.0 setlinewidth
10.0 setmiterlimit
0 setlinejoin
0 setlinecap
[ ] 0 setdash
newpath
18.248571781873494 -0.8299159681937281 moveto
15.343865893195446 -3.3196638727749126 lineto
stroke
newpath
1.0 setlinewidth
10.0 setmiterlimit
0 setlinejoin
0 setlinecap
[ ] 0 setdash
newpath
17.418655813679766 -0.8299159681937281 moveto
20.323361702357815 -3.3196638727749126 lineto
stroke
newpath
1.0 setlinewidth
10.0 setmiterlimit
0 setlinejoin
0 setlinecap
[ ] 0 setdash
newpath
0.0 -285.1008805430627 moveto
322.83731162736024 -285.1008805430627 lineto
stroke
newpath
1.0 setlinewidth
10.0 setmiterlimit
0 setlinejoin
0 setlinecap
[ ] 0 setdash
newpath
323.667227595554 -285.5158385271596 moveto
321.1774796909728 -282.61113263848154 lineto
stroke
newpath
1.0 setlinewidth
10.0 setmiterlimit
0 setlinejoin
0 setlinecap
[ ] 0 setdash
newpath
323.667227595554 -284.68592255896584 moveto
321.1774796909728 -287.5906284476439 lineto
stroke
newpath
1.0 0.0 0.0 setrgbcolor
2.0 setlinewidth
10.0 setmiterlimit
1 setlinejoin
1 setlinecap
[ ] 0 setdash
newpath
0.0 -178.41619241536762 moveto
0.6337834835229448 -186.47411218040287 lineto
1.2675669670458896 -193.5968062056456 lineto
1.9013504505688341 -199.92751148322594 lineto
2.535133934091779 -205.58164326787585 lineto
3.1689174176147237 -210.65322814138003 lineto
3.8027009011376682 -215.2196401663249 lineto
5.070267868183558 -223.0834536087211 lineto
6.337834835229447 -229.57347853955832 lineto
7.6054018022753365 -234.97803781595078 lineto
8.872968769321226 -239.51008106743254 lineto
10.140535736367116 -243.33023228906842 lineto
12.675669670458895 -249.30186366408932 lineto
15.210803604550673 -253.5967699767833 lineto
17.74593753864245 -256.6662028386404 lineto
19.013504505688342 -257.8400091576683 lineto
20.281071472734233 -258.81284553017474 lineto
22.81620540682601 -260.2472416135076 lineto
24.0837723738719 -260.74631064894635 lineto
25.35133934091779 -261.1204667951294 lineto
27.886473275009568 -261.5436560624801 lineto
30.421607209101346 -261.6004139263938 lineto
32.95674114319313 -261.354843088149 lineto
35.4918750772849 -260.85693909587843 lineto
38.027009011376684 -260.1462374362262 lineto
40.562142945468466 -259.25442221796334 lineto
43.09727687956024 -258.2071750448419 lineto
45.63241081365202 -257.0255933290173 lineto
48.1675447477438 -255.72702608288603 lineto
50.70267868183558 -254.3260616730766 lineto
53.23781261592736 -252.83488239880467 lineto
55.772946550019135 -251.26384701345748 lineto
58.30808048411092 -249.62179464889837 lineto
60.84321441820269 -247.91627275869558 lineto
63.37834835229447 -246.15381571540135 lineto
65.91348228638626 -244.34012209972994 lineto
68.44861622047803 -242.48008002758286 lineto
70.9837501545698 -240.5780457473283 lineto
73.5188840886616 -238.63781831277578 lineto
76.05401802275337 -236.66274089127762 lineto
78.58915195684514 -234.65580207183064 lineto
81.12428589093693 -232.61963586507602 lineto
83.6594198250287 -230.5565976843757 lineto
86.19455375912048 -228.46881499986296 lineto
88.72968769321227 -226.35816201141714 lineto
91.26482162730404 -224.22638628379062 lineto
93.79995556139582 -222.07498211148177 lineto
96.3350894954876 -219.9053931349382 lineto
98.87022342957938 -217.718835051379 lineto
101.40535736367116 -215.51649823099768 lineto
103.94049129776293 -213.29942108183562 lineto
106.47562523185472 -211.06856603085785 lineto
109.0107591659465 -208.82478153341512 lineto
111.54589310003827 -206.56891604485827 lineto
114.08102703413006 -204.30166605838565 lineto
116.61616096822183 -202.02374073070843 lineto
119.15129490231361 -199.73576057394874 lineto
121.68642883640538 -197.43830810969078 lineto
124.22156277049717 -195.13190254195513 lineto
126.75669670458895 -192.8170504112497 lineto
129.29183063868072 -190.49420760403171 lineto
131.8269645727725 -188.16379201622016 lineto
134.36209850686427 -185.82623420724676 lineto
136.89723244095606 -183.4818634284417 lineto
139.43236637504785 -181.1310469216732 lineto
141.9675003091396 -178.77410127475878 lineto
144.5026342432314 -176.4113304120031 lineto
147.0377681773232 -174.04301293068565 lineto
149.57290211141495 -171.66941476457296 lineto
152.10803604550674 -169.2907638568937 lineto
154.64316997959853 -166.90732614141447 lineto
157.17830391369029 -164.51929157082577 lineto
159.71343784778207 -162.1268880883562 lineto
162.24857178187386 -159.73028031967078 lineto
164.78370571596562 -157.32967088097269 lineto
167.3188396500574 -154.92523706143976 lineto
169.8539735841492 -152.5171181597116 lineto
172.38910751824096 -150.10547880145333 lineto
174.92424145233275 -147.69045828530463 lineto
177.45937538642454 -145.27220857341788 lineto
179.9945093205163 -142.85084363740734 lineto
182.5296432546081 -140.42649011240002 lineto
185.06477718869985 -137.9992619700102 lineto
187.59991112279164 -135.56927318185214 lineto
190.13504505688343 -133.13663771954015 lineto
192.6701789909752 -130.7014315641504 lineto
195.20531292506698 -128.2637686872972 lineto
197.74044685915877 -125.8237377335694 lineto
200.27558079325053 -123.38140202053054 lineto
202.81071472734232 -120.93687551979487 lineto
205.3458486614341 -118.4902215489259 lineto
207.88098259552586 -116.04150342548711 lineto
210.41611652961765 -113.59080979406738 lineto
212.95125046370944 -111.13819130871752 lineto
215.4863843978012 -108.6837366140264 lineto
218.021518331893 -106.2274773687758 lineto
220.55665226598478 -103.76949588579822 lineto
223.09178620007654 -101.30983648738813 lineto
225.62692013416833 -98.84855615935264 lineto
228.16205406826012 -96.38570555574258 lineto
230.69718800235188 -93.92134166236508 lineto
233.23232193644367 -91.45550246975822 lineto
235.76745587053543 -88.98823230021647 lineto
238.30258980462722 -86.5195818077906 lineto
240.837723738719 -84.04959531477506 lineto
243.37285767281077 -81.5783044799516 lineto
245.90799160690256 -79.10574729385831 lineto
248.44312554099434 -76.63196807878964 lineto
250.9782594750861 -74.15700482528369 lineto
253.5133934091779 -71.68087652860949 lineto
256.04852734326965 -69.20363384281785 lineto
258.58366127736144 -66.72529576317781 lineto
261.11879521145323 -64.2458939484711 lineto
263.653929145545 -61.76546638923585 lineto
266.1890630796368 -59.284038412497424 lineto
268.72419701372854 -56.80162901352489 lineto
271.25933094782033 -54.31827618285633 lineto
273.7944648819121 -51.833998915760795 lineto
276.3295988160039 -49.348822539263686 lineto
278.8647327500957 -46.86276921451222 lineto
281.3998666841875 -44.375867434409976 lineto
283.9350006182792 -41.88812986246964 lineto
286.470134552371 -39.39958499159479 lineto
289.0052684864628 -36.91025181705447 lineto
291.5404024205546 -34.420152499995915 lineto
294.0755363546464 -31.929299703931804 lineto
296.61067028873816 -29.437718755887545 lineto
299.1458042228299 -26.945422319375837 lineto
301.6809381569217 -24.452430972604805 lineto
304.2160720910135 -21.958760544965333 lineto
306.75120602510526 -19.46442686584829 lineto
309.28633995919705 -16.969447347583632 lineto
311.82147389328884 -14.47383623662315 lineto
314.35660782738057 -11.977607779418626 lineto
316.89174176147236 -9.480777013891391 lineto
319.42687569556415 -6.983357395023687 lineto
321.96200962965594 -4.485363169267299 lineto
324.4971435637477 -1.986806604400153 lineto
stroke
newpath
grestore
grestore
showpage

%%EOF