%!PS
%%BoundingBox: -19 -57 185 86 
%%HiResBoundingBox: -18.67525 -56.94293 184.5024 85.2894 
%%Creator: MetaPost 2.02
%%CreationDate: 2023.03.28:2241
%%Pages: 1
%*Font: cmmi10 9.96265 9.96265 61:c000018
%*Font: cmr10 9.96265 9.96265 2b:80002
%%BeginProlog
%%EndProlog
%%Page: 1 1
 1 0 0 setrgbcolor 0 1.5 dtransform truncate idtransform setlinewidth pop
 [] 0 setdash 1 setlinecap 1 setlinejoin 10 setmiterlimit
newpath -3.68527 68.03351 moveto
-3.56885 65.87581 -3.44589 63.71848 -3.3164 61.56152 curveto
-3.19936 59.61166 -3.07695 57.66214 -2.9481 55.71303 curveto
-2.83093 53.9407 -2.70844 52.16873 -2.5798 50.3972 curveto
-2.4624 48.78035 -2.33989 47.16388 -2.2115 45.54787 curveto
-2.0939 44.06775 -1.97137 42.58803 -1.8432 41.10878 curveto
-1.72543 39.74968 -1.60289 38.39099 -1.4749 37.0328 curveto
-1.35696 35.78131 -1.2344 34.53026 -1.1066 33.27972 curveto
-0.98851 32.12422 -0.86594 30.96918 -0.7383 29.8147 curveto
-0.62007 28.74533 -0.49748 27.67644 -0.37 26.60812 curveto
-0.25163 25.61629 -0.12904 24.62495 -0.0017 23.63423 curveto
0.1168 22.71237 0.23941 21.79106 0.36662 20.87036 curveto
0.48523 20.01192 0.60783 19.15402 0.73492 18.29678 curveto
0.85364 17.49599 0.97626 16.69576 1.10323 15.89622 curveto
1.22205 15.14803 1.34467 14.40044 1.47153 13.65355 curveto
1.59044 12.95348 1.71309 12.25403 1.83983 11.55533 curveto
1.95885 10.8992 2.08147 10.24373 2.20813 9.58904 curveto
2.32722 8.97346 2.44986 8.35858 2.57643 7.74449 curveto
2.69562 7.16623 2.81827 6.5887 2.94473 6.012 curveto
3.064 5.4681 3.18665 4.92494 3.31303 4.38264 curveto
3.43236 3.87064 3.55504 3.35942 3.68134 2.84909 curveto
3.80075 2.36655 3.92342 1.88481 4.04964 1.404 curveto
4.16911 0.94888 4.2918 0.49461 4.41794 0.0413 curveto
4.53749 -0.38832 4.66019 -0.81706 4.78624 -1.24483 curveto
4.90587 -1.65077 5.02855 -2.0558 5.15454 -2.45981 curveto
5.27423 -2.84358 5.39691 -3.22643 5.52284 -3.60818 curveto
5.6426 -3.97124 5.76529 -4.3333 5.89114 -4.69427 curveto
6.01097 -5.03796 6.13367 -5.38065 6.25946 -5.7222 curveto
6.37933 -6.04768 6.50204 -6.37212 6.62776 -6.69539 curveto
6.74771 -7.00381 6.8704 -7.31119 6.99606 -7.61734 curveto
7.11607 -7.90973 7.23877 -8.20102 7.36436 -8.49104 curveto
7.48444 -8.76833 7.60715 -9.04448 7.73267 -9.31935 curveto
7.85281 -9.58247 7.9755 -9.84442 8.10097 -10.10504 curveto
8.22118 -10.35472 8.3439 -10.60318 8.46927 -10.8503 curveto
8.58954 -11.08739 8.71222 -11.32326 8.83757 -11.55771 curveto
8.95789 -11.78273 9.08061 -12.00645 9.20587 -12.22878 curveto
9.3263 -12.4425 9.449 -12.65494 9.57417 -12.8659 curveto
9.69463 -13.06892 9.81735 -13.27061 9.94247 -13.4708 curveto
10.063 -13.66362 10.18575 -13.85506 10.31078 -14.04498 curveto
10.43137 -14.22818 10.5541 -14.40996 10.67908 -14.5902 curveto
10.79973 -14.76419 10.92249 -14.93674 11.04738 -15.10773 curveto
11.16812 -15.27303 11.29085 -15.43686 11.41568 -15.59908 curveto
11.53647 -15.75606 11.65921 -15.91151 11.78398 -16.06535 curveto
12.1523 -16.50783 lineto
12.5206 -16.92781 lineto
12.8889 -17.32596 lineto
13.2572 -17.70357 lineto
13.6255 -18.06126 lineto
13.9938 -18.40038 lineto
14.3621 -18.72131 lineto
14.73041 -19.02495 lineto
15.09871 -19.31215 lineto
15.46701 -19.58336 lineto
15.83531 -19.83963 lineto
16.20361 -20.08119 lineto
16.57191 -20.30872 lineto
16.94022 -20.52281 lineto
17.30852 -20.72394 lineto
17.67683 -20.91273 lineto
18.04514 -21.08965 lineto
18.41344 -21.25488 lineto
18.78174 -21.40907 lineto
19.15004 -21.55267 lineto
19.51834 -21.6859 lineto
19.88664 -21.80939 lineto
20.25494 -21.92314 lineto
20.62325 -22.02782 lineto
20.99155 -22.1234 lineto
21.35985 -22.21034 lineto
21.72815 -22.28906 lineto
22.09645 -22.35979 lineto
22.46475 -22.42271 lineto
22.83305 -22.47807 lineto
23.20135 -22.5261 lineto
23.56967 -22.56718 lineto
23.93797 -22.60135 lineto
24.30627 -22.62903 lineto
24.67458 -22.65022 lineto
25.04288 -22.66515 lineto
25.41118 -22.67422 lineto
25.77948 -22.67726 lineto
26.14778 -22.67467 lineto
26.51608 -22.66666 lineto
26.88438 -22.65326 lineto
27.25269 -22.63466 lineto
27.62099 -22.61087 lineto
27.98929 -22.58232 lineto
28.35759 -22.54901 lineto
28.72589 -22.51117 lineto
29.0942 -22.46878 lineto
29.46251 -22.42184 lineto
29.83081 -22.3708 lineto
30.19911 -22.31566 lineto
30.56741 -22.25641 lineto
30.93571 -22.19325 lineto
31.30402 -22.1262 lineto
31.67232 -22.0555 lineto
32.04062 -21.9811 lineto
32.40892 -21.90303 lineto
32.77722 -21.82172 lineto
33.14552 -21.73694 lineto
33.51382 -21.64891 lineto
33.88213 -21.55786 lineto
34.25043 -21.46336 lineto
34.61873 -21.36604 lineto
34.98705 -21.26569 lineto
35.35535 -21.16254 lineto
35.72365 -21.05634 lineto
36.09195 -20.94734 lineto
36.46025 -20.83597 lineto
36.82855 -20.72156 lineto
37.19685 -20.60478 lineto
37.56516 -20.48561 lineto
37.93346 -20.36386 lineto
38.30176 -20.2395 lineto
38.67006 -20.11299 lineto
39.03836 -19.9841 lineto
39.40666 -19.85304 lineto
39.77496 -19.7196 lineto
40.14326 -19.58421 lineto
40.51157 -19.44667 lineto
40.87988 -19.30696 lineto
41.24818 -19.16531 lineto
41.61649 -19.02171 lineto
41.98479 -18.87595 lineto
42.35309 -18.72845 lineto
42.72139 -18.57922 lineto
43.08969 -18.42805 lineto
43.458 -18.27495 lineto
43.8263 -18.12032 lineto
44.1946 -17.96394 lineto
44.5629 -17.80586 lineto
44.9312 -17.64604 lineto
45.2995 -17.48471 lineto
45.6678 -17.32164 lineto
46.0361 -17.15727 lineto
46.4044 -16.99118 lineto
46.77272 -16.82358 lineto
47.14102 -16.65468 lineto
47.50932 -16.48425 lineto
47.87762 -16.31232 lineto
48.24593 -16.1391 lineto
48.61423 -15.96457 lineto
48.98253 -15.78874 lineto
49.35083 -15.6114 lineto
49.71913 -15.43298 lineto
50.08743 -15.25305 lineto
50.45573 -15.07204 lineto
50.82404 -14.88994 lineto
51.19234 -14.70654 lineto
51.56064 -14.52185 lineto
51.92894 -14.33607 lineto
52.29726 -14.14923 lineto
52.66556 -13.96129 lineto
53.03386 -13.77206 lineto
53.40216 -13.58195 lineto
53.77046 -13.39078 lineto
54.13876 -13.1983 lineto
54.50706 -13.00517 lineto
54.87537 -12.81076 lineto
55.24367 -12.61546 lineto
55.61197 -12.41931 lineto
55.98027 -12.22208 lineto
56.34857 -12.02376 lineto
56.71687 -11.8248 lineto
57.08517 -11.62476 lineto
57.45348 -11.42384 lineto
57.82178 -11.22206 lineto
58.1901 -11.01942 lineto
58.5584 -10.81592 lineto
58.9267 -10.61154 lineto
59.295 -10.40652 lineto
59.6633 -10.20042 lineto
60.0316 -9.99367 lineto
60.3999 -9.78606 lineto
60.7682 -9.57779 lineto
61.1365 -9.36865 lineto
61.5048 -9.15887 lineto
61.87311 -8.94824 lineto
62.24141 -8.73694 lineto
62.60971 -8.52478 lineto
62.97801 -8.31198 lineto
63.34631 -8.09853 lineto
63.71461 -7.88443 lineto
64.08293 -7.66968 lineto
64.45123 -7.45406 lineto
64.81953 -7.238 lineto
65.18784 -7.02109 lineto
65.55614 -6.80374 lineto
65.92444 -6.58553 lineto
66.29274 -6.36688 lineto
66.66104 -6.14758 lineto
67.02934 -5.92764 lineto
67.39764 -5.70728 lineto
67.76595 -5.48602 lineto
68.13425 -5.26436 lineto
68.50255 -5.04225 lineto
68.87085 -4.81927 lineto
69.23915 -4.5961 lineto
69.60747 -4.37204 lineto
69.97577 -4.14755 lineto
70.34407 -3.92264 lineto
70.71237 -3.69707 lineto
71.08067 -3.47107 lineto
71.44897 -3.24464 lineto
71.81728 -3.01756 lineto
72.18558 -2.79005 lineto
72.55388 -2.56189 lineto
72.92218 -2.33351 lineto
73.29048 -2.10449 lineto
73.65878 -1.87503 lineto
74.02708 -1.64514 lineto
74.39539 -1.4146 lineto
74.76369 -1.18384 lineto
75.13199 -0.95244 lineto
75.5003 -0.72081 lineto
75.8686 -0.48854 lineto
76.23691 -0.25606 lineto
76.60521 -0.02292 lineto
76.97351 0.21043 lineto
77.34181 0.44443 lineto
77.71011 0.67865 lineto
78.07841 0.9133 lineto
78.44672 1.14838 lineto
78.81502 1.3839 lineto
79.18332 1.61984 lineto
79.55162 1.856 lineto
79.91992 2.09259 lineto
80.28822 2.32962 lineto
80.65652 2.56708 lineto
81.02483 2.80476 lineto
81.39314 3.04286 lineto
81.76144 3.2814 lineto
82.12975 3.52017 lineto
82.49805 3.75935 lineto
82.86635 3.99898 lineto
83.23465 4.23882 lineto
83.60295 4.47888 lineto
83.97125 4.71957 lineto
84.33955 4.96028 lineto
84.70786 5.20164 lineto
85.07616 5.443 lineto
85.44446 5.685 lineto
85.81276 5.927 lineto
86.18106 6.16943 lineto
86.54936 6.4123 lineto
86.91768 6.65538 lineto
87.28598 6.89868 lineto
87.65428 7.14241 lineto
88.02258 7.38637 lineto
88.39088 7.63074 lineto
88.75919 7.87512 lineto
89.12749 8.12015 lineto
89.49579 8.36519 lineto
89.86409 8.61064 lineto
90.23239 8.85632 lineto
90.6007 9.10222 lineto
90.969 9.34833 lineto
91.3373 9.59488 lineto
91.7056 9.84163 lineto
92.0739 10.08861 lineto
92.4422 10.3358 lineto
92.81052 10.58344 lineto
93.17882 10.83127 lineto
93.54712 11.07912 lineto
93.91542 11.32738 lineto
94.28372 11.5761 lineto
94.65202 11.8248 lineto
95.02032 12.07372 lineto
95.38863 12.32307 lineto
95.75693 12.57243 lineto
96.12523 12.82222 lineto
96.49353 13.072 lineto
96.86183 13.32222 lineto
97.23013 13.57266 lineto
97.59843 13.82332 lineto
97.96674 14.07419 lineto
98.33504 14.32506 lineto
98.70335 14.57635 lineto
99.07166 14.82787 lineto
99.43996 15.0796 lineto
99.80826 15.33156 lineto
100.17656 15.58351 lineto
100.54486 15.83589 lineto
100.91316 16.08849 lineto
101.28146 16.34108 lineto
101.64977 16.59412 lineto
102.01807 16.84715 lineto
102.38637 17.10062 lineto
102.75467 17.35408 lineto
103.12297 17.60776 lineto
103.49127 17.86165 lineto
103.85957 18.11577 lineto
104.22789 18.36989 lineto
104.59619 18.62442 lineto
104.9645 18.87897 lineto
105.3328 19.13396 lineto
105.7011 19.38893 lineto
106.0694 19.64412 lineto
106.4377 19.89932 lineto
106.806 20.15494 lineto
107.1743 20.41057 lineto
107.5426 20.66641 lineto
107.9109 20.92247 lineto
108.2792 21.17876 lineto
108.6475 21.43503 lineto
109.01581 21.69173 lineto
109.38411 21.94844 lineto
109.75241 22.20515 lineto
110.12073 22.4623 lineto
110.48903 22.71944 lineto
110.85733 22.97679 lineto
111.22563 23.23436 lineto
111.59393 23.49193 lineto
111.96223 23.74973 lineto
112.33054 24.00774 lineto
112.69884 24.26595 lineto
113.06714 24.52417 lineto
113.43544 24.78261 lineto
113.80374 25.04105 lineto
114.17204 25.2997 lineto
114.54034 25.55858 lineto
114.90865 25.81766 lineto
115.27695 26.07675 lineto
115.64525 26.33606 lineto
116.01357 26.59535 lineto
116.38187 26.85509 lineto
116.75017 27.11461 lineto
117.11847 27.37456 lineto
117.48677 27.63452 lineto
117.85507 27.89447 lineto
118.22337 28.15486 lineto
118.59167 28.41524 lineto
118.95998 28.67563 lineto
119.32828 28.93622 lineto
119.69658 29.19704 lineto
120.06488 29.45786 lineto
120.43318 29.71889 lineto
120.80148 29.97992 lineto
121.16978 30.24118 lineto
121.5381 30.50264 lineto
121.9064 30.76411 lineto
122.2747 31.02557 lineto
122.643 31.28748 lineto
123.0113 31.54915 lineto
123.37961 31.81126 lineto
123.74791 32.07338 lineto
124.11621 32.3355 lineto
124.48451 32.59782 lineto
124.85281 32.86017 lineto
125.22112 33.12271 lineto
125.58942 33.38547 lineto
125.95772 33.64824 lineto
126.32602 33.911 lineto
126.69432 34.17398 lineto
127.06262 34.43718 lineto
127.43094 34.70038 lineto
127.79924 34.96356 lineto
128.16754 35.22697 lineto
128.53584 35.49062 lineto
128.90414 35.75403 lineto
129.27245 36.01787 lineto
129.64075 36.28171 lineto
130.00905 36.54556 lineto
130.37735 36.80962 lineto
130.74565 37.07368 lineto
131.11395 37.33795 lineto
131.48225 37.60223 lineto
131.85056 37.86673 lineto
132.21886 38.13123 lineto
132.58716 38.39594 lineto
132.95546 38.66064 lineto
133.32378 38.92535 lineto
133.69208 39.19028 lineto
134.06038 39.4552 lineto
134.42868 39.72035 lineto
134.79698 39.98549 lineto
135.16528 40.25085 lineto
135.53358 40.5162 lineto
135.90189 40.78157 lineto
136.27019 41.04713 lineto
136.63849 41.31271 lineto
137.00679 41.5785 lineto
137.37509 41.8443 lineto
137.7434 42.11009 lineto
138.1117 42.3761 lineto
138.48 42.64232 lineto
138.84831 42.90833 lineto
139.21661 43.17456 lineto
139.58492 43.441 lineto
139.95322 43.70721 lineto
140.32152 43.97388 lineto
140.68982 44.24031 lineto
141.05812 44.50697 lineto
141.42642 44.77362 lineto
141.79472 45.0405 lineto
142.16302 45.30737 lineto
142.53133 45.57425 lineto
142.89963 45.84134 lineto
143.26793 46.10843 lineto
143.63623 46.37573 lineto
144.00453 46.64304 lineto
144.37283 46.91034 lineto
144.74115 47.17764 lineto
145.10945 47.44516 lineto
145.47775 47.7129 lineto
145.84605 47.98042 lineto
146.21436 48.24817 lineto
146.58266 48.5159 lineto
146.95096 48.78386 lineto
147.31926 49.0518 lineto
147.68756 49.31976 lineto
148.05586 49.58794 lineto
148.42416 49.85588 lineto
148.79247 50.12427 lineto
149.16077 50.39244 lineto
149.52907 50.66083 lineto
149.89737 50.92921 lineto
150.26567 51.19781 lineto
150.63399 51.46642 lineto
151.00229 51.73503 lineto
151.37059 52.00363 lineto
151.73889 52.27245 lineto
152.1072 52.54126 lineto
152.4755 52.81009 lineto
152.8438 53.07912 lineto
153.2121 53.34816 lineto
153.5804 53.61719 lineto
153.9487 53.88623 lineto
154.317 54.15547 lineto
154.6853 54.42473 lineto
155.0536 54.6942 lineto
155.4219 54.96346 lineto
155.7902 55.23293 lineto
156.15852 55.50261 lineto
156.52682 55.77206 lineto
156.89513 56.04175 lineto
157.26343 56.31143 lineto
157.63173 56.58112 lineto
158.00003 56.85103 lineto
158.36833 57.12093 lineto
158.73663 57.39082 lineto
159.10493 57.66072 lineto
159.47324 57.93085 lineto
159.84154 58.20096 lineto
160.20984 58.47107 lineto
160.57814 58.74141 lineto
160.94644 59.01173 lineto
161.31474 59.28186 lineto
161.68304 59.5524 lineto
162.05136 59.82274 lineto
162.41966 60.09329 lineto
162.78796 60.36383 lineto
163.15627 60.63438 lineto
163.52457 60.90515 lineto
163.89287 61.17592 lineto
164.26117 61.44669 lineto
164.62947 61.71745 lineto
164.99777 61.98822 lineto
165.36607 62.2592 lineto
165.73438 62.53018 lineto stroke
 0 0 1 setrgbcolor 0 0.5 dtransform truncate idtransform setlinewidth pop
 [3 3 ] 0 setdash
newpath 18.42525 -56.69293 moveto
184.2524 70.86617 lineto stroke
112.65143 5.15474 moveto
(y) cmmi10 9.96265 fshow
120.66072 5.15474 moveto
(=) cmr10 9.96265 fshow
131.17673 5.15474 moveto
(ax) cmmi10 9.96265 fshow
144.35072 5.15474 moveto
(+) cmr10 9.96265 fshow
154.31332 5.15474 moveto
(b) cmmi10 9.96265 fshow
 0 0 0 setrgbcolor [] 0 setdash
newpath -18.42525 0 moveto
184.2524 0 lineto stroke
newpath 180.55806 -1.53029 moveto
184.2524 0 lineto
180.55806 1.53029 lineto
 closepath
gsave fill grestore stroke
 0.5 0 dtransform exch truncate exch idtransform pop setlinewidth
newpath 0 -49.60632 moveto
0 85.0394 lineto stroke
 0 0.5 dtransform truncate idtransform setlinewidth pop
newpath 1.53082 81.34375 moveto
0 85.0394 lineto
-1.53082 81.34375 lineto
 closepath
gsave fill grestore stroke
showpage
%%EOF
