input TEX;

verbatimtex
%&latex
 \documentclass{article}
 \usepackage[latin1]{inputenc}
 \usepackage[frenchb]{babel}
 \usepackage{amsmath}
 \begin{document}
etex

vardef exp(expr x) = mexp(x*256) enddef; 

vardef func (expr X) = 
 2*X-1+2/(X+.3)-4
enddef;
outputtemplate := "asymptote_oblique.mps";
beginfig(1)
  u:=1.3cm;
  v:=.5cm;
  
  path parabole;

  % figure  
  parabole = (-.1u, func (-.1)*v) for i=-0.09 step .01 until 4.5: ..(i*u, func (i)*v) endfor;
  draw parabole withcolor red withpen pencircle scaled 1.5bp;
  % asymptote
  drawoptions(withcolor blue);
  draw (.5u, -4v)--(5u, 5v) dashed evenly;
  label.lrt(btex $y=ax+b$ etex, (3u,v));

  drawoptions();
  drawarrow (-0.5u,0)--(5u,0);
  drawarrow (0,-3.5v)--(0,6v);

endfig;

end
