%!PS
%%BoundingBox: -22 -31 213 160 
%%HiResBoundingBox: -21.50984 -30.01364 212.84842 159.48938 
%%Creator: MetaPost 2.02
%%CreationDate: 2023.03.28:2241
%%Pages: 1
%*Font: cmmi10 9.96265 9.96265 78:c
%*Font: cmr7 6.97385 6.97385 30:8
%*Font: cmr10 9.96265 9.96265 3d:8
%%BeginProlog
%%EndProlog
%%Page: 1 1
 1 0 0 setrgbcolor 0 1.5 dtransform truncate idtransform setlinewidth pop
 [] 0 setdash 1 setlinecap 1 setlinejoin 10 setmiterlimit
newpath -4.25223 2.24959 moveto
-3.82661 2.2714 lineto
-3.40166 2.2932 lineto
-2.97668 2.31529 lineto
-2.55173 2.338 lineto
-2.12677 2.3607 lineto
-1.7018 2.38402 lineto
-1.27684 2.40733 lineto
-0.85187 2.43126 lineto
-0.42691 2.45547 lineto
-0.00195 2.4803 lineto
0.42302 2.50513 lineto
0.84798 2.53056 lineto
1.27295 2.5563 lineto
1.6979 2.58234 lineto
2.12286 2.60898 lineto
2.54784 2.63593 lineto
2.9728 2.66318 lineto
3.39777 2.69102 lineto
3.82272 2.7192 lineto
4.24768 2.74796 lineto
4.67265 2.77702 lineto
5.09761 2.80669 lineto
5.52258 2.83667 lineto
5.94754 2.86725 lineto
6.3725 2.89844 lineto
6.79747 2.92992 lineto
7.22243 2.962 lineto
7.6474 2.9947 lineto
8.07236 3.02771 lineto
8.49731 3.06163 lineto
8.92229 3.09584 lineto
9.34724 3.13066 lineto
9.7722 3.16608 lineto
10.19717 3.2021 lineto
10.62213 3.23904 lineto
11.0471 3.27629 lineto
11.47206 3.31413 lineto
11.89702 3.35289 lineto
12.32199 3.39195 lineto
12.74695 3.43222 lineto
13.17192 3.4728 lineto
13.59688 3.51427 lineto
14.02184 3.55635 lineto
14.44681 3.59935 lineto
14.87177 3.64325 lineto
15.29674 3.68776 lineto
15.7217 3.73286 lineto
16.14665 3.77919 lineto
16.57162 3.82613 lineto
16.99658 3.87427 lineto
17.42155 3.923 lineto
17.84651 3.97296 lineto
18.27147 4.02353 lineto
18.69644 4.0753 lineto
19.1214 4.12799 lineto
19.54637 4.18188 lineto
19.97133 4.23637 lineto
20.39629 4.29239 lineto
20.82126 4.3493 lineto
21.24622 4.40744 lineto
21.67117 4.46678 lineto
22.09615 4.52734 lineto
22.5211 4.58911 lineto
22.94608 4.65208 lineto
23.37103 4.71657 lineto
23.79599 4.78227 lineto
24.22096 4.84918 lineto
24.64592 4.91762 lineto
25.07089 4.98755 lineto
25.49585 5.059 lineto
25.9208 5.13197 lineto
26.34578 5.20676 lineto
26.77074 5.28305 lineto
27.19571 5.36087 lineto
27.62067 5.44049 lineto
28.04562 5.52194 lineto
28.4706 5.60521 lineto
28.89555 5.69028 lineto
29.32053 5.77748 lineto
29.74548 5.8668 lineto
30.17044 5.95793 lineto
30.59541 6.0512 lineto
31.02037 6.14687 lineto
31.44534 6.24466 lineto
31.8703 6.34488 lineto
32.29526 6.44751 lineto
32.72023 6.55289 lineto
33.14519 6.66037 lineto
33.57014 6.77087 lineto
33.99512 6.88411 lineto
34.42007 7.00038 lineto
34.84505 7.11937 lineto
35.27 7.24138 lineto
35.69496 7.36673 lineto
36.11993 7.4951 lineto
36.54489 7.6271 lineto
36.96986 7.76276 lineto
37.39482 7.90173 lineto
37.81978 8.04463 lineto
38.24475 8.19148 lineto
38.66971 8.34225 lineto
39.09468 8.49728 lineto
39.51964 8.65654 lineto
39.9446 8.82063 lineto
40.36957 8.98898 lineto
40.79453 9.16246 lineto
41.2195 9.3411 lineto
41.64445 9.52489 lineto
42.06941 9.71442 lineto
42.49438 9.90941 lineto
42.91934 10.11044 lineto
43.34431 10.31754 lineto
43.76927 10.53099 lineto
44.19423 10.7514 lineto
44.6192 10.97849 lineto
45.04416 11.21313 lineto
45.46912 11.45535 lineto
45.89409 11.70544 lineto
46.31905 11.9637 lineto
46.74402 12.23074 lineto
47.16898 12.50658 lineto
47.59393 12.79239 lineto
48.0189 13.0876 lineto
48.44386 13.39339 lineto
48.86884 13.7101 lineto
49.2938 14.038 lineto
49.71875 14.3777 lineto
50.14372 14.73013 lineto
50.56868 15.09558 lineto
50.99365 15.47464 lineto
51.41861 15.86824 lineto
51.84357 16.27728 lineto
52.26854 16.70207 lineto
52.6935 17.14381 lineto
53.11847 17.60342 lineto
53.54343 18.0815 lineto
53.96838 18.57956 lineto
54.39336 19.0982 lineto
54.81831 19.63927 lineto
55.24329 20.20363 lineto
55.66824 20.79222 lineto
55.81203 20.99571 55.95369 21.2007 56.0932 21.40715 curveto
56.23708 21.62004 56.37865 21.83447 56.51817 22.05023 curveto
56.66206 22.27275 56.80376 22.49669 56.94313 22.72208 curveto
57.0872 22.95505 57.22878 23.18956 57.36809 23.42542 curveto
57.5122 23.66943 57.65388 23.91489 57.79306 24.16176 curveto
57.93733 24.41766 58.07892 24.67506 58.21802 24.93382 curveto
58.3623 25.20221 58.50389 25.47202 58.64299 25.74313 curveto
58.78741 26.02463 58.92911 26.30751 59.06795 26.5918 curveto
59.21255 26.88791 59.354 27.18555 59.4929 27.48438 curveto
59.63747 27.79541 59.77922 28.10774 59.91788 28.42145 curveto
60.06273 28.74918 60.20416 29.0784 60.34283 29.40878 curveto
60.48755 29.75359 60.62923 30.09967 60.7678 30.44699 curveto
60.91284 30.81052 61.05446 31.17537 61.19276 31.5415 curveto
61.33788 31.92564 61.47934 32.31117 61.61772 32.69778 curveto
61.7628 33.1031 61.90446 33.50964 62.0427 33.91736 curveto
62.18797 34.34589 62.32945 34.7757 62.46765 35.20656 curveto
62.61296 35.65956 62.75465 36.11374 62.89262 36.56903 curveto
63.03824 37.04956 63.17973 37.53134 63.31758 38.01416 curveto
63.46318 38.52412 63.60475 39.03526 63.74254 39.5474 curveto
63.88823 40.08888 64.02974 40.63152 64.16751 41.17508 curveto
64.31325 41.75003 64.45483 42.32605 64.59247 42.903 curveto
64.7385 43.51509 64.8801 44.12823 65.01744 44.74234 curveto
65.16362 45.39594 65.30498 46.05061 65.4424 46.70612 curveto
65.58846 47.4028 65.73007 48.10042 65.86736 48.79887 curveto
66.01373 49.54358 66.15523 50.28926 66.29233 51.03574 curveto
66.4388 51.83318 66.58028 52.63155 66.71729 53.43066 curveto
66.86389 54.28577 67.00536 55.14175 67.14226 55.99847 curveto
67.28902 56.91689 67.43051 57.83614 67.56721 58.7561 curveto
67.71408 59.7445 67.8554 60.73372 67.99217 61.72357 curveto
68.1391 62.7869 68.28078 63.85097 68.41714 64.9157 curveto
68.56451 66.06631 68.70567 67.21773 68.8421 68.3697 curveto
68.98929 69.61246 69.13097 70.85583 69.26706 72.09985 curveto
69.4148 73.45038 69.55594 74.8016 69.69203 76.15335 curveto
69.83951 77.6182 69.98106 79.08363 70.11699 80.54959 curveto
70.26497 82.14543 70.40628 83.74188 70.54196 85.33882 curveto
70.69005 87.08176 70.8314 88.82524 70.96692 90.5692 curveto
71.11523 92.47787 71.25656 94.38708 71.39188 96.29672 curveto
71.54042 98.39305 71.68173 100.48987 71.81685 102.5871 curveto
71.96562 104.8963 72.10689 107.20598 72.2418 109.51602 curveto
72.39085 112.06818 72.53215 114.62077 72.66678 117.17372 curveto
72.81604 120.00415 72.95709 122.83499 73.09174 125.66615 curveto
73.24115 128.80765 73.38266 131.94952 73.5167 135.09172 curveto
73.66684 138.61191 73.80759 142.13248 73.94167 145.6533 curveto
74.09166 149.59215 74.23332 153.53131 74.36662 157.47076 curveto stroke
newpath 95.6693 158.73938 moveto
95.80219 154.74966 95.94385 150.76024 96.09425 146.77113 curveto
96.22827 143.2171 96.36923 139.66335 96.51921 136.10995 curveto
96.65343 132.93002 96.79488 129.7504 96.94418 126.57114 curveto
97.07867 123.70758 97.21954 120.84431 97.36914 117.9815 curveto
97.50368 115.40686 97.64528 112.83258 97.7941 110.25873 curveto
97.92911 107.92377 98.07005 105.58914 98.21907 103.25502 curveto
98.35403 101.14093 98.49562 99.02727 98.64403 96.91408 curveto
98.77951 94.98488 98.9207 93.05608 99.069 91.1278 curveto
99.20445 89.3667 99.34583 87.60605 99.49396 85.84596 curveto
99.62964 84.2339 99.77098 82.62231 99.91891 81.01132 curveto
100.05476 79.53194 100.19615 78.05307 100.34389 76.57481 curveto
100.4799 75.21388 100.62128 73.85349 100.76884 72.49376 curveto
100.90501 71.23897 101.04646 69.98474 101.19382 68.73122 curveto
101.33012 67.57166 101.4715 66.4127 101.61877 65.25449 curveto
101.7553 64.1809 101.89688 63.10796 102.04373 62.03572 curveto
102.1804 61.03789 102.32162 60.0407 102.4687 59.04434 curveto
102.60535 58.11871 102.74701 57.19383 102.89366 56.26974 curveto
103.03067 55.40639 103.17203 54.54373 103.31863 53.68196 curveto
103.4556 52.87689 103.59714 52.07259 103.74359 51.26918 curveto
103.88066 50.51726 104.02205 49.76611 104.16855 49.01596 curveto
104.3057 48.31364 104.44734 47.6122 104.59352 46.9117 curveto
104.73103 46.25269 104.87257 45.59451 105.01848 44.93732 curveto
105.15596 44.31801 105.29735 43.69957 105.44345 43.08224 curveto
105.5809 42.50142 105.72255 41.92159 105.86841 41.34282 curveto
106.0061 40.79642 106.14758 40.25096 106.29337 39.70665 curveto
106.43118 39.1921 106.57288 38.67857 106.71834 38.16614 curveto
106.8563 37.68013 106.99765 37.1951 107.1433 36.71133 curveto
107.28119 36.2533 107.42294 35.79642 107.56827 35.34068 curveto
107.7065 34.90721 107.84796 34.47478 107.99323 34.04361 curveto
108.1314 33.63347 108.27301 33.22449 108.41818 32.81677 curveto
108.5565 32.42831 108.69804 32.04102 108.84315 31.65504 curveto
108.98155 31.28694 109.12315 30.92004 109.26811 30.55447 curveto
109.40665 30.20512 109.54822 29.85698 109.69307 29.51021 curveto
109.83168 29.17839 109.97328 28.84782 110.11804 28.51863 curveto
110.25674 28.20323 110.39832 27.88911 110.543 27.57642 curveto
110.68184 27.27635 110.82352 26.97762 110.96797 26.6802 curveto
111.1069 26.39417 111.24838 26.10934 111.39293 25.8261 curveto
111.53188 25.55382 111.67365 25.28297 111.81789 25.01346 curveto
111.95705 24.75343 112.0985 24.49463 112.24286 24.23746 curveto
112.38196 23.98964 112.52374 23.74335 112.66782 23.49838 curveto
112.80722 23.26137 112.94873 23.02562 113.09279 22.79141 curveto
113.23212 22.5649 113.37376 22.33983 113.51775 22.11624 curveto
113.65723 21.89964 113.79884 21.68445 113.9427 21.47073 curveto
114.08226 21.26341 114.2239 21.0575 114.36768 20.85307 curveto
114.50731 20.65453 114.64894 20.45738 114.79263 20.26176 curveto
115.2176 19.69528 lineto
115.64256 19.1515 lineto
116.06752 18.63074 lineto
116.4925 18.13116 lineto
116.91745 17.65067 lineto
117.34242 17.18924 lineto
117.76738 16.74599 lineto
118.19234 16.31938 lineto
118.61731 15.90881 lineto
119.04227 15.5137 lineto
119.46724 15.13281 lineto
119.8922 14.76616 lineto
120.31715 14.41252 lineto
120.74213 14.0713 lineto
121.16708 13.7425 lineto
121.59204 13.42458 lineto
122.01701 13.11818 lineto
122.44197 12.82146 lineto
122.86694 12.53503 lineto
123.2919 12.258 lineto
123.71686 11.99036 lineto
124.14183 11.73119 lineto
124.56679 11.48018 lineto
124.99176 11.23737 lineto
125.41672 11.0021 lineto
125.84167 10.77382 lineto
126.26665 10.5528 lineto
126.6916 10.33873 lineto
127.11658 10.13103 lineto
127.54153 9.92938 lineto
127.96649 9.7338 lineto
128.39146 9.54396 lineto
128.81642 9.35957 lineto
129.2414 9.18033 lineto
129.66635 9.00624 lineto
130.09131 8.8373 lineto
130.51628 8.67288 lineto
130.94124 8.51302 lineto
131.36621 8.3577 lineto
131.79117 8.20631 lineto
132.21613 8.05917 lineto
132.6411 7.91595 lineto
133.06606 7.77638 lineto
133.49101 7.64044 lineto
133.91599 7.50842 lineto
134.34094 7.37944 lineto
134.76591 7.2538 lineto
135.19087 7.13147 lineto
135.61583 7.01219 lineto
136.0408 6.89561 lineto
136.46576 6.78207 lineto
136.89073 6.67157 lineto
137.31569 6.56348 lineto
137.74065 6.45811 lineto
138.16562 6.35516 lineto
138.59058 6.25465 lineto
139.01555 6.15656 lineto
139.4405 6.06088 lineto
139.86546 5.96732 lineto
140.29044 5.87558 lineto
140.7154 5.78656 lineto
141.14037 5.69907 lineto
141.56532 5.61368 lineto
141.99028 5.53012 lineto
142.41525 5.44867 lineto
142.84021 5.36874 lineto
143.26518 5.29062 lineto
143.69014 5.21432 lineto
144.1151 5.13954 lineto
144.54007 5.06627 lineto
144.96503 4.99481 lineto
145.38998 4.92458 lineto
145.81496 4.85616 lineto
146.23991 4.78894 lineto
146.66489 4.72293 lineto
147.08984 4.65874 lineto
147.5148 4.59546 lineto
147.93977 4.5334 lineto
148.36473 4.47284 lineto
148.7897 4.4135 lineto
149.21466 4.35506 lineto
149.63962 4.29814 lineto
150.06459 4.24213 lineto
150.48955 4.18733 lineto
150.91452 4.13344 lineto
151.33948 4.08044 lineto
151.76443 4.02867 lineto
152.1894 3.97781 lineto
152.61436 3.92816 lineto
153.03934 3.8791 lineto
153.4643 3.83096 lineto
153.88925 3.78404 lineto
154.31422 3.73772 lineto
154.73918 3.69229 lineto
155.16415 3.64749 lineto
155.58911 3.60359 lineto
156.01407 3.5606 lineto
156.43904 3.51851 lineto
156.864 3.47702 lineto
157.28896 3.43616 lineto
157.71393 3.39618 lineto
158.13889 3.35683 lineto
158.56386 3.31807 lineto
158.98882 3.27992 lineto
159.41377 3.24268 lineto
159.83875 3.20575 lineto
160.2637 3.16971 lineto
160.68867 3.1343 lineto
161.11363 3.09947 lineto
161.53859 3.06496 lineto
161.96356 3.03134 lineto
162.38852 2.99805 lineto
162.81349 2.96535 lineto
163.23845 2.93324 lineto
163.6634 2.90146 lineto
164.08838 2.87057 lineto
164.51334 2.84 lineto
164.93831 2.80972 lineto
165.36327 2.78004 lineto
165.78822 2.75098 lineto
166.2132 2.72221 lineto
166.63815 2.69376 lineto
167.06313 2.66591 lineto
167.48808 2.63866 lineto
167.91304 2.61171 lineto
168.33801 2.58507 lineto
168.76297 2.55872 lineto
169.18793 2.53299 lineto
169.6129 2.50755 lineto
170.03786 2.48273 lineto stroke
 0 0 1 setrgbcolor 0.5 0 dtransform exch truncate exch idtransform pop setlinewidth
 [3 3 ] 0 setdash
newpath 85.03937 -19.84242 moveto
85.03937 158.73938 lineto stroke
72.77608 -6.3895 moveto
(x) cmmi10 9.96265 fshow
78.46997 -7.8839 moveto
(0) cmr7 6.97385 fshow
 0 0.5 dtransform truncate idtransform setlinewidth pop
 [0 2.5 ] 1.25 setdash
newpath 170.07874 79.36969 moveto
147.76999 101.67844 111.60034 101.67844 89.2916 79.36969 curveto stroke
 [] 0 setdash
newpath 90.94887 83.01083 moveto
90.35902 81.82545 89.80594 80.61145 89.2916 79.36969 curveto
90.53336 79.88403 91.78288 80.35133 93.03816 80.77243 curveto
 closepath
gsave fill grestore stroke
173.07874 78.19353 moveto
(y) cmmi10 9.96265 fshow
181.08803 78.19353 moveto
(=) cmr10 9.96265 fshow
191.60403 78.19353 moveto
(x) cmmi10 9.96265 fshow
197.29803 76.69913 moveto
(0) cmr7 6.97385 fshow
 0 0 0 setrgbcolor 0.5 0 dtransform exch truncate exch idtransform pop setlinewidth
newpath 0 -0.99219 moveto
0 0.99219 lineto stroke
newpath 21.25984 -0.99219 moveto
21.25984 0.99219 lineto stroke
newpath 42.51968 -0.99219 moveto
42.51968 0.99219 lineto stroke
newpath 63.77953 -0.99219 moveto
63.77953 0.99219 lineto stroke
newpath 85.03937 -0.99219 moveto
85.03937 0.99219 lineto stroke
newpath 106.29921 -0.99219 moveto
106.29921 0.99219 lineto stroke
newpath 127.55905 -0.99219 moveto
127.55905 0.99219 lineto stroke
newpath 148.8189 -0.99219 moveto
148.8189 0.99219 lineto stroke
newpath 170.07874 -0.99219 moveto
170.07874 0.99219 lineto stroke
newpath 191.33858 -0.99219 moveto
191.33858 0.99219 lineto stroke
 0 0.5 dtransform truncate idtransform setlinewidth pop
newpath -2.12611 -19.84242 moveto
2.12611 -19.84242 lineto stroke
newpath -2.12611 0 moveto
2.12611 0 lineto stroke
newpath -2.12611 19.84242 moveto
2.12611 19.84242 lineto stroke
newpath -2.12611 39.68484 moveto
2.12611 39.68484 lineto stroke
newpath -2.12611 59.52727 moveto
2.12611 59.52727 lineto stroke
newpath -2.12611 79.36969 moveto
2.12611 79.36969 lineto stroke
newpath -2.12611 99.21211 moveto
2.12611 99.21211 lineto stroke
newpath -2.12611 119.05453 moveto
2.12611 119.05453 lineto stroke
newpath -2.12611 138.89696 moveto
2.12611 138.89696 lineto stroke
newpath -21.25984 0 moveto
212.59842 0 lineto stroke
newpath 208.90277 -1.53082 moveto
212.59842 0 lineto
208.90277 1.53082 lineto
 closepath
gsave fill grestore stroke
 0.5 0 dtransform exch truncate exch idtransform pop setlinewidth
newpath 0 -29.76364 moveto
0 158.73938 lineto stroke
 0 0.5 dtransform truncate idtransform setlinewidth pop
newpath 1.53114 155.04297 moveto
0 158.73938 lineto
-1.53114 155.04297 lineto
 closepath
gsave fill grestore stroke
showpage
%%EOF
