input TEX;

verbatimtex
%&latex
 \documentclass{article}
 \usepackage[latin1]{inputenc}
 \usepackage[frenchb]{babel}
 \usepackage{amsmath}
 \begin{document}
etex

vardef exp(expr x) = (mexp(256)**x) enddef; 

vardef func (expr X) = 
  .5*1/((X-2)**2)
enddef;
outputtemplate := "asymptote_verticale.mps";
beginfig(1)
  u:=1.5cm;
  v:=.7cm;
  
  path parabolea,paraboleb; numeric N;

  % figure  
  parabolea = (-.1u, func (-.1)*v) for i=-0.09 step .01 until 1.75: ..(i*u, func (i)*v) endfor;
  paraboleb = (2.25*u, func(2.25)*v) for i=2.26 step .01 until 4: ..(i*u, func (i)*v) endfor;
  draw parabolea withcolor red withpen pencircle scaled 1.5bp;
  draw paraboleb withcolor red withpen pencircle scaled 1.5bp;
  
  drawoptions(withcolor blue);
  draw (2u,-1v)--(2u,8v) dashed evenly;
  label.llft (btex $x_0$ etex, (2u, 0));
  drawarrow (4u, 4v){dir 135}..(2.1u, 4v) dashed withdots scaled .5;
  label.rt(btex $y=x_0$ etex, (4u, 4v) );
  drawoptions();
  % droite -eps/eps
  for i=0 step .5 until 4.5: draw (i*u,-0.05v)--(i*u,0.05v); endfor;
  for j=-1 step 1 until 7.5: draw (-0.05u,j*v)--(0.05u,j*v); endfor;
  drawarrow (-0.5u,0)--(5u,0);
  drawarrow (0,-1.5v)--(0,8v);

endfig;

end
