%!PS
%%BoundingBox: -58 -29 285 171 
%%HiResBoundingBox: -57.4429 -28.59645 284.02765 170.3287 
%%Creator: MetaPost 2.02
%%CreationDate: 2023.03.28:2241
%%Pages: 1
%*Font: cmmi10 8.96631 9.96265 60:8000004
%*Font: cmr10 8.96631 9.96265 3d:8
%%BeginProlog
%%EndProlog
%%Page: 1 1
 1 0 0 setrgbcolor 0 1.5 dtransform truncate idtransform setlinewidth pop
 [] 0 setdash 1 setlinecap 1 setlinejoin 10 setmiterlimit
newpath -56.6929 151.1805 moveto
-56.50691 150.6632 -56.31833 150.14674 -56.12628 149.63203 curveto
-55.94029 149.13115 -55.75171 148.63202 -55.55966 148.13373 curveto
-55.37367 147.64929 -55.18423 147.16573 -54.99304 146.68301 curveto
-54.80705 146.21416 -54.61761 145.74529 -54.42644 145.27815 curveto
-54.23958 144.82314 -54.051 144.36897 -53.85982 143.91568 curveto
-53.67383 143.4745 -53.48438 143.03418 -53.2932 142.59473 curveto
-53.10634 142.16652 -52.91776 141.73918 -52.72658 141.31357 curveto
-52.53972 140.89746 -52.35114 140.4831 -52.15996 140.0696 curveto
-51.97311 139.66562 -51.78452 139.26335 -51.59334 138.86197 curveto
-51.4065 138.46922 -51.21791 138.07822 -51.02672 137.68808 curveto
-50.83987 137.30658 -50.65129 136.92682 -50.46011 136.54791 curveto
-50.27325 136.17767 -50.08467 135.80829 -49.8935 135.43977 curveto
-49.70663 135.07904 -49.51805 134.71918 -49.32687 134.36104 curveto
-49.14001 134.01068 -48.95143 133.6612 -48.76025 133.31258 curveto
-48.5734 132.97087 -48.38481 132.63004 -48.19363 132.29094 curveto
-48.00679 131.95876 -47.8182 131.62743 -47.62701 131.29698 curveto
-47.44017 130.97258 -47.25159 130.6499 -47.06041 130.3281 curveto
-46.87355 130.01236 -46.6841 129.69833 -46.49379 129.38518 curveto
-45.92717 128.46475 lineto
-45.74031 128.16458 -45.55086 127.86612 -45.36055 127.56854 curveto
-44.79393 126.69397 lineto
-44.60707 126.4085 -44.41763 126.12389 -44.22731 125.84015 curveto
-44.04047 125.5616 -43.85101 125.2839 -43.66069 125.00708 curveto
-43.09409 124.1948 lineto
-42.52747 123.40067 lineto
-41.96085 122.62556 lineto
-41.39423 121.86777 lineto
-40.8276 121.12727 lineto
-40.26099 120.40408 lineto
-39.69437 119.69646 lineto
-39.12776 119.0044 lineto
-38.56114 118.32706 lineto
-37.99452 117.66441 lineto
-37.4279 117.01648 lineto
-36.86128 116.38153 lineto
-36.29466 115.75954 lineto
-35.72806 115.1514 lineto
-35.16144 114.5545 lineto
-34.59482 113.97058 lineto
-34.0282 113.39792 lineto
-33.46158 112.83649 lineto
-32.89496 112.2863 lineto
-32.32834 111.7465 lineto
-31.76173 111.21796 lineto
-31.19511 110.69891 lineto
-30.6285 110.18939 lineto
-30.06187 109.68938 lineto
-29.49525 109.19888 lineto
-28.92863 108.71704 lineto
-28.36201 108.24472 lineto
-27.79541 107.78018 lineto
-27.22879 107.3243 lineto
-26.66217 106.87619 lineto
-26.09555 106.43587 lineto
-25.52893 106.00334 lineto
-24.96231 105.5786 lineto
-24.3957 105.16077 lineto
-23.82909 104.75072 lineto
-23.26247 104.34674 lineto
-22.69585 103.94968 lineto
-22.12923 103.55952 lineto
-21.5626 103.17545 lineto
-20.99599 102.79741 lineto
-20.42938 102.42543 lineto
-19.86276 102.06038 lineto
-19.29614 101.69965 lineto
-18.72952 101.34583 lineto
-18.1629 100.99721 lineto
-17.59628 100.65378 lineto
-17.02966 100.31554 lineto
-16.46306 99.98248 lineto
-15.89644 99.65463 lineto
-15.32982 99.33195 lineto
-14.7632 99.01361 lineto
-14.19658 98.70045 lineto
-13.62996 98.39163 lineto
-13.06335 98.08713 lineto
-12.49673 97.78696 lineto
-11.93011 97.49196 lineto
-11.3635 97.20044 lineto
-10.79688 96.91324 lineto
-10.23026 96.63036 lineto
-9.66364 96.35094 lineto
-9.09703 96.07585 lineto
-8.53041 95.80421 lineto
-7.96379 95.53606 lineto
-7.39717 95.2722 lineto
-6.83055 95.01096 lineto
-6.26393 94.75403 lineto
-5.69731 94.50056 lineto
-5.1307 94.25056 lineto
-4.56409 94.00316 lineto
-3.99747 93.7592 lineto
-3.43085 93.51872 lineto
-2.86423 93.28082 lineto
-2.2976 93.04639 lineto
-1.73099 92.81541 lineto
-1.16438 92.58618 lineto
-0.59776 92.36127 lineto
-0.03114 92.13808 lineto
0.53548 91.91748 lineto
1.1021 91.70035 lineto
1.66872 91.48582 lineto
2.23532 91.27388 lineto
2.80194 91.06453 lineto
3.36856 90.85692 lineto
3.93518 90.65276 lineto
4.5018 90.45033 lineto
5.06842 90.2505 lineto
5.63504 90.05327 lineto
6.20164 89.85863 lineto
6.76826 89.66573 lineto
7.33488 89.4754 lineto
7.9015 89.28682 lineto
8.46812 89.10083 lineto
9.03474 88.91658 lineto
9.60136 88.73404 lineto
10.16797 88.55411 lineto
10.73459 88.37677 lineto
11.30121 88.2003 lineto
11.86783 88.02643 lineto
12.43445 87.85428 lineto
13.00107 87.68385 lineto
13.56767 87.51517 lineto
14.1343 87.34908 lineto
14.70091 87.18385 lineto
15.26753 87.02121 lineto
15.83415 86.86032 lineto
16.40077 86.70027 lineto
16.96739 86.54198 lineto
17.534 86.38626 lineto
18.10062 86.23141 lineto
18.66724 86.0783 lineto
19.23386 85.92691 lineto
19.80048 85.77725 lineto
20.3671 85.62846 lineto
20.93372 85.48227 lineto
21.50032 85.33693 lineto
22.06694 85.19247 lineto
22.63356 85.0506 lineto
23.20018 84.90872 lineto
23.7668 84.76945 lineto
24.33342 84.63104 lineto
24.90002 84.49435 lineto
25.46664 84.35855 lineto
26.03326 84.22446 lineto
26.59988 84.09125 lineto
27.1665 83.95975 lineto
27.73312 83.82913 lineto
28.29974 83.70023 lineto
28.86635 83.5722 lineto
29.43297 83.44504 lineto
29.99959 83.31961 lineto
30.56621 83.19504 lineto
31.13283 83.07219 lineto
31.69945 82.95023 lineto
32.26607 82.82912 lineto
32.83267 82.70886 lineto
33.39929 82.59035 lineto
33.96591 82.4727 lineto
34.53253 82.35593 lineto
35.09915 82.24 lineto
35.66577 82.12581 lineto
36.23238 82.0125 lineto
36.799 81.90002 lineto
37.36562 81.78844 lineto
37.93224 81.6777 lineto
38.49886 81.56784 lineto
39.06548 81.45972 lineto
39.6321 81.35158 lineto
40.1987 81.24518 lineto
40.76532 81.13963 lineto
41.33194 81.0341 lineto
41.89856 80.9303 lineto
42.46518 80.82735 lineto
43.0318 80.72527 lineto
43.59842 80.62405 lineto
44.16502 80.52284 lineto
44.73164 80.42337 lineto
45.29826 80.32475 lineto
45.86488 80.22699 lineto
46.4315 80.12924 lineto
46.99812 80.03322 lineto
47.56474 79.9372 lineto
48.13135 79.84204 lineto
48.69797 79.74861 lineto
49.26459 79.65518 lineto
49.8312 79.56262 lineto
50.39783 79.47093 lineto
50.96445 79.37923 lineto
51.53105 79.28926 lineto
52.09767 79.1993 lineto
52.66429 79.1102 lineto
53.23091 79.02196 lineto
53.79753 78.93459 lineto
54.36415 78.84808 lineto
54.93077 78.76158 lineto
55.49738 78.67593 lineto
56.064 78.59116 lineto
56.63062 78.50725 lineto
57.19724 78.42334 lineto
57.76385 78.34029 lineto
58.33047 78.2581 lineto
58.8971 78.17679 lineto
59.4637 78.09547 lineto
60.03032 78.01503 lineto
60.59694 77.93544 lineto
61.16356 77.85585 lineto
61.73018 77.77713 lineto
62.2968 77.69928 lineto
62.8634 77.62141 lineto
63.43002 77.54443 lineto
63.99664 77.4683 lineto
64.56326 77.39218 lineto
65.12988 77.31691 lineto
65.6965 77.24252 lineto
66.26312 77.16812 lineto
66.82973 77.09459 lineto
67.39635 77.02193 lineto
67.96297 76.94926 lineto
68.52959 76.8766 lineto
69.0962 76.80566 lineto
69.66283 76.73473 lineto
70.22945 76.66379 lineto
70.79605 76.59372 lineto
71.36267 76.52452 lineto
71.92929 76.4553 lineto
72.49591 76.38611 lineto
73.06253 76.31863 lineto
73.62915 76.25029 lineto
74.19576 76.18369 lineto
74.76237 76.11707 lineto
75.329 76.05046 lineto
75.89561 75.98471 lineto
76.46223 75.91898 lineto
77.02885 75.8541 lineto
77.59547 75.79007 lineto
78.16208 75.72606 lineto
78.7287 75.66205 lineto
79.29532 75.59889 lineto
79.86194 75.53575 lineto
80.42856 75.47346 lineto
80.99518 75.41205 lineto
81.5618 75.34976 lineto
82.1284 75.2892 lineto
82.69502 75.22778 lineto
83.26164 75.16809 lineto
83.82826 75.10754 lineto
84.39488 75.04785 lineto
84.9615 74.98903 lineto
85.5281 74.9302 lineto
86.09473 74.87138 lineto
86.66135 74.81342 lineto
87.22797 74.75632 lineto
87.79459 74.69836 lineto
88.3612 74.64127 lineto
88.92783 74.58504 lineto
89.49443 74.52881 lineto
90.06105 74.47258 lineto
90.62767 74.41722 lineto
91.19429 74.36186 lineto
91.76091 74.30736 lineto
92.32753 74.25285 lineto
92.89415 74.19836 lineto
93.46075 74.14473 lineto
94.02737 74.0911 lineto
94.594 74.03831 lineto
95.16061 73.98468 lineto
95.72723 73.93279 lineto
96.29385 73.88002 lineto
96.86047 73.82811 lineto
97.42708 73.77707 lineto
97.9937 73.72517 lineto
98.56032 73.67413 lineto
99.12694 73.62395 lineto
99.69356 73.57378 lineto
100.26018 73.5236 lineto
100.82678 73.47343 lineto
101.3934 73.42412 lineto
101.96002 73.37482 lineto
102.52664 73.3255 lineto
103.09326 73.27707 lineto
103.65988 73.22862 lineto
104.2265 73.18105 lineto
104.7931 73.13347 lineto
105.35973 73.08588 lineto
105.92635 73.0383 lineto
106.49297 72.9916 lineto
107.05959 72.94489 lineto
107.6262 72.89816 lineto
108.19283 72.85231 lineto
108.75943 72.80647 lineto
109.32605 72.76062 lineto
109.89267 72.71477 lineto
110.45929 72.66978 lineto
111.02591 72.6248 lineto
111.59253 72.58069 lineto
112.15913 72.5357 lineto
112.72575 72.49158 lineto
113.29237 72.44833 lineto
113.859 72.4042 lineto
114.42561 72.36096 lineto
114.99223 72.3177 lineto
115.55885 72.27531 lineto
116.12546 72.23207 lineto
116.69208 72.18968 lineto
117.2587 72.1473 lineto
117.82532 72.10576 lineto
118.39194 72.06424 lineto
118.95856 72.02272 lineto
119.52518 71.9812 lineto
120.09178 71.93967 lineto
120.6584 71.89902 lineto
121.22502 71.85835 lineto
121.79164 71.8177 lineto
122.35826 71.77791 lineto
122.92488 71.73811 lineto
123.49149 71.69832 lineto
124.0581 71.65852 lineto
124.62473 71.61873 lineto
125.19135 71.5798 lineto
125.75797 71.54088 lineto
126.32458 71.50195 lineto
126.8912 71.46388 lineto
127.45781 71.42496 lineto
128.02443 71.3869 lineto
128.59105 71.34883 lineto
129.15767 71.31163 lineto
129.72429 71.27357 lineto
130.29091 71.23637 lineto
130.85753 71.19917 lineto
131.42413 71.16197 lineto
131.99075 71.12564 lineto
132.55737 71.08846 lineto
133.124 71.05211 lineto
133.69061 71.01578 lineto
134.25723 70.97945 lineto
134.82384 70.94398 lineto
135.39046 70.90851 lineto
135.95708 70.87305 lineto
136.5237 70.83759 lineto
137.09032 70.80211 lineto
137.65694 70.76752 lineto
138.22356 70.73204 lineto
138.79016 70.69743 lineto
139.35678 70.66284 lineto
139.9234 70.6291 lineto
140.49002 70.5945 lineto
141.05664 70.56076 lineto
141.62326 70.52702 lineto
142.18988 70.49329 lineto
142.75648 70.45955 lineto
143.3231 70.42668 lineto
143.88972 70.39293 lineto
144.45634 70.36006 lineto
145.02296 70.3272 lineto
145.58958 70.29431 lineto
146.15619 70.26231 lineto
146.72281 70.22945 lineto
147.28943 70.19743 lineto
147.85605 70.16542 lineto
148.42267 70.13342 lineto
148.98929 70.10141 lineto
149.55591 70.07027 lineto
150.12251 70.03825 lineto
150.68913 70.00711 lineto
151.25575 69.97598 lineto
151.82237 69.94484 lineto
152.38899 69.91455 lineto
152.95561 69.8834 lineto
153.52223 69.85313 lineto
154.08884 69.82286 lineto
154.65546 69.79172 lineto
155.22208 69.7623 lineto
155.7887 69.73203 lineto
156.35532 69.70175 lineto
156.92194 69.67233 lineto
157.48856 69.64293 lineto
158.05516 69.61351 lineto
158.62178 69.5841 lineto
159.1884 69.55469 lineto
159.75502 69.52528 lineto
160.32164 69.49673 lineto
160.88826 69.46732 lineto
161.45486 69.43877 lineto
162.02148 69.41022 lineto
162.5881 69.38167 lineto
163.15472 69.35399 lineto
163.72134 69.32544 lineto
164.28796 69.2969 lineto
164.85458 69.26921 lineto
165.42119 69.24153 lineto
165.98781 69.21385 lineto
166.55443 69.18617 lineto
167.12105 69.1585 lineto
167.68767 69.13167 lineto
168.25429 69.10399 lineto
168.8209 69.07718 lineto
169.38751 69.05035 lineto
169.95413 69.02354 lineto
170.52075 68.99672 lineto
171.08737 68.96991 lineto
171.65399 68.94308 lineto
172.22061 68.91713 lineto
172.78722 68.89032 lineto
173.35384 68.86436 lineto
173.92046 68.83841 lineto
174.48708 68.81247 lineto
175.0537 68.78651 lineto
175.62032 68.76056 lineto
176.18694 68.73547 lineto
176.75354 68.70952 lineto
177.32016 68.68443 lineto
177.88678 68.65935 lineto
178.4534 68.63426 lineto
179.02002 68.60918 lineto
179.58664 68.58409 lineto
180.15326 68.559 lineto
180.71986 68.5339 lineto
181.28648 68.50969 lineto
181.8531 68.4846 lineto
182.41972 68.46039 lineto
182.98634 68.43616 lineto
183.55296 68.41194 lineto
184.11957 68.38771 lineto
184.68619 68.3635 lineto
185.2528 68.34013 lineto
185.81943 68.31592 lineto
186.38605 68.29169 lineto
186.95267 68.26834 lineto
187.51929 68.24498 lineto
188.08589 68.22162 lineto
188.65251 68.19827 lineto
189.21913 68.17491 lineto
189.78575 68.15155 lineto
190.35237 68.12819 lineto
190.91899 68.1057 lineto
191.48561 68.08235 lineto
192.05222 68.05986 lineto
192.61884 68.03737 lineto
193.18546 68.014 lineto
193.75208 67.99152 lineto
194.3187 67.96902 lineto
194.88531 67.94653 lineto
195.45192 67.92491 lineto
196.01854 67.90242 lineto
196.58516 67.87993 lineto
197.15178 67.85829 lineto
197.7184 67.83667 lineto
198.28502 67.81418 lineto
198.85164 67.79256 lineto
199.41824 67.77092 lineto
199.98486 67.7493 lineto
200.55148 67.72768 lineto
201.1181 67.70691 lineto
201.68472 67.68529 lineto
202.25134 67.66365 lineto
202.81796 67.6429 lineto
203.38457 67.62126 lineto
203.95119 67.60051 lineto
204.5178 67.57974 lineto
205.08443 67.55899 lineto
205.65105 67.53822 lineto
206.21767 67.51746 lineto
206.78429 67.4967 lineto
207.35089 67.47594 lineto
207.91751 67.45604 lineto
208.48413 67.43527 lineto
209.05075 67.41539 lineto
209.61737 67.39462 lineto
210.18399 67.37473 lineto
210.7506 67.35483 lineto
211.31721 67.33493 lineto
211.88383 67.31503 lineto
212.45045 67.29514 lineto
213.01707 67.27524 lineto
213.5837 67.25534 lineto
214.15031 67.23544 lineto
214.71692 67.21642 lineto
215.28354 67.19652 lineto
215.85016 67.17749 lineto
216.41678 67.1576 lineto
216.9834 67.13857 lineto
217.55002 67.11954 lineto
218.11664 67.1005 lineto
218.68324 67.08147 lineto
219.24986 67.06244 lineto
219.81648 67.04341 lineto
220.3831 67.02437 lineto
220.94972 67.00534 lineto
221.51634 66.98718 lineto
222.08295 66.96814 lineto
222.64957 66.94998 lineto
223.21619 66.93094 lineto
223.7828 66.91278 lineto
224.34943 66.8946 lineto
224.91605 66.87645 lineto
225.48267 66.85828 lineto
226.04927 66.84012 lineto
226.61589 66.82195 lineto
227.18251 66.80379 lineto
227.74913 66.78561 lineto
228.31575 66.76746 lineto
228.88237 66.75015 lineto
229.44899 66.73198 lineto
230.0156 66.71382 lineto
230.58221 66.69652 lineto
231.14883 66.67921 lineto
231.71545 66.66104 lineto
232.28207 66.64374 lineto
232.8487 66.62645 lineto
233.4153 66.60915 lineto
233.98192 66.59184 lineto
234.54854 66.57454 lineto
235.11516 66.55724 lineto
235.68178 66.53993 lineto
236.2484 66.5235 lineto
236.81502 66.5062 lineto
237.38162 66.48889 lineto
237.94824 66.47246 lineto
238.51486 66.45515 lineto
239.08148 66.43872 lineto
239.6481 66.42229 lineto
240.21472 66.40498 lineto
240.78134 66.38855 lineto
241.34795 66.37212 lineto
241.91457 66.35568 lineto
242.48119 66.33925 lineto
243.0478 66.3228 lineto
243.61443 66.30637 lineto
244.18105 66.28993 lineto
244.74765 66.27437 lineto
245.31427 66.25792 lineto
245.88089 66.24149 lineto
246.44751 66.22592 lineto
247.01413 66.20949 lineto
247.58075 66.19391 lineto
248.14737 66.17834 lineto
248.71397 66.16191 lineto
249.2806 66.14633 lineto
249.84721 66.13077 lineto
250.41383 66.11519 lineto
250.98045 66.09962 lineto
251.54707 66.08405 lineto
252.1137 66.06848 lineto
252.6803 66.0529 lineto
253.24692 66.03734 lineto
253.81354 66.02176 lineto
254.38016 66.00705 lineto
254.94678 65.99149 lineto
255.5134 65.97592 lineto
256.08002 65.96121 lineto
256.64662 65.94563 lineto
257.21324 65.93092 lineto
257.77986 65.91623 lineto
258.34648 65.90065 lineto
258.9131 65.88594 lineto
259.47972 65.87125 lineto
260.04633 65.85654 lineto
260.61295 65.84183 lineto
261.17957 65.82712 lineto
261.74619 65.81242 lineto
262.3128 65.79771 lineto
262.87943 65.783 lineto
263.44604 65.7683 lineto
264.01265 65.75359 lineto
264.57927 65.73889 lineto
265.14589 65.72505 lineto
265.71251 65.71034 lineto
266.27913 65.6965 lineto
266.84575 65.6818 lineto
267.41237 65.66795 lineto
267.97897 65.65324 lineto
268.5456 65.6394 lineto
269.11221 65.62556 lineto
269.67883 65.61172 lineto
270.24545 65.59702 lineto
270.81207 65.58318 lineto
271.37868 65.56934 lineto
271.9453 65.5555 lineto
272.51192 65.54166 lineto
273.07854 65.52782 lineto
273.64516 65.51398 lineto
274.21178 65.50012 lineto
274.7784 65.48715 lineto
275.345 65.47331 lineto
275.91162 65.45947 lineto
276.47824 65.44649 lineto
277.04486 65.43265 lineto
277.61148 65.41881 lineto
278.1781 65.40584 lineto
278.74472 65.39287 lineto
279.31133 65.37901 lineto
279.87794 65.36604 lineto
280.44456 65.3522 lineto
281.01118 65.33923 lineto
281.5778 65.32625 lineto
282.14442 65.31328 lineto
282.71103 65.3003 lineto
283.27765 65.28732 lineto stroke
 0 0 1 setrgbcolor 0 0.5 dtransform truncate idtransform setlinewidth pop
 [3 3 ] 0 setdash
newpath -28.34645 56.6929 moveto
283.46451 56.6929 lineto stroke
-5.83595 58.7929 moveto
(`) cmmi10 8.96631 fshow
216.56725 47.4663 moveto
(y) cmmi10 8.96631 fshow
223.77556 47.4663 moveto
(=) cmr10 8.96631 fshow
233.2399 47.4663 moveto
(`) cmmi10 8.96631 fshow
 0 0 0 setrgbcolor 0.5 0 dtransform exch truncate exch idtransform pop setlinewidth
 [] 0 setdash
newpath 0 -2.83482 moveto
0 2.83482 lineto stroke
newpath 56.6929 -2.83482 moveto
56.6929 2.83482 lineto stroke
newpath 113.3858 -2.83482 moveto
113.3858 2.83482 lineto stroke
newpath 170.0787 -2.83482 moveto
170.0787 2.83482 lineto stroke
newpath 226.7716 -2.83482 moveto
226.7716 2.83482 lineto stroke
newpath 283.46451 -2.83482 moveto
283.46451 2.83482 lineto stroke
 0 0.5 dtransform truncate idtransform setlinewidth pop
newpath -2.83482 56.6929 moveto
2.83482 56.6929 lineto stroke
newpath -2.83482 113.3858 moveto
2.83482 113.3858 lineto stroke
newpath -56.6929 0 moveto
283.46451 0 lineto stroke
newpath 279.76738 -1.53143 moveto
283.46451 0 lineto
279.76738 1.53143 lineto
 closepath
gsave fill grestore stroke
 0.5 0 dtransform exch truncate exch idtransform pop setlinewidth
newpath 0 -28.34645 moveto
0 170.0787 lineto stroke
 0 0.5 dtransform truncate idtransform setlinewidth pop
newpath 1.53061 166.38356 moveto
0 170.0787 lineto
-1.53061 166.38356 lineto
 closepath
gsave fill grestore stroke
showpage
%%EOF
