%!PS
%%BoundingBox: -19 -22 185 86 
%%HiResBoundingBox: -18.67525 -21.50986 184.5024 85.2894 
%%Creator: MetaPost 2.02
%%CreationDate: 2023.03.28:2241
%%Pages: 1
%%BeginProlog
%%EndProlog
%%Page: 1 1
 1 0 0 setrgbcolor 0 1.5 dtransform truncate idtransform setlinewidth pop
 [] 0 setdash 1 setlinecap 1 setlinejoin 10 setmiterlimit
newpath -3.68527 -18.46309 moveto
-3.56787 -18.0109 -3.44492 -17.56015 -3.3164 -17.111 curveto
-3.19844 -16.69867 -3.0758 -16.28769 -2.9481 -15.87828 curveto
-2.82976 -15.4989 -2.70706 -15.1209 -2.5798 -14.7444 curveto
-2.46106 -14.39308 -2.33833 -14.04312 -2.2115 -13.69464 curveto
-2.0924 -13.36743 -1.9697 -13.04153 -1.8432 -12.71712 curveto
-1.72382 -12.41096 -1.60109 -12.10614 -1.4749 -11.80273 curveto
-1.35526 -11.51506 -1.23254 -11.2287 -1.1066 -10.94373 curveto
-0.98674 -10.67252 -0.86398 -10.4026 -0.7383 -10.13403 curveto
-0.6182 -9.87743 -0.49545 -9.62206 -0.37 -9.36801 curveto
-0.24973 -9.12447 -0.127 -8.88214 -0.0017 -8.64114 curveto
0.11874 -8.4095 0.24152 -8.17911 0.36662 -7.94995 curveto
0.48724 -7.72903 0.61 -7.5093 0.73492 -7.29077 curveto
0.85567 -7.07959 0.97841 -6.86957 1.10323 -6.66078 curveto
1.47153 -6.05783 lineto
1.83983 -5.47932 lineto
2.20813 -4.92352 lineto
2.57643 -4.38892 lineto
2.94473 -3.87355 lineto
3.31303 -3.37636 lineto
3.68134 -2.89581 lineto
4.04964 -2.43126 lineto
4.41794 -1.98122 lineto
4.78624 -1.54523 lineto
5.15454 -1.12221 lineto
5.52284 -0.71152 lineto
5.89114 -0.31229 lineto
6.25946 0.07591 lineto
6.62776 0.45395 lineto
6.99606 0.82202 lineto
7.36436 1.18082 lineto
7.73267 1.53073 lineto
8.10097 1.87222 lineto
8.46927 2.2057 lineto
8.83757 2.5314 lineto
9.20587 2.84996 lineto
9.57417 3.16138 lineto
9.94247 3.4661 lineto
10.31078 3.76454 lineto
10.67908 4.05673 lineto
11.04738 4.34306 lineto
11.41568 4.62378 lineto
11.78398 4.89886 lineto
12.1523 5.16876 lineto
12.5206 5.43369 lineto
12.8889 5.69365 lineto
13.2572 5.94905 lineto
13.6255 6.19992 lineto
13.9938 6.44647 lineto
14.3621 6.68869 lineto
14.73041 6.92679 lineto
15.09871 7.16101 lineto
15.46701 7.39156 lineto
15.83531 7.6182 lineto
16.20361 7.84138 lineto
16.57191 8.06111 lineto
16.94022 8.27759 lineto
17.30852 8.49062 lineto
17.67683 8.7006 lineto
18.04514 8.90758 lineto
18.41344 9.11151 lineto
18.78174 9.31242 lineto
19.15004 9.51074 lineto
19.51834 9.70625 lineto
19.88664 9.89894 lineto
20.25494 10.08926 lineto
20.62325 10.27698 lineto
20.99155 10.4621 lineto
21.35985 10.64507 lineto
21.72815 10.82565 lineto
22.09645 11.00385 lineto
22.46475 11.17989 lineto
22.83305 11.35378 lineto
23.20135 11.5257 lineto
23.56967 11.69525 lineto
23.93797 11.86308 lineto
24.30627 12.02873 lineto
24.67458 12.19267 lineto
25.04288 12.35464 lineto
25.41118 12.51468 lineto
25.77948 12.6732 lineto
26.14778 12.82979 lineto
26.51608 12.98463 lineto
26.88438 13.13776 lineto
27.25269 13.28935 lineto
27.62099 13.43944 lineto
27.98929 13.5878 lineto
28.35759 13.73465 lineto
28.72589 13.87997 lineto
29.0942 14.02379 lineto
29.46251 14.1663 lineto
29.83081 14.30731 lineto
30.19911 14.44702 lineto
30.56741 14.58522 lineto
30.93571 14.72212 lineto
31.30402 14.85771 lineto
31.67232 14.99202 lineto
32.04062 15.12524 lineto
32.40892 15.25694 lineto
32.77722 15.38757 lineto
33.14552 15.5171 lineto
33.51382 15.64536 lineto
33.88213 15.77252 lineto
34.25043 15.89839 lineto
34.61873 16.02339 lineto
34.98705 16.1471 lineto
35.35535 16.26971 lineto
35.72365 16.39148 lineto
36.09195 16.51216 lineto
36.46025 16.63174 lineto
36.82855 16.75026 lineto
37.19685 16.8679 lineto
37.56516 16.98448 lineto
37.93346 17.10019 lineto
38.30176 17.21503 lineto
38.67006 17.32878 lineto
39.03836 17.44167 lineto
39.40666 17.5537 lineto
39.77496 17.66486 lineto
40.14326 17.77515 lineto
40.51157 17.88458 lineto
40.87988 17.99336 lineto
41.24818 18.10106 lineto
41.61649 18.2079 lineto
41.98479 18.31409 lineto
42.35309 18.41962 lineto
42.72139 18.52408 lineto
43.08969 18.62788 lineto
43.458 18.73105 lineto
43.8263 18.83334 lineto
44.1946 18.93498 lineto
44.5629 19.03577 lineto
44.9312 19.1359 lineto
45.2995 19.23538 lineto
45.6678 19.33421 lineto
46.0361 19.4324 lineto
46.4044 19.52972 lineto
46.77272 19.62639 lineto
47.14102 19.72263 lineto
47.50932 19.81801 lineto
47.87762 19.91272 lineto
48.24593 20.00702 lineto
48.61423 20.10045 lineto
48.98253 20.19344 lineto
49.35083 20.28578 lineto
49.71913 20.37749 lineto
50.08743 20.46854 lineto
50.45573 20.55914 lineto
50.82404 20.64911 lineto
51.19234 20.73865 lineto
51.56064 20.82753 lineto
51.92894 20.91577 lineto
52.29726 21.00357 lineto
52.66556 21.09073 lineto
53.03386 21.17744 lineto
53.40216 21.26352 lineto
53.77046 21.34917 lineto
54.13876 21.43437 lineto
54.50706 21.51894 lineto
54.87537 21.60306 lineto
55.24367 21.68675 lineto
55.61197 21.7698 lineto
55.98027 21.85242 lineto
56.34857 21.9346 lineto
56.71687 22.01634 lineto
57.08517 22.09744 lineto
57.45348 22.17833 lineto
57.82178 22.25856 lineto
58.1901 22.33836 lineto
58.5584 22.41774 lineto
58.9267 22.49667 lineto
59.295 22.57518 lineto
59.6633 22.65347 lineto
60.0316 22.73111 lineto
60.3999 22.80832 lineto
60.7682 22.88509 lineto
61.1365 22.96143 lineto
61.5048 23.03755 lineto
61.87311 23.11304 lineto
62.24141 23.1883 lineto
62.60971 23.26312 lineto
62.97801 23.33752 lineto
63.34631 23.41148 lineto
63.71461 23.48502 lineto
64.08293 23.55833 lineto
64.45123 23.63121 lineto
64.81953 23.70366 lineto
65.18784 23.7759 lineto
65.55614 23.84747 lineto
65.92444 23.91907 lineto
66.29274 23.98999 lineto
66.66104 24.06071 lineto
67.02934 24.131 lineto
67.39764 24.20107 lineto
67.76595 24.2707 lineto
68.13425 24.33992 lineto
68.50255 24.4089 lineto
68.87085 24.47768 lineto
69.23915 24.5458 lineto
69.60747 24.61392 lineto
69.97577 24.68161 lineto
70.34407 24.74887 lineto
70.71237 24.81592 lineto
71.08067 24.88252 lineto
71.44897 24.94893 lineto
71.81728 25.0151 lineto
72.18558 25.08084 lineto
72.55388 25.14615 lineto
72.92218 25.21147 lineto
73.29048 25.27635 lineto
73.65878 25.34079 lineto
74.02708 25.40503 lineto
74.39539 25.46904 lineto
74.76369 25.53284 lineto
75.13199 25.5962 lineto
75.5003 25.65936 lineto
75.8686 25.72229 lineto
76.23691 25.78479 lineto
76.60521 25.84708 lineto
76.97351 25.90915 lineto
77.34181 25.97078 lineto
77.71011 26.03241 lineto
78.07841 26.09361 lineto
78.44672 26.1546 lineto
78.81502 26.21516 lineto
79.18332 26.27571 lineto
79.55162 26.33583 lineto
79.91992 26.39574 lineto
80.28822 26.45543 lineto
80.65652 26.51491 lineto
81.02483 26.57394 lineto
81.39314 26.63298 lineto
81.76144 26.69159 lineto
82.12975 26.74998 lineto
82.49805 26.80838 lineto
82.86635 26.86633 lineto
83.23465 26.92409 lineto
83.60295 26.9814 lineto
83.97125 27.0387 lineto
84.33955 27.0958 lineto
84.70786 27.15268 lineto
85.07616 27.20912 lineto
85.44446 27.26556 lineto
85.81276 27.32158 lineto
86.18106 27.3776 lineto
86.54936 27.43317 lineto
86.91768 27.48875 lineto
87.28598 27.5439 lineto
87.65428 27.59904 lineto
88.02258 27.65376 lineto
88.39088 27.70848 lineto
88.75919 27.76299 lineto
89.12749 27.81705 lineto
89.49579 27.87111 lineto
89.86409 27.92474 lineto
90.23239 27.97838 lineto
90.6007 28.0318 lineto
90.969 28.085 lineto
91.3373 28.13799 lineto
91.7056 28.19075 lineto
92.0739 28.2433 lineto
92.4422 28.29564 lineto
92.81052 28.34798 lineto
93.17882 28.39989 lineto
93.54712 28.45178 lineto
93.91542 28.50348 lineto
94.28372 28.55495 lineto
94.65202 28.6062 lineto
95.02032 28.65724 lineto
95.38863 28.70807 lineto
95.75693 28.75888 lineto
96.12523 28.80928 lineto
96.49353 28.85966 lineto
96.86183 28.90984 lineto
97.23013 28.9598 lineto
97.59843 29.00954 lineto
97.96674 29.05928 lineto
98.33504 29.10881 lineto
98.70335 29.15811 lineto
99.07166 29.2072 lineto
99.43996 29.25609 lineto
99.80826 29.30496 lineto
100.17656 29.35362 lineto
100.54486 29.40207 lineto
100.91316 29.45029 lineto
101.28146 29.49852 lineto
101.64977 29.54631 lineto
102.01807 29.5941 lineto
102.38637 29.6419 lineto
102.75467 29.68927 lineto
103.12297 29.73663 lineto
103.49127 29.78377 lineto
103.85957 29.8307 lineto
104.22789 29.87762 lineto
104.59619 29.92435 lineto
104.9645 29.97084 lineto
105.3328 30.01733 lineto
105.7011 30.06361 lineto
106.0694 30.10968 lineto
106.4377 30.15553 lineto
106.806 30.20139 lineto
107.1743 30.24701 lineto
107.5426 30.29243 lineto
107.9109 30.33784 lineto
108.2792 30.38304 lineto
108.6475 30.42802 lineto
109.01581 30.473 lineto
109.38411 30.51778 lineto
109.75241 30.56255 lineto
110.12073 30.60689 lineto
110.48903 30.65121 lineto
110.85733 30.69556 lineto
111.22563 30.73967 lineto
111.59393 30.78357 lineto
111.96223 30.82747 lineto
112.33054 30.87115 lineto
112.69884 30.91463 lineto
113.06714 30.9581 lineto
113.43544 31.00136 lineto
113.80374 31.04439 lineto
114.17204 31.08743 lineto
114.54034 31.13025 lineto
114.90865 31.17307 lineto
115.27695 31.21567 lineto
115.64525 31.25827 lineto
116.01357 31.30066 lineto
116.38187 31.34283 lineto
116.75017 31.38501 lineto
117.11847 31.42697 lineto
117.48677 31.4687 lineto
117.85507 31.51067 lineto
118.22337 31.55219 lineto
118.59167 31.5937 lineto
118.95998 31.63501 lineto
119.32828 31.67632 lineto
119.69658 31.7174 lineto
120.06488 31.7585 lineto
120.43318 31.79938 lineto
120.80148 31.84026 lineto
121.16978 31.8809 lineto
121.5381 31.92136 lineto
121.9064 31.96179 lineto
122.2747 32.00223 lineto
122.643 32.04247 lineto
123.0113 32.08247 lineto
123.37961 32.12248 lineto
123.74791 32.16228 lineto
124.11621 32.20206 lineto
124.48451 32.24164 lineto
124.85281 32.28122 lineto
125.22112 32.32057 lineto
125.58942 32.35994 lineto
125.95772 32.39908 lineto
126.32602 32.43823 lineto
126.69432 32.47737 lineto
127.06262 32.51608 lineto
127.43094 32.55501 lineto
127.79924 32.5935 lineto
128.16754 32.63222 lineto
128.53584 32.67072 lineto
128.90414 32.70898 lineto
129.27245 32.74727 lineto
129.64075 32.78534 lineto
130.00905 32.8234 lineto
130.37735 32.86147 lineto
130.74565 32.8993 lineto
131.11395 32.93694 lineto
131.48225 32.97456 lineto
131.85056 33.01219 lineto
132.21886 33.0496 lineto
132.58716 33.08702 lineto
132.95546 33.12422 lineto
133.32378 33.16142 lineto
133.69208 33.1984 lineto
134.06038 33.23538 lineto
134.42868 33.27216 lineto
134.79698 33.30891 lineto
135.16528 33.34567 lineto
135.53358 33.38223 lineto
135.90189 33.41878 lineto
136.27019 33.45511 lineto
136.63849 33.49144 lineto
137.00679 33.52756 lineto
137.37509 33.56367 lineto
137.7434 33.5998 lineto
138.1117 33.6357 lineto
138.48 33.6716 lineto
138.84831 33.70728 lineto
139.21661 33.74297 lineto
139.58492 33.77843 lineto
139.95322 33.8139 lineto
140.32152 33.84937 lineto
140.68982 33.88461 lineto
141.05812 33.91986 lineto
141.42642 33.9549 lineto
141.79472 33.98994 lineto
142.16302 34.02498 lineto
142.53133 34.05978 lineto
142.89963 34.0946 lineto
143.26793 34.12921 lineto
143.63623 34.16382 lineto
144.00453 34.19843 lineto
144.37283 34.2328 lineto
144.74115 34.2672 lineto
145.10945 34.30157 lineto
145.47775 34.33575 lineto
145.84605 34.36992 lineto
146.21436 34.40387 lineto
146.58266 34.43782 lineto
146.95096 34.47156 lineto
147.31926 34.50552 lineto
147.68756 34.53903 lineto
148.05586 34.57277 lineto
148.42416 34.6063 lineto
148.79247 34.63982 lineto
149.16077 34.67313 lineto
149.52907 34.70642 lineto
149.89737 34.73973 lineto
150.26567 34.77283 lineto
150.63399 34.80591 lineto
151.00229 34.839 lineto
151.37059 34.87187 lineto
151.73889 34.90474 lineto
152.1072 34.9374 lineto
152.4755 34.97028 lineto
152.8438 35.00272 lineto
153.2121 35.03537 lineto
153.5804 35.06781 lineto
153.9487 35.10025 lineto
154.317 35.13248 lineto
154.6853 35.1647 lineto
155.0536 35.19691 lineto
155.4219 35.22914 lineto
155.7902 35.26115 lineto
156.15852 35.29294 lineto
156.52682 35.32495 lineto
156.89513 35.35674 lineto
157.26343 35.38853 lineto
157.63173 35.4201 lineto
158.00003 35.45168 lineto
158.36833 35.48326 lineto
158.73663 35.51483 lineto
159.10493 35.54619 lineto
159.47324 35.57755 lineto
159.84154 35.60869 lineto
160.20984 35.63983 lineto
160.57814 35.67097 lineto
160.94644 35.70212 lineto
161.31474 35.73305 lineto
161.68304 35.76398 lineto
162.05136 35.79468 lineto
162.41966 35.8256 lineto
162.78796 35.85632 lineto
163.15627 35.88702 lineto
163.52457 35.91753 lineto
163.89287 35.94801 lineto
164.26117 35.9785 lineto
164.62947 36.00879 lineto
164.99777 36.03906 lineto
165.36607 36.06934 lineto
165.73438 36.09961 lineto
166.10268 36.12967 lineto
166.47098 36.15974 lineto
166.83928 36.1898 lineto
167.20758 36.21965 lineto
167.57588 36.24948 lineto
167.9442 36.27933 lineto
168.3125 36.30917 lineto
168.6808 36.3388 lineto
169.0491 36.36844 lineto
169.4174 36.39806 lineto
169.7857 36.42747 lineto
170.154 36.4569 lineto
170.52231 36.4863 lineto
170.89061 36.51572 lineto
171.25891 36.5449 lineto
171.62721 36.5741 lineto
171.99551 36.60309 lineto
172.36382 36.63228 lineto
172.73212 36.66125 lineto
173.10042 36.69025 lineto stroke
 0 0 0 setrgbcolor 0 0.5 dtransform truncate idtransform setlinewidth pop
newpath -18.42525 0 moveto
184.2524 0 lineto stroke
newpath 180.55806 -1.53029 moveto
184.2524 0 lineto
180.55806 1.53029 lineto
 closepath
gsave fill grestore stroke
 0.5 0 dtransform exch truncate exch idtransform pop setlinewidth
newpath 0 -21.25986 moveto
0 85.0394 lineto stroke
 0 0.5 dtransform truncate idtransform setlinewidth pop
newpath 1.5307 81.34404 moveto
0 85.0394 lineto
-1.5307 81.34404 lineto
 closepath
gsave fill grestore stroke
showpage
%%EOF
