%!PS
%%BoundingBox: -19 -50 185 86 
%%HiResBoundingBox: -18.67525 -49.85632 184.5024 85.50069 
%%Creator: MetaPost 2.02
%%CreationDate: 2023.03.28:2241
%%Pages: 1
%%BeginProlog
%%EndProlog
%%Page: 1 1
 1 0 0 setrgbcolor 0 1.5 dtransform truncate idtransform setlinewidth pop
 [] 0 setdash 1 setlinecap 1 setlinejoin 10 setmiterlimit
newpath -3.68527 -41.23724 moveto
-3.3164 -41.22426 lineto
-2.9481 -41.21129 lineto
-2.5798 -41.19809 lineto
-2.2115 -41.1849 lineto
-1.8432 -41.1715 lineto
-1.4749 -41.15787 lineto
-1.1066 -41.14424 lineto
-0.7383 -41.1304 lineto
-0.37 -41.11656 lineto
-0.0017 -41.1023 lineto
0.36662 -41.08801 lineto
0.73492 -41.07375 lineto
1.10323 -41.05925 lineto
1.47153 -41.04454 lineto
1.83983 -41.02962 lineto
2.20813 -41.0147 lineto
2.57643 -40.99956 lineto
2.94473 -40.98442 lineto
3.31303 -40.96886 lineto
3.68134 -40.95328 lineto
4.04964 -40.93771 lineto
4.41794 -40.9217 lineto
4.78624 -40.9057 lineto
5.15454 -40.88948 lineto
5.52284 -40.87305 lineto
5.89114 -40.85661 lineto
6.25946 -40.83995 lineto
6.62776 -40.82309 lineto
6.99606 -40.806 lineto
7.36436 -40.7887 lineto
7.73267 -40.77141 lineto
8.10097 -40.75389 lineto
8.46927 -40.73615 lineto
8.83757 -40.7182 lineto
9.20587 -40.70003 lineto
9.57417 -40.68187 lineto
9.94247 -40.66327 lineto
10.31078 -40.64467 lineto
10.67908 -40.62585 lineto
11.04738 -40.60683 lineto
11.41568 -40.58757 lineto
11.78398 -40.56812 lineto
12.1523 -40.54865 lineto
12.5206 -40.52875 lineto
12.8889 -40.50885 lineto
13.2572 -40.48853 lineto
13.6255 -40.4682 lineto
13.9938 -40.44765 lineto
14.3621 -40.42667 lineto
14.73041 -40.4057 lineto
15.09871 -40.3845 lineto
15.46701 -40.3631 lineto
15.83531 -40.34146 lineto
16.20361 -40.31941 lineto
16.57191 -40.29735 lineto
16.94022 -40.27507 lineto
17.30852 -40.25258 lineto
17.67683 -40.22987 lineto
18.04514 -40.20673 lineto
18.41344 -40.1836 lineto
18.78174 -40.16002 lineto
19.15004 -40.13644 lineto
19.51834 -40.11244 lineto
19.88664 -40.08821 lineto
20.25494 -40.06378 lineto
20.62325 -40.03912 lineto
20.99155 -40.01425 lineto
21.35985 -39.98917 lineto
21.72815 -39.96365 lineto
22.09645 -39.93791 lineto
22.46475 -39.91196 lineto
22.83305 -39.88579 lineto
23.20135 -39.8594 lineto
23.56967 -39.8326 lineto
23.93797 -39.80577 lineto
24.30627 -39.77852 lineto
24.67458 -39.75084 lineto
25.04288 -39.72316 lineto
25.41118 -39.69504 lineto
25.77948 -39.66672 lineto
26.14778 -39.63795 lineto
26.51608 -39.60896 lineto
26.88438 -39.57977 lineto
27.25269 -39.55014 lineto
27.62099 -39.52052 lineto
27.98929 -39.49023 lineto
28.35759 -39.45996 lineto
28.72589 -39.42903 lineto
29.0942 -39.39812 lineto
29.46251 -39.36674 lineto
29.83081 -39.33517 lineto
30.19911 -39.30318 lineto
30.56741 -39.27074 lineto
30.93571 -39.23807 lineto
31.30402 -39.2052 lineto
31.67232 -39.17189 lineto
32.04062 -39.13815 lineto
32.40892 -39.1042 lineto
32.77722 -39.07004 lineto
33.14552 -39.03543 lineto
33.51382 -39.0004 lineto
33.88213 -38.96494 lineto
34.25043 -38.92924 lineto
34.61873 -38.89313 lineto
34.98705 -38.8568 lineto
35.35535 -38.82004 lineto
35.72365 -38.78284 lineto
36.09195 -38.74521 lineto
36.46025 -38.70735 lineto
36.82855 -38.66908 lineto
37.19685 -38.63037 lineto
37.56516 -38.59122 lineto
37.93346 -38.55186 lineto
38.30176 -38.51207 lineto
38.67006 -38.47185 lineto
39.03836 -38.43118 lineto
39.40666 -38.39009 lineto
39.77496 -38.34857 lineto
40.14326 -38.30661 lineto
40.51157 -38.26422 lineto
40.87988 -38.22162 lineto
41.24818 -38.17838 lineto
41.61649 -38.1349 lineto
41.98479 -38.09077 lineto
42.35309 -38.04623 lineto
42.72139 -38.00125 lineto
43.08969 -37.95604 lineto
43.458 -37.9102 lineto
43.8263 -37.86392 lineto
44.1946 -37.81699 lineto
44.5629 -37.76984 lineto
44.9312 -37.72205 lineto
45.2995 -37.67381 lineto
45.6678 -37.62515 lineto
46.0361 -37.57607 lineto
46.4044 -37.52632 lineto
46.77272 -37.47636 lineto
47.14102 -37.42554 lineto
47.50932 -37.37451 lineto
47.87762 -37.32281 lineto
48.24593 -37.27048 lineto
48.61423 -37.21793 lineto
48.98253 -37.1645 lineto
49.35083 -37.11087 lineto
49.71913 -37.05638 lineto
50.08743 -37.00166 lineto
50.45573 -36.94608 lineto
50.82404 -36.89008 lineto
51.19234 -36.83362 lineto
51.56064 -36.77654 lineto
51.92894 -36.71878 lineto
52.29726 -36.66061 lineto
52.66556 -36.60179 lineto
53.03386 -36.54231 lineto
53.40216 -36.4822 lineto
53.77046 -36.42163 lineto
54.13876 -36.36021 lineto
54.50706 -36.29837 lineto
54.87537 -36.23587 lineto
55.24367 -36.17293 lineto
55.61197 -36.10913 lineto
55.98027 -36.04468 lineto
56.34857 -35.97958 lineto
56.71687 -35.91406 lineto
57.08517 -35.84767 lineto
57.45348 -35.78062 lineto
57.82178 -35.71294 lineto
58.1901 -35.64459 lineto
58.5584 -35.57538 lineto
58.9267 -35.50575 lineto
59.295 -35.43524 lineto
59.6633 -35.36409 lineto
60.0316 -35.2923 lineto
60.3999 -35.21964 lineto
60.7682 -35.14632 lineto
61.1365 -35.07213 lineto
61.5048 -34.99753 lineto
61.87311 -34.92183 lineto
62.24141 -34.84549 lineto
62.60971 -34.7685 lineto
62.97801 -34.69064 lineto
63.34631 -34.61192 lineto
63.71461 -34.53255 lineto
64.08293 -34.45232 lineto
64.45123 -34.37122 lineto
64.81953 -34.28946 lineto
65.18784 -34.20685 lineto
65.55614 -34.12337 lineto
65.92444 -34.03903 lineto
66.29274 -33.95383 lineto
66.66104 -33.86775 lineto
67.02934 -33.7808 lineto
67.39764 -33.69301 lineto
67.76595 -33.60434 lineto
68.13425 -33.5148 lineto
68.50255 -33.42441 lineto
68.87085 -33.33292 lineto
69.23915 -33.24078 lineto
69.60747 -33.14758 lineto
69.97577 -33.05328 lineto
70.34407 -32.95834 lineto
70.71237 -32.86232 lineto
71.08067 -32.76521 lineto
71.44897 -32.66725 lineto
71.81728 -32.5682 lineto
72.18558 -32.46829 lineto
72.55388 -32.3673 lineto
72.92218 -32.26543 lineto
73.29048 -32.16249 lineto
73.65878 -32.05846 lineto
74.02708 -31.95335 lineto
74.39539 -31.84717 lineto
74.76369 -31.7399 lineto
75.13199 -31.63177 lineto
75.5003 -31.52234 lineto
75.8686 -31.41182 lineto
76.23691 -31.30023 lineto
76.60521 -31.18756 lineto
76.97351 -31.0738 lineto
77.34181 -30.95874 lineto
77.71011 -30.8426 lineto
78.07841 -30.7254 lineto
78.44672 -30.60689 lineto
78.81502 -30.48729 lineto
79.18332 -30.3664 lineto
79.55162 -30.2442 lineto
79.91992 -30.12093 lineto
80.28822 -29.99637 lineto
80.65652 -29.87071 lineto
81.02483 -29.74355 lineto
81.39314 -29.6153 lineto
81.76144 -29.48553 lineto
82.12975 -29.3547 lineto
82.49805 -29.22256 lineto
82.86635 -29.08891 lineto
83.23465 -28.95396 lineto
83.60295 -28.8177 lineto
83.97125 -28.68016 lineto
84.33955 -28.5411 lineto
84.70786 -28.40074 lineto
85.07616 -28.25888 lineto
85.44446 -28.1157 lineto
85.81276 -27.97102 lineto
86.18106 -27.82483 lineto
86.54936 -27.67712 lineto
86.91768 -27.5281 lineto
87.28598 -27.3776 lineto
87.65428 -27.22534 lineto
88.02258 -27.0718 lineto
88.39088 -26.91673 lineto
88.75919 -26.75993 lineto
89.12749 -26.60162 lineto
89.49579 -26.4418 lineto
89.86409 -26.28026 lineto
90.23239 -26.11719 lineto
90.6007 -25.9524 lineto
90.969 -25.78587 lineto
91.3373 -25.61783 lineto
91.7056 -25.44806 lineto
92.0739 -25.27657 lineto
92.4422 -25.10333 lineto
92.81052 -24.92838 lineto
93.17882 -24.7517 lineto
93.54712 -24.57327 lineto
93.91542 -24.39311 lineto
94.28372 -24.21101 lineto
94.65202 -24.02698 lineto
95.02032 -23.8412 lineto
95.38863 -23.6537 lineto
95.75693 -23.46425 lineto
96.12523 -23.27286 lineto
96.49353 -23.07951 lineto
96.86183 -22.88423 lineto
97.23013 -22.687 lineto
97.59843 -22.48781 lineto
97.96674 -22.28647 lineto
98.33504 -22.08339 lineto
98.70335 -21.87794 lineto
99.07166 -21.67076 lineto
99.43996 -21.4612 lineto
99.80826 -21.24968 lineto
100.17656 -21.03601 lineto
100.54486 -20.82018 lineto
100.91316 -20.6024 lineto
101.28146 -20.38225 lineto
101.64977 -20.1597 lineto
102.01807 -19.93521 lineto
102.38637 -19.70836 lineto
102.75467 -19.47911 lineto
103.12297 -19.24771 lineto
103.49127 -19.01392 lineto
103.85957 -18.77797 lineto
104.22789 -18.53943 lineto
104.59619 -18.29851 lineto
104.9645 -18.05522 lineto
105.3328 -17.80954 lineto
105.7011 -17.56126 lineto
106.0694 -17.31061 lineto
106.4377 -17.05736 lineto
106.806 -16.80173 lineto
107.1743 -16.54329 lineto
107.5426 -16.28249 lineto
107.9109 -16.01884 lineto
108.2792 -15.75262 lineto
108.6475 -15.48381 lineto
109.01581 -15.21217 lineto
109.38411 -14.93796 lineto
109.75241 -14.66092 lineto
110.12073 -14.38106 lineto
110.48903 -14.0984 lineto
110.85733 -13.81293 lineto
111.22563 -13.52464 lineto
111.59393 -13.23334 lineto
111.96223 -12.93922 lineto
112.33054 -12.64207 lineto
112.69884 -12.34189 lineto
113.06714 -12.0389 lineto
113.43544 -11.73267 lineto
113.80374 -11.4234 lineto
114.17204 -11.11111 lineto
114.54034 -10.79558 lineto
114.90865 -10.47702 lineto
115.27695 -10.155 lineto
115.64525 -9.82996 lineto
116.01357 -9.50166 lineto
116.38187 -9.1699 lineto
116.75017 -8.83492 lineto
117.11847 -8.49667 lineto
117.48677 -8.15497 lineto
117.85507 -7.80981 lineto
118.22337 -7.46097 lineto
118.59167 -7.10889 lineto
118.95998 -6.75313 lineto
119.32828 -6.39392 lineto
119.69658 -6.03102 lineto
120.06488 -5.66466 lineto
120.43318 -5.29442 lineto
120.80148 -4.92049 lineto
121.16978 -4.5429 lineto
121.5381 -4.16139 lineto
121.9064 -3.77602 lineto
122.2747 -3.38695 lineto
122.643 -2.99377 lineto
123.0113 -2.59671 lineto
123.37961 -2.19576 lineto
123.74791 -1.79068 lineto
124.11621 -1.38152 lineto
124.48451 -0.96844 lineto
124.85281 -0.55104 lineto
125.22112 -0.12955 lineto
125.58942 0.29628 lineto
125.95772 0.72644 lineto
126.32602 1.1607 lineto
126.69432 1.5995 lineto
127.06262 2.04263 lineto
127.43094 2.49031 lineto
127.79924 2.94252 lineto
128.16754 3.39906 lineto
128.53584 3.86035 lineto
128.90414 4.32619 lineto
129.27245 4.79678 lineto
129.64075 5.27193 lineto
130.00905 5.75203 lineto
130.37735 6.23691 lineto
130.74565 6.72653 lineto
131.11395 7.22134 lineto
131.48225 7.72093 lineto
131.85056 8.2257 lineto
132.21886 8.73521 lineto
132.58716 9.25015 lineto
132.95546 9.77005 lineto
133.32378 10.29536 lineto
133.69208 10.82587 lineto
134.06038 11.36177 lineto
134.42868 11.90286 lineto
134.79698 12.44958 lineto
135.16528 13.00172 lineto
135.53358 13.55946 lineto
135.90189 14.12262 lineto
136.27019 14.69162 lineto
136.63849 15.26646 lineto
137.00679 15.8467 lineto
137.37509 16.433 lineto
137.7434 17.02513 lineto
138.1117 17.62334 lineto
138.48 18.22736 lineto
138.84831 18.83766 lineto
139.21661 19.45403 lineto
139.58492 20.07645 lineto
139.95322 20.70512 lineto
140.32152 21.3403 lineto
140.68982 21.98175 lineto
141.05812 22.62968 lineto
141.42642 23.28389 lineto
141.79472 23.945 lineto
142.16302 24.61263 lineto
142.53133 25.28694 lineto
142.89963 25.96797 lineto
143.26793 26.65591 lineto
143.63623 27.35077 lineto
144.00453 28.05257 lineto
144.37283 28.76147 lineto
144.74115 29.47754 lineto
145.10945 30.20073 lineto
145.47775 30.93106 lineto
145.84605 31.66896 lineto
146.21436 32.414 lineto
146.58266 33.16682 lineto
146.95096 33.927 lineto
147.31926 34.69475 lineto
147.68756 35.47049 lineto
148.05586 36.25381 lineto
148.42416 37.04514 lineto
148.79247 37.84424 lineto
149.16077 38.65157 lineto
149.52907 39.46689 lineto
149.89737 40.29042 lineto
150.26567 41.1222 lineto
150.63399 41.96239 lineto
151.00229 42.81079 lineto
151.37059 43.66808 lineto
151.73889 44.53378 lineto
152.1072 45.40816 lineto
152.4755 46.29138 lineto
152.8438 47.18349 lineto
153.2121 48.08444 lineto
153.5804 48.99449 lineto
153.9487 49.91385 lineto
154.317 50.84229 lineto
154.6853 51.78001 lineto
155.0536 52.72725 lineto
155.4219 53.68402 lineto
155.7902 54.6503 lineto
156.15852 55.62631 lineto
156.52682 56.61205 lineto
156.89513 57.60796 lineto
157.26343 58.61359 lineto
157.63173 59.6294 lineto
158.00003 60.65558 lineto
158.36833 61.69193 lineto
158.73663 62.73866 lineto
159.10493 63.79599 lineto
159.47324 64.8639 lineto
159.84154 65.94243 lineto
160.20984 67.03198 lineto
160.57814 68.13234 lineto
160.94644 69.24373 lineto
161.31474 70.36638 lineto
161.68304 71.50026 lineto
162.05136 72.6456 lineto
162.41966 73.80241 lineto
162.78796 74.97069 lineto
163.15627 76.15085 lineto
163.52457 77.34291 lineto
163.89287 78.54686 lineto
164.26117 79.76292 lineto
164.62947 80.99132 lineto
164.99777 82.23183 lineto
165.36607 83.48488 lineto
165.73438 84.75069 lineto stroke
 0 0 0 setrgbcolor 0 0.5 dtransform truncate idtransform setlinewidth pop
newpath -18.42525 0 moveto
184.2524 0 lineto stroke
newpath 180.55806 -1.53029 moveto
184.2524 0 lineto
180.55806 1.53029 lineto
 closepath
gsave fill grestore stroke
 0.5 0 dtransform exch truncate exch idtransform pop setlinewidth
newpath 0 -49.60632 moveto
0 85.0394 lineto stroke
 0 0.5 dtransform truncate idtransform setlinewidth pop
newpath 1.53082 81.34375 moveto
0 85.0394 lineto
-1.53082 81.34375 lineto
 closepath
gsave fill grestore stroke
showpage
%%EOF
