%!PS
%%BoundingBox: -19 -22 185 114 
%%HiResBoundingBox: -18.67525 -21.50986 184.5024 113.63586 
%%Creator: MetaPost 2.02
%%CreationDate: 2023.03.28:2241
%%Pages: 1
%*Font: cmmi10 9.96265 9.96265 61:8000018
%*Font: cmr10 9.96265 9.96265 3d:8
%%BeginProlog
%%EndProlog
%%Page: 1 1
 1 0 0 setrgbcolor 0 1.5 dtransform truncate idtransform setlinewidth pop
 [] 0 setdash 1 setlinecap 1 setlinejoin 10 setmiterlimit
newpath -3.68527 -19.88051 moveto
-3.56738 -19.38127 -3.44443 -18.88327 -3.3164 -18.38654 curveto
-3.19804 -17.92725 -3.07536 -17.46907 -2.9481 -17.01216 curveto
-2.82936 -16.58583 -2.70663 -16.16061 -2.5798 -15.73662 curveto
-2.46068 -15.33836 -2.33794 -14.94121 -2.2115 -14.54521 curveto
-2.09206 -14.17107 -1.96931 -13.79797 -1.8432 -13.42603 curveto
-1.7235 -13.07297 -1.60072 -12.72093 -1.4749 -12.37001 curveto
-1.35493 -12.03543 -1.2322 -11.70184 -1.1066 -11.36934 curveto
-0.98643 -11.05122 -0.86366 -10.73409 -0.7383 -10.41798 curveto
-0.61792 -10.11447 -0.49515 -9.81189 -0.37 -9.51031 curveto
-0.24947 -9.21986 -0.12671 -8.93033 -0.0017 -8.64178 curveto
0.11899 -8.36325 0.24178 -8.08563 0.36662 -7.80894 curveto
0.73492 -7.00812 lineto
1.10323 -6.23648 lineto
1.47153 -5.49187 lineto
1.83983 -4.7717 lineto
2.20813 -4.07425 lineto
2.57643 -3.39798 lineto
2.94473 -2.74097 lineto
3.31303 -2.10211 lineto
3.68134 -1.4799 lineto
4.04964 -0.87372 lineto
4.41794 -0.28201 lineto
4.78624 0.29564 lineto
5.15454 0.8603 lineto
5.52284 1.41266 lineto
5.89114 1.95354 lineto
6.25946 2.48338 lineto
6.62776 3.00308 lineto
6.99606 3.51282 lineto
7.36436 4.01326 lineto
7.73267 4.50482 lineto
8.10097 4.98796 lineto
8.46927 5.4631 lineto
8.83757 5.93045 lineto
9.20587 6.39067 lineto
9.57417 6.84375 lineto
9.94247 7.29013 lineto
10.31078 7.73022 lineto
10.67908 8.16406 lineto
11.04738 8.59204 lineto
11.41568 9.01442 lineto
11.78398 9.43117 lineto
12.1523 9.84271 lineto
12.5206 10.2493 lineto
12.8889 10.65091 lineto
13.2572 11.04797 lineto
13.6255 11.44049 lineto
13.9938 11.82869 lineto
14.3621 12.21255 lineto
14.73041 12.59233 lineto
15.09871 12.9682 lineto
15.46701 13.3404 lineto
15.83531 13.7087 lineto
16.20361 14.07353 lineto
16.57191 14.43492 lineto
16.94022 14.79305 lineto
17.30852 15.14774 lineto
17.67683 15.49937 lineto
18.04514 15.848 lineto
18.41344 16.19359 lineto
18.78174 16.53616 lineto
19.15004 16.87613 lineto
19.51834 17.21329 lineto
19.88664 17.54764 lineto
20.25494 17.87961 lineto
20.62325 18.20898 lineto
20.99155 18.53575 lineto
21.35985 18.86037 lineto
21.72815 19.18262 lineto
22.09645 19.50247 lineto
22.46475 19.82016 lineto
22.83305 20.1357 lineto
23.20135 20.44928 lineto
23.56967 20.7605 lineto
23.93797 21.06996 lineto
24.30627 21.37729 lineto
24.67458 21.68286 lineto
25.04288 21.98651 lineto
25.41118 22.2882 lineto
25.77948 22.58838 lineto
26.14778 22.88661 lineto
26.51608 23.1831 lineto
26.88438 23.47787 lineto
27.25269 23.77113 lineto
27.62099 24.06288 lineto
27.98929 24.35289 lineto
28.35759 24.64139 lineto
28.72589 24.92838 lineto
29.0942 25.21385 lineto
29.46251 25.49802 lineto
29.83081 25.78069 lineto
30.19911 26.06204 lineto
30.56741 26.34189 lineto
30.93571 26.62044 lineto
31.30402 26.8977 lineto
31.67232 27.17366 lineto
32.04062 27.44853 lineto
32.40892 27.7219 lineto
32.77722 27.99417 lineto
33.14552 28.26537 lineto
33.51382 28.53526 lineto
33.88213 28.8041 lineto
34.25043 29.07161 lineto
34.61873 29.33826 lineto
34.98705 29.60362 lineto
35.35535 29.8679 lineto
35.72365 30.13132 lineto
36.09195 30.39365 lineto
36.46025 30.65489 lineto
36.82855 30.91505 lineto
37.19685 31.17436 lineto
37.56516 31.43259 lineto
37.93346 31.68994 lineto
38.30176 31.94644 lineto
38.67006 32.20184 lineto
39.03836 32.45639 lineto
39.40666 32.71007 lineto
39.77496 32.96289 lineto
40.14326 33.21484 lineto
40.51157 33.46593 lineto
40.87988 33.71635 lineto
41.24818 33.96571 lineto
41.61649 34.2142 lineto
41.98479 34.46205 lineto
42.35309 34.70924 lineto
42.72139 34.95535 lineto
43.08969 35.2008 lineto
43.458 35.44563 lineto
43.8263 35.68958 lineto
44.1946 35.93288 lineto
44.5629 36.17531 lineto
44.9312 36.4171 lineto
45.2995 36.65823 lineto
45.6678 36.89873 lineto
46.0361 37.13857 lineto
46.4044 37.37753 lineto
46.77272 37.61586 lineto
47.14102 37.85374 lineto
47.50932 38.09077 lineto
47.87762 38.32716 lineto
48.24593 38.56311 lineto
48.61423 38.79819 lineto
48.98253 39.03284 lineto
49.35083 39.26683 lineto
49.71913 39.50018 lineto
50.08743 39.7329 lineto
50.45573 39.96516 lineto
50.82404 40.19678 lineto
51.19234 40.42796 lineto
51.56064 40.65851 lineto
51.92894 40.8884 lineto
52.29726 41.11786 lineto
52.66556 41.34666 lineto
53.03386 41.57504 lineto
53.40216 41.80278 lineto
53.77046 42.03008 lineto
54.13876 42.25694 lineto
54.50706 42.48315 lineto
54.87537 42.70894 lineto
55.24367 42.93428 lineto
55.61197 43.15898 lineto
55.98027 43.38326 lineto
56.34857 43.60709 lineto
56.71687 43.83049 lineto
57.08517 44.05324 lineto
57.45348 44.27579 lineto
57.82178 44.49767 lineto
58.1901 44.71913 lineto
58.5584 44.94016 lineto
58.9267 45.16075 lineto
59.295 45.3809 lineto
59.6633 45.60085 lineto
60.0316 45.82014 lineto
60.3999 46.039 lineto
60.7682 46.25743 lineto
61.1365 46.47543 lineto
61.5048 46.6932 lineto
61.87311 46.91034 lineto
62.24141 47.12726 lineto
62.60971 47.34373 lineto
62.97801 47.55978 lineto
63.34631 47.7754 lineto
63.71461 47.99059 lineto
64.08293 48.20555 lineto
64.45123 48.42009 lineto
64.81953 48.6342 lineto
65.18784 48.84808 lineto
65.55614 49.06133 lineto
65.92444 49.27457 lineto
66.29274 49.48715 lineto
66.66104 49.69952 lineto
67.02934 49.91147 lineto
67.39764 50.1232 lineto
67.76595 50.33449 lineto
68.13425 50.54535 lineto
68.50255 50.75598 lineto
68.87085 50.96642 lineto
69.23915 51.1762 lineto
69.60747 51.38597 lineto
69.97577 51.59532 lineto
70.34407 51.80423 lineto
70.71237 52.01292 lineto
71.08067 52.22119 lineto
71.44897 52.42924 lineto
71.81728 52.63707 lineto
72.18558 52.84447 lineto
72.55388 53.05144 lineto
72.92218 53.2584 lineto
73.29048 53.46494 lineto
73.65878 53.67104 lineto
74.02708 53.87692 lineto
74.39539 54.0826 lineto
74.76369 54.28806 lineto
75.13199 54.49307 lineto
75.5003 54.69788 lineto
75.8686 54.90247 lineto
76.23691 55.10661 lineto
76.60521 55.31056 lineto
76.97351 55.51428 lineto
77.34181 55.71758 lineto
77.71011 55.92087 lineto
78.07841 56.12372 lineto
78.44672 56.32635 lineto
78.81502 56.52856 lineto
79.18332 56.73077 lineto
79.55162 56.93256 lineto
79.91992 57.13411 lineto
80.28822 57.33546 lineto
80.65652 57.53659 lineto
81.02483 57.73729 lineto
81.39314 57.93797 lineto
81.76144 58.13824 lineto
82.12975 58.33829 lineto
82.49805 58.53833 lineto
82.86635 58.73795 lineto
83.23465 58.93735 lineto
83.60295 59.1363 lineto
83.97125 59.33528 lineto
84.33955 59.53403 lineto
84.70786 59.73256 lineto
85.07616 59.93065 lineto
85.44446 60.12875 lineto
85.81276 60.32642 lineto
86.18106 60.5241 lineto
86.54936 60.72133 lineto
86.91768 60.91856 lineto
87.28598 61.11536 lineto
87.65428 61.31216 lineto
88.02258 61.50853 lineto
88.39088 61.70491 lineto
88.75919 61.90106 lineto
89.12749 62.09679 lineto
89.49579 62.2925 lineto
89.86409 62.4878 lineto
90.23239 62.68307 lineto
90.6007 62.87814 lineto
90.969 63.07301 lineto
91.3373 63.26764 lineto
91.7056 63.46207 lineto
92.0739 63.65628 lineto
92.4422 63.85027 lineto
92.81052 64.04427 lineto
93.17882 64.23782 lineto
93.54712 64.43138 lineto
93.91542 64.62471 lineto
94.28372 64.81784 lineto
94.65202 65.01076 lineto
95.02032 65.20345 lineto
95.38863 65.39592 lineto
95.75693 65.5884 lineto
96.12523 65.78044 lineto
96.49353 65.97249 lineto
96.86183 66.16432 lineto
97.23013 66.35593 lineto
97.59843 66.54733 lineto
97.96674 66.73872 lineto
98.33504 66.9299 lineto
98.70335 67.12086 lineto
99.07166 67.31161 lineto
99.43996 67.50214 lineto
99.80826 67.69267 lineto
100.17656 67.88298 lineto
100.54486 68.07309 lineto
100.91316 68.26297 lineto
101.28146 68.45285 lineto
101.64977 68.6423 lineto
102.01807 68.83174 lineto
102.38637 69.0212 lineto
102.75467 69.21022 lineto
103.12297 69.39923 lineto
103.49127 69.58803 lineto
103.85957 69.77661 lineto
104.22789 69.9652 lineto
104.59619 70.15356 lineto
104.9645 70.34172 lineto
105.3328 70.52988 lineto
105.7011 70.7178 lineto
106.0694 70.90553 lineto
106.4377 71.09303 lineto
106.806 71.28053 lineto
107.1743 71.46782 lineto
107.5426 71.65489 lineto
107.9109 71.84196 lineto
108.2792 72.02881 lineto
108.6475 72.21545 lineto
109.01581 72.40208 lineto
109.38411 72.58852 lineto
109.75241 72.77493 lineto
110.12073 72.96092 lineto
110.48903 73.14691 lineto
110.85733 73.3329 lineto
111.22563 73.51868 lineto
111.59393 73.70422 lineto
111.96223 73.88979 lineto
112.33054 74.07512 lineto
112.69884 74.26025 lineto
113.06714 74.44537 lineto
113.43544 74.63028 lineto
113.80374 74.81497 lineto
114.17204 74.99966 lineto
114.54034 75.18414 lineto
114.90865 75.36862 lineto
115.27695 75.55287 lineto
115.64525 75.73714 lineto
116.01357 75.92117 lineto
116.38187 76.105 lineto
116.75017 76.28883 lineto
117.11847 76.47244 lineto
117.48677 76.65584 lineto
117.85507 76.83945 lineto
118.22337 77.02261 lineto
118.59167 77.2058 lineto
118.95998 77.38876 lineto
119.32828 77.57172 lineto
119.69658 77.75447 lineto
120.06488 77.93721 lineto
120.43318 78.11974 lineto
120.80148 78.30226 lineto
121.16978 78.48457 lineto
121.5381 78.66667 lineto
121.9064 78.84877 lineto
122.2747 79.03087 lineto
122.643 79.21275 lineto
123.0113 79.39441 lineto
123.37961 79.57608 lineto
123.74791 79.75752 lineto
124.11621 79.93896 lineto
124.48451 80.12021 lineto
124.85281 80.30144 lineto
125.22112 80.48245 lineto
125.58942 80.66347 lineto
125.95772 80.84427 lineto
126.32602 81.02505 lineto
126.69432 81.20586 lineto
127.06262 81.38623 lineto
127.43094 81.5668 lineto
127.79924 81.74696 lineto
128.16754 81.92732 lineto
128.53584 82.10747 lineto
128.90414 82.28741 lineto
129.27245 82.46735 lineto
129.64075 82.64706 lineto
130.00905 82.82678 lineto
130.37735 83.0065 lineto
130.74565 83.18599 lineto
131.11395 83.36528 lineto
131.48225 83.54457 lineto
131.85056 83.72385 lineto
132.21886 83.90292 lineto
132.58716 84.08199 lineto
132.95546 84.26083 lineto
133.32378 84.4397 lineto
133.69208 84.61833 lineto
134.06038 84.79697 lineto
134.42868 84.97539 lineto
134.79698 85.15381 lineto
135.16528 85.33223 lineto
135.53358 85.51042 lineto
135.90189 85.68863 lineto
136.27019 85.86662 lineto
136.63849 86.0446 lineto
137.00679 86.22238 lineto
137.37509 86.40015 lineto
137.7434 86.57791 lineto
138.1117 86.75548 lineto
138.48 86.93303 lineto
138.84831 87.11037 lineto
139.21661 87.2877 lineto
139.58492 87.46483 lineto
139.95322 87.64195 lineto
140.32152 87.81908 lineto
140.68982 87.99597 lineto
141.05812 88.17288 lineto
141.42642 88.34958 lineto
141.79472 88.52626 lineto
142.16302 88.70296 lineto
142.53133 88.87943 lineto
142.89963 89.0559 lineto
143.26793 89.23215 lineto
143.63623 89.40842 lineto
144.00453 89.58467 lineto
144.37283 89.76071 lineto
144.74115 89.93675 lineto
145.10945 90.1128 lineto
145.47775 90.28862 lineto
145.84605 90.46445 lineto
146.21436 90.64005 lineto
146.58266 90.81566 lineto
146.95096 90.99104 lineto
147.31926 91.16666 lineto
147.68756 91.34183 lineto
148.05586 91.51723 lineto
148.42416 91.6924 lineto
148.79247 91.86757 lineto
149.16077 92.04254 lineto
149.52907 92.2175 lineto
149.89737 92.39246 lineto
150.26567 92.5672 lineto
150.63399 92.74194 lineto
151.00229 92.91669 lineto
151.37059 93.09122 lineto
151.73889 93.26573 lineto
152.1072 93.44005 lineto
152.4755 93.61458 lineto
152.8438 93.78867 lineto
153.2121 93.96298 lineto
153.5804 94.13707 lineto
153.9487 94.31117 lineto
154.317 94.48505 lineto
154.6853 94.65892 lineto
155.0536 94.83281 lineto
155.4219 95.00668 lineto
155.7902 95.18034 lineto
156.15852 95.35379 lineto
156.52682 95.52745 lineto
156.89513 95.7009 lineto
157.26343 95.87434 lineto
157.63173 96.04758 lineto
158.00003 96.2208 lineto
158.36833 96.39403 lineto
158.73663 96.56726 lineto
159.10493 96.74028 lineto
159.47324 96.91328 lineto
159.84154 97.08609 lineto
160.20984 97.25888 lineto
160.57814 97.43167 lineto
160.94644 97.60448 lineto
161.31474 97.77705 lineto
161.68304 97.94963 lineto
162.05136 98.122 lineto
162.41966 98.29459 lineto
162.78796 98.46695 lineto
163.15627 98.63931 lineto
163.52457 98.81146 lineto
163.89287 98.98361 lineto
164.26117 99.15575 lineto
164.62947 99.32768 lineto
164.99777 99.49962 lineto
165.36607 99.67155 lineto
165.73438 99.84348 lineto
166.10268 100.0152 lineto
166.47098 100.1869 lineto
166.83928 100.35863 lineto
167.20758 100.53012 lineto
167.57588 100.70163 lineto
167.9442 100.87312 lineto
168.3125 101.04462 lineto
168.6808 101.21591 lineto
169.0491 101.38719 lineto
169.4174 101.55847 lineto
169.7857 101.72954 lineto
170.154 101.9006 lineto
170.52231 102.07167 lineto
170.89061 102.24274 lineto
171.25891 102.41359 lineto
171.62721 102.58444 lineto
171.99551 102.75508 lineto
172.36382 102.92592 lineto
172.73212 103.09656 lineto
173.10042 103.2672 lineto stroke
 0 0 1 setrgbcolor 0 0.5 dtransform truncate idtransform setlinewidth pop
 [3 3 ] 0 setdash
newpath 0 0 moveto
184.2524 70.86617 lineto stroke
149.5019 50.30344 moveto
(y) cmmi10 9.96265 fshow
157.5112 50.30344 moveto
(=) cmr10 9.96265 fshow
168.0272 50.30344 moveto
(ax) cmmi10 9.96265 fshow
 0 0 0 setrgbcolor [] 0 setdash
newpath -18.42525 0 moveto
184.2524 0 lineto stroke
newpath 180.55806 -1.53029 moveto
184.2524 0 lineto
180.55806 1.53029 lineto
 closepath
gsave fill grestore stroke
 0.5 0 dtransform exch truncate exch idtransform pop setlinewidth
newpath 0 -21.25986 moveto
0 113.38586 lineto stroke
 0 0.5 dtransform truncate idtransform setlinewidth pop
newpath 1.53082 109.69022 moveto
0 113.38586 lineto
-1.53082 109.69022 lineto
 closepath
gsave fill grestore stroke
showpage
%%EOF
