input TEX;

verbatimtex
%&latex
 \documentclass{article}
 \usepackage[latin1]{inputenc}
 \usepackage[frenchb]{babel}
 \usepackage{amsmath}
 \begin{document}
etex

outputtemplate := "cercle_trigo.mps";
beginfig(1)
u:=2cm;
 pickup pencircle scaled 0.2mm ;
  fill (0,0)--(1u,0){up}..(1u,0) rotated 40--cycle withcolor 0.8*white; % domaine
  draw (0.866u, -.5u)..(1u,0)..(0,1u)..(-.5u,0.866u); % partie de cercle
  drawarrow (0.3u,0){up}..(1,0)*0.3u rotated 40;% fleche angle

  draw (-.5u,0)--(1u,0);
  draw (0,-.5u)--(0,u);
  drawarrow (0,0)--(0.97u,0)            withpen pencircle scaled 1bp;
  drawarrow (0,0)--(0,0.97u)            withpen pencircle scaled 1bp;

  pair M,A,B;
  M:=(1,0)*u rotated 40 ;
  A:=(xpart M,0); B:=(0, ypart M);

  draw (1u,0)--(1u, 0.839u) dashed evenly scaled .5;
  
  draw (0,0)--M--(1u, 0.839u) withpen pencircle scaled 0.2bp;

  dotlabel.llft(btex $O$ etex, (0,0));
  dotlabel.lft(btex \small $B_\theta$ etex, M);
  dotlabel.rt (btex \small $C_\theta$ etex, (1u, 0.839u));
  label.rt   (btex $A$ etex,(1,0)*u);
  label.ulft   (btex $\mathcal{C}$ etex,(0,1)*u);
  label.rt (btex $\theta$ etex, (1,0)*0.3u rotated 20);
  label.rt (btex \small $\mathcal{D}_\theta$ etex, (0.6*u, 0.2*u));

endfig;

end
