%!PS
%%BoundingBox: -29 -72 284 114 
%%HiResBoundingBox: -28.59645 -71.11613 283.71451 113.6358 
%%Creator: MetaPost 2.02
%%CreationDate: 2023.03.28:2241
%%Pages: 1
%*Font: cmmi10 7.97014 9.96265 22:8000000000000002000002
%*Font: cmr7 5.57909 6.97385 30:8
%*Font: cmsy10 7.97014 9.96265 00:8
%*Font: cmr10 7.97014 9.96265 2b:8
%*Font: cmmi10 6.97382 9.96265 0b:8000000000000000000000000004
%*Font: cmr7 4.88167 6.97385 30:8
%*Font: cmsy10 6.97382 9.96265 00:8
%*Font: cmr10 6.97382 9.96265 2b:8
%%BeginProlog
%%EndProlog
%%Page: 1 1
 0.9 0.9 0.9 setrgbcolor
newpath -28.34645 22.67725 moveto
283.46451 22.67725 lineto
283.46451 34.01566 lineto
-28.34645 34.01566 lineto
 closepath fill
 1 0 0 setrgbcolor 0 1.5 dtransform truncate idtransform setlinewidth pop
 [] 0 setdash 1 setlinecap 1 setlinejoin 10 setmiterlimit
newpath -5.66963 -11.19698 moveto
-5.10216 -11.50752 lineto
-4.53554 -11.81506 lineto
-3.96892 -12.11957 lineto
-3.4023 -12.42104 lineto
-2.83568 -12.71991 lineto
-2.26906 -13.0162 lineto
-1.70245 -13.30946 lineto
-1.13583 -13.59969 lineto
-0.56921 -13.88731 lineto
-0.0026 -14.17192 lineto
0.56403 -14.45393 lineto
1.13065 -14.73293 lineto
1.69725 -15.00931 lineto
2.26387 -15.28267 lineto
2.83049 -15.55344 lineto
3.39711 -15.82117 lineto
3.96373 -16.08589 lineto
4.53035 -16.34799 lineto
5.09697 -16.60709 lineto
5.66357 -16.86357 lineto
6.2302 -17.11748 lineto
6.79681 -17.3679 lineto
7.36343 -17.61575 lineto
7.93005 -17.861 lineto
8.49667 -18.10321 lineto
9.0633 -18.34283 lineto
9.6299 -18.57944 lineto
10.19652 -18.813 lineto
10.76314 -19.04398 lineto
11.32976 -19.27235 lineto
11.89638 -19.49727 lineto
12.463 -19.72002 lineto
13.0296 -19.93932 lineto
13.59622 -20.15645 lineto
14.16284 -20.37012 lineto
14.72946 -20.58119 lineto
15.29608 -20.78967 lineto
15.8627 -20.99513 lineto
16.42932 -21.19756 lineto
16.99593 -21.39738 lineto
17.56255 -21.59462 lineto
18.12917 -21.78839 lineto
18.69579 -21.98001 lineto
19.2624 -22.16815 lineto
19.82903 -22.35414 lineto
20.39565 -22.53667 lineto
20.96225 -22.71661 lineto
21.52887 -22.89395 lineto
22.09549 -23.06825 lineto
22.66211 -23.23953 lineto
23.22873 -23.40823 lineto
23.79535 -23.57433 lineto
24.36195 -23.73695 lineto
24.92857 -23.89742 lineto
25.4952 -24.05443 lineto
26.06181 -24.20927 lineto
26.62843 -24.36066 lineto
27.19505 -24.50946 lineto
27.76167 -24.65565 lineto
28.32828 -24.79881 lineto
28.8949 -24.93896 lineto
29.46152 -25.0765 lineto
30.02814 -25.21103 lineto
30.59476 -25.34294 lineto
31.16138 -25.47183 lineto
31.728 -25.59814 lineto
32.2946 -25.7214 lineto
32.86122 -25.84209 lineto
33.42784 -25.95973 lineto
33.99446 -26.07478 lineto
34.56108 -26.18639 lineto
35.1277 -26.2958 lineto
35.69432 -26.40222 lineto
36.26093 -26.5056 lineto
36.82755 -26.60637 lineto
37.39417 -26.70413 lineto
37.96078 -26.79929 lineto
38.5274 -26.89142 lineto
39.09402 -26.98094 lineto
39.66063 -27.06746 lineto
40.22725 -27.15092 lineto
40.79387 -27.23181 lineto
41.36049 -27.3101 lineto
41.92711 -27.38493 lineto
42.49373 -27.4576 lineto
43.06035 -27.52724 lineto
43.62695 -27.59384 lineto
44.19357 -27.65742 lineto
44.7602 -27.71884 lineto
45.32681 -27.77681 lineto
45.89343 -27.83217 lineto
46.46005 -27.88493 lineto
47.02667 -27.93468 lineto
47.59328 -27.9814 lineto
48.1599 -28.02551 lineto
48.72652 -28.0666 lineto
49.29314 -28.1051 lineto
49.85976 -28.14056 lineto
50.42638 -28.17343 lineto
50.99298 -28.20328 lineto
51.5596 -28.23053 lineto
52.12622 -28.25476 lineto
52.69284 -28.27596 lineto
53.25946 -28.29454 lineto
53.82608 -28.31012 lineto
54.3927 -28.32309 lineto
54.9593 -28.33348 lineto
55.52592 -28.3404 lineto
56.09254 -28.34515 lineto
56.65916 -28.34645 lineto
57.22578 -28.34515 lineto
57.7924 -28.34126 lineto
58.35902 -28.33434 lineto
58.92563 -28.32439 lineto
59.49225 -28.31184 lineto
60.05887 -28.2967 lineto
60.62549 -28.27855 lineto
61.19211 -28.25735 lineto
61.75873 -28.23357 lineto
62.32533 -28.20674 lineto
62.89195 -28.1769 lineto
63.45857 -28.1449 lineto
64.02519 -28.10942 lineto
64.59181 -28.07137 lineto
65.15843 -28.0307 lineto
65.72505 -27.98701 lineto
66.29166 -27.9403 lineto
66.85828 -27.89099 lineto
67.4249 -27.83865 lineto
67.99152 -27.78372 lineto
68.55814 -27.72577 lineto
69.12476 -27.6652 lineto
69.69138 -27.60162 lineto
70.25798 -27.53502 lineto
70.8246 -27.46582 lineto
71.39122 -27.39401 lineto
71.95784 -27.31918 lineto
72.52446 -27.24133 lineto
73.09108 -27.16087 lineto
73.65768 -27.07741 lineto
74.2243 -26.99133 lineto
74.79092 -26.90222 lineto
75.35754 -26.81053 lineto
75.92416 -26.7158 lineto
76.49078 -26.61806 lineto
77.0574 -26.5177 lineto
77.62401 -26.41476 lineto
78.19063 -26.30879 lineto
78.75725 -26.1998 lineto
79.32387 -26.0882 lineto
79.89049 -25.97357 lineto
80.4571 -25.85635 lineto
81.02373 -25.73611 lineto
81.59033 -25.61284 lineto
82.15695 -25.48741 lineto
82.72357 -25.35852 lineto
83.29019 -25.22702 lineto
83.85681 -25.09251 lineto
84.42343 -24.9554 lineto
84.99005 -24.81569 lineto
85.55666 -24.67296 lineto
86.12328 -24.52719 lineto
86.6899 -24.3784 lineto
87.25652 -24.22745 lineto
87.82314 -24.07303 lineto
88.38976 -23.91602 lineto
88.95636 -23.75641 lineto
89.52298 -23.59378 lineto
90.0896 -23.42813 lineto
90.65622 -23.25987 lineto
91.22284 -23.0886 lineto
91.78946 -22.9147 lineto
92.35608 -22.73781 lineto
92.92268 -22.5583 lineto
93.4893 -22.37578 lineto
94.05592 -22.19064 lineto
94.62254 -22.0025 lineto
95.18916 -21.81131 lineto
95.75578 -21.61754 lineto
96.3224 -21.42117 lineto
96.889 -21.22177 lineto
97.45563 -21.01935 lineto
98.02225 -20.81433 lineto
98.58887 -20.60628 lineto
99.15549 -20.39565 lineto
99.7221 -20.18196 lineto
100.28871 -19.96527 lineto
100.85533 -19.74597 lineto
101.42195 -19.52408 lineto
101.98857 -19.29916 lineto
102.55519 -19.07123 lineto
103.12181 -18.84068 lineto
103.68843 -18.60754 lineto
104.25504 -18.37096 lineto
104.82166 -18.13176 lineto
105.38828 -17.88998 lineto
105.9549 -17.64516 lineto
106.52151 -17.39775 lineto
107.08813 -17.14732 lineto
107.65475 -16.89386 lineto
108.22136 -16.6378 lineto
108.78798 -16.37914 lineto
109.3546 -16.11746 lineto
109.92122 -15.85275 lineto
110.48784 -15.58545 lineto
111.05446 -15.31511 lineto
111.62106 -15.04175 lineto
112.18768 -14.76622 lineto
112.7543 -14.48724 lineto
113.32092 -14.20566 lineto
113.88754 -13.9215 lineto
114.45416 -13.6343 lineto
115.02078 -13.34406 lineto
115.58739 -13.05124 lineto
116.154 -12.75539 lineto
116.72063 -12.45694 lineto
117.28725 -12.15546 lineto
117.85387 -11.8514 lineto
118.42049 -11.5443 lineto
118.9871 -11.23416 lineto
119.55371 -10.92145 lineto
120.12033 -10.60612 lineto
120.68695 -10.28778 lineto
121.25357 -9.96642 lineto
121.82019 -9.64244 lineto
122.38681 -9.31546 lineto
122.95341 -8.98587 lineto
123.52003 -8.65324 lineto
124.08665 -8.31804 lineto
124.65327 -7.9798 lineto
125.2199 -7.63852 lineto
125.78651 -7.29466 lineto
126.35313 -6.9482 lineto
126.91974 -6.59871 lineto
127.48636 -6.2462 lineto
128.05298 -5.8911 lineto
128.6196 -5.53296 lineto
129.18622 -5.17223 lineto
129.75284 -4.80846 lineto
130.31946 -4.44211 lineto
130.88606 -4.07272 lineto
131.45268 -3.70032 lineto
132.0193 -3.32532 lineto
132.58592 -2.94771 lineto
133.15254 -2.56708 lineto
133.71916 -2.18343 lineto
134.28578 -1.79718 lineto
134.85239 -1.4079 lineto
135.419 -1.01602 lineto
135.98563 -0.62112 lineto
136.55225 -0.22362 lineto
137.11887 0.17734 lineto
137.68549 0.58046 lineto
138.25209 0.9866 lineto
138.81871 1.39578 lineto
139.38533 1.80756 lineto
139.95195 2.22235 lineto
140.51857 2.63974 lineto
141.08519 3.06017 lineto
141.65181 3.48318 lineto
142.21841 3.90923 lineto
142.78503 4.33788 lineto
143.35165 4.76953 lineto
143.91827 5.2038 lineto
144.4849 5.64108 lineto
145.05151 6.0814 lineto
145.61813 6.52432 lineto
146.18474 6.97026 lineto
146.75136 7.4188 lineto
147.31798 7.87036 lineto
147.8846 8.32452 lineto
148.45122 8.78171 lineto
149.01784 9.24149 lineto
149.58444 9.7043 lineto
150.15106 10.17014 lineto
150.71768 10.63857 lineto
151.2843 11.1096 lineto
151.85092 11.58409 lineto
152.41754 12.06073 lineto
152.98416 12.54085 lineto
153.55077 13.02312 lineto
154.11739 13.50885 lineto
154.684 13.99675 lineto
155.25063 14.48811 lineto
155.81725 14.98206 lineto
156.38387 15.4786 lineto
156.95049 15.97818 lineto
157.51709 16.48079 lineto
158.08371 16.98598 lineto
158.65033 17.49422 lineto
159.21695 18.00504 lineto
159.78357 18.51888 lineto
160.35019 19.03532 lineto
160.9168 19.5548 lineto
161.48341 20.07686 lineto
162.05003 20.60196 lineto
162.61665 21.13008 lineto
163.18327 21.6608 lineto
163.7499 22.19453 lineto
164.31651 22.73088 lineto
164.88312 23.26982 lineto
165.44974 23.81221 lineto
166.01636 24.35677 lineto
166.58298 24.90479 lineto
167.1496 25.4554 lineto
167.71622 26.0086 lineto
168.28284 26.56485 lineto
168.84944 27.12411 lineto
169.41606 27.68597 lineto
169.98268 28.25043 lineto
170.5493 28.81834 lineto
171.11592 29.38843 lineto
171.68254 29.96153 lineto
172.24915 30.53766 lineto
172.81577 31.11682 lineto
173.38239 31.69858 lineto
173.949 32.28293 lineto
174.51563 32.87032 lineto
175.08224 33.46028 lineto
175.64886 34.05371 lineto
176.21547 34.6493 lineto
176.78209 35.24794 lineto
177.34871 35.8496 lineto
177.91533 36.45384 lineto
178.48195 37.06111 lineto
179.04857 37.67142 lineto
179.61519 38.28389 lineto
180.1818 38.89981 lineto
180.74841 39.51833 lineto
181.31503 40.13945 lineto
181.88165 40.76402 lineto
182.44827 41.39076 lineto
183.0149 42.02054 lineto
183.58151 42.65334 lineto
184.14812 43.28871 lineto
184.71474 43.92714 lineto
185.28136 44.56859 lineto
185.84798 45.21219 lineto
186.4146 45.85925 lineto
186.98122 46.50893 lineto
187.54782 47.16118 lineto
188.11444 47.8169 lineto
188.68106 48.47478 lineto
189.24768 49.1357 lineto
189.8143 49.79964 lineto
190.38092 50.46616 lineto
190.94754 51.13573 lineto
191.51414 51.80832 lineto
192.08076 52.48349 lineto
192.64738 53.16127 lineto
193.214 53.84209 lineto
193.78062 54.52591 lineto
194.34724 55.21234 lineto
194.91386 55.90137 lineto
195.48047 56.59386 lineto
196.04709 57.2885 lineto
196.61371 57.9866 lineto
197.18033 58.6873 lineto
197.74695 59.39061 lineto
198.31357 60.09694 lineto
198.88017 60.80585 lineto
199.4468 61.5178 lineto
200.01341 62.23277 lineto
200.58003 62.95035 lineto
201.14665 63.67094 lineto
201.71327 64.39415 lineto
202.27989 65.12036 lineto
202.8465 65.84918 lineto
203.41312 66.58102 lineto
203.97974 67.31546 lineto
204.54636 68.05293 lineto
205.11298 68.79343 lineto
205.6796 69.53653 lineto
206.24622 70.28221 lineto
206.81282 71.03136 lineto
207.37944 71.78267 lineto
207.94606 72.537 lineto
208.51268 73.29436 lineto
209.0793 74.05476 lineto
209.64592 74.8173 lineto
210.21252 75.58333 lineto
210.77914 76.35194 lineto
211.34576 77.12314 lineto
211.91238 77.89737 lineto
212.479 78.67464 lineto
213.04562 79.4545 lineto
213.61224 80.23738 lineto
214.17885 81.02286 lineto
214.74547 81.81136 lineto
215.31209 82.60246 lineto
215.87871 83.39659 lineto
216.44533 84.19331 lineto
217.01195 84.99307 lineto
217.57857 85.79585 lineto
218.14517 86.60123 lineto
218.71179 87.40964 lineto
219.27841 88.22063 lineto
219.84503 89.03423 lineto
220.41165 89.85127 lineto
220.97827 90.67049 lineto
221.54488 91.49316 lineto
222.1115 92.31844 lineto
222.67812 93.14632 lineto
223.24474 93.9772 lineto
223.81136 94.81113 lineto
224.37798 95.64764 lineto
224.9446 96.48676 lineto
225.5112 97.3289 lineto
226.07782 98.17407 lineto
226.64444 99.02184 lineto stroke
 0 0 1 setrgbcolor 0 0.5 dtransform truncate idtransform setlinewidth pop
 [3 3 ] 0 setdash
newpath -28.34645 22.67725 moveto
283.46451 22.67725 lineto stroke
newpath -28.34645 34.01566 moveto
283.46451 34.01566 lineto stroke
166.01337 -6.43161 moveto
(x) cmmi10 7.97014 fshow
170.5685 -7.62714 moveto
(0) cmr7 5.57909 fshow
-18.87878 15.04243 moveto
(`) cmmi10 7.97014 fshow
-13.78676 15.04243 moveto
(\000) cmsy10 7.97014 fshow
-5.81665 15.04243 moveto
(") cmmi10 7.97014 fshow
-18.87878 36.77982 moveto
(`) cmmi10 7.97014 fshow
-13.78676 36.77982 moveto
(+) cmr10 7.97014 fshow
-5.81665 36.77982 moveto
(") cmmi10 7.97014 fshow
 0.5 0 0 setrgbcolor
166.01337 -6.43161 moveto
(x) cmmi10 7.97014 fshow
170.5685 -7.62714 moveto
(0) cmr7 5.57909 fshow
 0.5 0 dtransform exch truncate exch idtransform pop setlinewidth
newpath 170.0787 0 moveto
170.0787 28.34645 lineto stroke
newpath 164.40907 0 moveto
164.40907 34.01566 lineto stroke
newpath 175.74834 0 moveto
175.74834 34.01566 lineto stroke
 0 0.5 dtransform truncate idtransform setlinewidth pop [] 0 setdash
newpath 155.90549 -8.50403 moveto
164.40907 -0.85036 lineto stroke
newpath 162.68639 -4.46033 moveto
164.40907 -0.85036 lineto
160.63829 -2.18478 lineto
 closepath
gsave fill grestore stroke
145.8431 -15.57205 moveto
(x) cmmi10 6.97382 fshow
149.8288 -16.61813 moveto
(0) cmr7 4.88167 fshow
154.5071 -15.57205 moveto
(\000) cmsy10 6.97382 fshow
161.48088 -15.57205 moveto
(\013) cmmi10 6.97382 fshow
newpath 184.25194 -8.50403 moveto
175.74834 -0.85036 lineto stroke
newpath 179.51913 -2.18478 moveto
175.74834 -0.85036 lineto
177.47104 -4.46033 lineto
 closepath
gsave fill grestore stroke
174.18954 -15.57205 moveto
(x) cmmi10 6.97382 fshow
178.17525 -16.61813 moveto
(0) cmr7 4.88167 fshow
182.85355 -15.57205 moveto
(+) cmr10 6.97382 fshow
189.82733 -15.57205 moveto
(\013) cmmi10 6.97382 fshow
 0 0 0 setrgbcolor 0.5 0 dtransform exch truncate exch idtransform pop setlinewidth
newpath 0 -1.4174 moveto
0 1.4174 lineto stroke
newpath 28.34645 -1.4174 moveto
28.34645 1.4174 lineto stroke
newpath 56.6929 -1.4174 moveto
56.6929 1.4174 lineto stroke
newpath 85.03935 -1.4174 moveto
85.03935 1.4174 lineto stroke
newpath 113.3858 -1.4174 moveto
113.3858 1.4174 lineto stroke
newpath 141.73225 -1.4174 moveto
141.73225 1.4174 lineto stroke
newpath 170.0787 -1.4174 moveto
170.0787 1.4174 lineto stroke
newpath 198.42516 -1.4174 moveto
198.42516 1.4174 lineto stroke
newpath 226.7716 -1.4174 moveto
226.7716 1.4174 lineto stroke
newpath 255.11806 -1.4174 moveto
255.11806 1.4174 lineto stroke
 0 0.5 dtransform truncate idtransform setlinewidth pop
newpath -1.41698 -56.6929 moveto
1.41698 -56.6929 lineto stroke
newpath -1.41698 -28.34645 moveto
1.41698 -28.34645 lineto stroke
newpath -1.41698 0 moveto
1.41698 0 lineto stroke
newpath -1.41698 28.34645 moveto
1.41698 28.34645 lineto stroke
newpath -1.41698 56.6929 moveto
1.41698 56.6929 lineto stroke
newpath -1.41698 85.03935 moveto
1.41698 85.03935 lineto stroke
newpath -28.34645 0 moveto
283.46451 0 lineto stroke
newpath 279.76776 -1.53128 moveto
283.46451 0 lineto
279.76776 1.53128 lineto
 closepath
gsave fill grestore stroke
 0.5 0 dtransform exch truncate exch idtransform pop setlinewidth
newpath 0 -70.86613 moveto
0 113.3858 lineto stroke
 0 0.5 dtransform truncate idtransform setlinewidth pop
newpath 1.53104 109.68965 moveto
0 113.3858 lineto
-1.53104 109.68965 lineto
 closepath
gsave fill grestore stroke
showpage
%%EOF
