%!PS
%%BoundingBox: -57 -86 285 114 
%%HiResBoundingBox: -56.9429 -85.28935 284.0562 113.6358 
%%Creator: MetaPost 2.02
%%CreationDate: 2023.03.28:2241
%%Pages: 1
%*Font: cmmi10 8.96631 9.96265 22:8
%*Font: cmsy10 8.96631 9.96265 00:8
%%BeginProlog
%%EndProlog
%%Page: 1 1
 0.9 0.9 0.9 setrgbcolor
newpath -28.34645 17.00804 moveto
283.46451 17.00804 lineto
283.46451 -17.00804 lineto
-28.34645 -17.00804 lineto
 closepath fill
 1 0 0 setrgbcolor 0 1.5 dtransform truncate idtransform setlinewidth pop
 [] 0 setdash 1 setlinecap 1 setlinejoin 10 setmiterlimit
newpath -5.66963 -75.86101 moveto
-5.47586 -73.68192 -5.2864 -71.5028 -5.10216 -69.32285 curveto
-4.90839 -67.02611 -4.71979 -64.72935 -4.53554 -62.43175 curveto
-4.34262 -60.02946 -4.15404 -57.62717 -3.96892 -55.22401 curveto
-3.77687 -52.7335 -3.58829 -50.24211 -3.4023 -47.75072 curveto
-3.21112 -45.1858 -3.02254 -42.62003 -2.83568 -40.05424 curveto
-2.64537 -37.43309 -2.45592 -34.81108 -2.26906 -32.18994 curveto
-1.70245 -24.20625 lineto
-1.13583 -16.1525 lineto
-0.56921 -8.07971 lineto
-0.0026 -0.0372 lineto
0.56403 7.92659 lineto
0.75087 10.53822 0.94032 13.14899 1.13065 15.76062 curveto
1.31749 18.31429 1.50607 20.86797 1.69725 23.42078 curveto
1.88324 25.90091 2.07182 28.38106 2.26387 30.86034 curveto
2.449 33.25223 2.63759 35.64413 2.83049 38.03604 curveto
3.01476 40.32674 3.20334 42.61656 3.39711 44.90639 curveto
3.58138 47.08203 3.76909 49.2568 3.96373 51.43071 curveto
4.14713 53.48006 4.33484 55.52852 4.53035 57.577 curveto
4.71288 59.48706 4.90059 61.39713 5.09697 63.30547 curveto
5.27776 65.06673 5.46634 66.82713 5.66357 68.58669 curveto
5.84352 70.1905 6.03123 71.79347 6.2302 73.39558 curveto
6.4084 74.83331 6.59612 76.26932 6.79681 77.70447 curveto
6.97328 78.96832 7.16101 80.23132 7.36343 81.49171 curveto
7.53818 82.57738 7.72417 83.66045 7.93005 84.74004 curveto
8.10133 85.64143 8.28645 86.5411 8.49667 87.43472 curveto
8.66536 88.15013 8.84875 88.86208 9.0633 89.56537 curveto
9.22418 90.09479 9.40239 90.61989 9.6299 91.12422 curveto
9.78561 91.46938 9.96382 91.80502 10.19652 92.10434 curveto
10.34445 92.29552 10.52438 92.47372 10.76314 92.51178 curveto
10.96556 92.5438 11.16454 92.4642 11.32976 92.34222 curveto
11.5815 92.15538 11.74931 91.88374 11.89638 91.60779 curveto
12.11696 91.19257 12.30122 90.75916 12.463 90.31798 curveto
12.68358 89.71677 12.86351 89.10257 13.0296 88.48404 curveto
13.23895 87.70288 13.42494 86.91481 13.59622 86.12415 curveto
13.80298 85.17258 13.9881 84.2158 14.16284 83.25732 curveto
14.36526 82.14311 14.55212 81.02632 14.72946 79.90779 curveto
14.93016 78.64047 15.117 77.37054 15.29608 76.09978 curveto
15.49419 74.68799 15.68277 73.27448 15.8627 71.86009 curveto
16.05994 70.31508 16.24765 68.76921 16.42932 67.22247 curveto
16.62482 65.55463 16.8134 63.88591 16.99593 62.21721 curveto
17.19057 60.43777 17.37915 58.65833 17.56255 56.87802 curveto
17.75632 54.9991 17.94492 53.12018 18.12917 51.2404 curveto
18.32208 49.27583 18.51067 47.31126 18.69579 45.34584 curveto
18.88783 43.30688 19.07642 41.26793 19.2624 39.22897 curveto
19.45358 37.13118 19.64217 35.0334 19.82903 32.93475 curveto
20.0202 30.7894 20.20879 28.64317 20.39565 26.4978 curveto
20.96225 19.9631 lineto
21.52887 13.36871 lineto
22.09549 6.75961 lineto
22.66211 0.17474 lineto
23.22873 -6.34698 lineto
23.41557 -8.48628 23.60417 -10.6256 23.79535 -12.7649 curveto
23.9822 -14.85663 24.17078 -16.94835 24.36195 -19.03922 curveto
24.54794 -21.07126 24.73654 -23.10329 24.92857 -25.13446 curveto
25.11371 -27.0947 25.30229 -29.05493 25.4952 -31.01431 curveto
25.67946 -32.89151 25.86804 -34.76956 26.06181 -36.64589 curveto
26.24608 -38.42964 26.43379 -40.21255 26.62843 -41.99545 curveto
26.81183 -43.67455 26.99954 -45.35362 27.19505 -47.03186 curveto
27.37758 -48.59935 27.56529 -50.16512 27.76167 -51.7309 curveto
27.94333 -53.1764 28.13104 -54.62108 28.32828 -56.064 curveto
28.50822 -57.38063 28.69594 -58.69553 28.8949 -60.00957 curveto
29.07397 -61.19037 29.26082 -62.36859 29.46152 -63.54594 curveto
29.63885 -64.58575 29.82571 -65.62297 30.02814 -66.6576 curveto
30.20288 -67.55034 30.38974 -68.44049 30.59476 -69.32631 curveto
30.7669 -70.0694 30.95203 -70.81076 31.16138 -71.54434 curveto
31.33006 -72.13518 31.51431 -72.72083 31.728 -73.2961 curveto
31.8915 -73.73642 32.07228 -74.17067 32.2946 -74.58418 curveto
32.45206 -74.87657 32.63025 -75.15944 32.86122 -75.39821 curveto
33.01866 -75.56084 33.2038 -75.70271 33.42784 -75.73904 curveto
33.62508 -75.77019 33.82318 -75.71481 33.99446 -75.61188 curveto
34.23236 -75.47 34.40709 -75.25027 34.56108 -75.02104 curveto
34.78253 -74.69058 34.96506 -74.33676 35.1277 -73.97343 curveto
35.34569 -73.48814 35.52736 -72.98813 35.69432 -72.48294 curveto
35.90366 -71.84798 36.08965 -71.20523 36.26093 -70.55904 curveto
36.46681 -69.78394 36.6528 -69.0045 36.82755 -68.22162 curveto
37.02997 -67.31244 37.21683 -66.40067 37.39417 -65.48628 curveto
37.59486 -64.45253 37.78171 -63.41618 37.96078 -62.37811 curveto
38.15974 -61.22498 38.34747 -60.07011 38.5274 -58.91438 curveto
38.72464 -57.65225 38.91235 -56.38927 39.09402 -55.12454 curveto
39.28952 -53.7612 39.4781 -52.39612 39.66063 -51.03105 curveto
39.85527 -49.57687 40.04385 -48.12184 40.22725 -46.6668 curveto
40.42104 -45.13045 40.60962 -43.59409 40.79387 -42.05687 curveto
40.98679 -40.44957 41.17537 -38.84229 41.36049 -37.23413 curveto
41.55254 -35.56628 41.74112 -33.89844 41.92711 -32.23059 curveto
42.11829 -30.51344 42.30687 -28.79628 42.49373 -27.07826 curveto
42.6849 -25.32304 42.87349 -23.56697 43.06035 -21.81088 curveto
43.62695 -16.46219 lineto
44.19357 -11.06505 lineto
44.7602 -5.6532 lineto
45.32681 -0.26125 lineto
45.89343 5.07967 lineto
46.08028 6.83229 46.26973 8.5849 46.46005 10.33665 curveto
46.6469 12.05035 46.83548 13.76405 47.02667 15.47688 curveto
47.21265 17.14127 47.40125 18.80565 47.59328 20.47003 curveto
47.77841 22.07646 47.967 23.68375 48.1599 25.2893 curveto
48.34416 26.82826 48.53275 28.36635 48.72652 29.90356 curveto
48.91078 31.36552 49.0985 32.82748 49.29314 34.28859 curveto
49.47653 35.66577 49.66512 37.04295 49.85976 38.4184 curveto
50.04228 39.70389 50.23 40.98938 50.42638 42.27313 curveto
50.60716 43.45827 50.79575 44.64342 50.99298 45.82596 curveto
51.17293 46.90642 51.36064 47.98602 51.5596 49.06389 curveto
51.73868 50.03363 51.92552 51.00163 52.12622 51.96706 curveto
52.30356 52.82088 52.49042 53.67296 52.69284 54.52159 curveto
52.86845 55.25603 53.05444 55.98787 53.25946 56.71452 curveto
53.43246 57.327 53.6176 57.93686 53.82608 58.53809 curveto
53.99564 59.02771 54.17989 59.51128 54.3927 59.98361 curveto
54.55792 60.34953 54.73958 60.70853 54.9593 61.04504 curveto
55.12021 61.29158 55.30188 61.52602 55.52592 61.71806 curveto
55.69029 61.85907 55.87888 61.97499 56.09254 62.00873 curveto
56.28632 62.039 56.4827 61.99748 56.65916 61.91183 curveto
56.88321 61.80284 57.06488 61.6281 57.22578 61.43779 curveto
57.44638 61.17653 57.62804 60.88673 57.7924 60.58742 curveto
58.00694 60.19556 58.1912 59.7881 58.35902 59.3746 curveto
58.56836 58.8599 58.75348 58.33566 58.92563 57.8071 curveto
59.13066 57.17647 59.3175 56.53978 59.49225 55.9005 curveto
59.69467 55.16 59.88153 54.41519 60.05887 53.66864 curveto
60.2587 52.8252 60.44643 51.9783 60.62549 51.12967 curveto
60.8236 50.18848 61.0113 49.24556 61.19211 48.3009 curveto
61.38934 47.26974 61.57706 46.23773 61.75873 45.20398 curveto
61.95422 44.08977 62.1428 42.97383 62.32533 41.85704 curveto
62.51997 40.66757 62.70856 39.4781 62.89195 38.28691 curveto
63.08574 37.03084 63.27432 35.77477 63.45857 34.51782 curveto
63.65149 33.2038 63.84007 31.88889 64.02519 30.57314 curveto
64.21724 29.20892 64.40582 27.84384 64.59181 26.47878 curveto
64.78299 25.07391 64.97157 23.66904 65.15843 22.26418 curveto
65.34961 20.8273 65.5382 19.39043 65.72505 17.95355 curveto
66.29166 13.5746 lineto
66.85828 9.15671 lineto
67.4249 4.72585 lineto
67.99152 0.31056 lineto
68.55814 -4.06322 lineto
68.745 -5.49835 68.93358 -6.9335 69.12476 -8.36864 curveto
69.3116 -9.77264 69.50018 -11.17664 69.69138 -12.57977 curveto
69.87737 -13.94398 70.06595 -15.3082 70.25798 -16.67154 curveto
70.44312 -17.98816 70.6317 -19.3048 70.8246 -20.62056 curveto
71.00974 -21.88182 71.19832 -23.14223 71.39122 -24.40175 curveto
71.57549 -25.60074 71.7632 -26.79971 71.95784 -27.99696 curveto
72.14124 -29.12674 72.32982 -30.25565 72.52446 -31.38283 curveto
72.70699 -32.43735 72.8947 -33.491 73.09108 -34.54291 curveto
73.27274 -35.51611 73.46046 -36.48845 73.65768 -37.45818 curveto
73.83763 -38.34573 74.02621 -39.23157 74.2243 -40.11479 curveto
74.40338 -40.91151 74.5911 -41.70651 74.79092 -42.49805 curveto
74.96826 -43.20049 75.15599 -43.90031 75.35754 -44.59583 curveto
75.53316 -45.20052 75.72 -45.8026 75.92416 -46.39862 curveto
76.09717 -46.90382 76.28316 -47.40556 76.49078 -47.89778 curveto
76.6612 -48.30264 76.84633 -48.70143 77.0574 -49.08638 curveto
77.22435 -49.39175 77.40862 -49.68848 77.62401 -49.96269 curveto
77.78925 -50.17291 77.97264 -50.36841 78.19063 -50.5224 curveto
78.36105 -50.64264 78.55136 -50.7352 78.75725 -50.76547 curveto
78.9493 -50.79315 79.14394 -50.76462 79.32387 -50.69453 curveto
79.5384 -50.61063 79.7244 -50.47136 79.89049 -50.31218 curveto
80.10675 -50.1063 80.29015 -49.86926 80.4571 -49.62186 curveto
80.66904 -49.30785 80.85417 -48.97566 81.02373 -48.63655 curveto
81.23221 -48.21959 81.41733 -47.79225 81.59033 -47.35971 curveto
81.7945 -46.8476 81.98135 -46.3277 82.15695 -45.80519 curveto
82.35938 -45.20224 82.54623 -44.59497 82.72357 -43.98424 curveto
82.9234 -43.29564 83.11113 -42.60359 83.29019 -41.90894 curveto
83.4883 -41.14076 83.67601 -40.37 83.85681 -39.59749 curveto
84.05405 -38.75578 84.24176 -37.91147 84.42343 -37.0663 curveto
84.61893 -36.15627 84.80751 -35.24362 84.99005 -34.33096 curveto
85.18468 -33.3595 85.37326 -32.38718 85.55666 -31.41397 curveto
85.75044 -30.38715 85.93903 -29.35858 86.12328 -28.33002 curveto
86.3162 -27.25475 86.50478 -26.17946 86.6899 -25.10332 curveto
86.88194 -23.98738 87.07053 -22.87146 87.25652 -21.75465 curveto
87.4477 -20.60498 87.63628 -19.4553 87.82314 -18.30563 curveto
88.01431 -17.13002 88.2029 -15.95352 88.38976 -14.77704 curveto
88.95636 -11.19307 lineto
89.52298 -7.57623 lineto
90.0896 -3.94902 lineto
90.65622 -0.33305 lineto
91.22284 3.24832 lineto
91.4097 4.42393 91.59914 5.59956 91.78946 6.77519 curveto
91.9763 7.92572 92.16489 9.0754 92.35608 10.22507 curveto
92.54207 11.34273 92.73065 12.4604 92.92268 13.5772 curveto
93.10782 14.65593 93.2964 15.73466 93.4893 16.81255 curveto
93.67444 17.8463 93.86302 18.88005 94.05592 19.91206 curveto
94.24019 20.89478 94.42877 21.87749 94.62254 22.85847 curveto
94.80594 23.78496 94.99452 24.71059 95.18916 25.63533 curveto
95.37169 26.5004 95.5594 27.36374 95.75578 28.22621 curveto
95.93744 29.02466 96.12517 29.82225 96.3224 30.61725 curveto
96.50319 31.3465 96.69092 32.07315 96.889 32.79808 curveto
97.06808 33.45293 97.2558 34.1052 97.45563 34.75398 curveto
97.63383 35.33185 97.8207 35.90712 98.02225 36.4772 curveto
98.19872 36.97548 98.38557 37.47029 98.58887 37.95819 curveto
98.76274 38.37602 98.9496 38.78778 99.15549 39.1909 curveto
99.32764 39.52742 99.51276 39.85614 99.7221 40.17102 curveto
99.89165 40.42622 100.07764 40.67104 100.28871 40.89336 curveto
100.45827 41.0707 100.64426 41.23245 100.85533 41.35703 curveto
101.03008 41.45998 101.2204 41.53523 101.42195 41.56204 curveto
101.61227 41.58714 101.80605 41.56725 101.98857 41.51015 curveto
102.19533 41.44527 102.38391 41.33453 102.55519 41.20218 curveto
102.76627 41.03955 102.95139 40.84663 103.12181 40.64162 curveto
103.33115 40.3899 103.51628 40.11913 103.68843 39.84058 curveto
103.89517 39.50406 104.08116 39.15544 104.25504 38.80077 curveto
104.4592 38.38466 104.64606 37.96078 104.82166 37.53258 curveto
105.02322 37.04208 105.21007 36.54553 105.38828 36.04553 curveto
105.5881 35.4841 105.77583 34.91922 105.9549 34.35173 curveto
106.153 33.72542 106.34071 33.09566 106.52151 32.46416 curveto
106.71788 31.77643 106.90646 31.08698 107.08813 30.39493 curveto
107.28363 29.65184 107.47221 28.90614 107.65475 28.15959 curveto
107.84938 27.36546 108.03796 26.56961 108.22136 25.77289 curveto
108.41515 24.93378 108.60373 24.09293 108.78798 23.25209 curveto
108.9809 22.37318 109.16948 21.49341 109.3546 20.61276 curveto
109.54665 19.70012 109.73523 18.78662 109.92122 17.87224 curveto
110.1124 16.93192 110.30098 15.99072 110.48784 15.04953 curveto
110.67902 14.08759 110.8676 13.12477 111.05446 12.16196 curveto
111.62106 9.22939 lineto
112.18768 6.26826 lineto
112.7543 3.2985 lineto
113.32092 0.33737 lineto
113.88754 -2.59605 lineto
114.0744 -3.55888 114.26384 -4.5217 114.45416 -5.48364 curveto
114.641 -6.42657 114.82959 -7.36862 115.02078 -8.30981 curveto
115.20677 -9.22592 115.39536 -10.14116 115.58739 -11.0564 curveto
115.77252 -11.94049 115.9611 -12.82458 116.154 -13.70782 curveto
116.33914 -14.55559 116.52773 -15.40161 116.72063 -16.24765 curveto
116.90489 -17.0539 117.09348 -17.85927 117.28725 -18.66292 curveto
117.47064 -19.42331 117.65923 -20.18196 117.85387 -20.93976 curveto
118.03639 -21.64998 118.22498 -22.35847 118.42049 -23.06523 curveto
118.60214 -23.72095 118.79073 -24.37494 118.9871 -25.02634 curveto
119.1679 -25.62495 119.35562 -26.22185 119.55371 -26.81529 curveto
119.73366 -27.35336 119.92137 -27.8897 120.12033 -28.42085 curveto
120.29854 -28.89664 120.48625 -29.36983 120.68695 -29.83609 curveto
120.86429 -30.247 121.05115 -30.65358 121.25357 -31.05237 curveto
121.42831 -31.3984 121.61603 -31.7375 121.82019 -32.0671 curveto
121.99406 -32.34651 122.18005 -32.61728 122.38681 -32.87334 curveto
122.55981 -33.08614 122.74667 -33.28857 122.95341 -33.4685 curveto
123.12643 -33.61902 123.31415 -33.75311 123.52003 -33.85432 curveto
123.69824 -33.9417 123.88942 -34.00398 124.08665 -34.02647 curveto
124.27611 -34.0481 124.46815 -34.03339 124.65327 -33.98668 curveto
124.85397 -33.93651 125.04343 -33.84914 125.2199 -33.741 curveto
125.42664 -33.61383 125.61263 -33.45726 125.78651 -33.2877 curveto
125.9924 -33.08614 126.17924 -32.86555 126.35313 -32.63544 curveto
126.55815 -32.36382 126.745 -32.07834 126.91974 -31.78682 curveto
127.12218 -31.4503 127.30989 -31.10428 127.48636 -30.75392 curveto
127.68793 -30.35513 127.87477 -29.94942 128.05298 -29.54024 curveto
128.25195 -29.08348 128.43967 -28.62154 128.6196 -28.157 curveto
128.8177 -27.64575 129.00542 -27.1319 129.18622 -26.6146 curveto
129.38258 -26.05403 129.57117 -25.49 129.75284 -24.92426 curveto
129.94833 -24.31697 130.13606 -23.7071 130.31946 -23.0955 curveto
130.51323 -22.4467 130.70181 -21.79704 130.88606 -21.14565 curveto
131.07985 -20.45966 131.26843 -19.77193 131.45268 -19.08333 curveto
131.6456 -18.36447 131.83418 -17.64386 132.0193 -16.92326 curveto
132.21135 -16.17758 132.39993 -15.43016 132.58592 -14.68275 curveto
132.7771 -13.91371 132.96568 -13.1438 133.15254 -12.37303 curveto
133.71916 -10.01053 lineto
134.28578 -7.60997 lineto
134.85239 -5.1852 lineto
135.419 -2.75436 lineto
135.98563 -0.32959 lineto
136.55225 2.0727 lineto
136.7391 2.86163 136.92854 3.65057 137.11887 4.43864 curveto
137.30571 5.21028 137.4943 5.98192 137.68549 6.7527 curveto
137.87148 7.50357 138.06006 8.25446 138.25209 9.0036 curveto
138.43808 9.72852 138.62666 10.45258 138.81871 11.17578 curveto
139.00385 11.87129 139.19243 12.56506 139.38533 13.25798 curveto
139.5696 13.9189 139.75818 14.57893 139.95195 15.23726 curveto
140.13535 15.86096 140.32393 16.48381 140.51857 17.10406 curveto
140.7011 17.68712 140.88968 18.26845 141.08519 18.84717 curveto
141.26685 19.38611 141.45543 19.92245 141.65181 20.45619 curveto
141.8326 20.94841 142.02118 21.43803 142.21841 21.92421 curveto
142.39836 22.36713 142.58607 22.80658 142.78503 23.2417 curveto
142.96411 23.63358 143.15182 24.02199 143.35165 24.40349 curveto
143.52986 24.74345 143.71672 25.07823 143.91827 25.40436 curveto
144.09474 25.6907 144.28247 25.97012 144.4849 26.23828 curveto
144.66049 26.47012 144.84735 26.69331 145.05151 26.90092 curveto
145.22711 27.08 145.41397 27.24869 145.61813 27.39401 curveto
145.7946 27.52031 145.98405 27.62932 146.18474 27.71149 curveto
146.36641 27.78502 146.55586 27.83693 146.75136 27.85683 curveto
146.94081 27.87585 147.13112 27.86548 147.31798 27.82828 curveto
147.51521 27.78848 147.70467 27.72014 147.8846 27.63104 curveto
148.08702 27.5307 148.27473 27.40439 148.45122 27.26425 curveto
148.65451 27.10335 148.84135 26.92342 149.01784 26.73311 curveto
149.22026 26.51424 149.40797 26.28241 149.58444 26.04279 curveto
149.78514 25.7703 149.97287 25.48654 150.15106 25.19849 curveto
150.35089 24.87494 150.53862 24.5445 150.71768 24.20972 curveto
150.91666 23.83774 151.10437 23.46056 151.2843 23.07907 curveto
151.48154 22.66298 151.66925 22.24168 151.85092 21.81866 curveto
152.04729 21.36105 152.23502 20.90083 152.41754 20.43802 curveto
152.61304 19.94234 152.80077 19.44406 152.98416 18.94406 curveto
153.17879 18.41464 153.36652 17.88263 153.55077 17.34888 curveto
153.74455 16.78831 153.93227 16.22603 154.11739 15.662 curveto
154.3103 15.07463 154.49802 14.48552 154.684 13.89554 curveto
154.87605 13.28568 155.06464 12.67407 155.25063 12.06247 curveto
155.4418 11.43356 155.63039 10.80293 155.81725 10.1723 curveto
156.38387 8.23888 lineto
156.95049 6.27345 lineto
157.51709 4.28899 lineto
158.08371 2.29848 lineto
158.65033 0.31316 lineto
159.21695 -1.654 lineto
159.78357 -3.59175 lineto
159.97041 -4.2241 160.159 -4.85648 160.35019 -5.48798 curveto
160.53618 -6.10303 160.72476 -6.7181 160.9168 -7.33142 curveto
161.10278 -7.92572 161.29138 -8.51917 161.48341 -9.11172 curveto
161.66855 -9.68181 161.85713 -10.25102 162.05003 -10.8185 curveto
162.2343 -11.3609 162.42288 -11.90244 162.61665 -12.44136 curveto
162.80092 -12.95349 162.98863 -13.46387 163.18327 -13.97166 curveto
163.36667 -14.45004 163.55438 -14.9267 163.7499 -15.39989 curveto
163.93242 -15.8428 164.121 -16.28311 164.31651 -16.71997 curveto
164.49817 -17.12483 164.68588 -17.52708 164.88312 -17.92502 curveto
165.06392 -18.29007 165.25165 -18.6508 165.44974 -19.00635 curveto
165.62967 -19.32988 165.8174 -19.6491 166.01636 -19.96051 curveto
166.19543 -20.2408 166.38315 -20.51588 166.58298 -20.78232 curveto
166.76118 -21.01935 166.9489 -21.25032 167.1496 -21.46918 curveto
167.3278 -21.66296 167.51552 -21.84549 167.71622 -22.01505 curveto
167.89441 -22.1647 168.083 -22.30225 168.28284 -22.42076 curveto
168.46277 -22.52716 168.65135 -22.61713 168.84944 -22.6846 curveto
169.03284 -22.74689 169.22316 -22.78928 169.41606 -22.80658 curveto
169.60551 -22.82301 169.79582 -22.81609 169.98268 -22.78668 curveto
170.17732 -22.75554 170.36678 -22.70016 170.5493 -22.62665 curveto
170.7474 -22.54706 170.93684 -22.44585 171.11592 -22.32993 curveto
171.31575 -22.20103 171.50433 -22.0557 171.68254 -21.89825 curveto
171.88237 -21.72264 172.07008 -21.53406 172.24915 -21.33682 curveto
172.44899 -21.11624 172.6367 -20.8844 172.81577 -20.64737 curveto
173.01387 -20.38525 173.20245 -20.11449 173.38239 -19.8394 curveto
173.58049 -19.53749 173.7682 -19.22954 173.949 -18.91724 curveto
174.14537 -18.579 174.33395 -18.23557 174.51563 -17.88869 curveto
174.71112 -17.51584 174.89972 -17.13953 175.08224 -16.75977 curveto
175.27689 -16.35492 175.46547 -15.94833 175.64886 -15.5383 curveto
175.84264 -15.10576 176.03122 -14.66977 176.21547 -14.23291 curveto
176.40839 -13.77443 176.59697 -13.31421 176.78209 -12.85313 curveto
176.97414 -12.37389 177.16272 -11.89291 177.34871 -11.4102 curveto
177.54076 -10.91107 177.72934 -10.41106 177.91533 -9.90932 curveto
178.1065 -9.3946 178.29509 -8.87903 178.48195 -8.36258 curveto
179.04857 -6.78038 lineto
179.61519 -5.17136 lineto
180.1818 -3.54764 lineto
180.74841 -1.91785 lineto
181.31503 -0.29239 lineto
181.88165 1.31923 lineto
182.44827 2.90575 lineto
182.63512 3.42393 182.82372 3.94211 183.0149 4.45941 curveto
183.20088 4.96375 183.39032 5.46721 183.58151 5.96982 curveto
183.76749 6.45685 183.95609 6.94301 184.14812 7.42831 curveto
184.33325 7.89632 184.52184 8.36258 184.71474 8.82712 curveto
184.89986 9.27263 185.08759 9.71642 185.28136 10.1576 curveto
185.46562 10.57802 185.6542 10.99583 185.84798 11.41194 curveto
186.03137 11.80554 186.21996 12.19655 186.4146 12.5841 curveto
186.59712 12.94829 186.7857 13.30989 186.98122 13.66716 curveto
187.16374 14.00021 187.35146 14.3298 187.54782 14.65506 curveto
187.72949 14.95525 187.9172 15.25197 188.11444 15.54262 curveto
188.29524 15.80907 188.48296 16.07118 188.68106 16.3255 curveto
188.86186 16.55734 189.04958 16.78313 189.24768 17.00026 curveto
189.42761 17.1975 189.6162 17.3878 189.8143 17.56601 curveto
189.99423 17.72778 190.18195 17.87917 190.38092 18.01671 curveto
190.56172 18.14215 190.7503 18.25461 190.94754 18.35063 curveto
191.13007 18.43973 191.31952 18.51411 191.51414 18.56949 curveto
191.69928 18.62138 191.88872 18.65686 192.08076 18.67157 curveto
192.27022 18.68626 192.45967 18.68195 192.64738 18.65858 curveto
192.8403 18.63437 193.02974 18.59024 193.214 18.5297 curveto
193.40952 18.46568 193.5981 18.3835 193.78062 18.28748 curveto
193.97786 18.18452 194.16557 18.06602 194.34724 17.93712 curveto
194.54533 17.79611 194.73392 17.643 194.91386 17.48036 curveto
195.11195 17.30217 195.29968 17.11359 195.48047 16.91808 curveto
195.6777 16.70528 195.86543 16.48468 196.04709 16.2589 curveto
196.24347 16.01408 196.43205 15.76234 196.61371 15.50629 curveto
196.80922 15.23033 196.9978 14.94919 197.18033 14.66458 curveto
197.37497 14.36095 197.56355 14.05298 197.74695 13.74242 curveto
197.94159 13.41283 198.1293 13.07892 198.31357 12.74327 curveto
198.50734 12.39032 198.69592 12.03479 198.88017 11.6775 curveto
199.07309 11.3038 199.26167 10.9275 199.4468 10.54947 curveto
199.63884 10.1576 199.82742 9.76312 200.01341 9.36778 curveto
200.20459 8.95947 200.39404 8.55031 200.58003 8.14026 curveto
200.77121 7.71898 200.9598 7.29768 201.14665 6.87466 curveto
201.71327 5.57967 lineto
202.27989 4.2639 lineto
202.8465 2.9343 lineto
203.41312 1.5995 lineto
203.97974 0.26817 lineto
204.54636 -1.05106 lineto
205.11298 -2.35124 lineto
205.29982 -2.776 205.48842 -3.20074 205.6796 -3.62376 curveto
205.86644 -4.03726 206.05502 -4.44989 206.24622 -4.8608 curveto
206.43219 -5.26047 206.62079 -5.65926 206.81282 -6.05632 curveto
206.99796 -6.43954 207.1874 -6.8219 207.37944 -7.20166 curveto
207.56458 -7.5676 207.75316 -7.93092 207.94606 -8.29251 curveto
208.13033 -8.63768 208.31891 -8.98111 208.51268 -9.32108 curveto
208.69695 -9.6446 208.88466 -9.96555 209.0793 -10.28304 curveto
209.2627 -10.58234 209.45128 -10.87819 209.64592 -11.17058 curveto
209.82845 -11.44481 210.01703 -11.71558 210.21252 -11.98116 curveto
210.39507 -12.22943 210.58365 -12.4725 210.77914 -12.7104 curveto
210.96082 -12.93098 211.1494 -13.1464 211.34576 -13.354 curveto
211.52744 -13.54605 211.71602 -13.73204 211.91238 -13.90851 curveto
212.09406 -14.07115 212.28264 -14.22685 212.479 -14.37132 curveto
212.66066 -14.50455 212.85011 -14.62912 213.04562 -14.74158 curveto
213.22815 -14.84625 213.41673 -14.9414 213.61224 -15.02013 curveto
213.7965 -15.09451 213.98595 -15.1542 214.17885 -15.20006 curveto
214.36484 -15.24417 214.55429 -15.27446 214.74547 -15.28743 curveto
214.93405 -15.3004 215.1235 -15.29608 215.31209 -15.27705 curveto
215.50327 -15.25801 215.69272 -15.22342 215.87871 -15.1741 curveto
216.07248 -15.12306 216.26106 -15.05646 216.44533 -14.9786 curveto
216.63997 -14.89555 216.82855 -14.79866 217.01195 -14.69226 curveto
217.20744 -14.57893 217.39603 -14.4535 217.57857 -14.31943 curveto
217.77406 -14.17583 217.96265 -14.02184 218.14517 -13.8618 curveto
218.34068 -13.68965 218.52927 -13.51059 218.71179 -13.3246 curveto
218.9073 -13.12563 219.09502 -12.91974 219.27841 -12.70953 curveto
219.47305 -12.48549 219.66164 -12.25624 219.84503 -12.02267 curveto
220.03967 -11.77527 220.22739 -11.52353 220.41165 -11.26834 curveto
220.60542 -10.9993 220.794 -10.7268 220.97827 -10.45172 curveto
221.17117 -10.16365 221.35976 -9.87386 221.54488 -9.5806 curveto
221.7378 -9.27522 221.92638 -8.96727 222.1115 -8.65758 curveto
222.30354 -8.3375 222.49213 -8.01483 222.67812 -7.6913 curveto
222.8693 -7.35825 223.05788 -7.02347 223.24474 -6.68695 curveto
223.43591 -6.34265 223.6245 -5.9975 223.81136 -5.65147 curveto
224.37798 -4.59177 lineto
224.9446 -3.5139 lineto
225.5112 -2.42564 lineto
226.07782 -1.33307 lineto
226.64444 -0.24309 lineto
227.21106 0.83652 lineto
227.77768 1.90141 lineto
227.96454 2.25003 228.15398 2.59692 228.3443 2.94382 curveto
228.53114 3.28293 228.71973 3.62115 228.91092 3.95767 curveto
229.09691 4.28554 229.28549 4.61253 229.47752 4.93779 curveto
229.66351 5.25267 229.8521 5.56583 230.04414 5.87726 curveto
230.22928 6.17743 230.41786 6.475 230.61076 6.77086 curveto
230.79588 7.05461 230.98447 7.33575 231.17738 7.6143 curveto
231.36165 7.87988 231.55023 8.14285 231.744 8.40237 curveto
231.92825 8.64893 232.11684 8.89114 232.31062 9.1299 curveto
232.49402 9.35568 232.6826 9.578 232.87723 9.79514 curveto
233.06062 10.00015 233.2492 10.19998 233.44385 10.39375 curveto
233.62724 10.57628 233.81497 10.75276 234.01047 10.92232 curveto
234.19386 11.08148 234.38245 11.23373 234.57709 11.37733 curveto
234.76048 11.51228 234.94907 11.64032 235.1437 11.75883 curveto
235.3271 11.87042 235.51656 11.97336 235.71033 12.06506 curveto
235.89458 12.15157 236.08316 12.22856 236.27695 12.29257 curveto
236.46294 12.35399 236.65152 12.40417 236.84355 12.44223 curveto
237.03041 12.47943 237.21986 12.50365 237.41017 12.5149 curveto
237.59875 12.52614 237.78821 12.52267 237.97679 12.50798 curveto
238.16711 12.4924 238.35655 12.46472 238.54341 12.42493 curveto
238.73546 12.38428 238.92404 12.33064 239.11003 12.26662 curveto
239.30293 12.20001 239.49239 12.12302 239.67665 12.03564 curveto
239.87042 11.94395 240.05988 11.84187 240.24327 11.73114 curveto
240.43704 11.61523 240.6265 11.48979 240.80988 11.3583 curveto
241.00452 11.21902 241.1931 11.07196 241.3765 10.91885 curveto
241.57027 10.75708 241.75887 10.58926 241.94312 10.41624 curveto
242.13689 10.23459 242.32547 10.04773 242.50974 9.85655 curveto
242.7035 9.65498 242.89209 9.44911 243.07635 9.23976 curveto
243.26926 9.0209 243.45784 8.79858 243.64297 8.5728 curveto
243.83588 8.33836 244.02446 8.10046 244.2096 7.85999 curveto
244.40163 7.61084 244.59021 7.35912 244.7762 7.10564 curveto
244.96825 6.84439 245.15683 6.58055 245.34282 6.31497 curveto
245.534 6.04248 245.72258 5.76825 245.90944 5.49316 curveto
246.10062 5.21202 246.2892 4.93001 246.47606 4.64627 curveto
247.04268 3.77861 lineto
247.6093 2.89711 lineto
248.1759 2.00609 lineto
248.74252 1.1116 lineto
249.30914 0.21886 lineto
249.87576 -0.6661 lineto
250.44238 -1.53809 lineto
251.009 -2.3919 lineto
251.19585 -2.67046 251.38443 -2.94728 251.57562 -3.22237 curveto
251.76247 -3.49141 251.95105 -3.75957 252.14223 -4.02515 curveto
252.32822 -4.2838 252.5168 -4.54073 252.70885 -4.79506 curveto
252.89484 -5.0416 253.08342 -5.28555 253.27547 -5.5269 curveto
253.46146 -5.76047 253.64917 -5.99144 253.84209 -6.21895 curveto
254.0272 -6.43782 254.21579 -6.65234 254.4087 -6.86429 curveto
254.59383 -7.06758 254.78154 -7.26741 254.97533 -7.46292 curveto
255.15958 -7.64891 255.34816 -7.83057 255.54195 -8.0079 curveto
255.7262 -8.17659 255.91478 -8.34096 256.10855 -8.49927 curveto
256.29282 -8.64978 256.4814 -8.79425 256.67517 -8.93266 curveto
256.85944 -9.06415 257.04802 -9.18959 257.24179 -9.30724 curveto
257.42606 -9.4197 257.6155 -9.52437 257.80841 -9.62125 curveto
257.99353 -9.71382 258.18211 -9.79945 258.37503 -9.87386 curveto
258.56015 -9.94565 258.75046 -10.00706 258.94165 -10.05984 curveto
259.1285 -10.11089 259.31708 -10.15413 259.50826 -10.18527 curveto
259.69598 -10.21642 259.88457 -10.23631 260.07487 -10.24583 curveto
260.26346 -10.25534 260.45291 -10.25362 260.6415 -10.24237 curveto
260.83182 -10.23026 261.0204 -10.20863 261.20811 -10.17577 curveto
261.39929 -10.14288 261.58788 -10.09964 261.77473 -10.04686 curveto
261.96591 -9.99323 262.15536 -9.93008 262.34135 -9.85915 curveto
262.5334 -9.78474 262.72284 -9.70258 262.90797 -9.61174 curveto
263.10088 -9.51744 263.28946 -9.41537 263.47458 -9.30637 curveto
263.6675 -9.19304 263.85608 -9.0728 264.0412 -8.94737 curveto
264.23412 -8.81674 264.4227 -8.68007 264.60782 -8.5382 curveto
264.80074 -8.39026 264.98932 -8.23715 265.17444 -8.07971 curveto
265.36734 -7.91621 265.55594 -7.74753 265.74106 -7.57538 curveto
265.9331 -7.39717 266.12169 -7.2155 266.30768 -7.03038 curveto
266.49973 -6.8392 266.68831 -6.64543 266.8743 -6.4482 curveto
267.06633 -6.2449 267.25491 -6.03902 267.4409 -5.8314 curveto
267.6321 -5.61774 267.82068 -5.40233 268.00752 -5.18434 curveto
268.1987 -4.962 268.38728 -4.73796 268.57414 -4.51218 curveto
269.14076 -3.81926 lineto
269.70738 -3.10904 lineto
270.274 -2.38757 lineto
270.8406 -1.65833 lineto
271.40723 -0.92561 lineto
271.97385 -0.19551 lineto
272.54047 0.52942 lineto
273.10709 1.24396 lineto
273.6737 1.94293 lineto
274.24033 2.62375 lineto
274.42717 2.84433 274.61575 3.06406 274.80693 3.28119 curveto
274.99379 3.49313 275.18237 3.70421 275.37355 3.91182 curveto
275.55954 4.11424 275.749 4.31409 275.94017 4.51218 curveto
276.12616 4.70422 276.31474 4.89368 276.50679 5.07967 curveto
276.69278 5.2596 276.88136 5.43607 277.07341 5.60909 curveto
277.2594 5.77605 277.44798 5.9404 277.64003 6.09958 curveto
277.82515 6.25356 278.0146 6.40321 278.20665 6.54768 curveto
278.39177 6.68695 278.58035 6.8219 278.77325 6.95079 curveto
278.95839 7.07536 279.14697 7.19388 279.33987 7.3072 curveto
279.52501 7.4162 279.7136 7.51915 279.9065 7.61517 curveto
280.09248 7.70773 280.28107 7.79337 280.47311 7.87209 curveto
280.6591 7.94821 280.84856 8.0183 281.03973 8.07971 curveto
281.22572 8.1394 281.41603 8.19043 281.60635 8.23369 curveto
281.7932 8.27608 281.98265 8.31154 282.17296 8.3375 curveto
282.36069 8.36345 282.55014 8.37988 282.73958 8.38766 curveto
282.92816 8.39546 283.11761 8.39546 283.3062 8.38681 curveto stroke
 0 0 1 setrgbcolor 0 0.5 dtransform truncate idtransform setlinewidth pop
 [3 3 ] 0 setdash
newpath -28.34645 17.00804 moveto
283.46451 17.00804 lineto stroke
-6.28117 19.10803 moveto
(") cmmi10 8.96631 fshow
newpath -28.34645 -17.00804 moveto
283.46451 -17.00804 lineto stroke
-13.25496 -24.33833 moveto
(\000) cmsy10 8.96631 fshow
-6.28117 -24.33833 moveto
(") cmmi10 8.96631 fshow
 0 0 0 setrgbcolor 0.5 0 dtransform exch truncate exch idtransform pop setlinewidth
 [] 0 setdash
newpath -28.34645 -2.83482 moveto
-28.34645 2.83482 lineto stroke
newpath 0 -2.83482 moveto
0 2.83482 lineto stroke
newpath 28.34645 -2.83482 moveto
28.34645 2.83482 lineto stroke
newpath 56.6929 -2.83482 moveto
56.6929 2.83482 lineto stroke
newpath 85.03935 -2.83482 moveto
85.03935 2.83482 lineto stroke
newpath 113.3858 -2.83482 moveto
113.3858 2.83482 lineto stroke
newpath 141.73225 -2.83482 moveto
141.73225 2.83482 lineto stroke
newpath 170.0787 -2.83482 moveto
170.0787 2.83482 lineto stroke
newpath 198.42516 -2.83482 moveto
198.42516 2.83482 lineto stroke
newpath 226.7716 -2.83482 moveto
226.7716 2.83482 lineto stroke
newpath 255.11806 -2.83482 moveto
255.11806 2.83482 lineto stroke
newpath 283.46451 -2.83482 moveto
283.46451 2.83482 lineto stroke
 0 0.5 dtransform truncate idtransform setlinewidth pop
newpath -2.83482 -56.6929 moveto
2.83482 -56.6929 lineto stroke
newpath -2.83482 -28.34645 moveto
2.83482 -28.34645 lineto stroke
newpath -2.83482 0 moveto
2.83482 0 lineto stroke
newpath -2.83482 28.34645 moveto
2.83482 28.34645 lineto stroke
newpath -2.83482 56.6929 moveto
2.83482 56.6929 lineto stroke
newpath -56.6929 0 moveto
283.46451 0 lineto stroke
newpath 279.76738 -1.53143 moveto
283.46451 0 lineto
279.76738 1.53143 lineto
 closepath
gsave fill grestore stroke
 0.5 0 dtransform exch truncate exch idtransform pop setlinewidth
newpath 0 -85.03935 moveto
0 113.3858 lineto stroke
 0 0.5 dtransform truncate idtransform setlinewidth pop
newpath 1.53061 109.69066 moveto
0 113.3858 lineto
-1.53061 109.69066 lineto
 closepath
gsave fill grestore stroke
showpage
%%EOF
