input TEX;

verbatimtex
%&latex
 \documentclass{article}
 \usepackage[latin1]{inputenc}
 \usepackage[frenchb]{babel}
 \usepackage{amsmath}
 \begin{document}
etex

vardef exp(expr x) = (mexp(256)**x) enddef; 

vardef func (expr X) = 
  .5/((X-2)**2)
enddef;
outputtemplate := "limite_infinie_point.mps";
beginfig(1)
  u:=1.5cm;
  v:=.7cm;
  
  path parabolea,paraboleb; numeric N;
%  fill (-.5u, 0.3u)--(5u,0.3u)--(5u,-.3u)--(-.5u,-0.3u)--cycle withcolor (.9,.9,.9);
  fill (-.5u,5v)--(5u,5v)--(5u,8v)--(-.5u,8v)--cycle withcolor (.9,.9,.9);

  % figure  
  parabolea = (-.1u, func (-.1)*v) for i=-0.09 step .01 until 1.75: ..(i*u, func (i)*v) endfor;
  paraboleb = (2.25*u, func(2.25)*v) for i=2.26 step .01 until 4: ..(i*u, func (i)*v) endfor;
  draw parabolea withcolor red withpen pencircle scaled 1.5bp;
  draw paraboleb withcolor red withpen pencircle scaled 1.5bp;
  
  drawoptions(withcolor .5red);
  draw (2u,0)--(2u,8v) dashed evenly;
  draw (1.7u,0)--(1.7u,5v) dashed evenly;
  draw (2.3u,0)--(2.3u,5v) dashed evenly;
  drawarrow (2.4u, -.7v)--(2.3u, -.1v);
  drawarrow (1.6u, -.7v)--(1.7u, -.1v);
  label.bot(btex $x_0-\alpha$ etex scaled .8, (1.6u,-.7v));
  label.bot(btex $x_0+\alpha$ etex scaled .8, (2.4u,-.7v));
  label.bot(btex $x_0$ etex scaled .8, (2u,0));
  
  % droite -eps/eps
  drawoptions(withcolor blue);
  draw (-.5u, 5v)--(5u,5v) dashed evenly; 
  label.ulft(btex $A$ etex scaled .9, (0,5v));
  drawoptions();
  for i=0 step .5 until 4.5: draw (i*u,-0.05v)--(i*u,0.05v); endfor;
  for j=-1 step 1 until 7.5: draw (-0.05u,j*v)--(0.05u,j*v); endfor;
  drawarrow (-0.5u,0)--(5u,0);
  drawarrow (0,-1.5v)--(0,8v);

endfig;

end
