%!PS
%%BoundingBox: -57 -29 285 171 
%%HiResBoundingBox: -56.9429 -28.59645 284.05794 170.3287 
%%Creator: MetaPost 2.02
%%CreationDate: 2023.03.28:2241
%%Pages: 1
%*Font: cmmi10 8.96631 9.96265 22:8000000000000002
%*Font: cmr10 8.96631 9.96265 2b:8
%*Font: cmsy10 8.96631 9.96265 00:8
%%BeginProlog
%%EndProlog
%%Page: 1 1
 0.9 0.9 0.9 setrgbcolor
newpath -28.34645 130.39384 moveto
283.46451 130.39384 lineto
283.46451 96.37776 lineto
-28.34645 96.37776 lineto
 closepath fill
 1 0 0 setrgbcolor 0 1.5 dtransform truncate idtransform setlinewidth pop
 [] 0 setdash 1 setlinecap 1 setlinejoin 10 setmiterlimit
newpath -2.83482 95.58882 moveto
-2.26733 99.08974 lineto
-1.70071 102.6391 lineto
-1.1341 106.21788 lineto
-0.56749 109.80617 lineto
-0.00087 113.38062 lineto
0.56575 116.91873 lineto
0.75261 118.07965 0.94206 119.24057 1.13237 120.40147 curveto
1.31923 121.53645 1.50781 122.67142 1.69899 123.80551 curveto
1.88498 124.90846 2.07356 126.01056 2.26561 127.11179 curveto
2.45073 128.17496 2.63931 129.23726 2.83223 130.29956 curveto
3.01735 131.3186 3.20593 132.33592 3.39883 133.35324 curveto
3.5831 134.32037 3.77081 135.28752 3.96545 136.25293 curveto
4.14885 137.16385 4.33743 138.0739 4.53207 138.98308 curveto
4.7146 139.83344 4.90233 140.68207 5.0987 141.52896 curveto
5.28035 142.31271 5.46808 143.0956 5.66531 143.87589 curveto
5.84612 144.59042 6.03383 145.30324 6.23193 146.01259 curveto
6.411 146.65361 6.59871 147.29117 6.79855 147.92612 curveto
6.97589 148.49101 7.1636 149.05243 7.36516 149.60867 curveto
7.54077 150.09483 7.72849 150.57668 7.93178 151.0516 curveto
8.10565 151.45818 8.29251 151.8587 8.4984 152.24971 curveto
8.67055 152.57498 8.85567 152.89246 9.06502 153.19524 curveto
9.23457 153.4409 9.4197 153.67621 9.63164 153.88728 curveto
9.8012 154.05597 9.98718 154.20909 10.19826 154.3224 curveto
10.37386 154.41757 10.56503 154.4833 10.76486 154.50148 curveto
10.95691 154.51878 11.14983 154.49023 11.33148 154.42622 curveto
11.53911 154.35355 11.72682 154.2359 11.8981 154.09923 curveto
12.10918 153.9314 12.29431 153.73416 12.46472 153.52483 curveto
12.67407 153.2679 12.85919 152.99281 13.03134 152.70993 curveto
13.23723 152.36996 13.42407 152.01788 13.59796 151.65974 curveto
13.80125 151.24191 13.9881 150.81543 14.16458 150.3855 curveto
14.36613 149.89415 14.553 149.39673 14.73119 148.89586 curveto
14.93102 148.33443 15.11787 147.76955 15.2978 147.20206 curveto
15.49591 146.57661 15.68362 145.94858 15.86443 145.31795 curveto
16.06079 144.63281 16.24937 143.94508 16.43105 143.25563 curveto
16.62656 142.516 16.81427 141.77377 16.99767 141.03069 curveto
17.1923 140.24088 17.38002 139.44934 17.56429 138.65695 curveto
17.75806 137.82303 17.94577 136.98737 18.1309 136.15172 curveto
18.3238 135.27887 18.51239 134.40602 18.69751 133.53143 curveto
18.88956 132.62572 19.07814 131.71913 19.26413 130.81255 curveto
19.4553 129.88 19.64389 128.94746 19.83075 128.01405 curveto
20.39737 125.15329 lineto
20.96399 122.24925 lineto
21.53061 119.31929 lineto
22.09721 116.38153 lineto
22.66383 113.45415 lineto
23.23045 110.55618 lineto
23.41731 109.60547 23.6059 108.65477 23.79707 107.70406 curveto
23.98393 106.77411 24.17252 105.84503 24.3637 104.91595 curveto
24.54968 104.01196 24.73827 103.10883 24.93031 102.20657 curveto
25.11543 101.33458 25.30402 100.46346 25.49693 99.5932 curveto
25.68205 98.75842 25.87064 97.9245 26.06354 97.09145 curveto
26.2478 96.29817 26.43639 95.50577 26.63016 94.71423 curveto
26.81355 93.96683 27.00214 93.22113 27.19678 92.47632 curveto
27.3793 91.77821 27.56703 91.08183 27.7634 90.38719 curveto
27.94505 89.74358 28.13365 89.10257 28.33002 88.46329 curveto
28.51082 87.8759 28.69853 87.29112 28.89664 86.7098 curveto
29.0757 86.18297 29.26428 85.65874 29.46326 85.13884 curveto
29.64145 84.67343 29.82918 84.21236 30.02986 83.75645 curveto
30.20634 83.35594 30.39406 82.95888 30.59648 82.57045 curveto
30.77122 82.23482 30.95808 81.90523 31.1631 81.58601 curveto
31.33698 81.31612 31.52383 81.054 31.72972 80.80745 curveto
31.90274 80.60156 32.08871 80.40694 32.29634 80.23564 curveto
32.47021 80.09291 32.65793 79.96748 32.86296 79.87491 curveto
33.04202 79.7936 33.2332 79.7391 33.42957 79.72353 curveto
33.61989 79.70796 33.81194 79.72871 33.99619 79.78062 curveto
34.19775 79.83685 34.3872 79.93028 34.5628 80.0436 curveto
34.76956 80.17682 34.95555 80.33685 35.12943 80.51074 curveto
35.33531 80.71663 35.52217 80.94067 35.69604 81.17337 curveto
35.90019 81.4476 36.08792 81.7348 36.26266 82.02893 curveto
36.46509 82.36803 36.65195 82.71579 36.82928 83.06874 curveto
37.02997 83.4684 37.2177 83.87411 37.39589 84.28415 curveto
37.59486 84.7409 37.78258 85.20285 37.96251 85.66739 curveto
38.15974 86.17691 38.34833 86.69077 38.52913 87.20634 curveto
38.7255 87.76517 38.91322 88.3266 39.09575 88.89063 curveto
39.29126 89.4953 39.47897 90.10258 39.66237 90.71072 curveto
39.85701 91.35606 40.04472 92.00313 40.22899 92.65106 curveto
40.42276 93.33273 40.61047 94.01613 40.79561 94.7004 curveto
40.98851 95.41408 41.1771 96.12862 41.36221 96.84402 curveto
41.55426 97.58452 41.74284 98.32588 41.92883 99.06812 curveto
42.12001 99.83023 42.3086 100.59322 42.49545 101.35707 curveto
42.68578 102.13736 42.87521 102.91765 43.06207 103.6988 curveto
43.6287 106.07687 lineto
44.19531 108.47482 lineto
44.76193 110.88057 lineto
45.32854 113.27681 lineto
45.89516 115.65054 lineto
46.08202 116.42911 46.27147 117.20853 46.46178 117.98622 curveto
46.64864 118.74834 46.83722 119.5096 47.0284 120.27086 curveto
47.21439 121.01135 47.40297 121.75185 47.59502 122.49062 curveto
47.78014 123.20515 47.96959 123.91884 48.16164 124.63165 curveto
48.34676 125.31677 48.53534 126.00018 48.72824 126.68272 curveto
48.9125 127.3341 49.10109 127.98378 49.29486 128.63171 curveto
49.47826 129.24504 49.66684 129.85664 49.86148 130.4665 curveto
50.044 131.03918 50.23259 131.611 50.4281 132.17934 curveto
50.60977 132.7079 50.79836 133.23473 50.99472 133.75809 curveto
51.17552 134.24078 51.3641 134.72003 51.56134 135.19582 curveto
51.74127 135.63008 51.92899 136.06088 52.12796 136.4865 curveto
52.30702 136.86972 52.49474 137.24863 52.69456 137.62146 curveto
52.87277 137.95192 53.05963 138.27805 53.26118 138.59554 curveto
53.43767 138.87408 53.62538 139.14485 53.8278 139.40523 curveto
54.00342 139.63101 54.19026 139.84727 54.39442 140.0471 curveto
54.57004 140.21925 54.75775 140.37929 54.96104 140.5177 curveto
55.13838 140.63794 55.32697 140.74176 55.52766 140.81702 curveto
55.71019 140.88536 55.9005 140.9312 56.09428 140.94504 curveto
56.28459 140.9589 56.4749 140.94331 56.66089 140.9018 curveto
56.85812 140.85681 57.04758 140.78328 57.22751 140.68985 curveto
57.42908 140.58432 57.61766 140.45541 57.79413 140.31181 curveto
57.99655 140.14746 58.18428 139.96492 58.36075 139.77202 curveto
58.56317 139.55057 58.75089 139.31699 58.92737 139.07564 curveto
59.12807 138.8014 59.31578 138.5168 59.49399 138.227 curveto
59.69295 137.90262 59.88153 137.57129 60.0606 137.23564 curveto
60.2587 136.86366 60.44643 136.4865 60.62721 136.10587 curveto
60.82445 135.69064 61.01218 135.27109 61.19383 134.84894 curveto
61.3902 134.39304 61.57793 133.93369 61.76045 133.47174 curveto
61.9551 132.97867 62.14368 132.48212 62.32707 131.9847 curveto
62.52171 131.45787 62.70943 130.92845 62.89369 130.39731 curveto
63.0866 129.84021 63.27518 129.28137 63.46031 128.72168 curveto
63.65321 128.13863 63.8418 127.55383 64.02692 126.96819 curveto
64.21896 126.36264 64.40755 125.75623 64.59354 125.14896 curveto
64.78471 124.52524 64.9733 123.90067 65.16016 123.27522 curveto
65.72678 121.3591 lineto
66.2934 119.4127 lineto
66.86002 117.44902 lineto
67.42664 115.48013 lineto
67.99324 113.51729 lineto
68.55986 111.57349 lineto
69.12648 109.66083 lineto
69.31334 109.03625 69.50192 108.41255 69.6931 107.78883 curveto
69.87909 107.18156 70.06767 106.576 70.25972 105.97046 curveto
70.44571 105.38481 70.6343 104.80003 70.82634 104.21611 curveto
71.01146 103.6547 71.20004 103.09413 71.39294 102.5353 curveto
71.57721 102.00154 71.7658 101.46867 71.95956 100.93839 curveto
72.14383 100.43492 72.33154 99.93318 72.52618 99.43317 curveto
72.70958 98.96257 72.8973 98.49457 73.0928 98.02917 curveto
73.27533 97.59491 73.46306 97.16237 73.65942 96.73416 curveto
73.84108 96.3371 74.02881 95.9435 74.22604 95.55421 curveto
74.40685 95.19695 74.59456 94.84314 74.79266 94.4945 curveto
74.9726 94.17877 75.16031 93.86647 75.35927 93.56284 curveto
75.53835 93.28947 75.72606 93.0213 75.92589 92.76265 curveto
76.1041 92.53168 76.29181 92.30763 76.49251 92.09569 curveto
76.67072 91.90797 76.85843 91.73064 77.05913 91.568 curveto
77.23734 91.42354 77.42592 91.29118 77.62575 91.17873 curveto
77.80568 91.0775 77.99513 90.99187 78.19237 90.93045 curveto
78.37662 90.87248 78.56694 90.83615 78.75899 90.82318 curveto
78.94843 90.8102 79.13875 90.82059 79.32559 90.85432 curveto
79.52023 90.88892 79.70969 90.94861 79.89221 91.0256 curveto
80.09032 91.10951 80.2789 91.21419 80.45883 91.3327 curveto
80.65866 91.46419 80.84639 91.61212 81.02545 91.77129 curveto
81.22528 91.94862 81.413 92.1398 81.59207 92.33878 curveto
81.79103 92.56023 81.97961 92.79292 82.15869 93.03082 curveto
82.35678 93.29381 82.54451 93.56458 82.7253 93.84053 curveto
82.92253 94.14243 83.11026 94.4504 83.29192 94.76268 curveto
83.4883 95.10092 83.67688 95.4435 83.85854 95.78952 curveto
84.05405 96.1615 84.24263 96.53693 84.42516 96.91496 curveto
84.6198 97.31808 84.80838 97.7238 84.99178 98.13124 curveto
85.18555 98.56119 85.37413 98.99371 85.5584 99.42798 curveto
85.7513 99.883 85.93988 100.34062 86.12502 100.7991 curveto
86.31705 101.27576 86.50563 101.75414 86.69162 102.23338 curveto
86.88367 102.7282 87.07225 103.22388 87.25824 103.7213 curveto
87.44942 104.23169 87.638 104.74294 87.82486 105.25505 curveto
88.39148 106.82343 lineto
88.9581 108.416 lineto
89.52472 110.0233 lineto
90.09134 111.63577 lineto
90.65794 113.24307 lineto
91.22456 114.8348 lineto
91.79118 116.40141 lineto
91.97804 116.91354 92.16663 117.42479 92.3578 117.93518 curveto
92.5438 118.43259 92.73325 118.92914 92.92442 119.42482 curveto
93.11041 119.90494 93.299 120.38504 93.49104 120.86256 curveto
93.67616 121.32277 93.86475 121.78212 94.05765 122.23975 curveto
94.24278 122.67746 94.4305 123.11432 94.62427 123.54858 curveto
94.80853 123.96208 94.99712 124.373 95.19089 124.78217 curveto
95.37428 125.16885 95.56287 125.55295 95.7575 125.93443 curveto
95.94003 126.2917 96.12862 126.64638 96.32413 126.99673 curveto
96.50665 127.32286 96.69437 127.6464 96.89075 127.96474 curveto
97.0724 128.25974 97.26013 128.54953 97.45737 128.83414 curveto
97.63815 129.09538 97.82588 129.35144 98.02397 129.59972 curveto
98.20477 129.8255 98.3925 130.0461 98.59059 130.25717 curveto
98.77052 130.44835 98.9591 130.63347 99.15721 130.80562 curveto
99.33714 130.96219 99.52573 131.10838 99.72383 131.24074 curveto
99.90463 131.36185 100.09322 131.46999 100.29045 131.56169 curveto
100.47298 131.64645 100.66243 131.71654 100.85707 131.76756 curveto
101.04306 131.81601 101.23164 131.84802 101.42369 131.8584 curveto
101.61313 131.86964 101.80258 131.86014 101.9903 131.83331 curveto
102.18321 131.80563 102.37267 131.75893 102.55692 131.69664 curveto
102.75243 131.63002 102.94101 131.54611 103.12354 131.44836 curveto
103.32077 131.34282 103.50935 131.22258 103.69016 131.0911 curveto
103.88826 130.94835 104.07597 130.79178 104.25677 130.62828 curveto
104.45401 130.4492 104.6426 130.26062 104.8234 130.06512 curveto
105.02063 129.85231 105.20834 129.63086 105.39001 129.4042 curveto
105.58638 129.1594 105.77496 128.90767 105.95662 128.65161 curveto
106.15213 128.37566 106.34071 128.09537 106.52324 127.81076 curveto
106.71788 127.508 106.90646 127.20175 107.08986 126.89206 curveto
107.2845 126.56421 107.47221 126.23203 107.65648 125.8981 curveto
107.85025 125.54689 108.03883 125.19307 108.2231 124.83754 curveto
108.416 124.46556 108.60458 124.09184 108.78972 123.71642 curveto
108.98175 123.32713 109.17033 122.93613 109.35632 122.54338 curveto
109.54837 122.13853 109.73695 121.73282 109.92294 121.32536 curveto
110.11412 120.90755 110.3027 120.48972 110.48956 120.07016 curveto
111.05618 118.78726 lineto
111.6228 117.48361 lineto
112.18942 116.16785 lineto
112.75604 114.84776 lineto
113.32265 113.532 lineto
113.88927 112.22835 lineto
114.45589 110.9446 lineto
114.64275 110.52504 114.83133 110.10634 115.0225 109.68852 curveto
115.20937 109.2802 115.39795 108.87363 115.58913 108.46791 curveto
115.77512 108.07344 115.9637 107.6807 116.15575 107.28969 curveto
116.34087 106.91165 116.52945 106.53535 116.72237 106.16078 curveto
116.90749 105.80092 117.09607 105.44363 117.28897 105.0881 curveto
117.47324 104.74812 117.66182 104.41075 117.85559 104.07597 curveto
118.03986 103.7585 118.22757 103.44275 118.42221 103.13132 curveto
118.6056 102.8372 118.79419 102.54654 118.98883 102.26021 curveto
119.17136 101.99117 119.35994 101.72646 119.55545 101.46608 curveto
119.73798 101.22299 119.92569 100.98424 120.12207 100.7524 curveto
120.30373 100.53699 120.49231 100.32678 120.68867 100.12436 curveto
120.87035 99.93663 121.05893 99.75497 121.2553 99.58282 curveto
121.43697 99.42366 121.62555 99.27226 121.82191 99.13213 curveto
122.00359 99.00237 122.19217 98.88213 122.38853 98.77486 curveto
122.57193 98.67451 122.76051 98.5854 122.95515 98.51015 curveto
123.1394 98.43921 123.32886 98.38039 123.52177 98.33887 curveto
123.70862 98.2982 123.89807 98.27225 124.0884 98.26274 curveto
124.27783 98.25322 124.46729 98.25928 124.655 98.2809 curveto
124.84619 98.30254 125.03563 98.33972 125.22162 98.39076 curveto
125.41539 98.44354 125.60399 98.51187 125.78824 98.59146 curveto
125.98375 98.67624 126.17146 98.77486 126.35486 98.883 curveto
126.55037 98.99805 126.73895 99.12521 126.92148 99.2593 curveto
127.11697 99.40376 127.30643 99.55774 127.4881 99.71864 curveto
127.6836 99.89165 127.87218 100.07245 128.05472 100.25931 curveto
128.25021 100.45827 128.43793 100.66328 128.62132 100.8735 curveto
128.81596 101.09755 129.00455 101.32593 129.18794 101.5595 curveto
129.38171 101.80605 129.5703 102.05692 129.75456 102.31123 curveto
129.94833 102.57855 130.13692 102.85017 130.32118 103.12354 curveto
130.51408 103.40987 130.70268 103.6988 130.8878 103.99033 curveto
131.0807 104.29398 131.26929 104.59933 131.45442 104.9073 curveto
131.64645 105.22565 131.83505 105.54486 132.02103 105.86665 curveto
132.21222 106.19711 132.4008 106.5293 132.58765 106.86322 curveto
132.77882 107.20406 132.96742 107.54662 133.15427 107.89005 curveto
133.72089 108.94023 lineto
134.2875 110.00772 lineto
134.85413 111.08473 lineto
135.42075 112.16519 lineto
135.98735 113.24307 lineto
136.55397 114.31056 lineto
137.12059 115.36162 lineto
137.30745 115.70505 137.4969 116.04848 137.68721 116.39017 curveto
137.87407 116.72496 138.06265 117.058 138.25383 117.39018 curveto
138.43982 117.71373 138.6284 118.03552 138.82045 118.3556 curveto
139.00644 118.66615 139.19502 118.97412 139.38707 119.28035 curveto
139.57219 119.5762 139.76077 119.87033 139.95367 120.161 curveto
140.13881 120.44041 140.3274 120.71637 140.5203 120.98973 curveto
140.70456 121.25098 140.89314 121.50963 141.08691 121.76396 curveto
141.27118 122.00618 141.45976 122.24493 141.65353 122.47937 curveto
141.83693 122.70082 142.02551 122.91882 142.22015 123.13162 curveto
142.40355 123.33232 142.59213 123.52783 142.78677 123.71727 curveto
142.97017 123.89548 143.15788 124.0685 143.35338 124.23372 curveto
143.53677 124.38857 143.72536 124.53735 143.92 124.67749 curveto
144.1034 124.80984 144.29198 124.93442 144.48662 125.04861 curveto
144.67001 125.15674 144.85947 125.25536 145.05324 125.34273 curveto
145.23836 125.42578 145.42694 125.49931 145.61986 125.56073 curveto
145.80585 125.61955 145.99443 125.668 146.18648 125.7026 curveto
146.37419 125.73634 146.56277 125.75797 146.7531 125.76662 curveto
146.94168 125.77527 147.13112 125.77008 147.3197 125.75363 curveto
147.5109 125.73634 147.69948 125.70692 147.88632 125.6654 curveto
148.07837 125.62215 148.26695 125.56764 148.45294 125.5019 curveto
148.64586 125.43356 148.8353 125.35484 149.01956 125.2666 curveto
149.21333 125.17404 149.40279 125.0711 149.58618 124.9595 curveto
149.77995 124.84273 149.96854 124.71643 150.1528 124.58408 curveto
150.34657 124.44392 150.53516 124.29688 150.71942 124.14375 curveto
150.9132 123.98198 151.10178 123.81416 151.28603 123.64114 curveto
151.47981 123.45949 151.6684 123.27263 151.85265 123.08145 curveto
152.04642 122.88075 152.23502 122.67574 152.41927 122.46725 curveto
152.61218 122.24925 152.80077 122.0278 152.98589 121.80376 curveto
153.17879 121.57019 153.36739 121.33316 153.5525 121.09439 curveto
153.74455 120.84698 153.93314 120.59698 154.11913 120.34439 curveto
154.3103 120.08487 154.49889 119.82275 154.68575 119.55891 curveto
154.87692 119.289 155.0655 119.01738 155.25235 118.74489 curveto
155.44353 118.46632 155.63213 118.18518 155.81897 117.90404 curveto
156.38559 117.04503 lineto
156.95221 116.17131 lineto
157.51883 115.28981 lineto
158.08545 114.40485 lineto
158.65205 113.52248 lineto
159.21867 112.6479 lineto
159.7853 111.78717 lineto
160.35191 110.9446 lineto
160.53877 110.67036 160.72736 110.397 160.91853 110.12537 curveto
161.1054 109.8598 161.29398 109.59595 161.48515 109.33383 curveto
161.67114 109.07864 161.85973 108.82605 162.05177 108.57518 curveto
162.23776 108.33209 162.42635 108.09247 162.61838 107.85458 curveto
162.80437 107.62534 162.99295 107.39868 163.185 107.17464 curveto
163.37013 106.95923 163.55872 106.7473 163.75162 106.53882 curveto
163.93588 106.33984 164.12532 106.14435 164.31824 105.95317 curveto
164.50336 105.77063 164.69194 105.59244 164.88486 105.41855 curveto
165.0691 105.25246 165.25769 105.09155 165.45148 104.9367 curveto
165.63573 104.78966 165.82431 104.64778 166.0181 104.51283 curveto
166.20235 104.3848 166.39093 104.26283 166.5847 104.14864 curveto
166.76897 104.03964 166.95842 103.93756 167.15132 103.84413 curveto
167.33646 103.75504 167.5259 103.67285 167.71794 103.60106 curveto
167.90393 103.53185 168.09251 103.47043 168.28456 103.42026 curveto
168.47142 103.37094 168.66086 103.33202 168.85118 103.30347 curveto
169.0389 103.27492 169.22835 103.25763 169.4178 103.24983 curveto
169.60638 103.24205 169.79582 103.24551 169.9844 103.25848 curveto
170.17386 103.27147 170.36418 103.29568 170.55103 103.32942 curveto
170.7422 103.36403 170.9308 103.40901 171.11765 103.46265 curveto
171.30882 103.518 171.49828 103.58116 171.68427 103.65382 curveto
171.87631 103.72908 172.06577 103.81299 172.25089 103.9047 curveto
172.44379 103.99985 172.63237 104.10106 172.8175 104.21005 curveto
173.0104 104.32338 173.19899 104.44449 173.38412 104.56993 curveto
173.57703 104.70055 173.76561 104.83723 173.95073 104.9791 curveto
174.14365 105.12703 174.33223 105.28015 174.51735 105.43759 curveto
174.7094 105.60109 174.89885 105.76804 175.08397 105.93933 curveto
175.27602 106.11667 175.4646 106.29745 175.65059 106.48172 curveto
175.84264 106.67203 176.03122 106.86494 176.21721 107.06131 curveto
176.40926 107.26288 176.59784 107.4679 176.78383 107.67464 curveto
176.975 107.88658 177.16359 108.10112 177.35045 108.31738 curveto
177.54076 108.53798 177.73021 108.7603 177.91705 108.98349 curveto
178.10738 109.211 178.29596 109.4411 178.48367 109.67122 curveto
179.0503 110.37451 lineto
179.61691 111.08905 lineto
180.18353 111.81139 lineto
180.75015 112.53545 lineto
181.31676 113.25777 lineto
181.88338 113.97404 lineto
182.45 114.67995 lineto
183.01662 115.37027 lineto
183.58324 116.04155 lineto
183.7701 116.25955 183.95868 116.47495 184.14986 116.68948 curveto
184.3367 116.89883 184.52528 117.10558 184.71648 117.31061 curveto
184.90247 117.51044 185.09105 117.70767 185.28308 117.90231 curveto
185.46907 118.0909 185.65765 118.27689 185.8497 118.45941 curveto
186.03569 118.63588 186.22427 118.80975 186.41632 118.98018 curveto
186.60231 119.14455 186.7909 119.30458 186.98294 119.46115 curveto
187.16806 119.61168 187.35664 119.75874 187.54956 119.9006 curveto
187.73468 120.0373 187.92326 120.16878 188.11618 120.29507 curveto
188.3013 120.41618 188.48988 120.53297 188.6828 120.64284 curveto
188.86879 120.74837 189.05737 120.84872 189.2494 120.94214 curveto
189.4354 121.03297 189.62398 121.11775 189.81602 121.19388 curveto
190.00201 121.26828 190.19147 121.33401 190.38264 121.39284 curveto
190.5695 121.44994 190.75896 121.5001 190.94926 121.54164 curveto
191.13612 121.58229 191.32556 121.6143 191.51588 121.63852 curveto
191.7036 121.66188 191.89305 121.67744 192.0825 121.6835 curveto
192.27109 121.68956 192.46053 121.68784 192.64911 121.67744 curveto
192.83856 121.66707 193.02802 121.64804 193.21573 121.62122 curveto
193.40605 121.59354 193.5955 121.5572 193.78235 121.51309 curveto
193.97353 121.46811 194.16211 121.41707 194.34897 121.35738 curveto
194.54015 121.29683 194.72873 121.22762 194.91559 121.15323 curveto
195.10764 121.07623 195.29622 120.99318 195.48221 120.90408 curveto
195.67426 120.8124 195.86284 120.71378 196.04883 120.61082 curveto
196.24086 120.50443 196.42944 120.39284 196.61543 120.27605 curveto
196.80748 120.1558 196.99606 120.03123 197.18205 119.90234 curveto
197.3741 119.76999 197.56268 119.63243 197.74867 119.4923 curveto
197.93985 119.34782 198.12843 119.1999 198.31529 119.04852 curveto
198.50647 118.89368 198.69505 118.73537 198.88191 118.57446 curveto
199.07309 118.4101 199.26167 118.24228 199.44853 118.07272 curveto
199.63884 117.89972 199.8283 117.72498 200.01515 117.54764 curveto
200.20546 117.36769 200.39404 117.18517 200.58176 117.00177 curveto
201.14838 116.43948 lineto
201.715 115.86421 lineto
202.28162 115.27856 lineto
202.84824 114.68773 lineto
203.41486 114.09515 lineto
203.98148 113.50345 lineto
204.54808 112.91693 lineto
205.1147 112.33908 lineto
205.68132 111.77332 lineto
206.24794 111.224 lineto
206.43565 111.04494 206.62424 110.86847 206.81456 110.69286 curveto
207.0014 110.5207 207.18999 110.35115 207.38118 110.18333 curveto
207.56802 110.01897 207.7566 109.85721 207.94778 109.69803 curveto
208.13464 109.54318 208.32323 109.39093 208.5144 109.24127 curveto
208.70126 109.09595 208.88898 108.95235 209.08102 108.81393 curveto
209.26701 108.67899 209.45647 108.5475 209.64764 108.42033 curveto
209.83363 108.29576 210.02222 108.17552 210.21426 108.0596 curveto
210.40025 107.94714 210.5897 107.839 210.78088 107.73607 curveto
210.96773 107.63571 211.15631 107.53969 211.3475 107.44972 curveto
211.5335 107.3615 211.72293 107.27931 211.91411 107.20319 curveto
212.10097 107.12878 212.28955 107.06046 212.48073 106.99817 curveto
212.66759 106.93674 212.85617 106.88138 213.04735 106.83293 curveto
213.23506 106.78535 213.42366 106.7447 213.61397 106.71097 curveto
213.80168 106.67723 213.99026 106.64954 214.18059 106.62964 curveto
214.36917 106.60976 214.55775 106.59764 214.74721 106.59245 curveto
214.93579 106.58725 215.12523 106.58725 215.31383 106.5959 curveto
215.50327 106.60455 215.69185 106.62013 215.88043 106.64262 curveto
216.06989 106.66512 216.25934 106.69366 216.44705 106.72913 curveto
216.63737 106.76546 216.82596 106.80785 217.01367 106.8563 curveto
217.204 106.9056 217.39343 106.96097 217.58029 107.02238 curveto
217.77147 107.08467 217.96005 107.15302 218.14691 107.22568 curveto
218.33809 107.30006 218.52667 107.37965 218.71353 107.46443 curveto
218.90471 107.55093 219.09329 107.64264 219.28014 107.7378 curveto
219.47133 107.83554 219.65991 107.93762 219.84676 108.04317 curveto
220.03793 108.15129 220.22653 108.26375 220.41338 108.3788 curveto
220.60455 108.49646 220.79314 108.61757 220.98 108.74127 curveto
221.17117 108.86757 221.35976 108.99733 221.54662 109.12881 curveto
221.73692 109.26291 221.92638 109.39958 222.11324 109.53886 curveto
222.30354 109.67987 222.49213 109.82347 222.67986 109.9688 curveto
223.24646 110.41518 lineto
223.81308 110.87538 lineto
224.3797 111.34685 lineto
224.94632 111.82523 lineto
225.51294 112.30879 lineto
226.07956 112.79497 lineto
226.64618 113.2794 lineto
227.21278 113.7595 lineto
227.7794 114.2327 lineto
228.34602 114.69551 lineto
228.91264 115.14621 lineto
229.10036 115.29327 229.28894 115.43774 229.47926 115.58134 curveto
229.66698 115.72235 229.85556 115.86249 230.04588 115.99916 curveto
230.23273 116.13411 230.42218 116.26646 230.61249 116.39622 curveto
230.79935 116.52339 230.9888 116.64883 231.17911 116.7708 curveto
231.36597 116.89018 231.55455 117.00783 231.74573 117.12115 curveto
231.93259 117.23274 232.12117 117.34001 232.31235 117.44469 curveto
232.4992 117.54677 232.68779 117.64539 232.87897 117.73967 curveto
233.06583 117.83224 233.25441 117.92134 233.44559 118.00612 curveto
233.63243 118.08916 233.82101 118.16702 234.0122 118.24055 curveto
234.19905 118.31235 234.3885 118.38069 234.57881 118.44298 curveto
234.76654 118.5044 234.95512 118.5615 235.14543 118.61253 curveto
235.33316 118.66356 235.52174 118.70854 235.71205 118.74834 curveto
235.89977 118.78726 236.08922 118.82101 236.27867 118.84955 curveto
236.46725 118.87724 236.65584 118.89973 236.84529 118.91617 curveto
237.03387 118.9326 237.22246 118.94298 237.41191 118.94817 curveto
237.6005 118.95337 237.78993 118.95163 237.97853 118.94472 curveto
238.16797 118.93779 238.35655 118.92567 238.54514 118.90752 curveto
238.73459 118.88934 238.92317 118.866 239.11176 118.83745 curveto
239.30121 118.80803 239.49066 118.77429 239.67838 118.7345 curveto
239.8687 118.6947 240.05728 118.64972 240.245 118.59955 curveto
240.4353 118.54938 240.62389 118.49315 240.81161 118.43346 curveto
241.00192 118.37291 241.1905 118.30716 241.37823 118.23795 curveto
241.56854 118.16788 241.75713 118.09262 241.94484 118.01477 curveto
242.13516 117.93518 242.32375 117.85213 242.51146 117.76563 curveto
242.70178 117.67738 242.89037 117.5857 243.07808 117.49141 curveto
243.2684 117.39539 243.45699 117.2959 243.6447 117.19469 curveto
243.835 117.09174 244.0236 116.9862 244.21132 116.87807 curveto
244.40163 116.76907 244.59021 116.65749 244.77794 116.54329 curveto
244.96825 116.42824 245.15683 116.3106 245.34456 116.19121 curveto
245.91116 115.82616 lineto
246.10062 115.70158 246.29007 115.57701 246.47778 115.44984 curveto
247.0444 115.06403 lineto
247.61102 114.67215 lineto
248.17764 114.27596 lineto
248.74426 113.87889 lineto
249.31088 113.48183 lineto
249.87749 113.08908 lineto
250.4441 112.70154 lineto
251.01073 112.32178 lineto
251.57735 111.9524 lineto
251.76506 111.83215 251.95364 111.71277 252.14397 111.59598 curveto
252.71059 111.25342 lineto
252.8983 111.14268 253.08688 111.03456 253.2772 110.92815 curveto
253.46492 110.82349 253.6535 110.72054 253.84381 110.62105 curveto
254.03154 110.52243 254.22012 110.42642 254.41043 110.33385 curveto
254.59816 110.24216 254.78674 110.15392 254.97705 110.06828 curveto
255.16476 109.98438 255.35335 109.90392 255.54367 109.82607 curveto
255.73138 109.74994 255.91997 109.6764 256.11029 109.6072 curveto
256.298 109.53886 256.48659 109.47571 256.67691 109.41516 curveto
256.86462 109.35632 257.0532 109.3001 257.24352 109.24907 curveto
257.43124 109.19803 257.61983 109.15218 257.81013 109.10979 curveto
257.99786 109.06827 258.1873 109.03107 258.37675 108.9982 curveto
258.56534 108.96532 258.75392 108.93764 258.94337 108.91428 curveto
259.13196 108.89093 259.32054 108.87276 259.51 108.85892 curveto
259.69858 108.84508 259.88716 108.83643 260.07661 108.8321 curveto
260.2652 108.82777 260.45465 108.82864 260.64323 108.83383 curveto
260.83267 108.83902 261.02126 108.84854 261.20984 108.86325 curveto
261.39929 108.87794 261.58788 108.89784 261.77646 108.9212 curveto
261.96591 108.94456 262.1545 108.97224 262.34308 109.00424 curveto
262.53253 109.03625 262.72198 109.07346 262.9097 109.1141 curveto
263.09915 109.15564 263.28859 109.20062 263.47632 109.24992 curveto
263.66663 109.29924 263.85521 109.35287 264.04294 109.40996 curveto
264.23325 109.46706 264.42183 109.52762 264.60956 109.59163 curveto
264.79987 109.65651 264.98845 109.72398 265.17616 109.79492 curveto
265.36649 109.86671 265.55507 109.94199 265.74278 110.01984 curveto
265.93224 110.09856 266.12169 110.179 266.3094 110.26205 curveto
266.49973 110.34596 266.68831 110.43246 266.87602 110.5207 curveto
267.06548 110.6098 267.25491 110.7015 267.44264 110.79494 curveto
267.6321 110.88922 267.82153 110.98439 268.00926 111.08214 curveto
268.57587 111.38145 lineto
269.14249 111.6894 lineto
269.7091 112.00516 lineto
270.27573 112.32524 lineto
270.84235 112.64963 lineto
271.40897 112.9749 lineto
271.97559 113.30016 lineto
272.54219 113.62196 lineto
273.10881 113.93944 lineto
273.67543 114.25 lineto
274.24205 114.55278 lineto
274.80867 114.84517 lineto
275.37529 115.12544 lineto
275.563 115.21628 275.75246 115.30452 275.94191 115.39189 curveto
276.12962 115.4784 276.3182 115.5623 276.50851 115.64449 curveto
276.69624 115.7258 276.88483 115.80367 277.07513 115.87979 curveto
277.26286 115.95505 277.4523 116.02684 277.64175 116.09692 curveto
277.82947 116.16612 278.01805 116.2336 278.20837 116.29675 curveto
278.39609 116.3599 278.58554 116.41872 278.775 116.47495 curveto
278.9627 116.53032 279.15216 116.58308 279.34161 116.63326 curveto
279.52933 116.68257 279.71878 116.72928 279.90822 116.7708 curveto
280.09595 116.81233 280.2854 116.84952 280.47484 116.88412 curveto
280.66342 116.91786 280.852 116.94987 281.04146 116.97668 curveto
281.23004 117.00351 281.41862 117.026 281.60808 117.04503 curveto
281.79666 117.06406 281.98524 117.08049 282.1747 117.09174 curveto
282.36328 117.10298 282.55186 117.10991 282.74132 117.11337 curveto
282.9299 117.11682 283.11935 117.11682 283.30794 117.11337 curveto stroke
 0 0 1 setrgbcolor 0 0.5 dtransform truncate idtransform setlinewidth pop
 [3 3 ] 0 setdash
newpath -28.34645 130.39384 moveto
283.46451 130.39384 lineto stroke
-20.97592 133.24101 moveto
(`) cmmi10 8.96631 fshow
-15.24745 133.24101 moveto
(+) cmr10 8.96631 fshow
-6.28117 133.24101 moveto
(") cmmi10 8.96631 fshow
newpath -28.34645 96.37776 moveto
283.46451 96.37776 lineto stroke
-20.97592 88.05116 moveto
(`) cmmi10 8.96631 fshow
-15.24745 88.05116 moveto
(\000) cmsy10 8.96631 fshow
-6.28117 88.05116 moveto
(") cmmi10 8.96631 fshow
 0 0 0 setrgbcolor 0.5 0 dtransform exch truncate exch idtransform pop setlinewidth
 [] 0 setdash
newpath -28.34645 -2.83482 moveto
-28.34645 2.83482 lineto stroke
newpath 0 -2.83482 moveto
0 2.83482 lineto stroke
newpath 28.34645 -2.83482 moveto
28.34645 2.83482 lineto stroke
newpath 56.6929 -2.83482 moveto
56.6929 2.83482 lineto stroke
newpath 85.03935 -2.83482 moveto
85.03935 2.83482 lineto stroke
newpath 113.3858 -2.83482 moveto
113.3858 2.83482 lineto stroke
newpath 141.73225 -2.83482 moveto
141.73225 2.83482 lineto stroke
newpath 170.0787 -2.83482 moveto
170.0787 2.83482 lineto stroke
newpath 198.42516 -2.83482 moveto
198.42516 2.83482 lineto stroke
newpath 226.7716 -2.83482 moveto
226.7716 2.83482 lineto stroke
newpath 255.11806 -2.83482 moveto
255.11806 2.83482 lineto stroke
newpath 283.46451 -2.83482 moveto
283.46451 2.83482 lineto stroke
 0 0.5 dtransform truncate idtransform setlinewidth pop
newpath -2.83482 28.34645 moveto
2.83482 28.34645 lineto stroke
newpath -2.83482 56.6929 moveto
2.83482 56.6929 lineto stroke
newpath -2.83482 85.03935 moveto
2.83482 85.03935 lineto stroke
newpath -2.83482 113.3858 moveto
2.83482 113.3858 lineto stroke
newpath -56.6929 0 moveto
283.46451 0 lineto stroke
newpath 279.76738 -1.53143 moveto
283.46451 0 lineto
279.76738 1.53143 lineto
 closepath
gsave fill grestore stroke
 0.5 0 dtransform exch truncate exch idtransform pop setlinewidth
newpath 0 -28.34645 moveto
0 170.0787 lineto stroke
 0 0.5 dtransform truncate idtransform setlinewidth pop
newpath 1.53061 166.38356 moveto
0 170.0787 lineto
-1.53061 166.38356 lineto
 closepath
gsave fill grestore stroke
showpage
%%EOF
