input TEX;

verbatimtex
%&latex
 \documentclass{article}
 \usepackage[latin1]{inputenc}
 \usepackage[frenchb]{babel}
 \usepackage{amsmath}
 \begin{document}
etex

vardef exp(expr x) = (mexp(256)**x) enddef; 

vardef func (expr X) = 
  0.8*exp(-X/2)*sind(180*2.5*X)+2
enddef;
outputtemplate := "limite_ell.mps";
beginfig(1)
  u:=2cm;

  path parabole; numeric N;
  fill (-.5u, 2.3u)--(5u,2.3u)--(5u,1.7u)--(-.5u,1.7u)--cycle withcolor (.9,.9,.9);

  % figure  
  parabole=(-0.05, func (-0.05)) for i=-0.04 step .01 until 5: ..(i, func (i)) endfor;
  draw parabole scaled u withcolor red withpen pencircle scaled 1.5bp;

  % droite -eps/eps
  drawoptions(withcolor blue);
  draw (-.5u, 2.3u)--(5u,2.3u) dashed evenly; 
  label.ulft(btex $\ell+\varepsilon$ etex scaled .9, (0,2.3u));
  draw (-.5u, 1.7u)--(5u,1.7u) dashed evenly; 
  label.llft(btex $\ell-\varepsilon$ etex scaled .9, (0,1.7u));
  drawoptions();
  for i=-.5 step .5 until 5: draw (i*u,-0.05u)--(i*u,0.05u); endfor;
  for j=.5 step .5 until 2: draw (-0.05u,j*u)--(0.05u,j*u); endfor;
  drawarrow (-1u,0)--(5u,0);
  drawarrow (0,-.5u)--(0,3u);

endfig;

end
