%!PS
%%BoundingBox: -22 -50 213 159 
%%HiResBoundingBox: -21.50984 -49.85606 212.84842 158.98938 
%%Creator: MetaPost 2.02
%%CreationDate: 2023.03.28:2241
%%Pages: 1
%*Font: cmmi10 8.96631 9.96265 41:8
%%BeginProlog
%%EndProlog
%%Page: 1 1
 0.9 0.9 0.9 setrgbcolor
newpath -21.25984 99.21211 moveto
212.59842 99.21211 lineto
212.59842 158.73938 lineto
-21.25984 158.73938 lineto
 closepath fill
 1 0 0 setrgbcolor 0 1.5 dtransform truncate idtransform setlinewidth pop
 [] 0 setdash 1 setlinecap 1 setlinejoin 10 setmiterlimit
newpath -4.25223 -15.67538 moveto
-3.82661 -16.11015 lineto
-3.40166 -16.5407 lineto
-2.97668 -16.96701 lineto
-2.55173 -17.38937 lineto
-2.12677 -17.8078 lineto
-1.7018 -18.22229 lineto
-1.27684 -18.63286 lineto
-0.85187 -19.03947 lineto
-0.42691 -19.44185 lineto
-0.00195 -19.8406 lineto
0.42302 -20.23541 lineto
0.84798 -20.62599 lineto
1.27295 -21.01263 lineto
1.6979 -21.39534 lineto
2.12286 -21.7744 lineto
2.54784 -22.14923 lineto
2.9728 -22.52013 lineto
3.39777 -22.88708 lineto
3.82272 -23.24982 lineto
4.24768 -23.6089 lineto
4.67265 -23.96405 lineto
5.09761 -24.31496 lineto
5.52258 -24.66194 lineto
5.94754 -25.00528 lineto
6.3725 -25.34439 lineto
6.79747 -25.67955 lineto
7.22243 -26.01079 lineto
7.6474 -26.33807 lineto
8.07236 -26.66144 lineto
8.49731 -26.98087 lineto
8.92229 -27.29605 lineto
9.34724 -27.6076 lineto
9.7722 -27.91492 lineto
10.19717 -28.2186 lineto
10.62213 -28.51804 lineto
11.0471 -28.81354 lineto
11.47206 -29.1051 lineto
11.89702 -29.39275 lineto
12.32199 -29.67644 lineto
12.74695 -29.95619 lineto
13.17192 -30.23203 lineto
13.59688 -30.5036 lineto
14.02184 -30.77156 lineto
14.44681 -31.03528 lineto
14.87177 -31.29535 lineto
15.29674 -31.5512 lineto
15.7217 -31.8031 lineto
16.14665 -32.05107 lineto
16.57162 -32.2951 lineto
16.99658 -32.5352 lineto
17.42155 -32.77136 lineto
17.84651 -33.00359 lineto
18.27147 -33.23158 lineto
18.69644 -33.45593 lineto
19.1214 -33.67604 lineto
19.54637 -33.89253 lineto
19.97133 -34.10477 lineto
20.39629 -34.31308 lineto
20.82126 -34.51744 lineto
21.24622 -34.71788 lineto
21.67117 -34.91438 lineto
22.09615 -35.10695 lineto
22.5211 -35.29527 lineto
22.94608 -35.47995 lineto
23.37103 -35.66042 lineto
23.79599 -35.83722 lineto
24.22096 -36.00981 lineto
24.64592 -36.17845 lineto
25.07089 -36.34346 lineto
25.49585 -36.50423 lineto
25.9208 -36.66077 lineto
26.34578 -36.81366 lineto
26.77074 -36.96263 lineto
27.19571 -37.10765 lineto
27.62067 -37.24844 lineto
28.04562 -37.3856 lineto
28.4706 -37.51851 lineto
28.89555 -37.6478 lineto
29.32053 -37.77284 lineto
29.74548 -37.89395 lineto
30.17044 -38.01112 lineto
30.59541 -38.12436 lineto
31.02037 -38.23366 lineto
31.44534 -38.33873 lineto
31.8703 -38.44016 lineto
32.29526 -38.53764 lineto
32.72023 -38.6309 lineto
33.14519 -38.72021 lineto
33.57014 -38.8059 lineto
33.99512 -38.88734 lineto
34.42007 -38.96486 lineto
34.84505 -39.03842 lineto
35.27 -39.10806 lineto
35.69496 -39.17377 lineto
36.11993 -39.23523 lineto
36.54489 -39.29306 lineto
36.96986 -39.34695 lineto
37.39482 -39.3966 lineto
37.81978 -39.44232 lineto
38.24475 -39.4844 lineto
38.66971 -39.52226 lineto
39.09468 -39.55617 lineto
39.51964 -39.58614 lineto
39.9446 -39.61218 lineto
40.36957 -39.63397 lineto
40.79453 -39.65215 lineto
41.2195 -39.66638 lineto
41.64445 -39.67636 lineto
42.06941 -39.68272 lineto
42.49438 -39.68484 lineto
42.91934 -39.68303 lineto
43.34431 -39.67728 lineto
43.76927 -39.66759 lineto
44.19423 -39.65396 lineto
44.6192 -39.6364 lineto
45.04416 -39.6149 lineto
45.46912 -39.58948 lineto
45.89409 -39.5598 lineto
46.31905 -39.52649 lineto
46.74402 -39.48895 lineto
47.16898 -39.44748 lineto
47.59393 -39.40236 lineto
48.0189 -39.35301 lineto
48.44386 -39.29971 lineto
48.86884 -39.2425 lineto
49.2938 -39.18134 lineto
49.71875 -39.11594 lineto
50.14372 -39.0469 lineto
50.56868 -38.97394 lineto
50.99365 -38.89673 lineto
51.41861 -38.81558 lineto
51.84357 -38.73082 lineto
52.26854 -38.6418 lineto
52.6935 -38.54884 lineto
53.11847 -38.45197 lineto
53.54343 -38.35114 lineto
53.96838 -38.24638 lineto
54.39336 -38.13737 lineto
54.81831 -38.02475 lineto
55.24329 -37.90819 lineto
55.66824 -37.78738 lineto
56.0932 -37.66263 lineto
56.51817 -37.53426 lineto
56.94313 -37.40164 lineto
57.36809 -37.26509 lineto
57.79306 -37.1246 lineto
58.21802 -36.9802 lineto
58.64299 -36.83183 lineto
59.06795 -36.67923 lineto
59.4929 -36.52301 lineto
59.91788 -36.36253 lineto
60.34283 -36.19844 lineto
60.7678 -36.03009 lineto
61.19276 -35.85782 lineto
61.61772 -35.6819 lineto
62.0427 -35.50175 lineto
62.46765 -35.31767 lineto
62.89262 -35.12935 lineto
63.31758 -34.9374 lineto
63.74254 -34.7415 lineto
64.16751 -34.54167 lineto
64.59247 -34.3376 lineto
65.01744 -34.1296 lineto
65.4424 -33.91795 lineto
65.86736 -33.70209 lineto
66.29233 -33.48227 lineto
66.71729 -33.25853 lineto
67.14226 -33.03084 lineto
67.56721 -32.79922 lineto
67.99217 -32.56366 lineto
68.41714 -32.32387 lineto
68.8421 -32.08044 lineto
69.26706 -31.83278 lineto
69.69203 -31.58147 lineto
70.11699 -31.32593 lineto
70.54196 -31.06645 lineto
70.96692 -30.80305 lineto
71.39188 -30.5357 lineto
71.81685 -30.26442 lineto
72.2418 -29.9892 lineto
72.66678 -29.71004 lineto
73.09174 -29.42696 lineto
73.5167 -29.13962 lineto
73.94167 -28.84866 lineto
74.36662 -28.55345 lineto
74.7916 -28.25432 lineto
75.21655 -27.95125 lineto
75.64151 -27.64424 lineto
76.06648 -27.33328 lineto
76.49144 -27.0184 lineto
76.91641 -26.69958 lineto
77.34137 -26.37683 lineto
77.76633 -26.05014 lineto
78.1913 -25.71921 lineto
78.61626 -25.38435 lineto
79.04123 -25.04585 lineto
79.46619 -24.70311 lineto
79.89114 -24.35645 lineto
80.31612 -24.00583 lineto
80.74107 -23.65129 lineto
81.16603 -23.2928 lineto
81.591 -22.93039 lineto
82.01596 -22.56404 lineto
82.44093 -22.19344 lineto
82.86589 -21.81921 lineto
83.29085 -21.44075 lineto
83.71582 -21.05835 lineto
84.14078 -20.67232 lineto
84.56575 -20.28204 lineto
84.9907 -19.88783 lineto
85.41566 -19.4897 lineto
85.84064 -19.08762 lineto
86.2656 -18.68129 lineto
86.69057 -18.27135 lineto
87.11552 -17.85745 lineto
87.54048 -17.43933 lineto
87.96545 -17.01756 lineto
88.39041 -16.59157 lineto
88.81538 -16.16164 lineto
89.24034 -15.72775 lineto
89.6653 -15.28995 lineto
90.09027 -14.8482 lineto
90.51523 -14.40253 lineto
90.9402 -13.95291 lineto
91.36516 -13.49905 lineto
91.79012 -13.04158 lineto
92.21509 -12.57985 lineto
92.64005 -12.11449 lineto
93.065 -11.64488 lineto
93.48997 -11.17136 lineto
93.91493 -10.69388 lineto
94.3399 -10.21248 lineto
94.76486 -9.72714 lineto
95.18982 -9.23785 lineto
95.61479 -8.74464 lineto
96.03975 -8.2475 lineto
96.46472 -7.74611 lineto
96.88968 -7.24107 lineto
97.31464 -6.73181 lineto
97.73961 -6.21863 lineto
98.16457 -5.70149 lineto
98.58954 -5.18042 lineto
99.0145 -4.65541 lineto
99.43945 -4.12646 lineto
99.86443 -3.5936 lineto
100.28938 -3.05678 lineto
100.71436 -2.51573 lineto
101.13931 -1.97104 lineto
101.56427 -1.42212 lineto
101.98924 -0.86955 lineto
102.4142 -0.31276 lineto
102.83917 0.24797 lineto
103.26413 0.81264 lineto
103.68909 1.38124 lineto
104.11406 1.95378 lineto
104.53902 2.53026 lineto
104.96397 3.11098 lineto
105.38895 3.69533 lineto
105.8139 4.2839 lineto
106.23888 4.87613 lineto
106.66383 5.4726 lineto
107.08879 6.07298 lineto
107.51376 6.67702 lineto
107.93872 7.28528 lineto
108.3637 7.89749 lineto
108.78865 8.51393 lineto
109.21361 9.134 lineto
109.63858 9.75801 lineto
110.06354 10.38626 lineto
110.48851 11.01816 lineto
110.91347 11.65428 lineto
111.33842 12.29433 lineto
111.7634 12.93802 lineto
112.18835 13.58595 lineto
112.61333 14.23782 lineto
113.03828 14.89363 lineto
113.46324 15.55336 lineto
113.88821 16.21735 lineto
114.31317 16.88495 lineto
114.73814 17.55681 lineto
115.1631 18.23228 lineto
115.58806 18.912 lineto
116.01303 19.59537 lineto
116.43799 20.28296 lineto
116.86295 20.97449 lineto
117.28792 21.66995 lineto
117.71288 22.36935 lineto
118.13785 23.0727 lineto
118.5628 23.78027 lineto
118.98776 24.49147 lineto
119.41273 25.20692 lineto
119.83769 25.92601 lineto
120.26266 26.64932 lineto
120.68762 27.37659 lineto
121.11258 28.10747 lineto
121.53755 28.8426 lineto
121.96251 29.58167 lineto
122.38748 30.32468 lineto
122.81244 31.07191 lineto
123.2374 31.82278 lineto
123.66237 32.57759 lineto
124.08733 33.33664 lineto
124.5123 34.09932 lineto
124.93726 34.86624 lineto
125.36221 35.6371 lineto
125.78719 36.41188 lineto
126.21214 37.19061 lineto
126.63712 37.97328 lineto
127.06207 38.75987 lineto
127.48703 39.55042 lineto
127.912 40.34518 lineto
128.33696 41.1436 lineto
128.76192 41.94594 lineto
129.18689 42.75252 lineto
129.61185 43.56305 lineto
130.03682 44.3775 lineto
130.46178 45.19559 lineto
130.88673 46.01791 lineto
131.3117 46.84418 lineto
131.73666 47.67468 lineto
132.16164 48.50882 lineto
132.5866 49.34688 lineto
133.01155 50.1892 lineto
133.43652 51.03514 lineto
133.86148 51.88531 lineto
134.28645 52.73944 lineto
134.71141 53.59718 lineto
135.13637 54.45918 lineto
135.56134 55.3251 lineto
135.9863 56.19496 lineto
136.41127 57.06906 lineto
136.83623 57.94681 lineto
137.26118 58.82848 lineto
137.68616 59.71439 lineto
138.11111 60.60393 lineto
138.53609 61.4977 lineto
138.96104 62.39542 lineto
139.386 63.29677 lineto
139.81097 64.20236 lineto
140.23593 65.11188 lineto
140.66089 66.02534 lineto
141.08586 66.94304 lineto
141.51082 67.86438 lineto
141.93579 68.78964 lineto
142.36075 69.71916 lineto
142.7857 70.6523 lineto
143.21068 71.58968 lineto
143.63564 72.53099 lineto
144.06061 73.47624 lineto
144.48557 74.42543 lineto
144.91052 75.37856 lineto
145.3355 76.33562 lineto
145.76045 77.29662 lineto
146.18542 78.26155 lineto
146.61038 79.23071 lineto
147.03534 80.20352 lineto
147.46031 81.18057 lineto
147.88527 82.16154 lineto
148.31024 83.14616 lineto
148.7352 84.13501 lineto
149.16016 85.12779 lineto
149.58513 86.12451 lineto
150.01009 87.12518 lineto
150.43506 88.13008 lineto
150.86002 89.13861 lineto
151.28497 90.15108 lineto
151.70995 91.16779 lineto
152.1349 92.18842 lineto
152.55986 93.21269 lineto
152.98483 94.24121 lineto
153.40979 95.27367 lineto
153.83476 96.31004 lineto
154.25972 97.35037 lineto
154.68468 98.39462 lineto
155.10965 99.44313 lineto
155.5346 100.49525 lineto
155.95958 101.55133 lineto
156.38454 102.61163 lineto
156.8095 103.67587 lineto
157.23447 104.74374 lineto
157.65942 105.81586 lineto
158.0844 106.8919 lineto
158.50935 107.9719 lineto
158.93431 109.05582 lineto
159.35928 110.14368 lineto
159.78424 111.23576 lineto
160.20921 112.3315 lineto
160.63417 113.43117 lineto
161.05913 114.53506 lineto
161.4841 115.64291 lineto
161.90906 116.75438 lineto
162.33403 117.87009 lineto
162.75899 118.98975 lineto
163.18394 120.11333 lineto
163.60892 121.24084 lineto
164.03387 122.3726 lineto
164.45883 123.508 lineto
164.8838 124.64732 lineto
165.30876 125.7909 lineto
165.73373 126.9381 lineto
166.15869 128.08954 lineto
166.58365 129.2449 lineto
167.00862 130.40422 lineto
167.43358 131.56747 lineto
167.85855 132.73465 lineto
168.28351 133.90578 lineto
168.70847 135.08083 lineto
169.13344 136.25983 lineto
169.5584 137.44305 lineto
169.98337 138.62991 lineto stroke
 0 0 1 setrgbcolor 0 0.5 dtransform truncate idtransform setlinewidth pop
 [3 3 ] 0 setdash
newpath -21.25984 99.21211 moveto
212.59842 99.21211 lineto stroke
-8.82475 101.3121 moveto
(A) cmmi10 8.96631 fshow
 0 0 0 setrgbcolor 0.5 0 dtransform exch truncate exch idtransform pop setlinewidth
 [] 0 setdash
newpath 0 -0.99219 moveto
0 0.99219 lineto stroke
newpath 21.25984 -0.99219 moveto
21.25984 0.99219 lineto stroke
newpath 42.51968 -0.99219 moveto
42.51968 0.99219 lineto stroke
newpath 63.77953 -0.99219 moveto
63.77953 0.99219 lineto stroke
newpath 85.03937 -0.99219 moveto
85.03937 0.99219 lineto stroke
newpath 106.29921 -0.99219 moveto
106.29921 0.99219 lineto stroke
newpath 127.55905 -0.99219 moveto
127.55905 0.99219 lineto stroke
newpath 148.8189 -0.99219 moveto
148.8189 0.99219 lineto stroke
newpath 170.07874 -0.99219 moveto
170.07874 0.99219 lineto stroke
newpath 191.33858 -0.99219 moveto
191.33858 0.99219 lineto stroke
 0 0.5 dtransform truncate idtransform setlinewidth pop
newpath -2.12611 -39.68484 moveto
2.12611 -39.68484 lineto stroke
newpath -2.12611 -19.84242 moveto
2.12611 -19.84242 lineto stroke
newpath -2.12611 0 moveto
2.12611 0 lineto stroke
newpath -2.12611 19.84242 moveto
2.12611 19.84242 lineto stroke
newpath -2.12611 39.68484 moveto
2.12611 39.68484 lineto stroke
newpath -2.12611 59.52727 moveto
2.12611 59.52727 lineto stroke
newpath -2.12611 79.36969 moveto
2.12611 79.36969 lineto stroke
newpath -2.12611 99.21211 moveto
2.12611 99.21211 lineto stroke
newpath -2.12611 119.05453 moveto
2.12611 119.05453 lineto stroke
newpath -2.12611 138.89696 moveto
2.12611 138.89696 lineto stroke
newpath -21.25984 0 moveto
212.59842 0 lineto stroke
newpath 208.90277 -1.53082 moveto
212.59842 0 lineto
208.90277 1.53082 lineto
 closepath
gsave fill grestore stroke
 0.5 0 dtransform exch truncate exch idtransform pop setlinewidth
newpath 0 -49.60606 moveto
0 158.73938 lineto stroke
 0 0.5 dtransform truncate idtransform setlinewidth pop
newpath 1.53049 155.04453 moveto
0 158.73938 lineto
-1.53049 155.04453 lineto
 closepath
gsave fill grestore stroke
showpage
%%EOF
