input TEX;

verbatimtex
%&latex
 \documentclass{article}
 \usepackage[latin1]{inputenc}
 \usepackage[frenchb]{babel}
 \usepackage{amsmath}
 \begin{document}
etex

vardef exp(expr x) = (mexp(256)**x) enddef; 

vardef func (expr X) = 
 1/2*(X**2-2*X-1)
enddef;
outputtemplate := "limite_finie_point.mps";
beginfig(1)
  u:=2cm;
  v:=1cm;
  
  path parabole; numeric N;
  fill (-.5u, (func(3)-.2)*v)--(5u, (func(3)-.2)*v)--(5u, (func(3)+.2)*v)--(-.5u, (func(3)+.2)*v)--cycle withcolor (.9,.9,.9);
  % figure  
  parabole=(-0.1u, func (-0.1)*v) for i=-0.09 step .01 until 4: ..(i*u, func (i)*v) endfor;
  draw parabole withcolor red withpen pencircle scaled 1.5bp;

  % droite -eps/eps
  drawoptions(withcolor blue);
  draw (-.5u, (func(3)-.2)*v)--(5u, (func(3)-.2)*v) dashed evenly;
  draw (-.5u, (func(3)+.2)*v)--(5u, (func(3)+.2)*v) dashed evenly;
  label.bot(btex $x_0$ etex scaled .8, (3u,0)); 
  label.llft(btex $\ell-\varepsilon$ etex scaled .8, (0, (func(3)-.2)*v));
  label.ulft(btex $\ell+\varepsilon$ etex scaled .8, (0, (func(3)+.2)*v));  
  drawoptions(withcolor .5red);
  label.bot(btex $x_0$ etex scaled .8, (3u,0)); 
  draw (3u, 0)--(3u,func (3)*v) dashed evenly;
  draw ((3-.1)*u, 0)--((3-.1)*u,(func (3)+.2)*v) dashed evenly;
  draw ((3+.1)*u, 0)--((3+.1)*u,(func (3)+.2)*v) dashed evenly;
  drawarrow (2.75u, -.3v)--(2.9u,-.03v);
  label.bot(btex $x_0-\alpha$ etex scaled .7, (2.75u, -.3v)) ;
  drawarrow (3.25u, -.3v)--(3.1u,-.03v);
  label.bot(btex $x_0+\alpha$ etex scaled .7, (3.25u, -.3v)) ;
  drawoptions();
  for i=0 step .5 until 4.5: draw (i*u,-0.05v)--(i*u,0.05v); endfor;
  for j=-2 step 1 until 3.5: draw (-0.025u,j*v)--(0.025u,j*v); endfor;
  drawarrow (-0.5u,0)--(5u,0);
  drawarrow (0,-2.5v)--(0,4v);

endfig;

end
