input TEX;
input venn.mp;

verbatimtex
%&latex
 \documentclass{article}
 \usepackage[latin1]{inputenc}
 \usepackage[frenchb]{babel}
 \usepackage{amsmath}
 \usepackage{amssymb}
 \begin{document}
etex


outputtemplate := "complementaire.mps";
beginfig(1);
  % Dessine le diagramme de Venn
  draw_venn_one(true,false);
  % La fleche permettant d'indiquer l'objet
  pair A, E;
  A:=(0.5venn_circle_left_shift,0.5venn_circle_bottom_shift); 
  E:=(0.3venn_circle_left_shift,2venn_circle_top_shift);
  label.bot(btex \tiny $\overline{A}=\complement_{\textsc{\tiny E}} A$ etex, A);
  label.top(btex \tiny $E$ etex,E);
  % Label les éléments
  picture pa, pb;
  pa = thelabel(btex \tiny $A$ etex,   (.9venn_circle_left_shift,1.15venn_circle_top_shift));
%  unfill bbox pa;
  draw pa;
%  unfill bbox pb;
%  draw pb;
endfig;

end;
